<?xml version="1.0" encoding="UTF-8" standalone="no"?><svg xmlns="http://www.w3.org/2000/svg" xmlns:xlink="http://www.w3.org/1999/xlink" contentStyleType="text/css" height="771.3px" preserveAspectRatio="none" style="width:1128px;height:771px;background:#FFFFFF;" version="1.1" viewBox="0 0 1128 771" width="1128.6px" zoomAndPan="magnify"><defs/><g><rect height="47.4891" style="stroke:#00000000;stroke-width:0.9;fill:none;" width="447.3" x="334.35" y="4.5"/><text fill="#000000" font-family="sans-serif" font-size="18" font-weight="bold" lengthAdjust="spacing" textLength="438.3" x="338.85" y="27.6855">UML Diagram: Class ClassificationSeries in Context</text><text fill="#000000" font-family="sans-serif" font-size="12.6" font-weight="bold" lengthAdjust="spacing" textLength="3.6" x="556.2" y="44.7205"> </text><rect fill="#FFFFFF" height="44.7609" rx="6.75" ry="6.75" style="stroke:#000000;stroke-width:0.9;" width="276.3" x="7.2" y="64.5891"/><text fill="#000000" font-family="sans-serif" font-size="9" font-weight="bold" lengthAdjust="spacing" textLength="22.5" x="12.6" y="79.3318">Hints</text><text fill="#808080" font-family="sans-serif" font-size="9" lengthAdjust="spacing" textLength="265.5" x="12.6" y="90.6521">- Move the mouse cursor over a name to see more information.</text><text fill="#808080" font-family="sans-serif" font-size="9" lengthAdjust="spacing" textLength="216" x="12.6" y="101.9725">- Click on a name to go to the corresponding page.</text><!--MD5=[24a257863b398b5270390d96fe65d257]
class DDICDIModels::DDICDILibrary::Classes::Conceptual::Concept--><a href="../DDICDILibrary/Classes/Conceptual/Concept.html#super-class-hierarchy-generalization" target="_top" title=" ― Concept:&#10;Unit of thought differentiated by characteristics (from the Generic Statistical Information Model version 1.2: https://statswiki.unece.org/display/clickablegsim/Concept)." xlink:actuate="onRequest" xlink:href="../DDICDILibrary/Classes/Conceptual/Concept.html#super-class-hierarchy-generalization" xlink:show="new" xlink:title=" ― Concept:&#10;Unit of thought differentiated by characteristics (from the Generic Statistical Information Model version 1.2: https://statswiki.unece.org/display/clickablegsim/Concept)." xlink:type="simple"><g id="elem_DDICDIModels::DDICDILibrary::Classes::Conceptual::Concept"><rect codeLine="69" fill="#F1F1F1" height="36.1688" id="DDICDIModels::DDICDILibrary::Classes::Conceptual::Concept" rx="2.25" ry="2.25" style="stroke:#404040;stroke-width:0.45;" width="135" x="6.3" y="421.2"/><text fill="#000000" font-family="sans-serif" font-size="9" lengthAdjust="spacing" textLength="54.9" x="46.35" y="435.0428">Conceptual::</text><text fill="#0000FF" font-family="sans-serif" font-size="12.6" lengthAdjust="spacing" textLength="47.7" x="49.95" y="450.1002">Concept</text></g></a><!--MD5=[763cc00662a209634f139486137f4c03]
class DDICDIModels::DDICDILibrary::Classes::Representations::ClassificationSeriesStructure--><a href="../DDICDILibrary/Classes/Representations/ClassificationSeriesStructure.html#super-class-hierarchy-generalization" target="_top" title=" ― ClassificationSeriesStructure:&#10;Structure for describing the complex relationships between statistical classifications in a classification series." xlink:actuate="onRequest" xlink:href="../DDICDILibrary/Classes/Representations/ClassificationSeriesStructure.html#super-class-hierarchy-generalization" xlink:show="new" xlink:title=" ― ClassificationSeriesStructure:&#10;Structure for describing the complex relationships between statistical classifications in a classification series." xlink:type="simple"><g id="elem_DDICDIModels::DDICDILibrary::Classes::Representations::ClassificationSeriesStructure"><rect codeLine="70" fill="#F1F1F1" height="36.1688" id="DDICDIModels::DDICDILibrary::Classes::Representations::ClassificationSeriesStructure" rx="2.25" ry="2.25" style="stroke:#404040;stroke-width:0.45;" width="168.3" x="173.25" y="421.2"/><text fill="#000000" font-family="sans-serif" font-size="9" lengthAdjust="spacing" textLength="72.9" x="220.95" y="435.0428">Representations::</text><text fill="#0000FF" font-family="sans-serif" font-size="12.6" lengthAdjust="spacing" textLength="162.9" x="175.95" y="450.1002">ClassificationSeriesStructure</text></g></a><!--MD5=[f3615c1ebe64c201d1b666e7dcd79c89]
class DDICDIModels::DDICDILibrary::Classes::Agents::Agent--><a href="../DDICDILibrary/Classes/Agents/Agent.html#super-class-hierarchy-generalization" target="_top" title=" ― Agent:&#10;Actor that performs a role in relation to a process or product." xlink:actuate="onRequest" xlink:href="../DDICDILibrary/Classes/Agents/Agent.html#super-class-hierarchy-generalization" xlink:show="new" xlink:title=" ― Agent:&#10;Actor that performs a role in relation to a process or product." xlink:type="simple"><g id="elem_DDICDIModels::DDICDILibrary::Classes::Agents::Agent"><rect codeLine="71" fill="#F1F1F1" height="36.1688" id="DDICDIModels::DDICDILibrary::Classes::Agents::Agent" rx="2.25" ry="2.25" style="stroke:#404040;stroke-width:0.45;" width="135" x="373.5" y="421.2"/><text fill="#000000" font-family="sans-serif" font-size="9" lengthAdjust="spacing" textLength="34.2" x="423.9" y="435.0428">Agents::</text><text fill="#0000FF" font-family="sans-serif" font-size="12.6" lengthAdjust="spacing" textLength="33.3" x="424.35" y="450.1002">Agent</text></g></a><!--MD5=[1d83e88dbbdb96075cf050a5702520b3]
class DDICDIModels::DDICDILibrary::Classes::Representations::StatisticalClassification--><a href="../DDICDILibrary/Classes/Representations/StatisticalClassification.html#super-class-hierarchy-generalization" target="_top" title=" ― StatisticalClassification:&#10;Set of categories represented by classification items where the subset of immediate children categories for any given parent category are mutually exclusive and jointly exhaustive with respect to that parent." xlink:actuate="onRequest" xlink:href="../DDICDILibrary/Classes/Representations/StatisticalClassification.html#super-class-hierarchy-generalization" xlink:show="new" xlink:title=" ― StatisticalClassification:&#10;Set of categories represented by classification items where the subset of immediate children categories for any given parent category are mutually exclusive and jointly exhaustive with respect to that parent." xlink:type="simple"><g id="elem_DDICDIModels::DDICDILibrary::Classes::Representations::StatisticalClassification"><rect codeLine="72" fill="#F1F1F1" height="36.1688" id="DDICDIModels::DDICDILibrary::Classes::Representations::StatisticalClassification" rx="2.25" ry="2.25" style="stroke:#404040;stroke-width:0.45;" width="135" x="540" y="421.2"/><text fill="#000000" font-family="sans-serif" font-size="9" lengthAdjust="spacing" textLength="72.9" x="571.05" y="435.0428">Representations::</text><text fill="#0000FF" font-family="sans-serif" font-size="12.6" lengthAdjust="spacing" textLength="128.7" x="543.15" y="450.1002">StatisticalClassification</text></g></a><!--MD5=[2e0e69502bb67ecc0266f8464f7fab86]
class DDICDIModels::DDICDILibrary::Classes::Representations::ClassificationFamily--><a href="../DDICDILibrary/Classes/Representations/ClassificationFamily.html#super-class-hierarchy-generalization" target="_top" title=" ― ClassificationFamily:&#10;Collection of classification series related by being based on a common concept" xlink:actuate="onRequest" xlink:href="../DDICDILibrary/Classes/Representations/ClassificationFamily.html#super-class-hierarchy-generalization" xlink:show="new" xlink:title=" ― ClassificationFamily:&#10;Collection of classification series related by being based on a common concept" xlink:type="simple"><g id="elem_DDICDIModels::DDICDILibrary::Classes::Representations::ClassificationFamily"><rect codeLine="73" fill="#F1F1F1" height="36.1688" id="DDICDIModels::DDICDILibrary::Classes::Representations::ClassificationFamily" rx="2.25" ry="2.25" style="stroke:#404040;stroke-width:0.45;" width="135" x="706.5" y="421.2"/><text fill="#000000" font-family="sans-serif" font-size="9" lengthAdjust="spacing" textLength="72.9" x="737.55" y="435.0428">Representations::</text><text fill="#0000FF" font-family="sans-serif" font-size="12.6" lengthAdjust="spacing" textLength="111.6" x="718.2" y="450.1002">ClassificationFamily</text></g></a><!--MD5=[6eab166d85def5054ed95f569f818efc]
class DDICDIModels::DDICDILibrary::Classes::Representations::ClassificationPosition--><a href="../DDICDILibrary/Classes/Representations/ClassificationPosition.html#super-class-hierarchy-generalization" target="_top" title=" ― ClassificationPosition:&#10;The index of a classification within a classification family expressed as an integer, progressing upward from 0 or 1." xlink:actuate="onRequest" xlink:href="../DDICDILibrary/Classes/Representations/ClassificationPosition.html#super-class-hierarchy-generalization" xlink:show="new" xlink:title=" ― ClassificationPosition:&#10;The index of a classification within a classification family expressed as an integer, progressing upward from 0 or 1." xlink:type="simple"><g id="elem_DDICDIModels::DDICDILibrary::Classes::Representations::ClassificationPosition"><rect codeLine="74" fill="#F1F1F1" height="36.1688" id="DDICDIModels::DDICDILibrary::Classes::Representations::ClassificationPosition" rx="2.25" ry="2.25" style="stroke:#404040;stroke-width:0.45;" width="135" x="873" y="421.2"/><text fill="#000000" font-family="sans-serif" font-size="9" lengthAdjust="spacing" textLength="72.9" x="904.05" y="435.0428">Representations::</text><text fill="#0000FF" font-family="sans-serif" font-size="12.6" lengthAdjust="spacing" textLength="119.7" x="880.65" y="450.1002">ClassificationPosition</text></g></a><!--MD5=[f279ca57d6a77c75340ff35451c2ec4f]
class DDICDIModels::DesignPatterns::CollectionsPattern::List--><a href="../DesignPatterns/CollectionsPattern/List.html#super-class-hierarchy-generalization" target="_top" title=" ― List:&#10;Simple ordered Collection defined as a list of Members where the location of each Member in the list is given by the associated Position class." xlink:actuate="onRequest" xlink:href="../DesignPatterns/CollectionsPattern/List.html#super-class-hierarchy-generalization" xlink:show="new" xlink:title=" ― List:&#10;Simple ordered Collection defined as a list of Members where the location of each Member in the list is given by the associated Position class." xlink:type="simple"><g id="elem_DDICDIModels::DesignPatterns::CollectionsPattern::List"><rect codeLine="79" fill="#F1F1F1" height="36.1688" id="DDICDIModels::DesignPatterns::CollectionsPattern::List" rx="2.25" ry="2.25" style="stroke:#404040;stroke-width:0.45;" width="135" x="988.2" y="690.3"/><text fill="#000000" font-family="sans-serif" font-size="9" font-style="italic" lengthAdjust="spacing" textLength="83.7" x="1013.85" y="704.1428">CollectionsPattern::</text><text fill="#0000FF" font-family="sans-serif" font-size="12.6" font-style="italic" lengthAdjust="spacing" textLength="19.8" x="1045.8" y="719.2002">List</text></g></a><!--MD5=[cc04dd1da48773e6fc5a6fe8fa5533a2]
class DDICDIModels::DDICDILibrary::Classes::Representations::ClassificationSeries--><g id="elem_DDICDIModels::DDICDILibrary::Classes::Representations::ClassificationSeries"><rect codeLine="46" fill="#FFD700" height="186.0047" id="DDICDIModels::DDICDILibrary::Classes::Representations::ClassificationSeries" rx="2.25" ry="2.25" style="stroke:#404040;stroke-width:0.45;" width="311.4" x="451.8" y="123.75"/><text fill="#000000" font-family="sans-serif" font-size="9" lengthAdjust="spacing" textLength="72.9" x="571.05" y="137.5928">Representations::</text><text fill="#000000" font-family="sans-serif" font-size="12.6" lengthAdjust="spacing" textLength="110.7" x="552.15" y="152.6502">ClassificationSeries</text><line style="stroke:#404040;stroke-width:0.45;" x1="452.7" x2="762.3" y1="159.9188" y2="159.9188"/><text fill="#000000" font-family="sans-serif" font-size="12.6" lengthAdjust="spacing" textLength="151.2" x="457.2" y="176.5986">allowsDuplicates : Boolean</text><a href="../DDICDILibrary/DataTypes/StructuredDataTypes/CatalogDetails.html#diagram" target="_top" title=" ― CatalogDetails:&#10;A set of information useful for attribution, data discovery, and access." xlink:actuate="onRequest" xlink:href="../DDICDILibrary/DataTypes/StructuredDataTypes/CatalogDetails.html#diagram" xlink:show="new" xlink:title=" ― CatalogDetails:&#10;A set of information useful for attribution, data discovery, and access." xlink:type="simple"><text fill="#000000" font-family="sans-serif" font-size="12.6" lengthAdjust="spacing" textLength="87.3" x="457.2" y="192.4471">catalogDetails :</text><text fill="#0000FF" font-family="sans-serif" font-size="12.6" lengthAdjust="spacing" textLength="82.8" x="548.1" y="192.4471">CatalogDetails</text></a><a href="../DDICDILibrary/DataTypes/StructuredDataTypes/ControlledVocabularyEntry.html#diagram" target="_top" title=" ― ControlledVocabularyEntry:&#10;Allows for unstructured content which may be an entry from an externally maintained controlled vocabulary.If the content is from a controlled vocabulary provide the code value of the entry, as well as a reference to the controlled vocabulary from which the value is taken. Provide as many of the iden ..." xlink:actuate="onRequest" xlink:href="../DDICDILibrary/DataTypes/StructuredDataTypes/ControlledVocabularyEntry.html#diagram" xlink:show="new" xlink:title=" ― ControlledVocabularyEntry:&#10;Allows for unstructured content which may be an entry from an externally maintained controlled vocabulary.If the content is from a controlled vocabulary provide the code value of the entry, as well as a reference to the controlled vocabulary from which the value is taken. Provide as many of the iden ..." xlink:type="simple"><text fill="#000000" font-family="sans-serif" font-size="12.6" lengthAdjust="spacing" textLength="47.7" x="457.2" y="208.2955">context :</text><text fill="#0000FF" font-family="sans-serif" font-size="12.6" lengthAdjust="spacing" textLength="152.1" x="508.5" y="208.2955">ControlledVocabularyEntry</text></a><a href="../DDICDILibrary/DataTypes/StructuredDataTypes/Identifier.html#diagram" target="_top" title=" ― Identifier:&#10;Identifier for objects requiring short- or long-lasting referencing and management." xlink:actuate="onRequest" xlink:href="../DDICDILibrary/DataTypes/StructuredDataTypes/Identifier.html#diagram" xlink:show="new" xlink:title=" ― Identifier:&#10;Identifier for objects requiring short- or long-lasting referencing and management." xlink:type="simple"><text fill="#000000" font-family="sans-serif" font-size="12.6" lengthAdjust="spacing" textLength="55.8" x="457.2" y="224.1439">identifier :</text><text fill="#0000FF" font-family="sans-serif" font-size="12.6" lengthAdjust="spacing" textLength="48.6" x="516.6" y="224.1439">Identifier</text></a><a href="../DDICDILibrary/DataTypes/StructuredDataTypes/ControlledVocabularyEntry.html#diagram" target="_top" title=" ― ControlledVocabularyEntry:&#10;Allows for unstructured content which may be an entry from an externally maintained controlled vocabulary.If the content is from a controlled vocabulary provide the code value of the entry, as well as a reference to the controlled vocabulary from which the value is taken. Provide as many of the iden ..." xlink:actuate="onRequest" xlink:href="../DDICDILibrary/DataTypes/StructuredDataTypes/ControlledVocabularyEntry.html#diagram" xlink:show="new" xlink:title=" ― ControlledVocabularyEntry:&#10;Allows for unstructured content which may be an entry from an externally maintained controlled vocabulary.If the content is from a controlled vocabulary provide the code value of the entry, as well as a reference to the controlled vocabulary from which the value is taken. Provide as many of the iden ..." xlink:type="simple"><text fill="#000000" font-family="sans-serif" font-size="12.6" lengthAdjust="spacing" textLength="54" x="457.2" y="239.9924">keyword :</text><text fill="#0000FF" font-family="sans-serif" font-size="12.6" lengthAdjust="spacing" textLength="152.1" x="514.8" y="239.9924">ControlledVocabularyEntry</text></a><a href="../DDICDILibrary/DataTypes/StructuredDataTypes/ObjectName.html#diagram" target="_top" title=" ― ObjectName:&#10;A standard means of expressing a name for a class object. A linguistic signifier. Human understandable name (word, phrase, or mnemonic) that reflects the ISO/IEC 11179-5 naming principles." xlink:actuate="onRequest" xlink:href="../DDICDILibrary/DataTypes/StructuredDataTypes/ObjectName.html#diagram" xlink:show="new" xlink:title=" ― ObjectName:&#10;A standard means of expressing a name for a class object. A linguistic signifier. Human understandable name (word, phrase, or mnemonic) that reflects the ISO/IEC 11179-5 naming principles." xlink:type="simple"><text fill="#000000" font-family="sans-serif" font-size="12.6" lengthAdjust="spacing" textLength="38.7" x="457.2" y="255.8408">name :</text><text fill="#0000FF" font-family="sans-serif" font-size="12.6" lengthAdjust="spacing" textLength="69.3" x="499.5" y="255.8408">ObjectName</text></a><a href="../DDICDILibrary/DataTypes/StructuredDataTypes/ControlledVocabularyEntry.html#diagram" target="_top" title=" ― ControlledVocabularyEntry:&#10;Allows for unstructured content which may be an entry from an externally maintained controlled vocabulary.If the content is from a controlled vocabulary provide the code value of the entry, as well as a reference to the controlled vocabulary from which the value is taken. Provide as many of the iden ..." xlink:actuate="onRequest" xlink:href="../DDICDILibrary/DataTypes/StructuredDataTypes/ControlledVocabularyEntry.html#diagram" xlink:show="new" xlink:title=" ― ControlledVocabularyEntry:&#10;Allows for unstructured content which may be an entry from an externally maintained controlled vocabulary.If the content is from a controlled vocabulary provide the code value of the entry, as well as a reference to the controlled vocabulary from which the value is taken. Provide as many of the iden ..." xlink:type="simple"><text fill="#000000" font-family="sans-serif" font-size="12.6" lengthAdjust="spacing" textLength="144.9" x="457.2" y="271.6893">objectsOrUnitsClassified :</text><text fill="#0000FF" font-family="sans-serif" font-size="12.6" lengthAdjust="spacing" textLength="152.1" x="605.7" y="271.6893">ControlledVocabularyEntry</text></a><a href="../DDICDILibrary/DataTypes/StructuredDataTypes/InternationalString.html#diagram" target="_top" title=" ― InternationalString:&#10;Packaging structure for multiple language versions of the same string content. Where an element of this type is repeatable, the expectation is that each repetition contains different content, each of which can be expressed in multiple languages. The language designation goes on the individual String ..." xlink:actuate="onRequest" xlink:href="../DDICDILibrary/DataTypes/StructuredDataTypes/InternationalString.html#diagram" xlink:show="new" xlink:title=" ― InternationalString:&#10;Packaging structure for multiple language versions of the same string content. Where an element of this type is repeatable, the expectation is that each repetition contains different content, each of which can be expressed in multiple languages. The language designation goes on the individual String ..." xlink:type="simple"><text fill="#000000" font-family="sans-serif" font-size="12.6" lengthAdjust="spacing" textLength="54" x="457.2" y="287.5377">purpose :</text><text fill="#0000FF" font-family="sans-serif" font-size="12.6" lengthAdjust="spacing" textLength="103.5" x="514.8" y="287.5377">InternationalString</text></a><a href="../DDICDILibrary/DataTypes/StructuredDataTypes/ControlledVocabularyEntry.html#diagram" target="_top" title=" ― ControlledVocabularyEntry:&#10;Allows for unstructured content which may be an entry from an externally maintained controlled vocabulary.If the content is from a controlled vocabulary provide the code value of the entry, as well as a reference to the controlled vocabulary from which the value is taken. Provide as many of the iden ..." xlink:actuate="onRequest" xlink:href="../DDICDILibrary/DataTypes/StructuredDataTypes/ControlledVocabularyEntry.html#diagram" xlink:show="new" xlink:title=" ― ControlledVocabularyEntry:&#10;Allows for unstructured content which may be an entry from an externally maintained controlled vocabulary.If the content is from a controlled vocabulary provide the code value of the entry, as well as a reference to the controlled vocabulary from which the value is taken. Provide as many of the iden ..." xlink:type="simple"><text fill="#000000" font-family="sans-serif" font-size="12.6" lengthAdjust="spacing" textLength="47.7" x="457.2" y="303.3861">subject :</text><text fill="#0000FF" font-family="sans-serif" font-size="12.6" lengthAdjust="spacing" textLength="152.1" x="508.5" y="303.3861">ControlledVocabularyEntry</text></a></g><!--MD5=[0aba059425d36d59994c012e1e365537]
link DDICDIModels::DDICDILibrary::Classes::Representations::ClassificationSeries to DDICDIModels::DDICDILibrary::Classes::Agents::Agent--><g id="link_DDICDIModels::DDICDILibrary::Classes::Representations::ClassificationSeries_DDICDIModels::DDICDILibrary::Classes::Agents::Agent"><a href="" target="_top" title=" ― isOwnedBy:&#10;The statistical office or other authority, which created and maintains the statistical classification(s) related to the classification series. A classification series may have several owners." xlink:actuate="onRequest" xlink:href="" xlink:show="new" xlink:title=" ― isOwnedBy:&#10;The statistical office or other authority, which created and maintains the statistical classification(s) related to the classification series. A classification series may have several owners." xlink:type="simple"><path codeLine="87" d="M537.615,310.356 C507.708,349.956 475.443,392.688 456.795,417.384 " fill="none" id="DDICDIModels::DDICDILibrary::Classes::Representations::ClassificationSeries-to-DDICDIModels::DDICDILibrary::Classes::Agents::Agent" style="stroke:#808080;stroke-width:1.35;"/><polygon fill="#808080" points="453.924,421.191,461.6738,416.8887,456.6322,417.5972,455.9237,412.5555,453.924,421.191" style="stroke:#808080;stroke-width:1.35;"/><text fill="#000000" font-family="sans-serif" font-size="11.7" lengthAdjust="spacing" textLength="59.4" x="495" y="377.5456">isOwnedBy</text></a></g><!--MD5=[8d1709ad57ed22323d2536b0576a41a3]
link DDICDIModels::DDICDILibrary::Classes::Representations::ClassificationSeries to DDICDIModels::DDICDILibrary::Classes::Conceptual::Concept--><g id="link_DDICDIModels::DDICDILibrary::Classes::Representations::ClassificationSeries_DDICDIModels::DDICDILibrary::Classes::Conceptual::Concept"><a href="" target="_top" title=" ― isDefinedBy:&#10;The conceptual basis for the collection of members." xlink:actuate="onRequest" xlink:href="" xlink:show="new" xlink:title=" ― isDefinedBy:&#10;The conceptual basis for the collection of members." xlink:type="simple"><path codeLine="88" d="M451.566,278.613 C364.59,313.083 254.547,357.597 157.5,399.6 C143.253,405.774 127.791,412.821 114.075,419.193 " fill="none" id="DDICDIModels::DDICDILibrary::Classes::Representations::ClassificationSeries-to-DDICDIModels::DDICDILibrary::Classes::Conceptual::Concept" style="stroke:#808080;stroke-width:1.35;"/><polygon fill="#808080" points="109.881,421.146,118.7434,420.9814,113.9585,419.2423,115.6975,414.4574,109.881,421.146" style="stroke:#808080;stroke-width:1.35;"/><text fill="#000000" font-family="sans-serif" font-size="11.7" lengthAdjust="spacing" textLength="62.1" x="231.3" y="377.5456">isDefinedBy</text></a></g><!--MD5=[3ddf0fab05cd869934d8e680eeaabf19]
reverse link DDICDIModels::DDICDILibrary::Classes::Representations::ClassificationSeries to DDICDIModels::DDICDILibrary::Classes::Representations::ClassificationFamily--><g id="link_DDICDIModels::DDICDILibrary::Classes::Representations::ClassificationSeries_DDICDIModels::DDICDILibrary::Classes::Representations::ClassificationFamily"><a href="" target="_top" title=" ― groups:&#10;" xlink:actuate="onRequest" xlink:href="" xlink:show="new" xlink:title=" ― groups:&#10;" xlink:type="simple"><path codeLine="89" d="M680.166,314.028 C710.874,354.708 743.544,397.971 761.076,421.191 " fill="none" id="DDICDIModels::DDICDILibrary::Classes::Representations::ClassificationSeries-backto-DDICDIModels::DDICDILibrary::Classes::Representations::ClassificationFamily" style="stroke:#808080;stroke-width:1.35;"/><polygon fill="#808080" points="677.385,310.356,679.3996,318.988,680.0994,313.9452,685.1422,314.645,677.385,310.356" style="stroke:#808080;stroke-width:1.35;"/><text fill="#000000" font-family="sans-serif" font-size="11.7" lengthAdjust="spacing" textLength="35.1" x="729.9" y="377.5456">groups</text></a></g><!--MD5=[0b0a3fa40e689c790d68904120c9a985]
link DDICDIModels::DDICDILibrary::Classes::Representations::ClassificationSeries to DDICDIModels::DDICDILibrary::Classes::Representations::ClassificationPosition--><g id="link_DDICDIModels::DDICDILibrary::Classes::Representations::ClassificationSeries_DDICDIModels::DDICDILibrary::Classes::Representations::ClassificationPosition"><a href="" target="_top" title=" ― has:&#10;" xlink:actuate="onRequest" xlink:href="" xlink:show="new" xlink:title=" ― has:&#10;" xlink:type="simple"><path codeLine="90" d="M756.0349,316.1656 C756.0349,316.1656 869.022,390.969 904.698,414.594 " fill="none" id="DDICDIModels::DDICDILibrary::Classes::Representations::ClassificationSeries-DDICDIModels::DDICDILibrary::Classes::Representations::ClassificationPosition" style="stroke:#808080;stroke-width:1.35;"/><polygon fill="#808080" points="914.616,421.164,909.8573,413.6857,910.8665,418.6758,905.8763,419.685,914.616,421.164" style="stroke:#808080;stroke-width:1.35;"/><line style="stroke:#808080;stroke-width:1.35;" x1="910.8665" x2="904.8555" y1="418.6758" y2="414.702"/><polygon fill="#808080" points="747.036,310.194,749.5449,316.1794,756.0349,316.1656,753.526,310.1801,747.036,310.194" style="stroke:#808080;stroke-width:1.35;"/><text fill="#000000" font-family="sans-serif" font-size="11.7" lengthAdjust="spacing" textLength="18.9" x="851.4" y="377.5456">has</text></a></g><!--MD5=[22fcb249b2c45e37c8d357d21692ef96]
link DDICDIModels::DDICDILibrary::Classes::Representations::ClassificationSeries to DDICDIModels::DDICDILibrary::Classes::Representations::StatisticalClassification--><g id="link_DDICDIModels::DDICDILibrary::Classes::Representations::ClassificationSeries_DDICDIModels::DDICDILibrary::Classes::Representations::StatisticalClassification"><a href="" target="_top" title=" ― has:&#10;" xlink:actuate="onRequest" xlink:href="" xlink:show="new" xlink:title=" ― has:&#10;" xlink:type="simple"><path codeLine="91" d="M607.5,321.156 C607.5,321.156 607.5,386.694 607.5,409.194 " fill="none" id="DDICDIModels::DDICDILibrary::Classes::Representations::ClassificationSeries-DDICDIModels::DDICDILibrary::Classes::Representations::StatisticalClassification" style="stroke:#808080;stroke-width:1.35;"/><polygon fill="#808080" points="607.5,421.191,611.1,413.091,607.5,416.691,603.9,413.091,607.5,421.191" style="stroke:#808080;stroke-width:1.35;"/><line style="stroke:#808080;stroke-width:1.35;" x1="607.5" x2="607.5" y1="416.691" y2="409.491"/><polygon fill="none" points="607.5,310.356,603.9,315.756,607.5,321.156,611.1,315.756,607.5,310.356" style="stroke:#808080;stroke-width:1.35;"/><text fill="#000000" font-family="sans-serif" font-size="11.7" lengthAdjust="spacing" textLength="18.9" x="608.4" y="377.5456">has</text></a></g><!--MD5=[5df9b96aea2db8fafb01933c23bc7c92]
reverse link DDICDIModels::DDICDILibrary::Classes::Representations::ClassificationSeries to DDICDIModels::DDICDILibrary::Classes::Representations::ClassificationSeriesStructure--><g id="link_DDICDIModels::DDICDILibrary::Classes::Representations::ClassificationSeries_DDICDIModels::DDICDILibrary::Classes::Representations::ClassificationSeriesStructure"><a href="" target="_top" title=" ― structures:&#10;" xlink:actuate="onRequest" xlink:href="" xlink:show="new" xlink:title=" ― structures:&#10;" xlink:type="simple"><path codeLine="92" d="M456.912,312.651 C391.716,353.709 321.912,397.674 284.616,421.164 " fill="none" id="DDICDIModels::DDICDILibrary::Classes::Representations::ClassificationSeries-backto-DDICDIModels::DDICDILibrary::Classes::Representations::ClassificationSeriesStructure" style="stroke:#808080;stroke-width:1.35;"/><polygon fill="#808080" points="460.8,310.194,452.0263,311.4555,456.9898,312.5882,455.857,317.5518,460.8,310.194" style="stroke:#808080;stroke-width:1.35;"/><text fill="#000000" font-family="sans-serif" font-size="11.7" lengthAdjust="spacing" textLength="52.2" x="370.8" y="377.5456">structures</text></a></g><!--MD5=[b1c4045f67a6e41a8109270e8458c1cb]
link DDICDIModels::DDICDILibrary::Classes::Representations::ClassificationSeries to DDICDIModels::DesignPatterns::CollectionsPattern::List--><g id="link_DDICDIModels::DDICDILibrary::Classes::Representations::ClassificationSeries_DDICDIModels::DesignPatterns::CollectionsPattern::List"><path codeLine="96" d="M763.317,231.165 C892.719,251.829 1055.7,304.434 1055.7,438.3 C1055.7,438.3 1055.7,438.3 1055.7,616.95 C1055.7,640.305 1055.7,667.053 1055.7,685.368 " fill="none" id="DDICDIModels::DDICDILibrary::Classes::Representations::ClassificationSeries-to-DDICDIModels::DesignPatterns::CollectionsPattern::List" style="stroke:#404040;stroke-width:1.35;stroke-dasharray:7.0,7.0;"/><polygon fill="#404040" points="1055.7,690.066,1059.3,681.966,1055.7,685.566,1052.1,681.966,1055.7,690.066" style="stroke:#404040;stroke-width:1.35;"/><text fill="#000000" font-family="sans-serif" font-size="11.7" lengthAdjust="spacing" textLength="45" x="1056.6" y="544.9456">«Refine»</text></g><rect height="33.9609" style="stroke:#00000000;stroke-width:0.9;fill:none;" width="351" x="382.5" y="730.9688"/><text fill="#888888" font-family="sans-serif" font-size="9" lengthAdjust="spacing" textLength="2.7" x="556.65" y="740.3115"> </text><text fill="#888888" font-family="sans-serif" font-size="9" lengthAdjust="spacing" textLength="2.7" x="556.65" y="751.6318"> </text><text fill="#888888" font-family="sans-serif" font-size="9" lengthAdjust="spacing" textLength="351" x="382.5" y="762.9521">DDI Cross Domain Integration (DDI-CDI)   1.0 - Representations::ClassificationSeries</text><!--MD5=[8e367f7902ec31d7ce03761b0c855a7e]
@startuml
!pragma ratio 0.5625
' HD display aspect ratio 16:9
' hyperlinkColor and pathHoverColor do not seem to work with class diagrams
' working approach: colors per item
' default font size for class names is 14

hide circle
hide empty members
scale 0.9

skinparam {
  ArrowThickness 1.5
  MinClassWidth 150
}

skinparam legend {
  BackgroundColor white
  FontSize 10
}

skinparam note {
  BackgroundColor white
}

skinparam class {
  ArrowColor #404040
  BorderColor #404040
}

skinparam package {
  FontColor lightgrey
  BorderColor lightgrey
}

title <size:20>UML Diagram: Class ClassificationSeries in Context\n
footer \n\nDDI Cross Domain Integration (DDI-CDI)   1.0 - Representations::ClassificationSeries

legend top left
**Hints**
<color:grey>- Move the mouse cursor over a name to see more information.
<color:grey>- Click on a name to go to the corresponding page.
endlegend

' Core class of diagram
class DDICDIModels::DDICDILibrary::Classes::Representations::ClassificationSeries as "<size:10>Representations::\n<color:black>ClassificationSeries" #FFD700 {
  allowsDuplicates : Boolean
  catalogDetails : <color:blue>CatalogDetails   	  [[[../DDICDILibrary/DataTypes/StructuredDataTypes/CatalogDetails.html#diagram{ <U+2015> CatalogDetails:\nA set of information useful for attribution, data discovery, and access.}]]]
  context : <color:blue>ControlledVocabularyEntry   	  [[[../DDICDILibrary/DataTypes/StructuredDataTypes/ControlledVocabularyEntry.html#diagram{ <U+2015> ControlledVocabularyEntry:\nAllows for unstructured content which may be an entry from an externally maintained controlled vocabulary.If the content is from a controlled vocabulary provide the code value of the entry, as well as a reference to the controlled vocabulary from which the value is taken. Provide as many of the iden ...}]]]
  identifier : <color:blue>Identifier   	  [[[../DDICDILibrary/DataTypes/StructuredDataTypes/Identifier.html#diagram{ <U+2015> Identifier:\nIdentifier for objects requiring short- or long-lasting referencing and management.}]]]
  keyword : <color:blue>ControlledVocabularyEntry   	  [[[../DDICDILibrary/DataTypes/StructuredDataTypes/ControlledVocabularyEntry.html#diagram{ <U+2015> ControlledVocabularyEntry:\nAllows for unstructured content which may be an entry from an externally maintained controlled vocabulary.If the content is from a controlled vocabulary provide the code value of the entry, as well as a reference to the controlled vocabulary from which the value is taken. Provide as many of the iden ...}]]]
  name : <color:blue>ObjectName   	  [[[../DDICDILibrary/DataTypes/StructuredDataTypes/ObjectName.html#diagram{ <U+2015> ObjectName:\nA standard means of expressing a name for a class object. A linguistic signifier. Human understandable name (word, phrase, or mnemonic) that reflects the ISO/IEC 11179-5 naming principles.}]]]
  objectsOrUnitsClassified : <color:blue>ControlledVocabularyEntry   	  [[[../DDICDILibrary/DataTypes/StructuredDataTypes/ControlledVocabularyEntry.html#diagram{ <U+2015> ControlledVocabularyEntry:\nAllows for unstructured content which may be an entry from an externally maintained controlled vocabulary.If the content is from a controlled vocabulary provide the code value of the entry, as well as a reference to the controlled vocabulary from which the value is taken. Provide as many of the iden ...}]]]
  purpose : <color:blue>InternationalString   	  [[[../DDICDILibrary/DataTypes/StructuredDataTypes/InternationalString.html#diagram{ <U+2015> InternationalString:\nPackaging structure for multiple language versions of the same string content. Where an element of this type is repeatable, the expectation is that each repetition contains different content, each of which can be expressed in multiple languages. The language designation goes on the individual String ...}]]]
  subject : <color:blue>ControlledVocabularyEntry   	  [[[../DDICDILibrary/DataTypes/StructuredDataTypes/ControlledVocabularyEntry.html#diagram{ <U+2015> ControlledVocabularyEntry:\nAllows for unstructured content which may be an entry from an externally maintained controlled vocabulary.If the content is from a controlled vocabulary provide the code value of the entry, as well as a reference to the controlled vocabulary from which the value is taken. Provide as many of the iden ...}]]]
}

' Class definitions for associated classes without superclass (might have also an association)
' This would be too many constraints for Graphviz. 
together {
  class DDICDIModels::DDICDILibrary::Classes::Conceptual::Concept as "<size:10>Conceptual::\n<color:blue>Concept" [[../DDICDILibrary/Classes/Conceptual/Concept.html#super-class-hierarchy-generalization{ <U+2015> Concept:\nUnit of thought differentiated by characteristics (from the Generic Statistical Information Model version 1.2: https://statswiki.unece.org/display/clickablegsim/Concept).}]]
  class DDICDIModels::DDICDILibrary::Classes::Representations::ClassificationSeriesStructure as "<size:10>Representations::\n<color:blue>ClassificationSeriesStructure" [[../DDICDILibrary/Classes/Representations/ClassificationSeriesStructure.html#super-class-hierarchy-generalization{ <U+2015> ClassificationSeriesStructure:\nStructure for describing the complex relationships between statistical classifications in a classification series.}]]
  class DDICDIModels::DDICDILibrary::Classes::Agents::Agent as "<size:10>Agents::\n<color:blue>Agent" [[../DDICDILibrary/Classes/Agents/Agent.html#super-class-hierarchy-generalization{ <U+2015> Agent:\nActor that performs a role in relation to a process or product.}]]
  class DDICDIModels::DDICDILibrary::Classes::Representations::StatisticalClassification as "<size:10>Representations::\n<color:blue>StatisticalClassification" [[../DDICDILibrary/Classes/Representations/StatisticalClassification.html#super-class-hierarchy-generalization{ <U+2015> StatisticalClassification:\nSet of categories represented by classification items where the subset of immediate children categories for any given parent category are mutually exclusive and jointly exhaustive with respect to that parent.}]]
  class DDICDIModels::DDICDILibrary::Classes::Representations::ClassificationFamily as "<size:10>Representations::\n<color:blue>ClassificationFamily" [[../DDICDILibrary/Classes/Representations/ClassificationFamily.html#super-class-hierarchy-generalization{ <U+2015> ClassificationFamily:\nCollection of classification series related by being based on a common concept}]]
  class DDICDIModels::DDICDILibrary::Classes::Representations::ClassificationPosition as "<size:10>Representations::\n<color:blue>ClassificationPosition" [[../DDICDILibrary/Classes/Representations/ClassificationPosition.html#super-class-hierarchy-generalization{ <U+2015> ClassificationPosition:\nThe index of a classification within a classification family expressed as an integer, progressing upward from 0 or 1.}]]
}

' Class definitions for suppliers of abstractions
together {
  abstract class DDICDIModels::DesignPatterns::CollectionsPattern::List as "<size:10>CollectionsPattern::\n<color:blue>List" [[../DesignPatterns/CollectionsPattern/List.html#super-class-hierarchy-generalization{ <U+2015> List:\nSimple ordered Collection defined as a list of Members where the location of each Member in the list is given by the associated Position class.}]]
}

' Rest of class definitions, without associated classes of core class and abstraction supplier classes



' Associations
DDICDIModels::DDICDILibrary::Classes::Representations::ClassificationSeries -[#grey]-> DDICDIModels::DDICDILibrary::Classes::Agents::Agent [[{ <U+2015> isOwnedBy:\nThe statistical office or other authority, which created and maintains the statistical classification(s) related to the classification series. A classification series may have several owners.}]] : isOwnedBy
DDICDIModels::DDICDILibrary::Classes::Representations::ClassificationSeries -[#grey]-> DDICDIModels::DDICDILibrary::Classes::Conceptual::Concept [[{ <U+2015> isDefinedBy:\nThe conceptual basis for the collection of members.}]] : isDefinedBy
DDICDIModels::DDICDILibrary::Classes::Representations::ClassificationSeries <-[#grey]- DDICDIModels::DDICDILibrary::Classes::Representations::ClassificationFamily [[{ <U+2015> groups:\n}]] : groups
DDICDIModels::DDICDILibrary::Classes::Representations::ClassificationSeries *-[#grey]-> DDICDIModels::DDICDILibrary::Classes::Representations::ClassificationPosition [[{ <U+2015> has:\n}]] : has
DDICDIModels::DDICDILibrary::Classes::Representations::ClassificationSeries o-[#grey]-> DDICDIModels::DDICDILibrary::Classes::Representations::StatisticalClassification [[{ <U+2015> has:\n}]] : has
DDICDIModels::DDICDILibrary::Classes::Representations::ClassificationSeries <-[#grey]- DDICDIModels::DDICDILibrary::Classes::Representations::ClassificationSeriesStructure [[{ <U+2015> structures:\n}]] : structures


' Abstractions
  DDICDIModels::DDICDILibrary::Classes::Representations::ClassificationSeries .....> DDICDIModels::DesignPatterns::CollectionsPattern::List : <U+00AB>Refine<U+00BB>
   
@enduml

@startuml
!pragma ratio 0.5625

hide circle
hide empty members
scale 0.9

skinparam {
  ArrowThickness 1.5
  MinClassWidth 150
}

skinparam legend {
  BackgroundColor white
  FontSize 10
}

skinparam note {
  BackgroundColor white
}

skinparam class {
  ArrowColor #404040
  BorderColor #404040
}

skinparam package {
  FontColor lightgrey
  BorderColor lightgrey
}

title <size:20>UML Diagram: Class ClassificationSeries in Context\n
footer \n\nDDI Cross Domain Integration (DDI-CDI)   1.0 - Representations::ClassificationSeries

legend top left
**Hints**
<color:grey>- Move the mouse cursor over a name to see more information.
<color:grey>- Click on a name to go to the corresponding page.
endlegend

class DDICDIModels::DDICDILibrary::Classes::Representations::ClassificationSeries as "<size:10>Representations::\n<color:black>ClassificationSeries" #FFD700 {
  allowsDuplicates : Boolean
  catalogDetails : <color:blue>CatalogDetails   	  [[[../DDICDILibrary/DataTypes/StructuredDataTypes/CatalogDetails.html#diagram{ <U+2015> CatalogDetails:\nA set of information useful for attribution, data discovery, and access.}]]]
  context : <color:blue>ControlledVocabularyEntry   	  [[[../DDICDILibrary/DataTypes/StructuredDataTypes/ControlledVocabularyEntry.html#diagram{ <U+2015> ControlledVocabularyEntry:\nAllows for unstructured content which may be an entry from an externally maintained controlled vocabulary.If the content is from a controlled vocabulary provide the code value of the entry, as well as a reference to the controlled vocabulary from which the value is taken. Provide as many of the iden ...}]]]
  identifier : <color:blue>Identifier   	  [[[../DDICDILibrary/DataTypes/StructuredDataTypes/Identifier.html#diagram{ <U+2015> Identifier:\nIdentifier for objects requiring short- or long-lasting referencing and management.}]]]
  keyword : <color:blue>ControlledVocabularyEntry   	  [[[../DDICDILibrary/DataTypes/StructuredDataTypes/ControlledVocabularyEntry.html#diagram{ <U+2015> ControlledVocabularyEntry:\nAllows for unstructured content which may be an entry from an externally maintained controlled vocabulary.If the content is from a controlled vocabulary provide the code value of the entry, as well as a reference to the controlled vocabulary from which the value is taken. Provide as many of the iden ...}]]]
  name : <color:blue>ObjectName   	  [[[../DDICDILibrary/DataTypes/StructuredDataTypes/ObjectName.html#diagram{ <U+2015> ObjectName:\nA standard means of expressing a name for a class object. A linguistic signifier. Human understandable name (word, phrase, or mnemonic) that reflects the ISO/IEC 11179-5 naming principles.}]]]
  objectsOrUnitsClassified : <color:blue>ControlledVocabularyEntry   	  [[[../DDICDILibrary/DataTypes/StructuredDataTypes/ControlledVocabularyEntry.html#diagram{ <U+2015> ControlledVocabularyEntry:\nAllows for unstructured content which may be an entry from an externally maintained controlled vocabulary.If the content is from a controlled vocabulary provide the code value of the entry, as well as a reference to the controlled vocabulary from which the value is taken. Provide as many of the iden ...}]]]
  purpose : <color:blue>InternationalString   	  [[[../DDICDILibrary/DataTypes/StructuredDataTypes/InternationalString.html#diagram{ <U+2015> InternationalString:\nPackaging structure for multiple language versions of the same string content. Where an element of this type is repeatable, the expectation is that each repetition contains different content, each of which can be expressed in multiple languages. The language designation goes on the individual String ...}]]]
  subject : <color:blue>ControlledVocabularyEntry   	  [[[../DDICDILibrary/DataTypes/StructuredDataTypes/ControlledVocabularyEntry.html#diagram{ <U+2015> ControlledVocabularyEntry:\nAllows for unstructured content which may be an entry from an externally maintained controlled vocabulary.If the content is from a controlled vocabulary provide the code value of the entry, as well as a reference to the controlled vocabulary from which the value is taken. Provide as many of the iden ...}]]]
}

together {
  class DDICDIModels::DDICDILibrary::Classes::Conceptual::Concept as "<size:10>Conceptual::\n<color:blue>Concept" [[../DDICDILibrary/Classes/Conceptual/Concept.html#super-class-hierarchy-generalization{ <U+2015> Concept:\nUnit of thought differentiated by characteristics (from the Generic Statistical Information Model version 1.2: https://statswiki.unece.org/display/clickablegsim/Concept).}]]
  class DDICDIModels::DDICDILibrary::Classes::Representations::ClassificationSeriesStructure as "<size:10>Representations::\n<color:blue>ClassificationSeriesStructure" [[../DDICDILibrary/Classes/Representations/ClassificationSeriesStructure.html#super-class-hierarchy-generalization{ <U+2015> ClassificationSeriesStructure:\nStructure for describing the complex relationships between statistical classifications in a classification series.}]]
  class DDICDIModels::DDICDILibrary::Classes::Agents::Agent as "<size:10>Agents::\n<color:blue>Agent" [[../DDICDILibrary/Classes/Agents/Agent.html#super-class-hierarchy-generalization{ <U+2015> Agent:\nActor that performs a role in relation to a process or product.}]]
  class DDICDIModels::DDICDILibrary::Classes::Representations::StatisticalClassification as "<size:10>Representations::\n<color:blue>StatisticalClassification" [[../DDICDILibrary/Classes/Representations/StatisticalClassification.html#super-class-hierarchy-generalization{ <U+2015> StatisticalClassification:\nSet of categories represented by classification items where the subset of immediate children categories for any given parent category are mutually exclusive and jointly exhaustive with respect to that parent.}]]
  class DDICDIModels::DDICDILibrary::Classes::Representations::ClassificationFamily as "<size:10>Representations::\n<color:blue>ClassificationFamily" [[../DDICDILibrary/Classes/Representations/ClassificationFamily.html#super-class-hierarchy-generalization{ <U+2015> ClassificationFamily:\nCollection of classification series related by being based on a common concept}]]
  class DDICDIModels::DDICDILibrary::Classes::Representations::ClassificationPosition as "<size:10>Representations::\n<color:blue>ClassificationPosition" [[../DDICDILibrary/Classes/Representations/ClassificationPosition.html#super-class-hierarchy-generalization{ <U+2015> ClassificationPosition:\nThe index of a classification within a classification family expressed as an integer, progressing upward from 0 or 1.}]]
}

together {
  abstract class DDICDIModels::DesignPatterns::CollectionsPattern::List as "<size:10>CollectionsPattern::\n<color:blue>List" [[../DesignPatterns/CollectionsPattern/List.html#super-class-hierarchy-generalization{ <U+2015> List:\nSimple ordered Collection defined as a list of Members where the location of each Member in the list is given by the associated Position class.}]]
}




DDICDIModels::DDICDILibrary::Classes::Representations::ClassificationSeries -[#grey]-> DDICDIModels::DDICDILibrary::Classes::Agents::Agent [[{ <U+2015> isOwnedBy:\nThe statistical office or other authority, which created and maintains the statistical classification(s) related to the classification series. A classification series may have several owners.}]] : isOwnedBy
DDICDIModels::DDICDILibrary::Classes::Representations::ClassificationSeries -[#grey]-> DDICDIModels::DDICDILibrary::Classes::Conceptual::Concept [[{ <U+2015> isDefinedBy:\nThe conceptual basis for the collection of members.}]] : isDefinedBy
DDICDIModels::DDICDILibrary::Classes::Representations::ClassificationSeries <-[#grey]- DDICDIModels::DDICDILibrary::Classes::Representations::ClassificationFamily [[{ <U+2015> groups:\n}]] : groups
DDICDIModels::DDICDILibrary::Classes::Representations::ClassificationSeries *-[#grey]-> DDICDIModels::DDICDILibrary::Classes::Representations::ClassificationPosition [[{ <U+2015> has:\n}]] : has
DDICDIModels::DDICDILibrary::Classes::Representations::ClassificationSeries o-[#grey]-> DDICDIModels::DDICDILibrary::Classes::Representations::StatisticalClassification [[{ <U+2015> has:\n}]] : has
DDICDIModels::DDICDILibrary::Classes::Representations::ClassificationSeries <-[#grey]- DDICDIModels::DDICDILibrary::Classes::Representations::ClassificationSeriesStructure [[{ <U+2015> structures:\n}]] : structures


  DDICDIModels::DDICDILibrary::Classes::Representations::ClassificationSeries .....> DDICDIModels::DesignPatterns::CollectionsPattern::List : <U+00AB>Refine<U+00BB>
   
@enduml

PlantUML version 1.2022.6(Tue Jun 21 19:34:49 CEST 2022)
(GPL source distribution)
Java Runtime: OpenJDK Runtime Environment
JVM: OpenJDK 64-Bit Server VM
Default Encoding: Cp1252
Language: en
Country: US
--></g></svg>