<?xml version="1.0" encoding="UTF-8" standalone="no"?><svg xmlns="http://www.w3.org/2000/svg" xmlns:xlink="http://www.w3.org/1999/xlink" contentStyleType="text/css" height="633.6px" preserveAspectRatio="none" style="width:751px;height:633px;background:#FFFFFF;" version="1.1" viewBox="0 0 751 633" width="751.5px" zoomAndPan="magnify"><defs/><g><rect height="47.4891" style="stroke:#00000000;stroke-width:0.9;fill:none;" width="342.9" x="198" y="4.5"/><text fill="#000000" font-family="sans-serif" font-size="18" font-weight="bold" lengthAdjust="spacing" textLength="333.9" x="202.5" y="27.6855">UML Diagram: Class Activity in Context</text><text fill="#000000" font-family="sans-serif" font-size="12.6" font-weight="bold" lengthAdjust="spacing" textLength="3.6" x="367.65" y="44.7205"> </text><rect fill="#FFFFFF" height="56.0813" rx="6.75" ry="6.75" style="stroke:#000000;stroke-width:0.9;" width="276.3" x="7.2" y="64.5891"/><text fill="#000000" font-family="sans-serif" font-size="9" font-weight="bold" lengthAdjust="spacing" textLength="22.5" x="12.6" y="79.3318">Hints</text><text fill="#808080" font-family="sans-serif" font-size="9" lengthAdjust="spacing" textLength="265.5" x="12.6" y="90.6521">- Move the mouse cursor over a name to see more information.</text><text fill="#808080" font-family="sans-serif" font-size="9" lengthAdjust="spacing" textLength="216" x="12.6" y="101.9725">- Click on a name to go to the corresponding page.</text><text fill="#808080" font-family="sans-serif" font-size="9" lengthAdjust="spacing" textLength="164.7" x="12.6" y="113.2928">- The arrows of the inheritance tree are</text><text fill="#D2691E" font-family="sans-serif" font-size="9" lengthAdjust="spacing" textLength="32.4" x="180" y="113.2928">colored</text><text fill="#808080" font-family="sans-serif" font-size="9" lengthAdjust="spacing" textLength="2.7" x="212.4" y="113.2928">.</text><!--MD5=[86778c92e97b374d9d16badd6f2c91e1]
class DDICDIModels::DDICDILibrary::Classes::Process::ControlLogic--><a href="../DDICDILibrary/Classes/Process/ControlLogic.html#super-class-hierarchy-generalization" target="_top" title=" ― ControlLogic:&#10;Control logic is a program in which the order of statements is explicit. Control logic is either deterministic (imperative) or non-deterministic (declarative). Deterministic control logic consists of control constructs. Declarative control logic is constraint- and/or rule-based. Control logic may co ..." xlink:actuate="onRequest" xlink:href="../DDICDILibrary/Classes/Process/ControlLogic.html#super-class-hierarchy-generalization" xlink:show="new" xlink:title=" ― ControlLogic:&#10;Control logic is a program in which the order of statements is explicit. Control logic is either deterministic (imperative) or non-deterministic (declarative). Deterministic control logic consists of control constructs. Declarative control logic is constraint- and/or rule-based. Control logic may co ..." xlink:type="simple"><g id="elem_DDICDIModels::DDICDILibrary::Classes::Process::ControlLogic"><rect codeLine="64" fill="#F1F1F1" height="36.1688" id="DDICDIModels::DDICDILibrary::Classes::Process::ControlLogic" rx="2.25" ry="2.25" style="stroke:#404040;stroke-width:0.45;" width="135" x="6.3" y="401.4703"/><text fill="#000000" font-family="sans-serif" font-size="9" lengthAdjust="spacing" textLength="37.8" x="54.9" y="415.3131">Process::</text><text fill="#0000FF" font-family="sans-serif" font-size="12.6" lengthAdjust="spacing" textLength="72" x="37.8" y="430.3705">ControlLogic</text></g></a><!--MD5=[3078b484125a0460bfac2d32d1854149]
class DDICDIModels::DDICDILibrary::Classes::Process::ProcessingAgent--><a href="../DDICDILibrary/Classes/Process/ProcessingAgent.html#super-class-hierarchy-generalization" target="_top" title=" ― ProcessingAgent:&#10;A processing agent orchestrates the production of information objects in a production environment. There are processing agents which perform data capture, data editing/processing, and data analysis (etc.), each in the appropriate production environments. The processing agent performs an activity bas ..." xlink:actuate="onRequest" xlink:href="../DDICDILibrary/Classes/Process/ProcessingAgent.html#super-class-hierarchy-generalization" xlink:show="new" xlink:title=" ― ProcessingAgent:&#10;A processing agent orchestrates the production of information objects in a production environment. There are processing agents which perform data capture, data editing/processing, and data analysis (etc.), each in the appropriate production environments. The processing agent performs an activity bas ..." xlink:type="simple"><g id="elem_DDICDIModels::DDICDILibrary::Classes::Process::ProcessingAgent"><rect codeLine="65" fill="#F1F1F1" height="36.1688" id="DDICDIModels::DDICDILibrary::Classes::Process::ProcessingAgent" rx="2.25" ry="2.25" style="stroke:#404040;stroke-width:0.45;" width="135" x="223.2" y="401.4703"/><text fill="#000000" font-family="sans-serif" font-size="9" lengthAdjust="spacing" textLength="37.8" x="271.8" y="415.3131">Process::</text><text fill="#0000FF" font-family="sans-serif" font-size="12.6" lengthAdjust="spacing" textLength="96.3" x="242.55" y="430.3705">ProcessingAgent</text></g></a><!--MD5=[2c37921695407d096dd2c82a03bab8f7]
class DDICDIModels::DDICDILibrary::Classes::Process::Step--><a href="../DDICDILibrary/Classes/Process/Step.html#super-class-hierarchy-generalization" target="_top" title=" ― Step:&#10;Step is a reusable, parameterized activity associated to information flows. One or more steps perform an sctivity." xlink:actuate="onRequest" xlink:href="../DDICDILibrary/Classes/Process/Step.html#super-class-hierarchy-generalization" xlink:show="new" xlink:title=" ― Step:&#10;Step is a reusable, parameterized activity associated to information flows. One or more steps perform an sctivity." xlink:type="simple"><g id="elem_DDICDIModels::DDICDILibrary::Classes::Process::Step"><rect codeLine="66" fill="#F1F1F1" height="36.1688" id="DDICDIModels::DDICDILibrary::Classes::Process::Step" rx="2.25" ry="2.25" style="stroke:#404040;stroke-width:0.45;" width="135" x="441" y="401.4703"/><text fill="#000000" font-family="sans-serif" font-size="9" lengthAdjust="spacing" textLength="37.8" x="489.6" y="415.3131">Process::</text><text fill="#0000FF" font-family="sans-serif" font-size="12.6" lengthAdjust="spacing" textLength="26.1" x="495.45" y="430.3705">Step</text></g></a><!--MD5=[e19ed69b87dc702a4a4581093092210f]
class DDICDIModels::Context::PROV::Activity--><a href="../Context/PROV/Activity.html#super-class-hierarchy-generalization" target="_top" title=" ― Activity:&#10;Something that occurs over a period of time and acts upon or with entities; it may include consuming, processing, transforming, modifying, relocating, using, or generating entities. (See the W3C PROV-O ontology, https://www.w3.org/TR/prov-dm/#term-Activity)" xlink:actuate="onRequest" xlink:href="../Context/PROV/Activity.html#super-class-hierarchy-generalization" xlink:show="new" xlink:title=" ― Activity:&#10;Something that occurs over a period of time and acts upon or with entities; it may include consuming, processing, transforming, modifying, relocating, using, or generating entities. (See the W3C PROV-O ontology, https://www.w3.org/TR/prov-dm/#term-Activity)" xlink:type="simple"><g id="elem_DDICDIModels::Context::PROV::Activity"><rect codeLine="71" fill="#F1F1F1" height="36.1688" id="DDICDIModels::Context::PROV::Activity" rx="2.25" ry="2.25" style="stroke:#404040;stroke-width:0.45;" width="135" x="611.1" y="551.7703"/><text fill="#000000" font-family="sans-serif" font-size="9" lengthAdjust="spacing" textLength="31.5" x="662.85" y="565.6131">PROV::</text><text fill="#0000FF" font-family="sans-serif" font-size="12.6" lengthAdjust="spacing" textLength="39.6" x="658.8" y="580.6705">Activity</text></g></a><!--MD5=[250dc3f1cdf1ef2cc74ebd3b8cfec0b1]
class DDICDIModels::DDICDILibrary::Classes::Process::Activity--><g id="elem_DDICDIModels::DDICDILibrary::Classes::Process::Activity"><rect codeLine="47" fill="#FFD700" height="138.4594" id="DDICDIModels::DDICDILibrary::Classes::Process::Activity" rx="2.25" ry="2.25" style="stroke:#404040;stroke-width:0.45;" width="214.2" x="290.7" y="135.0703"/><text fill="#000000" font-family="sans-serif" font-size="9" lengthAdjust="spacing" textLength="37.8" x="378.9" y="148.9131">Process::</text><text fill="#000000" font-family="sans-serif" font-size="12.6" lengthAdjust="spacing" textLength="39.6" x="378" y="163.9705">Activity</text><line style="stroke:#404040;stroke-width:0.45;" x1="291.6" x2="504" y1="171.2391" y2="171.2391"/><text fill="#000000" font-family="sans-serif" font-size="12.6" lengthAdjust="spacing" textLength="106.2" x="296.1" y="187.9189">description : String</text><a href="../DDICDILibrary/DataTypes/StructuredDataTypes/Reference.html#diagram" target="_top" title=" ― Reference:&#10;Provides a way of pointing to resources outside of the information described in the set of DDI-CDI metadata." xlink:actuate="onRequest" xlink:href="../DDICDILibrary/DataTypes/StructuredDataTypes/Reference.html#diagram" xlink:show="new" xlink:title=" ― Reference:&#10;Provides a way of pointing to resources outside of the information described in the set of DDI-CDI metadata." xlink:type="simple"><text fill="#000000" font-family="sans-serif" font-size="12.6" lengthAdjust="spacing" textLength="92.7" x="296.1" y="203.7674">entityProduced :</text><text fill="#0000FF" font-family="sans-serif" font-size="12.6" lengthAdjust="spacing" textLength="59.4" x="392.4" y="203.7674">Reference</text></a><a href="../DDICDILibrary/DataTypes/StructuredDataTypes/Reference.html#diagram" target="_top" title=" ― Reference:&#10;Provides a way of pointing to resources outside of the information described in the set of DDI-CDI metadata." xlink:actuate="onRequest" xlink:href="../DDICDILibrary/DataTypes/StructuredDataTypes/Reference.html#diagram" xlink:show="new" xlink:title=" ― Reference:&#10;Provides a way of pointing to resources outside of the information described in the set of DDI-CDI metadata." xlink:type="simple"><text fill="#000000" font-family="sans-serif" font-size="12.6" lengthAdjust="spacing" textLength="66.6" x="296.1" y="219.6158">entityUsed :</text><text fill="#0000FF" font-family="sans-serif" font-size="12.6" lengthAdjust="spacing" textLength="59.4" x="366.3" y="219.6158">Reference</text></a><a href="../DDICDILibrary/DataTypes/StructuredDataTypes/Identifier.html#diagram" target="_top" title=" ― Identifier:&#10;Identifier for objects requiring short- or long-lasting referencing and management." xlink:actuate="onRequest" xlink:href="../DDICDILibrary/DataTypes/StructuredDataTypes/Identifier.html#diagram" xlink:show="new" xlink:title=" ― Identifier:&#10;Identifier for objects requiring short- or long-lasting referencing and management." xlink:type="simple"><text fill="#000000" font-family="sans-serif" font-size="12.6" lengthAdjust="spacing" textLength="55.8" x="296.1" y="235.4643">identifier :</text><text fill="#0000FF" font-family="sans-serif" font-size="12.6" lengthAdjust="spacing" textLength="48.6" x="355.5" y="235.4643">Identifier</text></a><a href="../DDICDILibrary/DataTypes/StructuredDataTypes/ObjectName.html#diagram" target="_top" title=" ― ObjectName:&#10;A standard means of expressing a name for a class object. A linguistic signifier. Human understandable name (word, phrase, or mnemonic) that reflects the ISO/IEC 11179-5 naming principles." xlink:actuate="onRequest" xlink:href="../DDICDILibrary/DataTypes/StructuredDataTypes/ObjectName.html#diagram" xlink:show="new" xlink:title=" ― ObjectName:&#10;A standard means of expressing a name for a class object. A linguistic signifier. Human understandable name (word, phrase, or mnemonic) that reflects the ISO/IEC 11179-5 naming principles." xlink:type="simple"><text fill="#000000" font-family="sans-serif" font-size="12.6" lengthAdjust="spacing" textLength="38.7" x="296.1" y="251.3127">name :</text><text fill="#0000FF" font-family="sans-serif" font-size="12.6" lengthAdjust="spacing" textLength="69.3" x="338.4" y="251.3127">ObjectName</text></a><a href="../DDICDILibrary/DataTypes/StructuredDataTypes/Reference.html#diagram" target="_top" title=" ― Reference:&#10;Provides a way of pointing to resources outside of the information described in the set of DDI-CDI metadata." xlink:actuate="onRequest" xlink:href="../DDICDILibrary/DataTypes/StructuredDataTypes/Reference.html#diagram" xlink:show="new" xlink:title=" ― Reference:&#10;Provides a way of pointing to resources outside of the information described in the set of DDI-CDI metadata." xlink:type="simple"><text fill="#000000" font-family="sans-serif" font-size="12.6" lengthAdjust="spacing" textLength="140.4" x="296.1" y="267.1611">standardModelMapping :</text><text fill="#0000FF" font-family="sans-serif" font-size="12.6" lengthAdjust="spacing" textLength="59.4" x="440.1" y="267.1611">Reference</text></a></g><!--MD5=[f0fe3c85c45a96eca0ae83e1654c224c]
link DDICDIModels::DDICDILibrary::Classes::Process::Activity to DDICDIModels::DDICDILibrary::Classes::Process::Step--><g id="link_DDICDIModels::DDICDILibrary::Classes::Process::Activity_DDICDIModels::DDICDILibrary::Classes::Process::Step"><a href="" target="_top" title=" ― has:&#10;Activities may be broken out into Steps. Steps are also a subtype of Activity." xlink:actuate="onRequest" xlink:href="" xlink:show="new" xlink:title=" ― has:&#10;Activities may be broken out into Steps. Steps are also a subtype of Activity." xlink:type="simple"><path codeLine="79" d="M438.4118,283.5189 C438.4118,283.5189 480.087,363.8143 494.073,390.7603 " fill="none" id="DDICDIModels::DDICDILibrary::Classes::Process::Activity-DDICDIModels::DDICDILibrary::Classes::Process::Step" style="stroke:#808080;stroke-width:1.35;"/><polygon fill="#808080" points="499.554,401.3173,499.021,392.4694,497.4824,397.3225,492.6293,395.7839,499.554,401.3173" style="stroke:#808080;stroke-width:1.35;"/><line style="stroke:#808080;stroke-width:1.35;" x1="497.4824" x2="494.163" y1="397.3225" y2="390.9358"/><polygon fill="none" points="433.44,273.9313,432.73,280.3824,438.4118,283.5189,439.1217,277.0678,433.44,273.9313" style="stroke:#808080;stroke-width:1.35;"/><text fill="#000000" font-family="sans-serif" font-size="11.7" lengthAdjust="spacing" textLength="18.9" x="470.7" y="341.6159">has</text></a></g><!--MD5=[f9480a126e0e5e65d8aed96ec1f02cc2]
reverse link DDICDIModels::DDICDILibrary::Classes::Process::Activity to DDICDIModels::DDICDILibrary::Classes::Process::Step--><g id="link_DDICDIModels::DDICDILibrary::Classes::Process::Activity_DDICDIModels::DDICDILibrary::Classes::Process::Step"><path codeLine="86" d="M473.382,288.5203 C482.544,301.3273 491.013,314.8723 497.7,328.5703 C509.094,351.9073 510.291,382.5433 509.697,401.3803 " fill="none" id="DDICDIModels::DDICDILibrary::Classes::Process::Activity-backto-DDICDIModels::DDICDILibrary::Classes::Process::Step" style="stroke:#D2691E;stroke-width:1.35;"/><polygon fill="none" points="468.144,292.0303,462.375,273.8593,478.224,284.4703,468.144,292.0303" style="stroke:#D2691E;stroke-width:1.35;"/></g><!--MD5=[9a126a6f390eb5c19cf783c6ca465c3e]
link DDICDIModels::DDICDILibrary::Classes::Process::Activity to DDICDIModels::DDICDILibrary::Classes::Process::ControlLogic--><g id="link_DDICDIModels::DDICDILibrary::Classes::Process::Activity_DDICDIModels::DDICDILibrary::Classes::Process::ControlLogic"><a href="" target="_top" title=" ― hasInternal:&#10;An activity is embedded in the control construct which launches it." xlink:actuate="onRequest" xlink:href="" xlink:show="new" xlink:title=" ― hasInternal:&#10;An activity is embedded in the control construct which launches it." xlink:type="simple"><path codeLine="80" d="M290.457,223.0813 C224.667,239.5153 143.883,270.5833 94.5,328.5703 C78.336,347.5603 74.178,376.6933 73.395,396.6373 " fill="none" id="DDICDIModels::DDICDILibrary::Classes::Process::Activity-to-DDICDIModels::DDICDILibrary::Classes::Process::ControlLogic" style="stroke:#808080;stroke-width:1.35;"/><polygon fill="#808080" points="73.269,401.2453,77.076,393.2405,73.3847,396.7468,69.8784,393.0554,73.269,401.2453" style="stroke:#808080;stroke-width:1.35;"/><text fill="#000000" font-family="sans-serif" font-size="11.7" lengthAdjust="spacing" textLength="56.7" x="95.4" y="341.6159">hasInternal</text></a></g><!--MD5=[55bc16dffe94287eb73a35015f44e6b9]
reverse link DDICDIModels::DDICDILibrary::Classes::Process::Activity to DDICDIModels::DDICDILibrary::Classes::Process::ControlLogic--><g id="link_DDICDIModels::DDICDILibrary::Classes::Process::Activity_DDICDIModels::DDICDILibrary::Classes::Process::ControlLogic"><a href="" target="_top" title=" ― invokes:&#10;Control logic invokes an activity deterministically (either conditionally or unconditionally) or non-derministically (based on temporal constraints or rule-based scheduling)." xlink:actuate="onRequest" xlink:href="" xlink:show="new" xlink:title=" ― invokes:&#10;Control logic invokes an activity deterministically (either conditionally or unconditionally) or non-derministically (based on temporal constraints or rule-based scheduling)." xlink:type="simple"><path codeLine="82" d="M289.503,276.5683 C222.174,320.8933 140.895,374.3983 100.008,401.3173 " fill="none" id="DDICDIModels::DDICDILibrary::Classes::Process::Activity-backto-DDICDIModels::DDICDILibrary::Classes::Process::ControlLogic" style="stroke:#808080;stroke-width:1.35;"/><polygon fill="#808080" points="293.508,273.9313,284.7621,275.3735,289.748,276.4036,288.7179,281.3895,293.508,273.9313" style="stroke:#808080;stroke-width:1.35;"/><text fill="#000000" font-family="sans-serif" font-size="11.7" lengthAdjust="spacing" textLength="38.7" x="211.5" y="341.6159">invokes</text></a></g><!--MD5=[6e9013a9a6f2734d4b085f6e85e3c7d7]
link DDICDIModels::DDICDILibrary::Classes::Process::Activity to DDICDIModels::DDICDILibrary::Classes::Process::Activity--><g id="link_DDICDIModels::DDICDILibrary::Classes::Process::Activity_DDICDIModels::DDICDILibrary::Classes::Process::Activity"><a href="" target="_top" title=" ― hasSubActivity:&#10;An Activity is a container for SubActivities." xlink:actuate="onRequest" xlink:href="" xlink:show="new" xlink:title=" ― hasSubActivity:&#10;An Activity is a container for SubActivities." xlink:type="simple"><path codeLine="81" d="M515.6619,189.5148 C515.6619,189.5148 536.4,197.4853 536.4,204.3703 C536.4,211.2553 528.714,216.1513 516.654,219.0583 " fill="none" id="DDICDIModels::DDICDILibrary::Classes::Process::Activity-DDICDIModels::DDICDILibrary::Classes::Process::Activity" style="stroke:#808080;stroke-width:1.35;"/><polygon fill="#808080" points="505.026,221.1013,513.6281,223.24,509.4576,220.3198,512.3778,216.1494,505.026,221.1013" style="stroke:#808080;stroke-width:1.35;"/><line style="stroke:#808080;stroke-width:1.35;" x1="509.4576" x2="516.546" y1="220.3198" y2="219.0763"/><polygon fill="none" points="505.026,187.6393,509.7188,192.1224,515.6619,189.5148,510.9691,185.0318,505.026,187.6393" style="stroke:#808080;stroke-width:1.35;"/><text fill="#000000" font-family="sans-serif" font-size="11.7" lengthAdjust="spacing" textLength="77.4" x="541.8" y="209.3159">hasSubActivity</text></a></g><!--MD5=[6c0345c21ac554deff8b3b5873300ab8]
reverse link DDICDIModels::DDICDILibrary::Classes::Process::Activity to DDICDIModels::DDICDILibrary::Classes::Process::ProcessingAgent--><g id="link_DDICDIModels::DDICDILibrary::Classes::Process::Activity_DDICDIModels::DDICDILibrary::Classes::Process::ProcessingAgent"><a href="" target="_top" title=" ― performs:&#10;A processing agent performs an activity at the direction of control logic." xlink:actuate="onRequest" xlink:href="" xlink:show="new" xlink:title=" ― performs:&#10;A processing agent performs an activity at the direction of control logic." xlink:type="simple"><path codeLine="83" d="M361.206,278.1613 C339.111,322.1713 312.723,374.7223 299.367,401.3173 " fill="none" id="DDICDIModels::DDICDILibrary::Classes::Process::Activity-backto-DDICDIModels::DDICDILibrary::Classes::Process::ProcessingAgent" style="stroke:#808080;stroke-width:1.35;"/><polygon fill="#808080" points="363.33,273.9313,356.4804,279.5575,361.3124,277.9537,362.9162,282.7856,363.33,273.9313" style="stroke:#808080;stroke-width:1.35;"/><text fill="#000000" font-family="sans-serif" font-size="11.7" lengthAdjust="spacing" textLength="45" x="336.6" y="341.6159">performs</text></a></g><!--MD5=[3ba827a3966e8f43e0780e255a2044c6]
link DDICDIModels::DDICDILibrary::Classes::Process::Activity to DDICDIModels::Context::PROV::Activity--><g id="link_DDICDIModels::DDICDILibrary::Classes::Process::Activity_DDICDIModels::Context::PROV::Activity"><path codeLine="89" d="M505.161,212.8123 C584.433,224.9173 678.6,256.0753 678.6,335.7703 C678.6,335.7703 678.6,335.7703 678.6,494.6203 C678.6,512.2243 678.6,532.1773 678.6,546.9643 " fill="none" id="DDICDIModels::DDICDILibrary::Classes::Process::Activity-to-DDICDIModels::Context::PROV::Activity" style="stroke:#404040;stroke-width:1.35;stroke-dasharray:7.0,7.0;"/><polygon fill="#404040" points="678.6,551.7613,682.2,543.6613,678.6,547.2613,675,543.6613,678.6,551.7613" style="stroke:#404040;stroke-width:1.35;"/><text fill="#000000" font-family="sans-serif" font-size="11.7" lengthAdjust="spacing" textLength="41.4" x="679.5" y="424.4159">«Trace»</text></g><rect height="33.9609" style="stroke:#00000000;stroke-width:0.9;fill:none;" width="264.6" x="237.15" y="592.4391"/><text fill="#888888" font-family="sans-serif" font-size="9" lengthAdjust="spacing" textLength="2.7" x="368.1" y="601.7818"> </text><text fill="#888888" font-family="sans-serif" font-size="9" lengthAdjust="spacing" textLength="2.7" x="368.1" y="613.1021"> </text><text fill="#888888" font-family="sans-serif" font-size="9" lengthAdjust="spacing" textLength="264.6" x="237.15" y="624.4225">DDI Cross Domain Integration (DDI-CDI)   1.0 - Process::Activity</text><!--MD5=[79794d9dd54f4160eae04afb85013dd0]
@startuml
!pragma ratio 0.5625
' HD display aspect ratio 16:9
' hyperlinkColor and pathHoverColor do not seem to work with class diagrams
' working approach: colors per item
' default font size for class names is 14

hide circle
hide empty members
scale 0.9

skinparam {
  ArrowThickness 1.5
  MinClassWidth 150
}

skinparam legend {
  BackgroundColor white
  FontSize 10
}

skinparam note {
  BackgroundColor white
}

skinparam class {
  ArrowColor #404040
  BorderColor #404040
}

skinparam package {
  FontColor lightgrey
  BorderColor lightgrey
}

title <size:20>UML Diagram: Class Activity in Context\n
footer \n\nDDI Cross Domain Integration (DDI-CDI)   1.0 - Process::Activity

legend top left
**Hints**
<color:grey>- Move the mouse cursor over a name to see more information.
<color:grey>- Click on a name to go to the corresponding page.
<color:grey>- The arrows of the inheritance tree are <color:#D2691E>colored<color:grey>.
endlegend

' Core class of diagram
class DDICDIModels::DDICDILibrary::Classes::Process::Activity as "<size:10>Process::\n<color:black>Activity" #FFD700 {
  description : String
  entityProduced : <color:blue>Reference   	  [[[../DDICDILibrary/DataTypes/StructuredDataTypes/Reference.html#diagram{ <U+2015> Reference:\nProvides a way of pointing to resources outside of the information described in the set of DDI-CDI metadata.}]]]
  entityUsed : <color:blue>Reference   	  [[[../DDICDILibrary/DataTypes/StructuredDataTypes/Reference.html#diagram{ <U+2015> Reference:\nProvides a way of pointing to resources outside of the information described in the set of DDI-CDI metadata.}]]]
  identifier : <color:blue>Identifier   	  [[[../DDICDILibrary/DataTypes/StructuredDataTypes/Identifier.html#diagram{ <U+2015> Identifier:\nIdentifier for objects requiring short- or long-lasting referencing and management.}]]]
  name : <color:blue>ObjectName   	  [[[../DDICDILibrary/DataTypes/StructuredDataTypes/ObjectName.html#diagram{ <U+2015> ObjectName:\nA standard means of expressing a name for a class object. A linguistic signifier. Human understandable name (word, phrase, or mnemonic) that reflects the ISO/IEC 11179-5 naming principles.}]]]
  standardModelMapping : <color:blue>Reference   	  [[[../DDICDILibrary/DataTypes/StructuredDataTypes/Reference.html#diagram{ <U+2015> Reference:\nProvides a way of pointing to resources outside of the information described in the set of DDI-CDI metadata.}]]]
}

' Class definitions for associated classes without superclass (might have also an association)
' This would be too many constraints for Graphviz. 
together {
  class DDICDIModels::DDICDILibrary::Classes::Process::ControlLogic as "<size:10>Process::\n<color:blue>ControlLogic" [[../DDICDILibrary/Classes/Process/ControlLogic.html#super-class-hierarchy-generalization{ <U+2015> ControlLogic:\nControl logic is a program in which the order of statements is explicit. Control logic is either deterministic (imperative) or non-deterministic (declarative). Deterministic control logic consists of control constructs. Declarative control logic is constraint- and/or rule-based. Control logic may co ...}]]
  class DDICDIModels::DDICDILibrary::Classes::Process::ProcessingAgent as "<size:10>Process::\n<color:blue>ProcessingAgent" [[../DDICDILibrary/Classes/Process/ProcessingAgent.html#super-class-hierarchy-generalization{ <U+2015> ProcessingAgent:\nA processing agent orchestrates the production of information objects in a production environment. There are processing agents which perform data capture, data editing/processing, and data analysis (etc.), each in the appropriate production environments. The processing agent performs an activity bas ...}]]
  class DDICDIModels::DDICDILibrary::Classes::Process::Step as "<size:10>Process::\n<color:blue>Step" [[../DDICDILibrary/Classes/Process/Step.html#super-class-hierarchy-generalization{ <U+2015> Step:\nStep is a reusable, parameterized activity associated to information flows. One or more steps perform an sctivity.}]]
}

' Class definitions for suppliers of abstractions
together {
  class DDICDIModels::Context::PROV::Activity as "<size:10>PROV::\n<color:blue>Activity" [[../Context/PROV/Activity.html#super-class-hierarchy-generalization{ <U+2015> Activity:\nSomething that occurs over a period of time and acts upon or with entities; it may include consuming, processing, transforming, modifying, relocating, using, or generating entities. (See the W3C PROV-O ontology, https://www.w3.org/TR/prov-dm/#term-Activity)}]]
}

' Rest of class definitions, without associated classes of core class and abstraction supplier classes



' Associations
DDICDIModels::DDICDILibrary::Classes::Process::Activity o-[#grey]-> DDICDIModels::DDICDILibrary::Classes::Process::Step [[{ <U+2015> has:\nActivities may be broken out into Steps. Steps are also a subtype of Activity.}]] : has
DDICDIModels::DDICDILibrary::Classes::Process::Activity -[#grey]-> DDICDIModels::DDICDILibrary::Classes::Process::ControlLogic [[{ <U+2015> hasInternal:\nAn activity is embedded in the control construct which launches it.}]] : hasInternal
DDICDIModels::DDICDILibrary::Classes::Process::Activity o-[#grey]-> DDICDIModels::DDICDILibrary::Classes::Process::Activity [[{ <U+2015> hasSubActivity:\nAn Activity is a container for SubActivities.}]] : hasSubActivity
DDICDIModels::DDICDILibrary::Classes::Process::Activity <-[#grey]- DDICDIModels::DDICDILibrary::Classes::Process::ControlLogic [[{ <U+2015> invokes:\nControl logic invokes an activity deterministically (either conditionally or unconditionally) or non-derministically (based on temporal constraints or rule-based scheduling).}]] : invokes
DDICDIModels::DDICDILibrary::Classes::Process::Activity <-[#grey]- DDICDIModels::DDICDILibrary::Classes::Process::ProcessingAgent [[{ <U+2015> performs:\nA processing agent performs an activity at the direction of control logic.}]] : performs

' Sub classes
  DDICDIModels::DDICDILibrary::Classes::Process::Activity <|- -[#D2691E]- DDICDIModels::DDICDILibrary::Classes::Process::Step 

' Abstractions
  DDICDIModels::DDICDILibrary::Classes::Process::Activity .....> DDICDIModels::Context::PROV::Activity : <U+00AB>Trace<U+00BB>
   
@enduml

@startuml
!pragma ratio 0.5625

hide circle
hide empty members
scale 0.9

skinparam {
  ArrowThickness 1.5
  MinClassWidth 150
}

skinparam legend {
  BackgroundColor white
  FontSize 10
}

skinparam note {
  BackgroundColor white
}

skinparam class {
  ArrowColor #404040
  BorderColor #404040
}

skinparam package {
  FontColor lightgrey
  BorderColor lightgrey
}

title <size:20>UML Diagram: Class Activity in Context\n
footer \n\nDDI Cross Domain Integration (DDI-CDI)   1.0 - Process::Activity

legend top left
**Hints**
<color:grey>- Move the mouse cursor over a name to see more information.
<color:grey>- Click on a name to go to the corresponding page.
<color:grey>- The arrows of the inheritance tree are <color:#D2691E>colored<color:grey>.
endlegend

class DDICDIModels::DDICDILibrary::Classes::Process::Activity as "<size:10>Process::\n<color:black>Activity" #FFD700 {
  description : String
  entityProduced : <color:blue>Reference   	  [[[../DDICDILibrary/DataTypes/StructuredDataTypes/Reference.html#diagram{ <U+2015> Reference:\nProvides a way of pointing to resources outside of the information described in the set of DDI-CDI metadata.}]]]
  entityUsed : <color:blue>Reference   	  [[[../DDICDILibrary/DataTypes/StructuredDataTypes/Reference.html#diagram{ <U+2015> Reference:\nProvides a way of pointing to resources outside of the information described in the set of DDI-CDI metadata.}]]]
  identifier : <color:blue>Identifier   	  [[[../DDICDILibrary/DataTypes/StructuredDataTypes/Identifier.html#diagram{ <U+2015> Identifier:\nIdentifier for objects requiring short- or long-lasting referencing and management.}]]]
  name : <color:blue>ObjectName   	  [[[../DDICDILibrary/DataTypes/StructuredDataTypes/ObjectName.html#diagram{ <U+2015> ObjectName:\nA standard means of expressing a name for a class object. A linguistic signifier. Human understandable name (word, phrase, or mnemonic) that reflects the ISO/IEC 11179-5 naming principles.}]]]
  standardModelMapping : <color:blue>Reference   	  [[[../DDICDILibrary/DataTypes/StructuredDataTypes/Reference.html#diagram{ <U+2015> Reference:\nProvides a way of pointing to resources outside of the information described in the set of DDI-CDI metadata.}]]]
}

together {
  class DDICDIModels::DDICDILibrary::Classes::Process::ControlLogic as "<size:10>Process::\n<color:blue>ControlLogic" [[../DDICDILibrary/Classes/Process/ControlLogic.html#super-class-hierarchy-generalization{ <U+2015> ControlLogic:\nControl logic is a program in which the order of statements is explicit. Control logic is either deterministic (imperative) or non-deterministic (declarative). Deterministic control logic consists of control constructs. Declarative control logic is constraint- and/or rule-based. Control logic may co ...}]]
  class DDICDIModels::DDICDILibrary::Classes::Process::ProcessingAgent as "<size:10>Process::\n<color:blue>ProcessingAgent" [[../DDICDILibrary/Classes/Process/ProcessingAgent.html#super-class-hierarchy-generalization{ <U+2015> ProcessingAgent:\nA processing agent orchestrates the production of information objects in a production environment. There are processing agents which perform data capture, data editing/processing, and data analysis (etc.), each in the appropriate production environments. The processing agent performs an activity bas ...}]]
  class DDICDIModels::DDICDILibrary::Classes::Process::Step as "<size:10>Process::\n<color:blue>Step" [[../DDICDILibrary/Classes/Process/Step.html#super-class-hierarchy-generalization{ <U+2015> Step:\nStep is a reusable, parameterized activity associated to information flows. One or more steps perform an sctivity.}]]
}

together {
  class DDICDIModels::Context::PROV::Activity as "<size:10>PROV::\n<color:blue>Activity" [[../Context/PROV/Activity.html#super-class-hierarchy-generalization{ <U+2015> Activity:\nSomething that occurs over a period of time and acts upon or with entities; it may include consuming, processing, transforming, modifying, relocating, using, or generating entities. (See the W3C PROV-O ontology, https://www.w3.org/TR/prov-dm/#term-Activity)}]]
}




DDICDIModels::DDICDILibrary::Classes::Process::Activity o-[#grey]-> DDICDIModels::DDICDILibrary::Classes::Process::Step [[{ <U+2015> has:\nActivities may be broken out into Steps. Steps are also a subtype of Activity.}]] : has
DDICDIModels::DDICDILibrary::Classes::Process::Activity -[#grey]-> DDICDIModels::DDICDILibrary::Classes::Process::ControlLogic [[{ <U+2015> hasInternal:\nAn activity is embedded in the control construct which launches it.}]] : hasInternal
DDICDIModels::DDICDILibrary::Classes::Process::Activity o-[#grey]-> DDICDIModels::DDICDILibrary::Classes::Process::Activity [[{ <U+2015> hasSubActivity:\nAn Activity is a container for SubActivities.}]] : hasSubActivity
DDICDIModels::DDICDILibrary::Classes::Process::Activity <-[#grey]- DDICDIModels::DDICDILibrary::Classes::Process::ControlLogic [[{ <U+2015> invokes:\nControl logic invokes an activity deterministically (either conditionally or unconditionally) or non-derministically (based on temporal constraints or rule-based scheduling).}]] : invokes
DDICDIModels::DDICDILibrary::Classes::Process::Activity <-[#grey]- DDICDIModels::DDICDILibrary::Classes::Process::ProcessingAgent [[{ <U+2015> performs:\nA processing agent performs an activity at the direction of control logic.}]] : performs

  DDICDIModels::DDICDILibrary::Classes::Process::Activity <|- -[#D2691E]- DDICDIModels::DDICDILibrary::Classes::Process::Step 

  DDICDIModels::DDICDILibrary::Classes::Process::Activity .....> DDICDIModels::Context::PROV::Activity : <U+00AB>Trace<U+00BB>
   
@enduml

PlantUML version 1.2022.6(Tue Jun 21 19:34:49 CEST 2022)
(GPL source distribution)
Java Runtime: OpenJDK Runtime Environment
JVM: OpenJDK 64-Bit Server VM
Default Encoding: Cp1252
Language: en
Country: US
--></g></svg>