<?xml version="1.0" encoding="UTF-8" standalone="no"?><svg xmlns="http://www.w3.org/2000/svg" xmlns:xlink="http://www.w3.org/1999/xlink" contentStyleType="text/css" height="681.3px" preserveAspectRatio="none" style="width:989px;height:681px;background:#FFFFFF;" version="1.1" viewBox="0 0 989 681" width="989.1px" zoomAndPan="magnify"><defs/><g><rect height="47.4891" style="stroke:#00000000;stroke-width:0.9;fill:none;" width="467.1" x="254.925" y="4.5"/><text fill="#000000" font-family="sans-serif" font-size="18" font-weight="bold" lengthAdjust="spacing" textLength="458.1" x="259.425" y="27.6855">UML Diagram: Class DimensionComponent in Context</text><text fill="#000000" font-family="sans-serif" font-size="12.6" font-weight="bold" lengthAdjust="spacing" textLength="3.6" x="486.675" y="44.7205"> </text><rect fill="#FFFFFF" height="56.0813" rx="6.75" ry="6.75" style="stroke:#000000;stroke-width:0.9;" width="276.3" x="7.2" y="64.5891"/><text fill="#000000" font-family="sans-serif" font-size="9" font-weight="bold" lengthAdjust="spacing" textLength="22.5" x="12.6" y="79.3318">Hints</text><text fill="#808080" font-family="sans-serif" font-size="9" lengthAdjust="spacing" textLength="265.5" x="12.6" y="90.6521">- Move the mouse cursor over a name to see more information.</text><text fill="#808080" font-family="sans-serif" font-size="9" lengthAdjust="spacing" textLength="216" x="12.6" y="101.9725">- Click on a name to go to the corresponding page.</text><text fill="#808080" font-family="sans-serif" font-size="9" lengthAdjust="spacing" textLength="164.7" x="12.6" y="113.2928">- The arrows of the inheritance tree are</text><text fill="#D2691E" font-family="sans-serif" font-size="9" lengthAdjust="spacing" textLength="32.4" x="180" y="113.2928">colored</text><text fill="#808080" font-family="sans-serif" font-size="9" lengthAdjust="spacing" textLength="2.7" x="212.4" y="113.2928">.</text><!--MD5=[b1253a53301db6ab67c056d26d02fd88]
class DDICDIModels::DDICDILibrary::Classes::Representations::ValueDomain--><a href="../DDICDILibrary/Classes/Representations/ValueDomain.html#super-class-hierarchy-generalization" target="_top" title=" ― ValueDomain:&#10;Set of permissible values for a variable (adapted from ISO/IEC 11179)." xlink:actuate="onRequest" xlink:href="../DDICDILibrary/Classes/Representations/ValueDomain.html#super-class-hierarchy-generalization" xlink:show="new" xlink:title=" ― ValueDomain:&#10;Set of permissible values for a variable (adapted from ISO/IEC 11179)." xlink:type="simple"><g id="elem_DDICDIModels::DDICDILibrary::Classes::Representations::ValueDomain"><rect codeLine="54" fill="#F1F1F1" height="36.1688" id="DDICDIModels::DDICDILibrary::Classes::Representations::ValueDomain" rx="2.25" ry="2.25" style="stroke:#404040;stroke-width:0.45;" width="135" x="22.05" y="599.5603"/><text fill="#000000" font-family="sans-serif" font-size="9" lengthAdjust="spacing" textLength="72.9" x="53.1" y="613.4031">Representations::</text><text fill="#0000FF" font-family="sans-serif" font-size="12.6" lengthAdjust="spacing" textLength="75.6" x="51.75" y="628.4605">ValueDomain</text></g></a><!--MD5=[1e072c045d3045cf50b952b68f6c1e7f]
class DDICDIModels::DDICDILibrary::Classes::DataDescription::KeyValue::MainKeyMember--><a href="../DDICDILibrary/Classes/DataDescription/KeyValue/MainKeyMember.html#super-class-hierarchy-generalization" target="_top" title=" ― MainKeyMember:&#10;Identifies the unit of interest, either a statistical unit or a population, via identifier or dimension components, respectively, plus an optional contextual component. If neither identifier nor dimension components are present, then a synthetic id component is used." xlink:actuate="onRequest" xlink:href="../DDICDILibrary/Classes/DataDescription/KeyValue/MainKeyMember.html#super-class-hierarchy-generalization" xlink:show="new" xlink:title=" ― MainKeyMember:&#10;Identifies the unit of interest, either a statistical unit or a population, via identifier or dimension components, respectively, plus an optional contextual component. If neither identifier nor dimension components are present, then a synthetic id component is used." xlink:type="simple"><g id="elem_DDICDIModels::DDICDILibrary::Classes::DataDescription::KeyValue::MainKeyMember"><rect codeLine="55" fill="#F1F1F1" height="36.1688" id="DDICDIModels::DDICDILibrary::Classes::DataDescription::KeyValue::MainKeyMember" rx="2.25" ry="2.25" style="stroke:#404040;stroke-width:0.45;" width="135" x="188.55" y="599.5603"/><text fill="#000000" font-family="sans-serif" font-size="9" lengthAdjust="spacing" textLength="46.8" x="232.65" y="613.4031">KeyValue::</text><text fill="#0000FF" font-family="sans-serif" font-size="12.6" lengthAdjust="spacing" textLength="94.5" x="208.8" y="628.4605">MainKeyMember</text></g></a><!--MD5=[f7b5313287eeecd1e588f32fca7c5cff]
class DDICDIModels::DDICDILibrary::Classes::DataDescription::Dimensional::DimensionGroup--><a href="../DDICDILibrary/Classes/DataDescription/Dimensional/DimensionGroup.html#super-class-hierarchy-generalization" target="_top" title=" ― DimensionGroup:&#10;Collection of dimensions that can be reused across multiple dimensional structures." xlink:actuate="onRequest" xlink:href="../DDICDILibrary/Classes/DataDescription/Dimensional/DimensionGroup.html#super-class-hierarchy-generalization" xlink:show="new" xlink:title=" ― DimensionGroup:&#10;Collection of dimensions that can be reused across multiple dimensional structures." xlink:type="simple"><g id="elem_DDICDIModels::DDICDILibrary::Classes::DataDescription::Dimensional::DimensionGroup"><rect codeLine="56" fill="#F1F1F1" height="36.1688" id="DDICDIModels::DDICDILibrary::Classes::DataDescription::Dimensional::DimensionGroup" rx="2.25" ry="2.25" style="stroke:#404040;stroke-width:0.45;" width="135" x="355.05" y="599.5603"/><text fill="#000000" font-family="sans-serif" font-size="9" lengthAdjust="spacing" textLength="58.5" x="393.3" y="613.4031">Dimensional::</text><text fill="#0000FF" font-family="sans-serif" font-size="12.6" lengthAdjust="spacing" textLength="95.4" x="374.85" y="628.4605">DimensionGroup</text></g></a><!--MD5=[b7823d51da3c3721f97ff83e74c8c7f8]
class DDICDIModels::DDICDILibrary::Classes::DataDescription::Dimensional::DimensionalKeyMember--><a href="../DDICDILibrary/Classes/DataDescription/Dimensional/DimensionalKeyMember.html#super-class-hierarchy-generalization" target="_top" title=" ― DimensionalKeyMember:&#10;Single data instance that is part of a dimensional key." xlink:actuate="onRequest" xlink:href="../DDICDILibrary/Classes/DataDescription/Dimensional/DimensionalKeyMember.html#super-class-hierarchy-generalization" xlink:show="new" xlink:title=" ― DimensionalKeyMember:&#10;Single data instance that is part of a dimensional key." xlink:type="simple"><g id="elem_DDICDIModels::DDICDILibrary::Classes::DataDescription::Dimensional::DimensionalKeyMember"><rect codeLine="57" fill="#F1F1F1" height="36.1688" id="DDICDIModels::DDICDILibrary::Classes::DataDescription::Dimensional::DimensionalKeyMember" rx="2.25" ry="2.25" style="stroke:#404040;stroke-width:0.45;" width="142.2" x="521.55" y="599.5603"/><text fill="#000000" font-family="sans-serif" font-size="9" lengthAdjust="spacing" textLength="58.5" x="563.4" y="613.4031">Dimensional::</text><text fill="#0000FF" font-family="sans-serif" font-size="12.6" lengthAdjust="spacing" textLength="136.8" x="524.25" y="628.4605">DimensionalKeyMember</text></g></a><!--MD5=[a598e0069ddc6f15d8d67ebcdc90e466]
entity ##9--><!--MD5=[a30a9f063a93b6f2a18559a229be9a29]
class DDICDIModels::DDICDILibrary::Classes::DataDescription::Components::DimensionComponent--><g id="elem_DDICDIModels::DDICDILibrary::Classes::DataDescription::Components::DimensionComponent"><rect codeLine="47" fill="#FFD700" height="59.2172" id="DDICDIModels::DDICDILibrary::Classes::DataDescription::Components::DimensionComponent" rx="2.25" ry="2.25" style="stroke:#404040;stroke-width:0.45;" width="180.9" x="231.3" y="423.1603"/><text fill="#000000" font-family="sans-serif" font-size="9" lengthAdjust="spacing" textLength="58.5" x="292.5" y="437.0031">Components::</text><text fill="#000000" font-family="sans-serif" font-size="12.6" lengthAdjust="spacing" textLength="125.1" x="259.2" y="452.0605">DimensionComponent</text><line style="stroke:#404040;stroke-width:0.45;" x1="232.2" x2="411.3" y1="459.3291" y2="459.3291"/><text fill="#000000" font-family="sans-serif" font-size="12.6" lengthAdjust="spacing" textLength="170.1" x="236.7" y="476.0089">categoricalAdditivity : Boolean</text></g><!--MD5=[e7e7182780bccba8828738500ef82a58]
class DDICDIModels::DDICDILibrary::Classes::DataDescription::DataPoint--><a href="../DDICDILibrary/Classes/DataDescription/DataPoint.html#super-class-hierarchy-generalization" target="_top" title=" ― DataPoint:&#10;Container for an instance value." xlink:actuate="onRequest" xlink:href="../DDICDILibrary/Classes/DataDescription/DataPoint.html#super-class-hierarchy-generalization" xlink:show="new" xlink:title=" ― DataPoint:&#10;Container for an instance value." xlink:type="simple"><g id="elem_DDICDIModels::DDICDILibrary::Classes::DataDescription::DataPoint"><rect codeLine="65" fill="#F1F1F1" height="36.1688" id="DDICDIModels::DDICDILibrary::Classes::DataDescription::DataPoint" rx="2.25" ry="2.25" style="stroke:#404040;stroke-width:0.45;" width="135" x="682.65" y="255.7603"/><text fill="#000000" font-family="sans-serif" font-size="9" lengthAdjust="spacing" textLength="72.9" x="713.7" y="269.6031">DataDescription::</text><text fill="#0000FF" font-family="sans-serif" font-size="12.6" lengthAdjust="spacing" textLength="55.8" x="722.25" y="284.6605">DataPoint</text></g></a><!--MD5=[6ad7b2ef38a4f700249d0e2b32d82517]
class DDICDIModels::DDICDILibrary::Classes::DataDescription::DataStructure--><a href="../DDICDILibrary/Classes/DataDescription/DataStructure.html#super-class-hierarchy-generalization" target="_top" title=" ― DataStructure:&#10;Data organization based on reusable data structure components." xlink:actuate="onRequest" xlink:href="../DDICDILibrary/Classes/DataDescription/DataStructure.html#super-class-hierarchy-generalization" xlink:show="new" xlink:title=" ― DataStructure:&#10;Data organization based on reusable data structure components." xlink:type="simple"><g id="elem_DDICDIModels::DDICDILibrary::Classes::DataDescription::DataStructure"><rect codeLine="66" fill="#F1F1F1" height="36.1688" id="DDICDIModels::DDICDILibrary::Classes::DataDescription::DataStructure" rx="2.25" ry="2.25" style="stroke:#404040;stroke-width:0.45;" width="135" x="516.15" y="255.7603"/><text fill="#000000" font-family="sans-serif" font-size="9" lengthAdjust="spacing" textLength="72.9" x="547.2" y="269.6031">DataDescription::</text><text fill="#0000FF" font-family="sans-serif" font-size="12.6" lengthAdjust="spacing" textLength="79.2" x="544.05" y="284.6605">DataStructure</text></g></a><!--MD5=[65a51a3beb66455af85c430549e256a7]
class DDICDIModels::DDICDILibrary::Classes::Conceptual::RepresentedVariable--><a href="../DDICDILibrary/Classes/Conceptual/RepresentedVariable.html#super-class-hierarchy-generalization" target="_top" title=" ― RepresentedVariable:&#10;Conceptual variable with a substantive value domain specified." xlink:actuate="onRequest" xlink:href="../DDICDILibrary/Classes/Conceptual/RepresentedVariable.html#super-class-hierarchy-generalization" xlink:show="new" xlink:title=" ― RepresentedVariable:&#10;Conceptual variable with a substantive value domain specified." xlink:type="simple"><g id="elem_DDICDIModels::DDICDILibrary::Classes::Conceptual::RepresentedVariable"><rect codeLine="67" fill="#F1F1F1" height="36.1688" id="DDICDIModels::DDICDILibrary::Classes::Conceptual::RepresentedVariable" rx="2.25" ry="2.25" style="stroke:#404040;stroke-width:0.45;" width="135" x="849.15" y="255.7603"/><text fill="#000000" font-family="sans-serif" font-size="9" lengthAdjust="spacing" textLength="54.9" x="889.2" y="269.6031">Conceptual::</text><text fill="#0000FF" font-family="sans-serif" font-size="12.6" lengthAdjust="spacing" textLength="120.6" x="856.35" y="284.6605">RepresentedVariable</text></g></a><!--MD5=[1fe5a69c56948e803e4ee51554e950d9]
class DDICDIModels::DDICDILibrary::Classes::DataDescription::Components::DataStructureComponent--><a href="../DDICDILibrary/Classes/DataDescription/Components/DataStructureComponent.html#super-class-hierarchy-generalization" target="_top" title=" ― DataStructureComponent:&#10;Role given to a represented variable in the context of a data structure." xlink:actuate="onRequest" xlink:href="../DDICDILibrary/Classes/DataDescription/Components/DataStructureComponent.html#super-class-hierarchy-generalization" xlink:show="new" xlink:title=" ― DataStructureComponent:&#10;Role given to a represented variable in the context of a data structure." xlink:type="simple"><g id="elem_DDICDIModels::DDICDILibrary::Classes::DataDescription::Components::DataStructureComponent"><rect codeLine="102" fill="#FAFAD2" height="90.9141" id="DDICDIModels::DDICDILibrary::Classes::DataDescription::Components::DataStructureComponent" rx="2.25" ry="2.25" style="stroke:#404040;stroke-width:0.45;" width="261" x="191.25" y="228.3103"/><text fill="#000000" font-family="sans-serif" font-size="9" lengthAdjust="spacing" textLength="58.5" x="292.5" y="242.1531">Components::</text><text fill="#0000FF" font-family="sans-serif" font-size="12.6" lengthAdjust="spacing" textLength="144.9" x="249.3" y="257.2105">DataStructureComponent</text><line style="stroke:#404040;stroke-width:0.45;" x1="192.15" x2="451.35" y1="264.4791" y2="264.4791"/><a href="../DDICDILibrary/DataTypes/StructuredDataTypes/Identifier.html#diagram" target="_top" title=" ― Identifier:&#10;Identifier for objects requiring short- or long-lasting referencing and management." xlink:actuate="onRequest" xlink:href="../DDICDILibrary/DataTypes/StructuredDataTypes/Identifier.html#diagram" xlink:show="new" xlink:title=" ― Identifier:&#10;Identifier for objects requiring short- or long-lasting referencing and management." xlink:type="simple"><text fill="#000000" font-family="sans-serif" font-size="12.6" lengthAdjust="spacing" textLength="55.8" x="196.65" y="281.1589">identifier :</text><text fill="#0000FF" font-family="sans-serif" font-size="12.6" lengthAdjust="spacing" textLength="48.6" x="256.05" y="281.1589">Identifier</text></a><a href="../DDICDILibrary/DataTypes/StructuredDataTypes/PairedControlledVocabularyEntry.html#diagram" target="_top" title=" ― PairedControlledVocabularyEntry:&#10;A tightly bound pair of items from an external controlled vocabulary. The extent property describes the extent to which the parent term applies for the specific case." xlink:actuate="onRequest" xlink:href="../DDICDILibrary/DataTypes/StructuredDataTypes/PairedControlledVocabularyEntry.html#diagram" xlink:show="new" xlink:title=" ― PairedControlledVocabularyEntry:&#10;A tightly bound pair of items from an external controlled vocabulary. The extent property describes the extent to which the parent term applies for the specific case." xlink:type="simple"><text fill="#000000" font-family="sans-serif" font-size="12.6" lengthAdjust="spacing" textLength="57.6" x="196.65" y="297.0074">semantic :</text><text fill="#0000FF" font-family="sans-serif" font-size="12.6" lengthAdjust="spacing" textLength="189" x="257.85" y="297.0074">PairedControlledVocabularyEntry</text></a><a href="../DDICDILibrary/DataTypes/StructuredDataTypes/SpecializationRole.html#diagram" target="_top" title=" ― SpecializationRole:&#10;Specific roles played by represented variables in terms of time, geography, and other concepts which are important for the harmonization and integration of data." xlink:actuate="onRequest" xlink:href="../DDICDILibrary/DataTypes/StructuredDataTypes/SpecializationRole.html#diagram" xlink:show="new" xlink:title=" ― SpecializationRole:&#10;Specific roles played by represented variables in terms of time, geography, and other concepts which are important for the harmonization and integration of data." xlink:type="simple"><text fill="#000000" font-family="sans-serif" font-size="12.6" lengthAdjust="spacing" textLength="82.8" x="196.65" y="312.8558">specialization :</text><text fill="#0000FF" font-family="sans-serif" font-size="12.6" lengthAdjust="spacing" textLength="103.5" x="283.05" y="312.8558">SpecializationRole</text></a></g></a><g id="elem_GMN19"><path d="M5.4,254.4103 L5.4,292.8431 A0,0 0 0 0 5.4,292.8431 L159.3,292.8431 A0,0 0 0 0 159.3,292.8431 L159.3,277.3603 L191.187,273.7603 L159.3,270.1603 L159.3,263.4103 L150.3,254.4103 L5.4,254.4103 A0,0 0 0 0 5.4,254.4103 " fill="#FFFFFF" style="stroke:#181818;stroke-width:0.45;"/><path d="M150.3,254.4103 L150.3,263.4103 L159.3,263.4103 L150.3,254.4103 " fill="#FFFFFF" style="stroke:#181818;stroke-width:0.45;"/><text fill="#000000" font-family="sans-serif" font-size="11.7" lengthAdjust="spacing" textLength="135" x="10.8" y="271.0559">Class has 8 associations.</text><text fill="#000000" font-family="sans-serif" font-size="11.7" lengthAdjust="spacing" textLength="120.6" x="10.8" y="285.7723">Only 3 are shown here.</text></g><!--MD5=[bfb47c0c43d9ae5e9eb8219f2412d7a3]
reverse link DDICDIModels::DDICDILibrary::Classes::DataDescription::Components::DimensionComponent to DDICDIModels::DDICDILibrary::Classes::DataDescription::Dimensional::DimensionalKeyMember--><g id="link_DDICDIModels::DDICDILibrary::Classes::DataDescription::Components::DimensionComponent_DDICDIModels::DDICDILibrary::Classes::DataDescription::Dimensional::DimensionalKeyMember"><a href="" target="_top" title=" ― isBasedOn:&#10;" xlink:actuate="onRequest" xlink:href="" xlink:show="new" xlink:title=" ― isBasedOn:&#10;" xlink:type="simple"><path codeLine="73" d="M373.896,485.1163 C430.551,519.1903 518.994,572.3713 564.102,599.4973 " fill="none" id="DDICDIModels::DDICDILibrary::Classes::DataDescription::Components::DimensionComponent-backto-DDICDIModels::DDICDILibrary::Classes::DataDescription::Dimensional::DimensionalKeyMember" style="stroke:#808080;stroke-width:1.35;"/><polygon fill="#808080" points="369.873,482.6953,374.9665,489.9497,373.7317,485.0105,378.6709,483.7758,369.873,482.6953" style="stroke:#808080;stroke-width:1.35;"/><text fill="#000000" font-family="sans-serif" font-size="11.7" lengthAdjust="spacing" textLength="57.6" x="481.95" y="546.9059">isBasedOn</text></a></g><!--MD5=[9b7b12eb6c8d37f4cc3e95f7f772ce48]
link DDICDIModels::DDICDILibrary::Classes::DataDescription::Components::DimensionComponent to DDICDIModels::DDICDILibrary::Classes::Representations::ValueDomain--><g id="link_DDICDIModels::DDICDILibrary::Classes::DataDescription::Components::DimensionComponent_DDICDIModels::DDICDILibrary::Classes::Representations::ValueDomain"><a href="" target="_top" title=" ― isStructuredBy:&#10;" xlink:actuate="onRequest" xlink:href="" xlink:show="new" xlink:title=" ― isStructuredBy:&#10;" xlink:type="simple"><path codeLine="74" d="M274.464,482.6593 C250.776,497.4823 221.841,516.1123 196.65,533.8603 C167.769,554.2093 135.882,579.2113 114.48,596.3833 " fill="none" id="DDICDIModels::DDICDILibrary::Classes::DataDescription::Components::DimensionComponent-to-DDICDIModels::DDICDILibrary::Classes::Representations::ValueDomain" style="stroke:#808080;stroke-width:1.35;"/><polygon fill="#808080" points="110.871,599.2813,119.4419,597.0209,114.3811,596.4655,114.9366,591.4047,110.871,599.2813" style="stroke:#808080;stroke-width:1.35;"/><text fill="#000000" font-family="sans-serif" font-size="11.7" lengthAdjust="spacing" textLength="77.4" x="197.55" y="546.9059">isStructuredBy</text></a></g><!--MD5=[9f228b597427982366ff13ded59c377d]
reverse link DDICDIModels::DDICDILibrary::Classes::DataDescription::Components::DimensionComponent to DDICDIModels::DDICDILibrary::Classes::DataDescription::Dimensional::DimensionGroup--><g id="link_DDICDIModels::DDICDILibrary::Classes::DataDescription::Components::DimensionComponent_DDICDIModels::DDICDILibrary::Classes::DataDescription::Dimensional::DimensionGroup"><a href="" target="_top" title=" ― has:&#10;" xlink:actuate="onRequest" xlink:href="" xlink:show="new" xlink:title=" ― has:&#10;" xlink:type="simple"><path codeLine="75" d="M342.288,486.9523 C363.348,520.9903 395.298,572.6143 411.813,599.3173 " fill="none" id="DDICDIModels::DDICDILibrary::Classes::DataDescription::Components::DimensionComponent-backto-DDICDIModels::DDICDILibrary::Classes::DataDescription::Dimensional::DimensionGroup" style="stroke:#808080;stroke-width:1.35;"/><polygon fill="#808080" points="339.768,482.8843,340.9949,491.663,342.1472,486.7039,347.1063,487.8562,339.768,482.8843" style="stroke:#808080;stroke-width:1.35;"/><text fill="#000000" font-family="sans-serif" font-size="11.7" lengthAdjust="spacing" textLength="18.9" x="382.05" y="546.9059">has</text></a></g><!--MD5=[68977b7abc953dbeaaafe90d3e5c0408]
reverse link DDICDIModels::DDICDILibrary::Classes::DataDescription::Components::DimensionComponent to DDICDIModels::DDICDILibrary::Classes::DataDescription::KeyValue::MainKeyMember--><g id="link_DDICDIModels::DDICDILibrary::Classes::DataDescription::Components::DimensionComponent_DDICDIModels::DDICDILibrary::Classes::DataDescription::KeyValue::MainKeyMember"><a href="" target="_top" title=" ― isBasedOn:&#10;" xlink:actuate="onRequest" xlink:href="" xlink:show="new" xlink:title=" ― isBasedOn:&#10;" xlink:type="simple"><path codeLine="76" d="M308.196,487.3663 C294.471,521.4043 273.771,572.7223 263.043,599.3173 " fill="none" id="DDICDIModels::DDICDILibrary::Classes::DataDescription::Components::DimensionComponent-backto-DDICDIModels::DDICDILibrary::Classes::DataDescription::KeyValue::MainKeyMember" style="stroke:#808080;stroke-width:1.35;"/><polygon fill="#808080" points="310.005,482.8843,303.6313,489.0443,308.3182,487.0562,310.3063,491.7432,310.005,482.8843" style="stroke:#808080;stroke-width:1.35;"/><text fill="#000000" font-family="sans-serif" font-size="11.7" lengthAdjust="spacing" textLength="57.6" x="290.25" y="546.9059">isBasedOn</text></a></g><!--MD5=[c63541bbe79c986839a22d272db8c3c1]
link DDICDIModels::DDICDILibrary::Classes::DataDescription::Components::DataStructureComponent to DDICDIModels::DDICDILibrary::Classes::Conceptual::RepresentedVariable--><g id="link_DDICDIModels::DDICDILibrary::Classes::DataDescription::Components::DataStructureComponent_DDICDIModels::DDICDILibrary::Classes::Conceptual::RepresentedVariable"><a href="" target="_top" title=" ― isDefinedBy:&#10;Data structure component is defined by zero to one represented variable." xlink:actuate="onRequest" xlink:href="" xlink:show="new" xlink:title=" ― isDefinedBy:&#10;Data structure component is defined by zero to one represented variable." xlink:type="simple"><path codeLine="90" d="M407.268,228.1573 C498.438,185.6413 646.515,134.1703 770.85,172.9603 C820.611,188.4943 868.356,227.6083 894.969,252.2953 " fill="none" id="DDICDIModels::DDICDILibrary::Classes::DataDescription::Components::DataStructureComponent-to-DDICDIModels::DDICDILibrary::Classes::Conceptual::RepresentedVariable" style="stroke:#808080;stroke-width:1.35;"/><polygon fill="#808080" points="898.416,255.5263,894.9519,247.3673,895.1267,252.4554,890.0385,252.6302,898.416,255.5263" style="stroke:#808080;stroke-width:1.35;"/><text fill="#000000" font-family="sans-serif" font-size="11.7" lengthAdjust="spacing" textLength="73.8" x="696.15" y="168.0059"> isDefinedBy</text></a></g><!--MD5=[de733db451d17b880e005c897cb725c2]
reverse link DDICDIModels::DDICDILibrary::Classes::DataDescription::Components::DataStructureComponent to DDICDIModels::DDICDILibrary::Classes::DataDescription::DataPoint--><g id="link_DDICDIModels::DDICDILibrary::Classes::DataDescription::Components::DataStructureComponent_DDICDIModels::DDICDILibrary::Classes::DataDescription::DataPoint"><a href="" target="_top" title=" ― correspondsTo:&#10;" xlink:actuate="onRequest" xlink:href="" xlink:show="new" xlink:title=" ― correspondsTo:&#10;" xlink:type="simple"><path codeLine="95" d="M387.171,225.7093 C445.941,188.6113 534.699,147.5443 612.45,172.9603 C662.292,189.2593 709.038,231.2083 733.14,255.5443 " fill="none" id="DDICDIModels::DDICDILibrary::Classes::DataDescription::Components::DataStructureComponent-backto-DDICDIModels::DDICDILibrary::Classes::DataDescription::DataPoint" style="stroke:#808080;stroke-width:1.35;"/><polygon fill="#808080" points="383.346,228.1483,392.1115,226.831,387.1409,225.7299,388.242,220.7592,383.346,228.1483" style="stroke:#808080;stroke-width:1.35;"/><text fill="#000000" font-family="sans-serif" font-size="11.7" lengthAdjust="spacing" textLength="88.2" x="523.35" y="168.0059"> correspondsTo</text></a></g><!--MD5=[686c287475af6761e2c6bf05bcd759ac]
reverse link DDICDIModels::DDICDILibrary::Classes::DataDescription::Components::DataStructureComponent to DDICDIModels::DDICDILibrary::Classes::DataDescription::DataStructure--><g id="link_DDICDIModels::DDICDILibrary::Classes::DataDescription::Components::DataStructureComponent_DDICDIModels::DDICDILibrary::Classes::DataDescription::DataStructure"><a href="" target="_top" title=" ― has:&#10;" xlink:actuate="onRequest" xlink:href="" xlink:show="new" xlink:title=" ― has:&#10;" xlink:type="simple"><path codeLine="100" d="M456.966,273.7603 C477.441,273.7603 497.781,273.7603 515.979,273.7603 " fill="none" id="DDICDIModels::DDICDILibrary::Classes::DataDescription::Components::DataStructureComponent-backto-DDICDIModels::DDICDILibrary::Classes::DataDescription::DataStructure" style="stroke:#808080;stroke-width:1.35;"/><polygon fill="#808080" points="452.313,273.7603,460.413,277.3603,456.813,273.7603,460.413,270.1603,452.313,273.7603" style="stroke:#808080;stroke-width:1.35;"/><text fill="#000000" font-family="sans-serif" font-size="11.7" lengthAdjust="spacing" textLength="30.6" x="468.9" y="267.9059"> has</text></a></g><!--MD5=[9c4ae3bbf95adc7b9698508a41f5d995]
reverse link DDICDIModels::DDICDILibrary::Classes::DataDescription::Components::DataStructureComponent to DDICDIModels::DDICDILibrary::Classes::DataDescription::Components::DimensionComponent--><g id="link_DDICDIModels::DDICDILibrary::Classes::DataDescription::Components::DataStructureComponent_DDICDIModels::DDICDILibrary::Classes::DataDescription::Components::DimensionComponent"><path codeLine="111" d="M321.75,337.8043 C321.75,366.9193 321.75,400.0393 321.75,423.0793 " fill="none" id="DDICDIModels::DDICDILibrary::Classes::DataDescription::Components::DataStructureComponent-backto-DDICDIModels::DDICDILibrary::Classes::DataDescription::Components::DimensionComponent" style="stroke:#D2691E;stroke-width:1.35;"/><polygon fill="none" points="315.45,337.4083,321.75,319.4083,328.05,337.4083,315.45,337.4083" style="stroke:#D2691E;stroke-width:1.35;"/></g><rect height="33.9609" style="stroke:#00000000;stroke-width:0.9;fill:none;" width="348.3" x="314.325" y="640.2291"/><text fill="#888888" font-family="sans-serif" font-size="9" lengthAdjust="spacing" textLength="2.7" x="487.125" y="649.5718"> </text><text fill="#888888" font-family="sans-serif" font-size="9" lengthAdjust="spacing" textLength="2.7" x="487.125" y="660.8921"> </text><text fill="#888888" font-family="sans-serif" font-size="9" lengthAdjust="spacing" textLength="348.3" x="314.325" y="672.2125">DDI Cross Domain Integration (DDI-CDI)   1.0 - Components::DimensionComponent</text><!--MD5=[3df0a2f0e47f057466fa7f75fefe8c39]
@startuml
!pragma ratio 0.5625
' HD display aspect ratio 16:9
' hyperlinkColor and pathHoverColor do not seem to work with class diagrams
' working approach: colors per item
' default font size for class names is 14

hide circle
hide empty members
scale 0.9

skinparam {
  ArrowThickness 1.5
  MinClassWidth 150
}

skinparam legend {
  BackgroundColor white
  FontSize 10
}

skinparam note {
  BackgroundColor white
}

skinparam class {
  ArrowColor #404040
  BorderColor #404040
}

skinparam package {
  FontColor lightgrey
  BorderColor lightgrey
}

title <size:20>UML Diagram: Class DimensionComponent in Context\n
footer \n\nDDI Cross Domain Integration (DDI-CDI)   1.0 - Components::DimensionComponent

legend top left
**Hints**
<color:grey>- Move the mouse cursor over a name to see more information.
<color:grey>- Click on a name to go to the corresponding page.
<color:grey>- The arrows of the inheritance tree are <color:#D2691E>colored<color:grey>.
endlegend

' Core class of diagram
class DDICDIModels::DDICDILibrary::Classes::DataDescription::Components::DimensionComponent as "<size:10>Components::\n<color:black>DimensionComponent" #FFD700 {
  categoricalAdditivity : Boolean
}

' Class definitions for associated classes without superclass (might have also an association)
' This would be too many constraints for Graphviz. 
together {
  class DDICDIModels::DDICDILibrary::Classes::Representations::ValueDomain as "<size:10>Representations::\n<color:blue>ValueDomain" [[../DDICDILibrary/Classes/Representations/ValueDomain.html#super-class-hierarchy-generalization{ <U+2015> ValueDomain:\nSet of permissible values for a variable (adapted from ISO/IEC 11179).}]]
  class DDICDIModels::DDICDILibrary::Classes::DataDescription::KeyValue::MainKeyMember as "<size:10>KeyValue::\n<color:blue>MainKeyMember" [[../DDICDILibrary/Classes/DataDescription/KeyValue/MainKeyMember.html#super-class-hierarchy-generalization{ <U+2015> MainKeyMember:\nIdentifies the unit of interest, either a statistical unit or a population, via identifier or dimension components, respectively, plus an optional contextual component. If neither identifier nor dimension components are present, then a synthetic id component is used.}]]
  class DDICDIModels::DDICDILibrary::Classes::DataDescription::Dimensional::DimensionGroup as "<size:10>Dimensional::\n<color:blue>DimensionGroup" [[../DDICDILibrary/Classes/DataDescription/Dimensional/DimensionGroup.html#super-class-hierarchy-generalization{ <U+2015> DimensionGroup:\nCollection of dimensions that can be reused across multiple dimensional structures.}]]
  class DDICDIModels::DDICDILibrary::Classes::DataDescription::Dimensional::DimensionalKeyMember as "<size:10>Dimensional::\n<color:blue>DimensionalKeyMember" [[../DDICDILibrary/Classes/DataDescription/Dimensional/DimensionalKeyMember.html#super-class-hierarchy-generalization{ <U+2015> DimensionalKeyMember:\nSingle data instance that is part of a dimensional key.}]]
}

' Class definitions for suppliers of abstractions
together {
}

' Rest of class definitions, without associated classes of core class and abstraction supplier classes
class DDICDIModels::DDICDILibrary::Classes::DataDescription::DataPoint as "<size:10>DataDescription::\n<color:blue>DataPoint" [[../DDICDILibrary/Classes/DataDescription/DataPoint.html#super-class-hierarchy-generalization{ <U+2015> DataPoint:\nContainer for an instance value.}]]
class DDICDIModels::DDICDILibrary::Classes::DataDescription::DataStructure as "<size:10>DataDescription::\n<color:blue>DataStructure" [[../DDICDILibrary/Classes/DataDescription/DataStructure.html#super-class-hierarchy-generalization{ <U+2015> DataStructure:\nData organization based on reusable data structure components.}]]
class DDICDIModels::DDICDILibrary::Classes::Conceptual::RepresentedVariable as "<size:10>Conceptual::\n<color:blue>RepresentedVariable" [[../DDICDILibrary/Classes/Conceptual/RepresentedVariable.html#super-class-hierarchy-generalization{ <U+2015> RepresentedVariable:\nConceptual variable with a substantive value domain specified.}]]
class DDICDIModels::DDICDILibrary::Classes::DataDescription::Components::DataStructureComponent as "<size:10>Components::\n<color:blue>DataStructureComponent" [[../DDICDILibrary/Classes/DataDescription/Components/DataStructureComponent.html#super-class-hierarchy-generalization{ <U+2015> DataStructureComponent:\nRole given to a represented variable in the context of a data structure.}]]



' Associations
DDICDIModels::DDICDILibrary::Classes::DataDescription::Components::DimensionComponent <-[#grey]- DDICDIModels::DDICDILibrary::Classes::DataDescription::Dimensional::DimensionalKeyMember [[{ <U+2015> isBasedOn:\n}]] : isBasedOn
DDICDIModels::DDICDILibrary::Classes::DataDescription::Components::DimensionComponent -[#grey]-> DDICDIModels::DDICDILibrary::Classes::Representations::ValueDomain [[{ <U+2015> isStructuredBy:\n}]] : isStructuredBy
DDICDIModels::DDICDILibrary::Classes::DataDescription::Components::DimensionComponent <-[#grey]- DDICDIModels::DDICDILibrary::Classes::DataDescription::Dimensional::DimensionGroup [[{ <U+2015> has:\n}]] : has
DDICDIModels::DDICDILibrary::Classes::DataDescription::Components::DimensionComponent <-[#grey]- DDICDIModels::DDICDILibrary::Classes::DataDescription::KeyValue::MainKeyMember [[{ <U+2015> isBasedOn:\n}]] : isBasedOn

' Super classes
' Associations of Super classes
note left of DDICDIModels::DDICDILibrary::Classes::DataDescription::Components::DataStructureComponent : Class has 8 associations.\nOnly 3 are shown here.
' firstAncestor:	org.eclipse.uml2.uml.internal.impl.ClassImpl@46d567cb (name: DataStructureComponent, visibility: <unset>) (isLeaf: false, isAbstract: false, isFinalSpecialization: false) (isActive: false)
' secondAncestor:	org.eclipse.uml2.uml.internal.impl.ClassImpl@46d567cb (name: DataStructureComponent, visibility: <unset>) (isLeaf: false, isAbstract: false, isFinalSpecialization: false) (isActive: false)



' aClass:			DimensionComponent
' aSuperClass:		DataStructureComponent
' e_ownedEndClass:	DataStructureComponent
' e_otherEndClass:	RepresentedVariable
DDICDIModels::DDICDILibrary::Classes::DataDescription::Components::DataStructureComponent -[#grey]> DDICDIModels::DDICDILibrary::Classes::Conceptual::RepresentedVariable [[{ <U+2015> isDefinedBy:\nData structure component is defined by zero to one represented variable.}]] : <U+2003>isDefinedBy
' aClass:			DimensionComponent
' aSuperClass:		DataStructureComponent
' e_ownedEndClass:	DataPoint
' e_otherEndClass:	DataStructureComponent
DDICDIModels::DDICDILibrary::Classes::DataDescription::Components::DataStructureComponent <-[#grey] DDICDIModels::DDICDILibrary::Classes::DataDescription::DataPoint [[{ <U+2015> correspondsTo:\n}]] : <U+2003>correspondsTo
' aClass:			DimensionComponent
' aSuperClass:		DataStructureComponent
' e_ownedEndClass:	DataStructure
' e_otherEndClass:	DataStructureComponent
DDICDIModels::DDICDILibrary::Classes::DataDescription::Components::DataStructureComponent <-[#grey] DDICDIModels::DDICDILibrary::Classes::DataDescription::DataStructure [[{ <U+2015> has:\n}]] : <U+2003>has

class DDICDIModels::DDICDILibrary::Classes::DataDescription::Components::DataStructureComponent as "<size:10> \n<color:blue>DataStructureComponent" [[../DDICDILibrary/Classes/DataDescription/Components/DataStructureComponent.html#super-class-hierarchy-generalization{ <U+2015> DataStructureComponent:\nRole given to a represented variable in the context of a data structure.}]] #FAFAD2 {
  identifier : <color:blue>Identifier   	  [[[../DDICDILibrary/DataTypes/StructuredDataTypes/Identifier.html#diagram{ <U+2015> Identifier:\nIdentifier for objects requiring short- or long-lasting referencing and management.}]]]
  semantic : <color:blue>PairedControlledVocabularyEntry   	  [[[../DDICDILibrary/DataTypes/StructuredDataTypes/PairedControlledVocabularyEntry.html#diagram{ <U+2015> PairedControlledVocabularyEntry:\nA tightly bound pair of items from an external controlled vocabulary. The extent property describes the extent to which the parent term applies for the specific case.}]]]
  specialization : <color:blue>SpecializationRole   	  [[[../DDICDILibrary/DataTypes/StructuredDataTypes/SpecializationRole.html#diagram{ <U+2015> SpecializationRole:\nSpecific roles played by represented variables in terms of time, geography, and other concepts which are important for the harmonization and integration of data.}]]]
}

DDICDIModels::DDICDILibrary::Classes::DataDescription::Components::DataStructureComponent <|-[#D2691E]- DDICDIModels::DDICDILibrary::Classes::DataDescription::Components::DimensionComponent


' Abstractions
@enduml

@startuml
!pragma ratio 0.5625

hide circle
hide empty members
scale 0.9

skinparam {
  ArrowThickness 1.5
  MinClassWidth 150
}

skinparam legend {
  BackgroundColor white
  FontSize 10
}

skinparam note {
  BackgroundColor white
}

skinparam class {
  ArrowColor #404040
  BorderColor #404040
}

skinparam package {
  FontColor lightgrey
  BorderColor lightgrey
}

title <size:20>UML Diagram: Class DimensionComponent in Context\n
footer \n\nDDI Cross Domain Integration (DDI-CDI)   1.0 - Components::DimensionComponent

legend top left
**Hints**
<color:grey>- Move the mouse cursor over a name to see more information.
<color:grey>- Click on a name to go to the corresponding page.
<color:grey>- The arrows of the inheritance tree are <color:#D2691E>colored<color:grey>.
endlegend

class DDICDIModels::DDICDILibrary::Classes::DataDescription::Components::DimensionComponent as "<size:10>Components::\n<color:black>DimensionComponent" #FFD700 {
  categoricalAdditivity : Boolean
}

together {
  class DDICDIModels::DDICDILibrary::Classes::Representations::ValueDomain as "<size:10>Representations::\n<color:blue>ValueDomain" [[../DDICDILibrary/Classes/Representations/ValueDomain.html#super-class-hierarchy-generalization{ <U+2015> ValueDomain:\nSet of permissible values for a variable (adapted from ISO/IEC 11179).}]]
  class DDICDIModels::DDICDILibrary::Classes::DataDescription::KeyValue::MainKeyMember as "<size:10>KeyValue::\n<color:blue>MainKeyMember" [[../DDICDILibrary/Classes/DataDescription/KeyValue/MainKeyMember.html#super-class-hierarchy-generalization{ <U+2015> MainKeyMember:\nIdentifies the unit of interest, either a statistical unit or a population, via identifier or dimension components, respectively, plus an optional contextual component. If neither identifier nor dimension components are present, then a synthetic id component is used.}]]
  class DDICDIModels::DDICDILibrary::Classes::DataDescription::Dimensional::DimensionGroup as "<size:10>Dimensional::\n<color:blue>DimensionGroup" [[../DDICDILibrary/Classes/DataDescription/Dimensional/DimensionGroup.html#super-class-hierarchy-generalization{ <U+2015> DimensionGroup:\nCollection of dimensions that can be reused across multiple dimensional structures.}]]
  class DDICDIModels::DDICDILibrary::Classes::DataDescription::Dimensional::DimensionalKeyMember as "<size:10>Dimensional::\n<color:blue>DimensionalKeyMember" [[../DDICDILibrary/Classes/DataDescription/Dimensional/DimensionalKeyMember.html#super-class-hierarchy-generalization{ <U+2015> DimensionalKeyMember:\nSingle data instance that is part of a dimensional key.}]]
}

together {
}

class DDICDIModels::DDICDILibrary::Classes::DataDescription::DataPoint as "<size:10>DataDescription::\n<color:blue>DataPoint" [[../DDICDILibrary/Classes/DataDescription/DataPoint.html#super-class-hierarchy-generalization{ <U+2015> DataPoint:\nContainer for an instance value.}]]
class DDICDIModels::DDICDILibrary::Classes::DataDescription::DataStructure as "<size:10>DataDescription::\n<color:blue>DataStructure" [[../DDICDILibrary/Classes/DataDescription/DataStructure.html#super-class-hierarchy-generalization{ <U+2015> DataStructure:\nData organization based on reusable data structure components.}]]
class DDICDIModels::DDICDILibrary::Classes::Conceptual::RepresentedVariable as "<size:10>Conceptual::\n<color:blue>RepresentedVariable" [[../DDICDILibrary/Classes/Conceptual/RepresentedVariable.html#super-class-hierarchy-generalization{ <U+2015> RepresentedVariable:\nConceptual variable with a substantive value domain specified.}]]
class DDICDIModels::DDICDILibrary::Classes::DataDescription::Components::DataStructureComponent as "<size:10>Components::\n<color:blue>DataStructureComponent" [[../DDICDILibrary/Classes/DataDescription/Components/DataStructureComponent.html#super-class-hierarchy-generalization{ <U+2015> DataStructureComponent:\nRole given to a represented variable in the context of a data structure.}]]



DDICDIModels::DDICDILibrary::Classes::DataDescription::Components::DimensionComponent <-[#grey]- DDICDIModels::DDICDILibrary::Classes::DataDescription::Dimensional::DimensionalKeyMember [[{ <U+2015> isBasedOn:\n}]] : isBasedOn
DDICDIModels::DDICDILibrary::Classes::DataDescription::Components::DimensionComponent -[#grey]-> DDICDIModels::DDICDILibrary::Classes::Representations::ValueDomain [[{ <U+2015> isStructuredBy:\n}]] : isStructuredBy
DDICDIModels::DDICDILibrary::Classes::DataDescription::Components::DimensionComponent <-[#grey]- DDICDIModels::DDICDILibrary::Classes::DataDescription::Dimensional::DimensionGroup [[{ <U+2015> has:\n}]] : has
DDICDIModels::DDICDILibrary::Classes::DataDescription::Components::DimensionComponent <-[#grey]- DDICDIModels::DDICDILibrary::Classes::DataDescription::KeyValue::MainKeyMember [[{ <U+2015> isBasedOn:\n}]] : isBasedOn

note left of DDICDIModels::DDICDILibrary::Classes::DataDescription::Components::DataStructureComponent : Class has 8 associations.\nOnly 3 are shown here.



DDICDIModels::DDICDILibrary::Classes::DataDescription::Components::DataStructureComponent -[#grey]> DDICDIModels::DDICDILibrary::Classes::Conceptual::RepresentedVariable [[{ <U+2015> isDefinedBy:\nData structure component is defined by zero to one represented variable.}]] : <U+2003>isDefinedBy
DDICDIModels::DDICDILibrary::Classes::DataDescription::Components::DataStructureComponent <-[#grey] DDICDIModels::DDICDILibrary::Classes::DataDescription::DataPoint [[{ <U+2015> correspondsTo:\n}]] : <U+2003>correspondsTo
DDICDIModels::DDICDILibrary::Classes::DataDescription::Components::DataStructureComponent <-[#grey] DDICDIModels::DDICDILibrary::Classes::DataDescription::DataStructure [[{ <U+2015> has:\n}]] : <U+2003>has

class DDICDIModels::DDICDILibrary::Classes::DataDescription::Components::DataStructureComponent as "<size:10> \n<color:blue>DataStructureComponent" [[../DDICDILibrary/Classes/DataDescription/Components/DataStructureComponent.html#super-class-hierarchy-generalization{ <U+2015> DataStructureComponent:\nRole given to a represented variable in the context of a data structure.}]] #FAFAD2 {
  identifier : <color:blue>Identifier   	  [[[../DDICDILibrary/DataTypes/StructuredDataTypes/Identifier.html#diagram{ <U+2015> Identifier:\nIdentifier for objects requiring short- or long-lasting referencing and management.}]]]
  semantic : <color:blue>PairedControlledVocabularyEntry   	  [[[../DDICDILibrary/DataTypes/StructuredDataTypes/PairedControlledVocabularyEntry.html#diagram{ <U+2015> PairedControlledVocabularyEntry:\nA tightly bound pair of items from an external controlled vocabulary. The extent property describes the extent to which the parent term applies for the specific case.}]]]
  specialization : <color:blue>SpecializationRole   	  [[[../DDICDILibrary/DataTypes/StructuredDataTypes/SpecializationRole.html#diagram{ <U+2015> SpecializationRole:\nSpecific roles played by represented variables in terms of time, geography, and other concepts which are important for the harmonization and integration of data.}]]]
}

DDICDIModels::DDICDILibrary::Classes::DataDescription::Components::DataStructureComponent <|-[#D2691E]- DDICDIModels::DDICDILibrary::Classes::DataDescription::Components::DimensionComponent


@enduml

PlantUML version 1.2022.6(Tue Jun 21 19:34:49 CEST 2022)
(GPL source distribution)
Java Runtime: OpenJDK Runtime Environment
JVM: OpenJDK 64-Bit Server VM
Default Encoding: Cp1252
Language: en
Country: US
--></g></svg>