<?xml version="1.0" encoding="UTF-8" standalone="no"?><svg xmlns="http://www.w3.org/2000/svg" xmlns:xlink="http://www.w3.org/1999/xlink" contentStyleType="text/css" height="652.5px" preserveAspectRatio="none" style="width:710px;height:652px;background:#FFFFFF;" version="1.1" viewBox="0 0 710 652" width="710.1px" zoomAndPan="magnify"><defs/><g><rect height="47.4891" style="stroke:#00000000;stroke-width:0.9;fill:none;" width="527.4" x="85.275" y="4.5"/><text fill="#000000" font-family="sans-serif" font-size="18" font-weight="bold" lengthAdjust="spacing" textLength="518.4" x="89.775" y="27.6855">UML Diagram: Class ClassificationSeriesStructure in Context</text><text fill="#000000" font-family="sans-serif" font-size="12.6" font-weight="bold" lengthAdjust="spacing" textLength="3.6" x="347.175" y="44.7205"> </text><rect fill="#FFFFFF" height="44.7609" rx="6.75" ry="6.75" style="stroke:#000000;stroke-width:0.9;" width="276.3" x="7.2" y="64.5891"/><text fill="#000000" font-family="sans-serif" font-size="9" font-weight="bold" lengthAdjust="spacing" textLength="22.5" x="12.6" y="79.3318">Hints</text><text fill="#808080" font-family="sans-serif" font-size="9" lengthAdjust="spacing" textLength="265.5" x="12.6" y="90.6521">- Move the mouse cursor over a name to see more information.</text><text fill="#808080" font-family="sans-serif" font-size="9" lengthAdjust="spacing" textLength="216" x="12.6" y="101.9725">- Click on a name to go to the corresponding page.</text><!--MD5=[290e379a7ad3bf48335a60ad5a5e6594]
class DDICDIModels::DDICDILibrary::Classes::Representations::StatisticalClassificationRelationship--><a href="../DDICDILibrary/Classes/Representations/StatisticalClassificationRelationship.html#super-class-hierarchy-generalization" target="_top" title=" ― StatisticalClassificationRelationship:&#10;Specifies the statistical classifications for the source and target of a complex relationship and defines the relationship." xlink:actuate="onRequest" xlink:href="../DDICDILibrary/Classes/Representations/StatisticalClassificationRelationship.html#super-class-hierarchy-generalization" xlink:show="new" xlink:title=" ― StatisticalClassificationRelationship:&#10;Specifies the statistical classifications for the source and target of a complex relationship and defines the relationship." xlink:type="simple"><g id="elem_DDICDIModels::DDICDILibrary::Classes::Representations::StatisticalClassificationRelationship"><rect codeLine="66" fill="#F1F1F1" height="36.1688" id="DDICDIModels::DDICDILibrary::Classes::Representations::StatisticalClassificationRelationship" rx="2.25" ry="2.25" style="stroke:#404040;stroke-width:0.45;" width="204.3" x="6.3" y="350.1"/><text fill="#000000" font-family="sans-serif" font-size="9" lengthAdjust="spacing" textLength="72.9" x="72" y="363.9428">Representations::</text><text fill="#0000FF" font-family="sans-serif" font-size="12.6" lengthAdjust="spacing" textLength="198.9" x="9" y="379.0002">StatisticalClassificationRelationship</text></g></a><!--MD5=[cc04dd1da48773e6fc5a6fe8fa5533a2]
class DDICDIModels::DDICDILibrary::Classes::Representations::ClassificationSeries--><a href="../DDICDILibrary/Classes/Representations/ClassificationSeries.html#super-class-hierarchy-generalization" target="_top" title=" ― ClassificationSeries:&#10;Ensemble of one or more statistical classifications, based on the same concept, and related to each other as versions or updates." xlink:actuate="onRequest" xlink:href="../DDICDILibrary/Classes/Representations/ClassificationSeries.html#super-class-hierarchy-generalization" xlink:show="new" xlink:title=" ― ClassificationSeries:&#10;Ensemble of one or more statistical classifications, based on the same concept, and related to each other as versions or updates." xlink:type="simple"><g id="elem_DDICDIModels::DDICDILibrary::Classes::Representations::ClassificationSeries"><rect codeLine="67" fill="#F1F1F1" height="36.1688" id="DDICDIModels::DDICDILibrary::Classes::Representations::ClassificationSeries" rx="2.25" ry="2.25" style="stroke:#404040;stroke-width:0.45;" width="135" x="377.55" y="350.1"/><text fill="#000000" font-family="sans-serif" font-size="9" lengthAdjust="spacing" textLength="72.9" x="408.6" y="363.9428">Representations::</text><text fill="#0000FF" font-family="sans-serif" font-size="12.6" lengthAdjust="spacing" textLength="110.7" x="389.7" y="379.0002">ClassificationSeries</text></g></a><!--MD5=[e8ea17671d2b816e5709704adf065cd9]
class DDICDIModels::DesignPatterns::CollectionsPattern::Structure--><a href="../DesignPatterns/CollectionsPattern/Structure.html#super-class-hierarchy-generalization" target="_top" title=" ― Structure:&#10;Organized set of relationships between members in a collection. These relationships can be characterized mathematically in terms of reflexivity, symmetry and transitivity, or informally in terms of the collection's topology, e.g. network, tree, etc. In both cases it can also be defined either on all ..." xlink:actuate="onRequest" xlink:href="../DesignPatterns/CollectionsPattern/Structure.html#super-class-hierarchy-generalization" xlink:show="new" xlink:title=" ― Structure:&#10;Organized set of relationships between members in a collection. These relationships can be characterized mathematically in terms of reflexivity, symmetry and transitivity, or informally in terms of the collection's topology, e.g. network, tree, etc. In both cases it can also be defined either on all ..." xlink:type="simple"><g id="elem_DDICDIModels::DesignPatterns::CollectionsPattern::Structure"><rect codeLine="72" fill="#F1F1F1" height="36.1688" id="DDICDIModels::DesignPatterns::CollectionsPattern::Structure" rx="2.25" ry="2.25" style="stroke:#404040;stroke-width:0.45;" width="135" x="570.15" y="571.5"/><text fill="#000000" font-family="sans-serif" font-size="9" font-style="italic" lengthAdjust="spacing" textLength="83.7" x="595.8" y="585.3428">CollectionsPattern::</text><text fill="#0000FF" font-family="sans-serif" font-size="12.6" font-style="italic" lengthAdjust="spacing" textLength="52.2" x="611.55" y="600.4002">Structure</text></g></a><!--MD5=[763cc00662a209634f139486137f4c03]
class DDICDIModels::DDICDILibrary::Classes::Representations::ClassificationSeriesStructure--><g id="elem_DDICDIModels::DDICDILibrary::Classes::Representations::ClassificationSeriesStructure"><rect codeLine="46" fill="#FFD700" height="154.3078" id="DDICDIModels::DDICDILibrary::Classes::Representations::ClassificationSeriesStructure" rx="2.25" ry="2.25" style="stroke:#404040;stroke-width:0.45;" width="230.4" x="329.85" y="123.75"/><text fill="#000000" font-family="sans-serif" font-size="9" lengthAdjust="spacing" textLength="72.9" x="408.6" y="137.5928">Representations::</text><text fill="#000000" font-family="sans-serif" font-size="12.6" lengthAdjust="spacing" textLength="162.9" x="363.6" y="152.6502">ClassificationSeriesStructure</text><line style="stroke:#404040;stroke-width:0.45;" x1="330.75" x2="559.35" y1="159.9188" y2="159.9188"/><a href="../DDICDILibrary/DataTypes/StructuredDataTypes/Identifier.html#diagram" target="_top" title=" ― Identifier:&#10;Identifier for objects requiring short- or long-lasting referencing and management." xlink:actuate="onRequest" xlink:href="../DDICDILibrary/DataTypes/StructuredDataTypes/Identifier.html#diagram" xlink:show="new" xlink:title=" ― Identifier:&#10;Identifier for objects requiring short- or long-lasting referencing and management." xlink:type="simple"><text fill="#000000" font-family="sans-serif" font-size="12.6" lengthAdjust="spacing" textLength="55.8" x="335.25" y="176.5986">identifier :</text><text fill="#0000FF" font-family="sans-serif" font-size="12.6" lengthAdjust="spacing" textLength="48.6" x="394.65" y="176.5986">Identifier</text></a><a href="../DDICDILibrary/DataTypes/StructuredDataTypes/ObjectName.html#diagram" target="_top" title=" ― ObjectName:&#10;A standard means of expressing a name for a class object. A linguistic signifier. Human understandable name (word, phrase, or mnemonic) that reflects the ISO/IEC 11179-5 naming principles." xlink:actuate="onRequest" xlink:href="../DDICDILibrary/DataTypes/StructuredDataTypes/ObjectName.html#diagram" xlink:show="new" xlink:title=" ― ObjectName:&#10;A standard means of expressing a name for a class object. A linguistic signifier. Human understandable name (word, phrase, or mnemonic) that reflects the ISO/IEC 11179-5 naming principles." xlink:type="simple"><text fill="#000000" font-family="sans-serif" font-size="12.6" lengthAdjust="spacing" textLength="38.7" x="335.25" y="192.4471">name :</text><text fill="#0000FF" font-family="sans-serif" font-size="12.6" lengthAdjust="spacing" textLength="69.3" x="377.55" y="192.4471">ObjectName</text></a><a href="../DDICDILibrary/DataTypes/StructuredDataTypes/InternationalString.html#diagram" target="_top" title=" ― InternationalString:&#10;Packaging structure for multiple language versions of the same string content. Where an element of this type is repeatable, the expectation is that each repetition contains different content, each of which can be expressed in multiple languages. The language designation goes on the individual String ..." xlink:actuate="onRequest" xlink:href="../DDICDILibrary/DataTypes/StructuredDataTypes/InternationalString.html#diagram" xlink:show="new" xlink:title=" ― InternationalString:&#10;Packaging structure for multiple language versions of the same string content. Where an element of this type is repeatable, the expectation is that each repetition contains different content, each of which can be expressed in multiple languages. The language designation goes on the individual String ..." xlink:type="simple"><text fill="#000000" font-family="sans-serif" font-size="12.6" lengthAdjust="spacing" textLength="54" x="335.25" y="208.2955">purpose :</text><text fill="#0000FF" font-family="sans-serif" font-size="12.6" lengthAdjust="spacing" textLength="103.5" x="392.85" y="208.2955">InternationalString</text></a><a href="../DDICDILibrary/DataTypes/StructuredDataTypes/ControlledVocabularyEntry.html#diagram" target="_top" title=" ― ControlledVocabularyEntry:&#10;Allows for unstructured content which may be an entry from an externally maintained controlled vocabulary.If the content is from a controlled vocabulary provide the code value of the entry, as well as a reference to the controlled vocabulary from which the value is taken. Provide as many of the iden ..." xlink:actuate="onRequest" xlink:href="../DDICDILibrary/DataTypes/StructuredDataTypes/ControlledVocabularyEntry.html#diagram" xlink:show="new" xlink:title=" ― ControlledVocabularyEntry:&#10;Allows for unstructured content which may be an entry from an externally maintained controlled vocabulary.If the content is from a controlled vocabulary provide the code value of the entry, as well as a reference to the controlled vocabulary from which the value is taken. Provide as many of the iden ..." xlink:type="simple"><text fill="#000000" font-family="sans-serif" font-size="12.6" lengthAdjust="spacing" textLength="63.9" x="335.25" y="224.1439">semantics :</text><text fill="#0000FF" font-family="sans-serif" font-size="12.6" lengthAdjust="spacing" textLength="152.1" x="402.75" y="224.1439">ControlledVocabularyEntry</text></a><a href="../DDICDILibrary/DataTypes/StructuredDataTypes/StructureSpecification.html#diagram" target="_top" title=" ― StructureSpecification:&#10;The mathematical properties of the structure." xlink:actuate="onRequest" xlink:href="../DDICDILibrary/DataTypes/StructuredDataTypes/StructureSpecification.html#diagram" xlink:show="new" xlink:title=" ― StructureSpecification:&#10;The mathematical properties of the structure." xlink:type="simple"><text fill="#000000" font-family="sans-serif" font-size="12.6" lengthAdjust="spacing" textLength="77.4" x="335.25" y="239.9924">specification :</text><text fill="#0000FF" font-family="sans-serif" font-size="12.6" lengthAdjust="spacing" textLength="124.2" x="416.25" y="239.9924">StructureSpecification</text></a><a href="../DDICDILibrary/DataTypes/StructuredDataTypes/ControlledVocabularyEntry.html#diagram" target="_top" title=" ― ControlledVocabularyEntry:&#10;Allows for unstructured content which may be an entry from an externally maintained controlled vocabulary.If the content is from a controlled vocabulary provide the code value of the entry, as well as a reference to the controlled vocabulary from which the value is taken. Provide as many of the iden ..." xlink:actuate="onRequest" xlink:href="../DDICDILibrary/DataTypes/StructuredDataTypes/ControlledVocabularyEntry.html#diagram" xlink:show="new" xlink:title=" ― ControlledVocabularyEntry:&#10;Allows for unstructured content which may be an entry from an externally maintained controlled vocabulary.If the content is from a controlled vocabulary provide the code value of the entry, as well as a reference to the controlled vocabulary from which the value is taken. Provide as many of the iden ..." xlink:type="simple"><text fill="#000000" font-family="sans-serif" font-size="12.6" lengthAdjust="spacing" textLength="55.8" x="335.25" y="255.8408">topology :</text><text fill="#0000FF" font-family="sans-serif" font-size="12.6" lengthAdjust="spacing" textLength="152.1" x="394.65" y="255.8408">ControlledVocabularyEntry</text></a><a href="../DDICDILibrary/DataTypes/Enumerations/StructureExtent.html#diagram" target="_top" title=" ― StructureExtent:&#10;Type of relation in terms of totality with respect to an associated collection. The totality type is given by the controlled vocabulary {total, partial}." xlink:actuate="onRequest" xlink:href="../DDICDILibrary/DataTypes/Enumerations/StructureExtent.html#diagram" xlink:show="new" xlink:title=" ― StructureExtent:&#10;Type of relation in terms of totality with respect to an associated collection. The totality type is given by the controlled vocabulary {total, partial}." xlink:type="simple"><text fill="#000000" font-family="sans-serif" font-size="12.6" lengthAdjust="spacing" textLength="44.1" x="335.25" y="271.6893">totality :</text><text fill="#0000FF" font-family="sans-serif" font-size="12.6" lengthAdjust="spacing" textLength="87.3" x="382.95" y="271.6893">StructureExtent</text></a></g><!--MD5=[f84830dcb57f695a3f563aeb3c5555c6]
link DDICDIModels::DDICDILibrary::Classes::Representations::ClassificationSeriesStructure to DDICDIModels::DDICDILibrary::Classes::Representations::StatisticalClassificationRelationship--><g id="link_DDICDIModels::DDICDILibrary::Classes::Representations::ClassificationSeriesStructure_DDICDIModels::DDICDILibrary::Classes::Representations::StatisticalClassificationRelationship"><a href="" target="_top" title=" ― has:&#10;" xlink:actuate="onRequest" xlink:href="" xlink:show="new" xlink:title=" ― has:&#10;" xlink:type="simple"><path codeLine="80" d="M319.9838,263.1126 C319.9838,263.1126 196.524,323.865 154.278,344.655 " fill="none" id="DDICDIModels::DDICDILibrary::Classes::Representations::ClassificationSeriesStructure-DDICDIModels::DDICDILibrary::Classes::Representations::StatisticalClassificationRelationship" style="stroke:#808080;stroke-width:1.35;"/><polygon fill="#808080" points="143.505,349.947,152.3622,349.6011,147.5427,347.9603,149.1835,343.1407,143.505,349.947" style="stroke:#808080;stroke-width:1.35;"/><line style="stroke:#808080;stroke-width:1.35;" x1="147.5427" x2="154.008" y1="347.9603" y2="344.7855"/><polygon fill="#808080" points="329.679,258.354,323.2452,257.5016,319.9838,263.1126,326.4176,263.965,329.679,258.354" style="stroke:#808080;stroke-width:1.35;"/><text fill="#000000" font-family="sans-serif" font-size="11.7" lengthAdjust="spacing" textLength="18.9" x="228.15" y="318.1456">has</text></a></g><!--MD5=[2e760790b6a5066f0ec94beb81a03ed4]
link DDICDIModels::DDICDILibrary::Classes::Representations::ClassificationSeriesStructure to DDICDIModels::DDICDILibrary::Classes::Representations::ClassificationSeries--><g id="link_DDICDIModels::DDICDILibrary::Classes::Representations::ClassificationSeriesStructure_DDICDIModels::DDICDILibrary::Classes::Representations::ClassificationSeries"><a href="" target="_top" title=" ― structures:&#10;" xlink:actuate="onRequest" xlink:href="" xlink:show="new" xlink:title=" ― structures:&#10;" xlink:type="simple"><path codeLine="81" d="M445.05,277.857 C445.05,302.535 445.05,327.987 445.05,345.384 " fill="none" id="DDICDIModels::DDICDILibrary::Classes::Representations::ClassificationSeriesStructure-to-DDICDIModels::DDICDILibrary::Classes::Representations::ClassificationSeries" style="stroke:#808080;stroke-width:1.35;"/><polygon fill="#808080" points="445.05,350.064,448.65,341.964,445.05,345.564,441.45,341.964,445.05,350.064" style="stroke:#808080;stroke-width:1.35;"/><text fill="#000000" font-family="sans-serif" font-size="11.7" lengthAdjust="spacing" textLength="52.2" x="445.95" y="318.1456">structures</text></a></g><!--MD5=[beb0cb6e1d01509bcfbb94caabcd891d]
link DDICDIModels::DDICDILibrary::Classes::Representations::ClassificationSeriesStructure to DDICDIModels::DesignPatterns::CollectionsPattern::Structure--><g id="link_DDICDIModels::DDICDILibrary::Classes::Representations::ClassificationSeriesStructure_DDICDIModels::DesignPatterns::CollectionsPattern::Structure"><path codeLine="85" d="M560.421,253.692 C601.434,280.62 637.65,318.249 637.65,367.2 C637.65,367.2 637.65,367.2 637.65,514.35 C637.65,531.954 637.65,551.907 637.65,566.694 " fill="none" id="DDICDIModels::DDICDILibrary::Classes::Representations::ClassificationSeriesStructure-to-DDICDIModels::DesignPatterns::CollectionsPattern::Structure" style="stroke:#404040;stroke-width:1.35;stroke-dasharray:7.0,7.0;"/><polygon fill="#404040" points="637.65,571.491,641.25,563.391,637.65,566.991,634.05,563.391,637.65,571.491" style="stroke:#404040;stroke-width:1.35;"/><text fill="#000000" font-family="sans-serif" font-size="11.7" lengthAdjust="spacing" textLength="45" x="638.55" y="455.8456">«Refine»</text></g><rect height="33.9609" style="stroke:#00000000;stroke-width:0.9;fill:none;" width="389.7" x="154.125" y="612.1688"/><text fill="#888888" font-family="sans-serif" font-size="9" lengthAdjust="spacing" textLength="2.7" x="347.625" y="621.5115"> </text><text fill="#888888" font-family="sans-serif" font-size="9" lengthAdjust="spacing" textLength="2.7" x="347.625" y="632.8318"> </text><text fill="#888888" font-family="sans-serif" font-size="9" lengthAdjust="spacing" textLength="389.7" x="154.125" y="644.1521">DDI Cross Domain Integration (DDI-CDI)   1.0 - Representations::ClassificationSeriesStructure</text><!--MD5=[b231cd3cbd3785c80d43977b32fe32f3]
@startuml
!pragma ratio 0.5625
' HD display aspect ratio 16:9
' hyperlinkColor and pathHoverColor do not seem to work with class diagrams
' working approach: colors per item
' default font size for class names is 14

hide circle
hide empty members
scale 0.9

skinparam {
  ArrowThickness 1.5
  MinClassWidth 150
}

skinparam legend {
  BackgroundColor white
  FontSize 10
}

skinparam note {
  BackgroundColor white
}

skinparam class {
  ArrowColor #404040
  BorderColor #404040
}

skinparam package {
  FontColor lightgrey
  BorderColor lightgrey
}

title <size:20>UML Diagram: Class ClassificationSeriesStructure in Context\n
footer \n\nDDI Cross Domain Integration (DDI-CDI)   1.0 - Representations::ClassificationSeriesStructure

legend top left
**Hints**
<color:grey>- Move the mouse cursor over a name to see more information.
<color:grey>- Click on a name to go to the corresponding page.
endlegend

' Core class of diagram
class DDICDIModels::DDICDILibrary::Classes::Representations::ClassificationSeriesStructure as "<size:10>Representations::\n<color:black>ClassificationSeriesStructure" #FFD700 {
  identifier : <color:blue>Identifier   	  [[[../DDICDILibrary/DataTypes/StructuredDataTypes/Identifier.html#diagram{ <U+2015> Identifier:\nIdentifier for objects requiring short- or long-lasting referencing and management.}]]]
  name : <color:blue>ObjectName   	  [[[../DDICDILibrary/DataTypes/StructuredDataTypes/ObjectName.html#diagram{ <U+2015> ObjectName:\nA standard means of expressing a name for a class object. A linguistic signifier. Human understandable name (word, phrase, or mnemonic) that reflects the ISO/IEC 11179-5 naming principles.}]]]
  purpose : <color:blue>InternationalString   	  [[[../DDICDILibrary/DataTypes/StructuredDataTypes/InternationalString.html#diagram{ <U+2015> InternationalString:\nPackaging structure for multiple language versions of the same string content. Where an element of this type is repeatable, the expectation is that each repetition contains different content, each of which can be expressed in multiple languages. The language designation goes on the individual String ...}]]]
  semantics : <color:blue>ControlledVocabularyEntry   	  [[[../DDICDILibrary/DataTypes/StructuredDataTypes/ControlledVocabularyEntry.html#diagram{ <U+2015> ControlledVocabularyEntry:\nAllows for unstructured content which may be an entry from an externally maintained controlled vocabulary.If the content is from a controlled vocabulary provide the code value of the entry, as well as a reference to the controlled vocabulary from which the value is taken. Provide as many of the iden ...}]]]
  specification : <color:blue>StructureSpecification   	  [[[../DDICDILibrary/DataTypes/StructuredDataTypes/StructureSpecification.html#diagram{ <U+2015> StructureSpecification:\nThe mathematical properties of the structure.}]]]
  topology : <color:blue>ControlledVocabularyEntry   	  [[[../DDICDILibrary/DataTypes/StructuredDataTypes/ControlledVocabularyEntry.html#diagram{ <U+2015> ControlledVocabularyEntry:\nAllows for unstructured content which may be an entry from an externally maintained controlled vocabulary.If the content is from a controlled vocabulary provide the code value of the entry, as well as a reference to the controlled vocabulary from which the value is taken. Provide as many of the iden ...}]]]
  totality : <color:blue>StructureExtent   	  [[[../DDICDILibrary/DataTypes/Enumerations/StructureExtent.html#diagram{ <U+2015> StructureExtent:\nType of relation in terms of totality with respect to an associated collection. The totality type is given by the controlled vocabulary <U+007B>total, partial<U+007D>.}]]]
}

' Class definitions for associated classes without superclass (might have also an association)
' This would be too many constraints for Graphviz. 
together {
  class DDICDIModels::DDICDILibrary::Classes::Representations::StatisticalClassificationRelationship as "<size:10>Representations::\n<color:blue>StatisticalClassificationRelationship" [[../DDICDILibrary/Classes/Representations/StatisticalClassificationRelationship.html#super-class-hierarchy-generalization{ <U+2015> StatisticalClassificationRelationship:\nSpecifies the statistical classifications for the source and target of a complex relationship and defines the relationship.}]]
  class DDICDIModels::DDICDILibrary::Classes::Representations::ClassificationSeries as "<size:10>Representations::\n<color:blue>ClassificationSeries" [[../DDICDILibrary/Classes/Representations/ClassificationSeries.html#super-class-hierarchy-generalization{ <U+2015> ClassificationSeries:\nEnsemble of one or more statistical classifications, based on the same concept, and related to each other as versions or updates.}]]
}

' Class definitions for suppliers of abstractions
together {
  abstract class DDICDIModels::DesignPatterns::CollectionsPattern::Structure as "<size:10>CollectionsPattern::\n<color:blue>Structure" [[../DesignPatterns/CollectionsPattern/Structure.html#super-class-hierarchy-generalization{ <U+2015> Structure:\nOrganized set of relationships between members in a collection. These relationships can be characterized mathematically in terms of reflexivity, symmetry and transitivity, or informally in terms of the collection's topology, e.g. network, tree, etc. In both cases it can also be defined either on all ...}]]
}

' Rest of class definitions, without associated classes of core class and abstraction supplier classes



' Associations
DDICDIModels::DDICDILibrary::Classes::Representations::ClassificationSeriesStructure *-[#grey]-> DDICDIModels::DDICDILibrary::Classes::Representations::StatisticalClassificationRelationship [[{ <U+2015> has:\n}]] : has
DDICDIModels::DDICDILibrary::Classes::Representations::ClassificationSeriesStructure -[#grey]-> DDICDIModels::DDICDILibrary::Classes::Representations::ClassificationSeries [[{ <U+2015> structures:\n}]] : structures


' Abstractions
  DDICDIModels::DDICDILibrary::Classes::Representations::ClassificationSeriesStructure .....> DDICDIModels::DesignPatterns::CollectionsPattern::Structure : <U+00AB>Refine<U+00BB>
   
@enduml

@startuml
!pragma ratio 0.5625

hide circle
hide empty members
scale 0.9

skinparam {
  ArrowThickness 1.5
  MinClassWidth 150
}

skinparam legend {
  BackgroundColor white
  FontSize 10
}

skinparam note {
  BackgroundColor white
}

skinparam class {
  ArrowColor #404040
  BorderColor #404040
}

skinparam package {
  FontColor lightgrey
  BorderColor lightgrey
}

title <size:20>UML Diagram: Class ClassificationSeriesStructure in Context\n
footer \n\nDDI Cross Domain Integration (DDI-CDI)   1.0 - Representations::ClassificationSeriesStructure

legend top left
**Hints**
<color:grey>- Move the mouse cursor over a name to see more information.
<color:grey>- Click on a name to go to the corresponding page.
endlegend

class DDICDIModels::DDICDILibrary::Classes::Representations::ClassificationSeriesStructure as "<size:10>Representations::\n<color:black>ClassificationSeriesStructure" #FFD700 {
  identifier : <color:blue>Identifier   	  [[[../DDICDILibrary/DataTypes/StructuredDataTypes/Identifier.html#diagram{ <U+2015> Identifier:\nIdentifier for objects requiring short- or long-lasting referencing and management.}]]]
  name : <color:blue>ObjectName   	  [[[../DDICDILibrary/DataTypes/StructuredDataTypes/ObjectName.html#diagram{ <U+2015> ObjectName:\nA standard means of expressing a name for a class object. A linguistic signifier. Human understandable name (word, phrase, or mnemonic) that reflects the ISO/IEC 11179-5 naming principles.}]]]
  purpose : <color:blue>InternationalString   	  [[[../DDICDILibrary/DataTypes/StructuredDataTypes/InternationalString.html#diagram{ <U+2015> InternationalString:\nPackaging structure for multiple language versions of the same string content. Where an element of this type is repeatable, the expectation is that each repetition contains different content, each of which can be expressed in multiple languages. The language designation goes on the individual String ...}]]]
  semantics : <color:blue>ControlledVocabularyEntry   	  [[[../DDICDILibrary/DataTypes/StructuredDataTypes/ControlledVocabularyEntry.html#diagram{ <U+2015> ControlledVocabularyEntry:\nAllows for unstructured content which may be an entry from an externally maintained controlled vocabulary.If the content is from a controlled vocabulary provide the code value of the entry, as well as a reference to the controlled vocabulary from which the value is taken. Provide as many of the iden ...}]]]
  specification : <color:blue>StructureSpecification   	  [[[../DDICDILibrary/DataTypes/StructuredDataTypes/StructureSpecification.html#diagram{ <U+2015> StructureSpecification:\nThe mathematical properties of the structure.}]]]
  topology : <color:blue>ControlledVocabularyEntry   	  [[[../DDICDILibrary/DataTypes/StructuredDataTypes/ControlledVocabularyEntry.html#diagram{ <U+2015> ControlledVocabularyEntry:\nAllows for unstructured content which may be an entry from an externally maintained controlled vocabulary.If the content is from a controlled vocabulary provide the code value of the entry, as well as a reference to the controlled vocabulary from which the value is taken. Provide as many of the iden ...}]]]
  totality : <color:blue>StructureExtent   	  [[[../DDICDILibrary/DataTypes/Enumerations/StructureExtent.html#diagram{ <U+2015> StructureExtent:\nType of relation in terms of totality with respect to an associated collection. The totality type is given by the controlled vocabulary <U+007B>total, partial<U+007D>.}]]]
}

together {
  class DDICDIModels::DDICDILibrary::Classes::Representations::StatisticalClassificationRelationship as "<size:10>Representations::\n<color:blue>StatisticalClassificationRelationship" [[../DDICDILibrary/Classes/Representations/StatisticalClassificationRelationship.html#super-class-hierarchy-generalization{ <U+2015> StatisticalClassificationRelationship:\nSpecifies the statistical classifications for the source and target of a complex relationship and defines the relationship.}]]
  class DDICDIModels::DDICDILibrary::Classes::Representations::ClassificationSeries as "<size:10>Representations::\n<color:blue>ClassificationSeries" [[../DDICDILibrary/Classes/Representations/ClassificationSeries.html#super-class-hierarchy-generalization{ <U+2015> ClassificationSeries:\nEnsemble of one or more statistical classifications, based on the same concept, and related to each other as versions or updates.}]]
}

together {
  abstract class DDICDIModels::DesignPatterns::CollectionsPattern::Structure as "<size:10>CollectionsPattern::\n<color:blue>Structure" [[../DesignPatterns/CollectionsPattern/Structure.html#super-class-hierarchy-generalization{ <U+2015> Structure:\nOrganized set of relationships between members in a collection. These relationships can be characterized mathematically in terms of reflexivity, symmetry and transitivity, or informally in terms of the collection's topology, e.g. network, tree, etc. In both cases it can also be defined either on all ...}]]
}




DDICDIModels::DDICDILibrary::Classes::Representations::ClassificationSeriesStructure *-[#grey]-> DDICDIModels::DDICDILibrary::Classes::Representations::StatisticalClassificationRelationship [[{ <U+2015> has:\n}]] : has
DDICDIModels::DDICDILibrary::Classes::Representations::ClassificationSeriesStructure -[#grey]-> DDICDIModels::DDICDILibrary::Classes::Representations::ClassificationSeries [[{ <U+2015> structures:\n}]] : structures


  DDICDIModels::DDICDILibrary::Classes::Representations::ClassificationSeriesStructure .....> DDICDIModels::DesignPatterns::CollectionsPattern::Structure : <U+00AB>Refine<U+00BB>
   
@enduml

PlantUML version 1.2022.6(Tue Jun 21 19:34:49 CEST 2022)
(GPL source distribution)
Java Runtime: OpenJDK Runtime Environment
JVM: OpenJDK 64-Bit Server VM
Default Encoding: Cp1252
Language: en
Country: US
--></g></svg>