<?xml version="1.0" encoding="UTF-8" standalone="no"?><svg xmlns="http://www.w3.org/2000/svg" xmlns:xlink="http://www.w3.org/1999/xlink" contentStyleType="text/css" height="909.9px" preserveAspectRatio="none" style="width:1424px;height:909px;background:#FFFFFF;" version="1.1" viewBox="0 0 1424 909" width="1424.7px" zoomAndPan="magnify"><defs/><g><rect height="47.4891" style="stroke:#00000000;stroke-width:0.9;fill:none;" width="444.6" x="483.75" y="4.5"/><text fill="#000000" font-family="sans-serif" font-size="18" font-weight="bold" lengthAdjust="spacing" textLength="435.6" x="488.25" y="27.6855">UML Diagram: Class ConceptualVariable in Context</text><text fill="#000000" font-family="sans-serif" font-size="12.6" font-weight="bold" lengthAdjust="spacing" textLength="3.6" x="704.25" y="44.7205"> </text><rect fill="#FFFFFF" height="56.0813" rx="6.75" ry="6.75" style="stroke:#000000;stroke-width:0.9;" width="276.3" x="7.2" y="64.5891"/><text fill="#000000" font-family="sans-serif" font-size="9" font-weight="bold" lengthAdjust="spacing" textLength="22.5" x="12.6" y="79.3318">Hints</text><text fill="#808080" font-family="sans-serif" font-size="9" lengthAdjust="spacing" textLength="265.5" x="12.6" y="90.6521">- Move the mouse cursor over a name to see more information.</text><text fill="#808080" font-family="sans-serif" font-size="9" lengthAdjust="spacing" textLength="216" x="12.6" y="101.9725">- Click on a name to go to the corresponding page.</text><text fill="#808080" font-family="sans-serif" font-size="9" lengthAdjust="spacing" textLength="164.7" x="12.6" y="113.2928">- The arrows of the inheritance tree are</text><text fill="#D2691E" font-family="sans-serif" font-size="9" lengthAdjust="spacing" textLength="32.4" x="180" y="113.2928">colored</text><text fill="#808080" font-family="sans-serif" font-size="9" lengthAdjust="spacing" textLength="2.7" x="212.4" y="113.2928">.</text><!--MD5=[8f11a1741f24cbd1af2154c4885c9a6c]
class DDICDIModels::DDICDILibrary::Classes::Conceptual::SubstantiveConceptualDomain--><a href="../DDICDILibrary/Classes/Conceptual/SubstantiveConceptualDomain.html#super-class-hierarchy-generalization" target="_top" title=" ― SubstantiveConceptualDomain:&#10;Conceptual domain of substantive concepts." xlink:actuate="onRequest" xlink:href="../DDICDILibrary/Classes/Conceptual/SubstantiveConceptualDomain.html#super-class-hierarchy-generalization" xlink:show="new" xlink:title=" ― SubstantiveConceptualDomain:&#10;Conceptual domain of substantive concepts." xlink:type="simple"><g id="elem_DDICDIModels::DDICDILibrary::Classes::Conceptual::SubstantiveConceptualDomain"><rect codeLine="57" fill="#F1F1F1" height="36.1688" id="DDICDIModels::DDICDILibrary::Classes::Conceptual::SubstantiveConceptualDomain" rx="2.25" ry="2.25" style="stroke:#404040;stroke-width:0.45;" width="180" x="6.3" y="658.2943"/><text fill="#000000" font-family="sans-serif" font-size="9" lengthAdjust="spacing" textLength="54.9" x="68.85" y="672.1371">Conceptual::</text><text fill="#0000FF" font-family="sans-serif" font-size="12.6" lengthAdjust="spacing" textLength="174.6" x="9" y="687.1945">SubstantiveConceptualDomain</text></g></a><!--MD5=[8ad51cb951b15ecc2fdc30f3c95f4bf7]
class DDICDIModels::DDICDILibrary::Classes::Conceptual::VariableRelationship--><a href="../DDICDILibrary/Classes/Conceptual/VariableRelationship.html#super-class-hierarchy-generalization" target="_top" title=" ― VariableRelationship:&#10;Relationship between any variables in the variable cascade (conceptual, represented, instance), based on an ordered relation." xlink:actuate="onRequest" xlink:href="../DDICDILibrary/Classes/Conceptual/VariableRelationship.html#super-class-hierarchy-generalization" xlink:show="new" xlink:title=" ― VariableRelationship:&#10;Relationship between any variables in the variable cascade (conceptual, represented, instance), based on an ordered relation." xlink:type="simple"><g id="elem_DDICDIModels::DDICDILibrary::Classes::Conceptual::VariableRelationship"><rect codeLine="58" fill="#F1F1F1" height="36.1688" id="DDICDIModels::DDICDILibrary::Classes::Conceptual::VariableRelationship" rx="2.25" ry="2.25" style="stroke:#404040;stroke-width:0.45;" width="135" x="217.8" y="658.2943"/><text fill="#000000" font-family="sans-serif" font-size="9" lengthAdjust="spacing" textLength="54.9" x="257.85" y="672.1371">Conceptual::</text><text fill="#0000FF" font-family="sans-serif" font-size="12.6" lengthAdjust="spacing" textLength="117" x="226.8" y="687.1945">VariableRelationship</text></g></a><!--MD5=[d33d9f84e2831d952241abda2be6b36b]
class DDICDIModels::DDICDILibrary::Classes::Conceptual::UnitType--><a href="../DDICDILibrary/Classes/Conceptual/UnitType.html#super-class-hierarchy-generalization" target="_top" title=" ― UnitType:&#10;Unit type is a type or class of objects of interest (units)." xlink:actuate="onRequest" xlink:href="../DDICDILibrary/Classes/Conceptual/UnitType.html#super-class-hierarchy-generalization" xlink:show="new" xlink:title=" ― UnitType:&#10;Unit type is a type or class of objects of interest (units)." xlink:type="simple"><g id="elem_DDICDIModels::DDICDILibrary::Classes::Conceptual::UnitType"><rect codeLine="59" fill="#F1F1F1" height="36.1688" id="DDICDIModels::DDICDILibrary::Classes::Conceptual::UnitType" rx="2.25" ry="2.25" style="stroke:#404040;stroke-width:0.45;" width="135" x="384.3" y="658.2943"/><text fill="#000000" font-family="sans-serif" font-size="9" lengthAdjust="spacing" textLength="54.9" x="424.35" y="672.1371">Conceptual::</text><text fill="#0000FF" font-family="sans-serif" font-size="12.6" lengthAdjust="spacing" textLength="50.4" x="426.6" y="687.1945">UnitType</text></g></a><!--MD5=[f2c0e29ae3db83bf4fc052eb1efcc260]
class DDICDIModels::DDICDILibrary::Classes::Conceptual::VariablePosition--><a href="../DDICDILibrary/Classes/Conceptual/VariablePosition.html#super-class-hierarchy-generalization" target="_top" title=" ― VariablePosition:&#10;Assigns a sequence number to a variable within a list." xlink:actuate="onRequest" xlink:href="../DDICDILibrary/Classes/Conceptual/VariablePosition.html#super-class-hierarchy-generalization" xlink:show="new" xlink:title=" ― VariablePosition:&#10;Assigns a sequence number to a variable within a list." xlink:type="simple"><g id="elem_DDICDIModels::DDICDILibrary::Classes::Conceptual::VariablePosition"><rect codeLine="60" fill="#F1F1F1" height="36.1688" id="DDICDIModels::DDICDILibrary::Classes::Conceptual::VariablePosition" rx="2.25" ry="2.25" style="stroke:#404040;stroke-width:0.45;" width="135" x="550.8" y="658.2943"/><text fill="#000000" font-family="sans-serif" font-size="9" lengthAdjust="spacing" textLength="54.9" x="590.85" y="672.1371">Conceptual::</text><text fill="#0000FF" font-family="sans-serif" font-size="12.6" lengthAdjust="spacing" textLength="91.8" x="572.4" y="687.1945">VariablePosition</text></g></a><!--MD5=[f41218d8e6b8e737a8971a1511905eea]
class DDICDIModels::DDICDILibrary::Classes::Conceptual::SentinelConceptualDomain--><a href="../DDICDILibrary/Classes/Conceptual/SentinelConceptualDomain.html#super-class-hierarchy-generalization" target="_top" title=" ― SentinelConceptualDomain:&#10;Conceptual domain of sentinel concepts." xlink:actuate="onRequest" xlink:href="../DDICDILibrary/Classes/Conceptual/SentinelConceptualDomain.html#super-class-hierarchy-generalization" xlink:show="new" xlink:title=" ― SentinelConceptualDomain:&#10;Conceptual domain of sentinel concepts." xlink:type="simple"><g id="elem_DDICDIModels::DDICDILibrary::Classes::Conceptual::SentinelConceptualDomain"><rect codeLine="61" fill="#F1F1F1" height="36.1688" id="DDICDIModels::DDICDILibrary::Classes::Conceptual::SentinelConceptualDomain" rx="2.25" ry="2.25" style="stroke:#404040;stroke-width:0.45;" width="159.3" x="717.75" y="658.2943"/><text fill="#000000" font-family="sans-serif" font-size="9" lengthAdjust="spacing" textLength="54.9" x="769.95" y="672.1371">Conceptual::</text><text fill="#0000FF" font-family="sans-serif" font-size="12.6" lengthAdjust="spacing" textLength="153.9" x="720.45" y="687.1945">SentinelConceptualDomain</text></g></a><!--MD5=[5b1150c1f4d15180aebef2c7c3af2429]
class DDICDIModels::DDICDILibrary::Classes::Conceptual::VariableCollection--><a href="../DDICDILibrary/Classes/Conceptual/VariableCollection.html#super-class-hierarchy-generalization" target="_top" title=" ― VariableCollection:&#10;Group of any type of variable within the variable cascade (conceptual, represented, instance)." xlink:actuate="onRequest" xlink:href="../DDICDILibrary/Classes/Conceptual/VariableCollection.html#super-class-hierarchy-generalization" xlink:show="new" xlink:title=" ― VariableCollection:&#10;Group of any type of variable within the variable cascade (conceptual, represented, instance)." xlink:type="simple"><g id="elem_DDICDIModels::DDICDILibrary::Classes::Conceptual::VariableCollection"><rect codeLine="62" fill="#F1F1F1" height="36.1688" id="DDICDIModels::DDICDILibrary::Classes::Conceptual::VariableCollection" rx="2.25" ry="2.25" style="stroke:#404040;stroke-width:0.45;" width="135" x="909" y="658.2943"/><text fill="#000000" font-family="sans-serif" font-size="9" lengthAdjust="spacing" textLength="54.9" x="949.05" y="672.1371">Conceptual::</text><text fill="#0000FF" font-family="sans-serif" font-size="12.6" lengthAdjust="spacing" textLength="102.6" x="925.2" y="687.1945">VariableCollection</text></g></a><!--MD5=[65a51a3beb66455af85c430549e256a7]
class DDICDIModels::DDICDILibrary::Classes::Conceptual::RepresentedVariable--><a href="../DDICDILibrary/Classes/Conceptual/RepresentedVariable.html#super-class-hierarchy-generalization" target="_top" title=" ― RepresentedVariable:&#10;Conceptual variable with a substantive value domain specified." xlink:actuate="onRequest" xlink:href="../DDICDILibrary/Classes/Conceptual/RepresentedVariable.html#super-class-hierarchy-generalization" xlink:show="new" xlink:title=" ― RepresentedVariable:&#10;Conceptual variable with a substantive value domain specified." xlink:type="simple"><g id="elem_DDICDIModels::DDICDILibrary::Classes::Conceptual::RepresentedVariable"><rect codeLine="63" fill="#F1F1F1" height="36.1688" id="DDICDIModels::DDICDILibrary::Classes::Conceptual::RepresentedVariable" rx="2.25" ry="2.25" style="stroke:#404040;stroke-width:0.45;" width="135" x="1075.5" y="658.2943"/><text fill="#000000" font-family="sans-serif" font-size="9" lengthAdjust="spacing" textLength="54.9" x="1115.55" y="672.1371">Conceptual::</text><text fill="#0000FF" font-family="sans-serif" font-size="12.6" lengthAdjust="spacing" textLength="120.6" x="1082.7" y="687.1945">RepresentedVariable</text></g></a><!--MD5=[943bb4fa32115731ae6537dcdfa5957c]
class DDICDIModels::DesignPatterns::CollectionsPattern::IndividualMember--><a href="../DesignPatterns/CollectionsPattern/IndividualMember.html#super-class-hierarchy-generalization" target="_top" title=" ― IndividualMember:&#10;Distinct element that is not itself a collection (atomic)." xlink:actuate="onRequest" xlink:href="../DesignPatterns/CollectionsPattern/IndividualMember.html#super-class-hierarchy-generalization" xlink:show="new" xlink:title=" ― IndividualMember:&#10;Distinct element that is not itself a collection (atomic)." xlink:type="simple"><g id="elem_DDICDIModels::DesignPatterns::CollectionsPattern::IndividualMember"><rect codeLine="68" fill="#F1F1F1" height="36.1688" id="DDICDIModels::DesignPatterns::CollectionsPattern::IndividualMember" rx="2.25" ry="2.25" style="stroke:#404040;stroke-width:0.45;" width="135" x="1284.3" y="828.3943"/><text fill="#000000" font-family="sans-serif" font-size="9" font-style="italic" lengthAdjust="spacing" textLength="83.7" x="1309.95" y="842.2371">CollectionsPattern::</text><text fill="#0000FF" font-family="sans-serif" font-size="12.6" font-style="italic" lengthAdjust="spacing" textLength="99.9" x="1301.85" y="857.2945">IndividualMember</text></g></a><!--MD5=[10baaa6de57ba4d6e71557471506b9ce]
class DDICDIModels::DDICDILibrary::Classes::Conceptual::ConceptualVariable--><g id="elem_DDICDIModels::DDICDILibrary::Classes::Conceptual::ConceptualVariable"><rect codeLine="47" fill="#FFD700" height="75.0656" id="DDICDIModels::DDICDILibrary::Classes::Conceptual::ConceptualVariable" rx="2.25" ry="2.25" style="stroke:#404040;stroke-width:0.45;" width="282.6" x="559.8" y="431.9443"/><text fill="#000000" font-family="sans-serif" font-size="9" lengthAdjust="spacing" textLength="54.9" x="673.65" y="445.7871">Conceptual::</text><text fill="#000000" font-family="sans-serif" font-size="12.6" lengthAdjust="spacing" textLength="111.6" x="645.3" y="460.8445">ConceptualVariable</text><line style="stroke:#404040;stroke-width:0.45;" x1="560.7" x2="841.5" y1="468.1131" y2="468.1131"/><a href="../DDICDILibrary/DataTypes/StructuredDataTypes/InternationalString.html#diagram" target="_top" title=" ― InternationalString:&#10;Packaging structure for multiple language versions of the same string content. Where an element of this type is repeatable, the expectation is that each repetition contains different content, each of which can be expressed in multiple languages. The language designation goes on the individual String ..." xlink:actuate="onRequest" xlink:href="../DDICDILibrary/DataTypes/StructuredDataTypes/InternationalString.html#diagram" xlink:show="new" xlink:title=" ― InternationalString:&#10;Packaging structure for multiple language versions of the same string content. Where an element of this type is repeatable, the expectation is that each repetition contains different content, each of which can be expressed in multiple languages. The language designation goes on the individual String ..." xlink:type="simple"><text fill="#000000" font-family="sans-serif" font-size="12.6" lengthAdjust="spacing" textLength="92.7" x="565.2" y="484.7929">descriptiveText :</text><text fill="#0000FF" font-family="sans-serif" font-size="12.6" lengthAdjust="spacing" textLength="103.5" x="661.5" y="484.7929">InternationalString</text></a><a href="../DDICDILibrary/DataTypes/StructuredDataTypes/ControlledVocabularyEntry.html#diagram" target="_top" title=" ― ControlledVocabularyEntry:&#10;Allows for unstructured content which may be an entry from an externally maintained controlled vocabulary.If the content is from a controlled vocabulary provide the code value of the entry, as well as a reference to the controlled vocabulary from which the value is taken. Provide as many of the iden ..." xlink:actuate="onRequest" xlink:href="../DDICDILibrary/DataTypes/StructuredDataTypes/ControlledVocabularyEntry.html#diagram" xlink:show="new" xlink:title=" ― ControlledVocabularyEntry:&#10;Allows for unstructured content which may be an entry from an externally maintained controlled vocabulary.If the content is from a controlled vocabulary provide the code value of the entry, as well as a reference to the controlled vocabulary from which the value is taken. Provide as many of the iden ..." xlink:type="simple"><text fill="#000000" font-family="sans-serif" font-size="12.6" lengthAdjust="spacing" textLength="116.1" x="565.2" y="500.6414">unitOfMeasureKind :</text><text fill="#0000FF" font-family="sans-serif" font-size="12.6" lengthAdjust="spacing" textLength="152.1" x="684.9" y="500.6414">ControlledVocabularyEntry</text></a></g><!--MD5=[1912887f1cf6578f3cf0fc8d9a888648]
class DDICDIModels::DDICDILibrary::Classes::DataDescription::Long::DescriptorVariable--><a href="../DDICDILibrary/Classes/DataDescription/Long/DescriptorVariable.html#super-class-hierarchy-generalization" target="_top" title=" ― DescriptorVariable:&#10;Variable that provides codes for variable identification in the context of a data structure. Variable playing the role of a variable descriptor component." xlink:actuate="onRequest" xlink:href="../DDICDILibrary/Classes/DataDescription/Long/DescriptorVariable.html#super-class-hierarchy-generalization" xlink:show="new" xlink:title=" ― DescriptorVariable:&#10;Variable that provides codes for variable identification in the context of a data structure. Variable playing the role of a variable descriptor component." xlink:type="simple"><g id="elem_DDICDIModels::DDICDILibrary::Classes::DataDescription::Long::DescriptorVariable"><rect codeLine="72" fill="#F1F1F1" height="36.1688" id="DDICDIModels::DDICDILibrary::Classes::DataDescription::Long::DescriptorVariable" rx="2.25" ry="2.25" style="stroke:#404040;stroke-width:0.45;" width="135" x="784.8" y="828.3943"/><text fill="#000000" font-family="sans-serif" font-size="9" lengthAdjust="spacing" textLength="27" x="838.8" y="842.2371">Long::</text><text fill="#0000FF" font-family="sans-serif" font-size="12.6" lengthAdjust="spacing" textLength="105.3" x="799.65" y="857.2945">DescriptorVariable</text></g></a><!--MD5=[c87628a3227e99184f07098d1174ba73]
class DDICDIModels::DDICDILibrary::Classes::Conceptual::InstanceVariable--><a href="../DDICDILibrary/Classes/Conceptual/InstanceVariable.html#super-class-hierarchy-generalization" target="_top" title=" ― InstanceVariable:&#10;Use of a represented variable within a data set." xlink:actuate="onRequest" xlink:href="../DDICDILibrary/Classes/Conceptual/InstanceVariable.html#super-class-hierarchy-generalization" xlink:show="new" xlink:title=" ― InstanceVariable:&#10;Use of a represented variable within a data set." xlink:type="simple"><g id="elem_DDICDIModels::DDICDILibrary::Classes::Conceptual::InstanceVariable"><rect codeLine="73" fill="#F1F1F1" height="36.1688" id="DDICDIModels::DDICDILibrary::Classes::Conceptual::InstanceVariable" rx="2.25" ry="2.25" style="stroke:#404040;stroke-width:0.45;" width="135" x="951.3" y="828.3943"/><text fill="#000000" font-family="sans-serif" font-size="9" lengthAdjust="spacing" textLength="54.9" x="991.35" y="842.2371">Conceptual::</text><text fill="#0000FF" font-family="sans-serif" font-size="12.6" lengthAdjust="spacing" textLength="94.5" x="971.55" y="857.2945">InstanceVariable</text></g></a><!--MD5=[2e0e69502bb67ecc0266f8464f7fab86]
class DDICDIModels::DDICDILibrary::Classes::Representations::ClassificationFamily--><a href="../DDICDILibrary/Classes/Representations/ClassificationFamily.html#super-class-hierarchy-generalization" target="_top" title=" ― ClassificationFamily:&#10;Collection of classification series related by being based on a common concept" xlink:actuate="onRequest" xlink:href="../DDICDILibrary/Classes/Representations/ClassificationFamily.html#super-class-hierarchy-generalization" xlink:show="new" xlink:title=" ― ClassificationFamily:&#10;Collection of classification series related by being based on a common concept" xlink:type="simple"><g id="elem_DDICDIModels::DDICDILibrary::Classes::Representations::ClassificationFamily"><rect codeLine="74" fill="#F1F1F1" height="36.1688" id="DDICDIModels::DDICDILibrary::Classes::Representations::ClassificationFamily" rx="2.25" ry="2.25" style="stroke:#404040;stroke-width:0.45;" width="135" x="1067.4" y="250.5943"/><text fill="#000000" font-family="sans-serif" font-size="9" lengthAdjust="spacing" textLength="72.9" x="1098.45" y="264.4371">Representations::</text><text fill="#0000FF" font-family="sans-serif" font-size="12.6" lengthAdjust="spacing" textLength="111.6" x="1079.1" y="279.4945">ClassificationFamily</text></g></a><!--MD5=[24a257863b398b5270390d96fe65d257]
class DDICDIModels::DDICDILibrary::Classes::Conceptual::Concept--><a href="../DDICDILibrary/Classes/Conceptual/Concept.html#super-class-hierarchy-generalization" target="_top" title=" ― Concept:&#10;Unit of thought differentiated by characteristics (from the Generic Statistical Information Model version 1.2: https://statswiki.unece.org/display/clickablegsim/Concept)." xlink:actuate="onRequest" xlink:href="../DDICDILibrary/Classes/Conceptual/Concept.html#super-class-hierarchy-generalization" xlink:show="new" xlink:title=" ― Concept:&#10;Unit of thought differentiated by characteristics (from the Generic Statistical Information Model version 1.2: https://statswiki.unece.org/display/clickablegsim/Concept)." xlink:type="simple"><g id="elem_DDICDIModels::DDICDILibrary::Classes::Conceptual::Concept"><rect codeLine="117" fill="#FAFAD2" height="138.4594" id="DDICDIModels::DDICDILibrary::Classes::Conceptual::Concept" rx="2.25" ry="2.25" style="stroke:#404040;stroke-width:0.45;" width="185.4" x="608.4" y="199.2943"/><text fill="#000000" font-family="sans-serif" font-size="9" lengthAdjust="spacing" textLength="54.9" x="673.65" y="213.1371">Conceptual::</text><text fill="#0000FF" font-family="sans-serif" font-size="12.6" lengthAdjust="spacing" textLength="47.7" x="677.25" y="228.1945">Concept</text><line style="stroke:#404040;stroke-width:0.45;" x1="609.3" x2="792.9" y1="235.4631" y2="235.4631"/><a href="../DDICDILibrary/DataTypes/StructuredDataTypes/CatalogDetails.html#diagram" target="_top" title=" ― CatalogDetails:&#10;A set of information useful for attribution, data discovery, and access." xlink:actuate="onRequest" xlink:href="../DDICDILibrary/DataTypes/StructuredDataTypes/CatalogDetails.html#diagram" xlink:show="new" xlink:title=" ― CatalogDetails:&#10;A set of information useful for attribution, data discovery, and access." xlink:type="simple"><text fill="#000000" font-family="sans-serif" font-size="12.6" lengthAdjust="spacing" textLength="87.3" x="613.8" y="252.1429">catalogDetails :</text><text fill="#0000FF" font-family="sans-serif" font-size="12.6" lengthAdjust="spacing" textLength="82.8" x="704.7" y="252.1429">CatalogDetails</text></a><a href="../DDICDILibrary/DataTypes/StructuredDataTypes/InternationalString.html#diagram" target="_top" title=" ― InternationalString:&#10;Packaging structure for multiple language versions of the same string content. Where an element of this type is repeatable, the expectation is that each repetition contains different content, each of which can be expressed in multiple languages. The language designation goes on the individual String ..." xlink:actuate="onRequest" xlink:href="../DDICDILibrary/DataTypes/StructuredDataTypes/InternationalString.html#diagram" xlink:show="new" xlink:title=" ― InternationalString:&#10;Packaging structure for multiple language versions of the same string content. Where an element of this type is repeatable, the expectation is that each repetition contains different content, each of which can be expressed in multiple languages. The language designation goes on the individual String ..." xlink:type="simple"><text fill="#000000" font-family="sans-serif" font-size="12.6" lengthAdjust="spacing" textLength="58.5" x="613.8" y="267.9914">definition :</text><text fill="#0000FF" font-family="sans-serif" font-size="12.6" lengthAdjust="spacing" textLength="103.5" x="675.9" y="267.9914">InternationalString</text></a><a href="../DDICDILibrary/DataTypes/StructuredDataTypes/LabelForDisplay.html#diagram" target="_top" title=" ― LabelForDisplay:&#10;A structured display label. Label provides display content of a fully human readable display for the identification of the object." xlink:actuate="onRequest" xlink:href="../DDICDILibrary/DataTypes/StructuredDataTypes/LabelForDisplay.html#diagram" xlink:show="new" xlink:title=" ― LabelForDisplay:&#10;A structured display label. Label provides display content of a fully human readable display for the identification of the object." xlink:type="simple"><text fill="#000000" font-family="sans-serif" font-size="12.6" lengthAdjust="spacing" textLength="78.3" x="613.8" y="283.8398">displayLabel :</text><text fill="#0000FF" font-family="sans-serif" font-size="12.6" lengthAdjust="spacing" textLength="92.7" x="695.7" y="283.8398">LabelForDisplay</text></a><a href="../DDICDILibrary/DataTypes/StructuredDataTypes/Reference.html#diagram" target="_top" title=" ― Reference:&#10;Provides a way of pointing to resources outside of the information described in the set of DDI-CDI metadata." xlink:actuate="onRequest" xlink:href="../DDICDILibrary/DataTypes/StructuredDataTypes/Reference.html#diagram" xlink:show="new" xlink:title=" ― Reference:&#10;Provides a way of pointing to resources outside of the information described in the set of DDI-CDI metadata." xlink:type="simple"><text fill="#000000" font-family="sans-serif" font-size="12.6" lengthAdjust="spacing" textLength="105.3" x="613.8" y="299.6883">externalDefinition :</text><text fill="#0000FF" font-family="sans-serif" font-size="12.6" lengthAdjust="spacing" textLength="59.4" x="722.7" y="299.6883">Reference</text></a><a href="../DDICDILibrary/DataTypes/StructuredDataTypes/Identifier.html#diagram" target="_top" title=" ― Identifier:&#10;Identifier for objects requiring short- or long-lasting referencing and management." xlink:actuate="onRequest" xlink:href="../DDICDILibrary/DataTypes/StructuredDataTypes/Identifier.html#diagram" xlink:show="new" xlink:title=" ― Identifier:&#10;Identifier for objects requiring short- or long-lasting referencing and management." xlink:type="simple"><text fill="#000000" font-family="sans-serif" font-size="12.6" lengthAdjust="spacing" textLength="55.8" x="613.8" y="315.5367">identifier :</text><text fill="#0000FF" font-family="sans-serif" font-size="12.6" lengthAdjust="spacing" textLength="48.6" x="673.2" y="315.5367">Identifier</text></a><a href="../DDICDILibrary/DataTypes/StructuredDataTypes/ObjectName.html#diagram" target="_top" title=" ― ObjectName:&#10;A standard means of expressing a name for a class object. A linguistic signifier. Human understandable name (word, phrase, or mnemonic) that reflects the ISO/IEC 11179-5 naming principles." xlink:actuate="onRequest" xlink:href="../DDICDILibrary/DataTypes/StructuredDataTypes/ObjectName.html#diagram" xlink:show="new" xlink:title=" ― ObjectName:&#10;A standard means of expressing a name for a class object. A linguistic signifier. Human understandable name (word, phrase, or mnemonic) that reflects the ISO/IEC 11179-5 naming principles." xlink:type="simple"><text fill="#000000" font-family="sans-serif" font-size="12.6" lengthAdjust="spacing" textLength="38.7" x="613.8" y="331.3851">name :</text><text fill="#0000FF" font-family="sans-serif" font-size="12.6" lengthAdjust="spacing" textLength="69.3" x="656.1" y="331.3851">ObjectName</text></a></g></a><!--MD5=[fb888e6dc6054b81ee1c71b5b7db0a6f]
class DDICDIModels::DDICDILibrary::Classes::Representations::ClassificationIndex--><a href="../DDICDILibrary/Classes/Representations/ClassificationIndex.html#super-class-hierarchy-generalization" target="_top" title=" ― ClassificationIndex:&#10;Ordered list of classification index entries." xlink:actuate="onRequest" xlink:href="../DDICDILibrary/Classes/Representations/ClassificationIndex.html#super-class-hierarchy-generalization" xlink:show="new" xlink:title=" ― ClassificationIndex:&#10;Ordered list of classification index entries." xlink:type="simple"><g id="elem_DDICDIModels::DDICDILibrary::Classes::Representations::ClassificationIndex"><rect codeLine="76" fill="#F1F1F1" height="36.1688" id="DDICDIModels::DDICDILibrary::Classes::Representations::ClassificationIndex" rx="2.25" ry="2.25" style="stroke:#404040;stroke-width:0.45;" width="135" x="900.9" y="250.5943"/><text fill="#000000" font-family="sans-serif" font-size="9" lengthAdjust="spacing" textLength="72.9" x="931.95" y="264.4371">Representations::</text><text fill="#0000FF" font-family="sans-serif" font-size="12.6" lengthAdjust="spacing" textLength="104.4" x="916.2" y="279.4945">ClassificationIndex</text></g></a><!--MD5=[ed0afb77b436c4c4d8225e6d9c795979]
class DDICDIModels::DDICDILibrary::Classes::Agents::AgentListing--><a href="../DDICDILibrary/Classes/Agents/AgentListing.html#super-class-hierarchy-generalization" target="_top" title=" ― AgentListing:&#10;Listing of agents of any type who may be organized to describe relationships between agents." xlink:actuate="onRequest" xlink:href="../DDICDILibrary/Classes/Agents/AgentListing.html#super-class-hierarchy-generalization" xlink:show="new" xlink:title=" ― AgentListing:&#10;Listing of agents of any type who may be organized to describe relationships between agents." xlink:type="simple"><g id="elem_DDICDIModels::DDICDILibrary::Classes::Agents::AgentListing"><rect codeLine="77" fill="#F1F1F1" height="36.1688" id="DDICDIModels::DDICDILibrary::Classes::Agents::AgentListing" rx="2.25" ry="2.25" style="stroke:#404040;stroke-width:0.45;" width="135" x="1233.9" y="250.5943"/><text fill="#000000" font-family="sans-serif" font-size="9" lengthAdjust="spacing" textLength="34.2" x="1284.3" y="264.4371">Agents::</text><text fill="#0000FF" font-family="sans-serif" font-size="12.6" lengthAdjust="spacing" textLength="70.2" x="1266.3" y="279.4945">AgentListing</text></g></a><!--MD5=[3bab7cf8c0751dca8c5bcc2e36022e04]
class DDICDIModels::DDICDILibrary::Classes::DataDescription::Long::ReferenceVariable--><a href="../DDICDILibrary/Classes/DataDescription/Long/ReferenceVariable.html#super-class-hierarchy-generalization" target="_top" title=" ― ReferenceVariable:&#10;Variable that records values of multiple variables in the context of a data structure. Variable playing the role of a variable value component." xlink:actuate="onRequest" xlink:href="../DDICDILibrary/Classes/DataDescription/Long/ReferenceVariable.html#super-class-hierarchy-generalization" xlink:show="new" xlink:title=" ― ReferenceVariable:&#10;Variable that records values of multiple variables in the context of a data structure. Variable playing the role of a variable value component." xlink:type="simple"><g id="elem_DDICDIModels::DDICDILibrary::Classes::DataDescription::Long::ReferenceVariable"><rect codeLine="78" fill="#F1F1F1" height="36.1688" id="DDICDIModels::DDICDILibrary::Classes::DataDescription::Long::ReferenceVariable" rx="2.25" ry="2.25" style="stroke:#404040;stroke-width:0.45;" width="135" x="1117.8" y="828.3943"/><text fill="#000000" font-family="sans-serif" font-size="9" lengthAdjust="spacing" textLength="27" x="1171.8" y="842.2371">Long::</text><text fill="#0000FF" font-family="sans-serif" font-size="12.6" lengthAdjust="spacing" textLength="106.2" x="1132.2" y="857.2945">ReferenceVariable</text></g></a><g id="elem_GMN31"><path d="M416.7,249.2443 L416.7,287.6771 A0,0 0 0 0 416.7,287.6771 L576.9,287.6771 A0,0 0 0 0 576.9,287.6771 L576.9,272.1943 L608.274,268.5943 L576.9,264.9943 L576.9,258.2443 L567.9,249.2443 L416.7,249.2443 A0,0 0 0 0 416.7,249.2443 " fill="#FFFFFF" style="stroke:#181818;stroke-width:0.45;"/><path d="M567.9,249.2443 L567.9,258.2443 L576.9,258.2443 L567.9,249.2443 " fill="#FFFFFF" style="stroke:#181818;stroke-width:0.45;"/><text fill="#000000" font-family="sans-serif" font-size="11.7" lengthAdjust="spacing" textLength="141.3" x="422.1" y="265.8899">Class has 21 associations.</text><text fill="#000000" font-family="sans-serif" font-size="11.7" lengthAdjust="spacing" textLength="120.6" x="422.1" y="280.6063">Only 3 are shown here.</text></g><!--MD5=[e13e1027f3dfeb49cc83e9598e218874]
link DDICDIModels::DDICDILibrary::Classes::Conceptual::ConceptualVariable to DDICDIModels::DDICDILibrary::Classes::Conceptual::UnitType--><g id="link_DDICDIModels::DDICDILibrary::Classes::Conceptual::ConceptualVariable_DDICDIModels::DDICDILibrary::Classes::Conceptual::UnitType"><a href="" target="_top" title=" ― measures:&#10;Identifies the unit type associated with the conceptual variable." xlink:actuate="onRequest" xlink:href="" xlink:show="new" xlink:title=" ― measures:&#10;Identifies the unit type associated with the conceptual variable." xlink:type="simple"><path codeLine="83" d="M656.532,506.8873 C603.918,550.1863 518.292,620.6653 476.424,655.1263 " fill="none" id="DDICDIModels::DDICDILibrary::Classes::Conceptual::ConceptualVariable-to-DDICDIModels::DDICDILibrary::Classes::Conceptual::UnitType" style="stroke:#808080;stroke-width:1.35;"/><polygon fill="#808080" points="472.761,658.1503,481.304,655.7867,476.2369,655.2923,476.7313,650.2252,472.761,658.1503" style="stroke:#808080;stroke-width:1.35;"/><text fill="#000000" font-family="sans-serif" font-size="11.7" lengthAdjust="spacing" textLength="51.3" x="574.2" y="587.6399">measures</text></a></g><!--MD5=[a3cc0d19988faa63cd63017a6dd511b2]
link DDICDIModels::DDICDILibrary::Classes::Conceptual::ConceptualVariable to DDICDIModels::DDICDILibrary::Classes::Conceptual::SentinelConceptualDomain--><g id="link_DDICDIModels::DDICDILibrary::Classes::Conceptual::ConceptualVariable_DDICDIModels::DDICDILibrary::Classes::Conceptual::SentinelConceptualDomain"><a href="" target="_top" title=" ― takesSentinelConceptsFrom:&#10;Identifies the conceptual domain containing the set of sentinel concepts used to describe the conceptual variable." xlink:actuate="onRequest" xlink:href="" xlink:show="new" xlink:title=" ― takesSentinelConceptsFrom:&#10;Identifies the conceptual domain containing the set of sentinel concepts used to describe the conceptual variable." xlink:type="simple"><path codeLine="84" d="M718.317,506.8873 C738.351,549.5833 770.787,618.6853 787.194,653.6503 " fill="none" id="DDICDIModels::DDICDILibrary::Classes::Conceptual::ConceptualVariable-to-DDICDIModels::DDICDILibrary::Classes::Conceptual::SentinelConceptualDomain" style="stroke:#808080;stroke-width:1.35;"/><polygon fill="#808080" points="789.3,658.1503,789.1246,649.2881,787.3914,654.0751,782.6043,652.3419,789.3,658.1503" style="stroke:#808080;stroke-width:1.35;"/><text fill="#000000" font-family="sans-serif" font-size="11.7" lengthAdjust="spacing" textLength="147.6" x="757.8" y="587.6399">takesSentinelConceptsFrom</text></a></g><!--MD5=[45590ff70693401b51626e4387d9e1ed]
link DDICDIModels::DDICDILibrary::Classes::Conceptual::ConceptualVariable to DDICDIModels::DDICDILibrary::Classes::Conceptual::SubstantiveConceptualDomain--><g id="link_DDICDIModels::DDICDILibrary::Classes::Conceptual::ConceptualVariable_DDICDIModels::DDICDILibrary::Classes::Conceptual::SubstantiveConceptualDomain"><a href="" target="_top" title=" ― takesSubstantiveConceptsFrom:&#10;Identifies the substantive conceptual domain containing the set of substantive concepts used to describe the conceptual variable." xlink:actuate="onRequest" xlink:href="" xlink:show="new" xlink:title=" ― takesSubstantiveConceptsFrom:&#10;Identifies the substantive conceptual domain containing the set of substantive concepts used to describe the conceptual variable." xlink:type="simple"><path codeLine="85" d="M559.8,480.2653 C413.064,493.4413 196.263,521.3863 133.2,574.5943 C109.8,594.3403 101.232,630.2683 98.1,653.4703 " fill="none" id="DDICDIModels::DDICDILibrary::Classes::Conceptual::ConceptualVariable-to-DDICDIModels::DDICDILibrary::Classes::Conceptual::SubstantiveConceptualDomain" style="stroke:#808080;stroke-width:1.35;"/><polygon fill="#808080" points="97.515,658.2133,102.0838,650.6175,98.0684,653.7475,94.9385,649.7321,97.515,658.2133" style="stroke:#808080;stroke-width:1.35;"/><text fill="#000000" font-family="sans-serif" font-size="11.7" lengthAdjust="spacing" textLength="165.6" x="134.1" y="587.6399">takesSubstantiveConceptsFrom</text></a></g><!--MD5=[e9db9e569dd89741f3f1201b36c2c54e]
link DDICDIModels::DDICDILibrary::Classes::Conceptual::ConceptualVariable to DDICDIModels::DDICDILibrary::Classes::Conceptual::Concept--><g id="link_DDICDIModels::DDICDILibrary::Classes::Conceptual::ConceptualVariable_DDICDIModels::DDICDILibrary::Classes::Conceptual::Concept"><a href="" target="_top" title=" ― uses:&#10;Reference to a concept that is being used." xlink:actuate="onRequest" xlink:href="" xlink:show="new" xlink:title=" ― uses:&#10;Reference to a concept that is being used." xlink:type="simple"><path codeLine="86" d="M701.1,431.7013 C701.1,406.8073 701.1,373.0483 701.1,342.7723 " fill="none" id="DDICDIModels::DDICDILibrary::Classes::Conceptual::ConceptualVariable-to-DDICDIModels::DDICDILibrary::Classes::Conceptual::Concept" style="stroke:#808080;stroke-width:1.35;"/><polygon fill="#808080" points="701.1,337.9483,697.5,346.0483,701.1,342.4483,704.7,346.0483,701.1,337.9483" style="stroke:#808080;stroke-width:1.35;"/><text fill="#000000" font-family="sans-serif" font-size="11.7" lengthAdjust="spacing" textLength="25.2" x="702" y="392.3399">uses</text></a></g><!--MD5=[fd6de27b7928a6764ba7a94850fb3057]
reverse link DDICDIModels::DDICDILibrary::Classes::Conceptual::Concept to DDICDIModels::DDICDILibrary::Classes::Conceptual::ConceptualVariable--><g id="link_DDICDIModels::DDICDILibrary::Classes::Conceptual::Concept_DDICDIModels::DDICDILibrary::Classes::Conceptual::ConceptualVariable"><path codeLine="132" d="M694.647,356.1823 C694.278,369.3493 694.251,382.7863 694.8,395.4943 C695.313,407.3023 696.276,420.1543 697.311,431.7283 " fill="none" id="DDICDIModels::DDICDILibrary::Classes::Conceptual::Concept-backto-DDICDIModels::DDICDILibrary::Classes::Conceptual::ConceptualVariable" style="stroke:#D2691E;stroke-width:1.35;"/><polygon fill="none" points="688.347,355.8943,695.349,338.1553,700.938,356.3893,688.347,355.8943" style="stroke:#D2691E;stroke-width:1.35;"/></g><!--MD5=[c50cc6f119074dc295bb9d5e15b6e6ac]
reverse link DDICDIModels::DDICDILibrary::Classes::Conceptual::ConceptualVariable to DDICDIModels::DDICDILibrary::Classes::Conceptual::RepresentedVariable--><g id="link_DDICDIModels::DDICDILibrary::Classes::Conceptual::ConceptualVariable_DDICDIModels::DDICDILibrary::Classes::Conceptual::RepresentedVariable"><a href="" target="_top" title=" ― isBasedOn:&#10;The conceptual variable that can be shared by a set of represented variables. Indicates comparability in conceptual domain and unit type." xlink:actuate="onRequest" xlink:href="" xlink:show="new" xlink:title=" ― isBasedOn:&#10;The conceptual variable that can be shared by a set of represented variables. Indicates comparability in conceptual domain and unit type." xlink:type="simple"><path codeLine="87" d="M811.413,508.3543 C838.593,518.5243 867.438,529.9813 893.7,541.7443 C975.942,578.5903 1068.372,631.2853 1114.128,658.1773 " fill="none" id="DDICDIModels::DDICDILibrary::Classes::Conceptual::ConceptualVariable-backto-DDICDIModels::DDICDILibrary::Classes::Conceptual::RepresentedVariable" style="stroke:#808080;stroke-width:1.35;"/><polygon fill="#808080" points="807.066,506.7343,813.3966,512.9386,811.2821,508.3073,815.9134,506.1928,807.066,506.7343" style="stroke:#808080;stroke-width:1.35;"/><text fill="#000000" font-family="sans-serif" font-size="11.7" lengthAdjust="spacing" textLength="57.6" x="992.7" y="587.6399">isBasedOn</text></a></g><!--MD5=[c50cc6f119074dc295bb9d5e15b6e6ac]
reverse link DDICDIModels::DDICDILibrary::Classes::Conceptual::ConceptualVariable to DDICDIModels::DDICDILibrary::Classes::Conceptual::RepresentedVariable--><g id="link_DDICDIModels::DDICDILibrary::Classes::Conceptual::ConceptualVariable_DDICDIModels::DDICDILibrary::Classes::Conceptual::RepresentedVariable"><path codeLine="135" d="M860.472,495.7453 C925.569,511.3423 999.288,536.0023 1058.4,574.5943 C1091.88,596.4553 1119.123,635.5333 1133.01,658.0783 " fill="none" id="DDICDIModels::DDICDILibrary::Classes::Conceptual::ConceptualVariable-backto-DDICDIModels::DDICDILibrary::Classes::Conceptual::RepresentedVariable-1" style="stroke:#D2691E;stroke-width:1.35;"/><polygon fill="none" points="858.933,501.8473,842.796,491.6773,861.759,489.5713,858.933,501.8473" style="stroke:#D2691E;stroke-width:1.35;"/></g><!--MD5=[75ba51e48de57ab8a2ec700775d5e0f0]
reverse link DDICDIModels::DDICDILibrary::Classes::Conceptual::ConceptualVariable to DDICDIModels::DDICDILibrary::Classes::Conceptual::VariableCollection--><g id="link_DDICDIModels::DDICDILibrary::Classes::Conceptual::ConceptualVariable_DDICDIModels::DDICDILibrary::Classes::Conceptual::VariableCollection"><a href="" target="_top" title=" ― has:&#10;Variable collection has zero to many conceptual variables." xlink:actuate="onRequest" xlink:href="" xlink:show="new" xlink:title=" ― has:&#10;Variable collection has zero to many conceptual variables." xlink:type="simple"><path codeLine="88" d="M807.948,508.7233 C844.164,525.2383 883.098,547.1443 913.5,574.5943 C939.996,598.5253 959.454,636.1453 969.282,658.0243 " fill="none" id="DDICDIModels::DDICDILibrary::Classes::Conceptual::ConceptualVariable-backto-DDICDIModels::DDICDILibrary::Classes::Conceptual::VariableCollection" style="stroke:#808080;stroke-width:1.35;"/><polygon fill="#808080" points="803.547,506.7343,809.4485,513.3481,807.6485,508.5858,812.4108,506.7857,803.547,506.7343" style="stroke:#808080;stroke-width:1.35;"/><text fill="#000000" font-family="sans-serif" font-size="11.7" lengthAdjust="spacing" textLength="18.9" x="928.8" y="587.6399">has</text></a></g><!--MD5=[c360b948f672c9930e328c07ddffdae7]
reverse link DDICDIModels::DDICDILibrary::Classes::Conceptual::ConceptualVariable to DDICDIModels::DDICDILibrary::Classes::Conceptual::VariablePosition--><g id="link_DDICDIModels::DDICDILibrary::Classes::Conceptual::ConceptualVariable_DDICDIModels::DDICDILibrary::Classes::Conceptual::VariablePosition"><a href="" target="_top" title=" ― indexes:&#10;Variable position indexes a conceptual variable." xlink:actuate="onRequest" xlink:href="" xlink:show="new" xlink:title=" ― indexes:&#10;Variable position indexes a conceptual variable." xlink:type="simple"><path codeLine="89" d="M684.576,511.1533 C666.459,556.0453 638.244,625.9843 625.257,658.1503 " fill="none" id="DDICDIModels::DDICDILibrary::Classes::Conceptual::ConceptualVariable-backto-DDICDIModels::DDICDILibrary::Classes::Conceptual::VariablePosition" style="stroke:#808080;stroke-width:1.35;"/><polygon fill="#808080" points="686.295,506.8873,679.9213,513.0473,684.6082,511.0592,686.5963,515.7462,686.295,506.8873" style="stroke:#808080;stroke-width:1.35;"/><text fill="#000000" font-family="sans-serif" font-size="11.7" lengthAdjust="spacing" textLength="40.5" x="658.8" y="587.6399">indexes</text></a></g><!--MD5=[65de5a426d2a391f263d0089a081203d]
reverse link DDICDIModels::DDICDILibrary::Classes::Conceptual::ConceptualVariable to DDICDIModels::DDICDILibrary::Classes::Conceptual::VariableRelationship--><g id="link_DDICDIModels::DDICDILibrary::Classes::Conceptual::ConceptualVariable_DDICDIModels::DDICDILibrary::Classes::Conceptual::VariableRelationship"><a href="" target="_top" title=" ― hasSource:&#10;" xlink:actuate="onRequest" xlink:href="" xlink:show="new" xlink:title=" ― hasSource:&#10;" xlink:type="simple"><path codeLine="90" d="M555.219,493.7023 C461.907,511.7383 352.539,539.4853 320.4,574.5943 C298.755,598.2463 290.331,635.9653 287.154,657.9343 " fill="none" id="DDICDIModels::DDICDILibrary::Classes::Conceptual::ConceptualVariable-backto-DDICDIModels::DDICDILibrary::Classes::Conceptual::VariableRelationship" style="stroke:#808080;stroke-width:1.35;"/><polygon fill="#808080" points="559.647,492.8473,551.0138,490.838,555.2276,493.6952,552.3704,497.9091,559.647,492.8473" style="stroke:#808080;stroke-width:1.35;"/><text fill="#000000" font-family="sans-serif" font-size="11.7" lengthAdjust="spacing" textLength="55.8" x="321.3" y="587.6399">hasSource</text></a></g><!--MD5=[65de5a426d2a391f263d0089a081203d]
reverse link DDICDIModels::DDICDILibrary::Classes::Conceptual::ConceptualVariable to DDICDIModels::DDICDILibrary::Classes::Conceptual::VariableRelationship--><g id="link_DDICDIModels::DDICDILibrary::Classes::Conceptual::ConceptualVariable_DDICDIModels::DDICDILibrary::Classes::Conceptual::VariableRelationship"><a href="" target="_top" title=" ― hasTarget:&#10;Note that this can be realized as a collection to support tuples." xlink:actuate="onRequest" xlink:href="" xlink:show="new" xlink:title=" ― hasTarget:&#10;Note that this can be realized as a collection to support tuples." xlink:type="simple"><path codeLine="91" d="M622.719,508.8763 C531.882,553.7053 386.226,625.5883 320.04,658.2583 " fill="none" id="DDICDIModels::DDICDILibrary::Classes::Conceptual::ConceptualVariable-backto-DDICDIModels::DDICDILibrary::Classes::Conceptual::VariableRelationship-1" style="stroke:#808080;stroke-width:1.35;"/><polygon fill="#808080" points="627.003,506.7613,618.1462,507.1186,622.9678,508.7532,621.3332,513.5748,627.003,506.7613" style="stroke:#808080;stroke-width:1.35;"/><text fill="#000000" font-family="sans-serif" font-size="11.7" lengthAdjust="spacing" textLength="51.3" x="488.7" y="587.6399">hasTarget</text></a></g><!--MD5=[8bfee3c11f5171cfeed7309b7e2bb543]
reverse link DDICDIModels::DDICDILibrary::Classes::Conceptual::Concept to DDICDIModels::DDICDILibrary::Classes::Agents::AgentListing--><g id="link_DDICDIModels::DDICDILibrary::Classes::Conceptual::Concept_DDICDIModels::DDICDILibrary::Classes::Agents::AgentListing"><a href="" target="_top" title=" ― isDefinedBy:&#10;The conceptual basis for the collection of members." xlink:actuate="onRequest" xlink:href="" xlink:show="new" xlink:title=" ― isDefinedBy:&#10;The conceptual basis for the collection of members." xlink:type="simple"><path codeLine="105" d="M798.309,218.3833 C887.391,178.6933 1022.985,134.1703 1141.2,161.4943 C1200.528,175.2103 1256.463,223.5583 1283.85,250.3603 " fill="none" id="DDICDIModels::DDICDILibrary::Classes::Conceptual::Concept-backto-DDICDIModels::DDICDILibrary::Classes::Agents::AgentListing" style="stroke:#808080;stroke-width:1.35;"/><polygon fill="#808080" points="794.106,220.2733,802.97,220.2553,798.2144,218.4374,800.0324,213.6818,794.106,220.2733" style="stroke:#808080;stroke-width:1.35;"/><text fill="#000000" font-family="sans-serif" font-size="11.7" lengthAdjust="spacing" textLength="73.8" x="1066.5" y="155.6399"> isDefinedBy</text></a></g><!--MD5=[0e5a01393ceea7820a4e600cabd63db1]
reverse link DDICDIModels::DDICDILibrary::Classes::Conceptual::Concept to DDICDIModels::DDICDILibrary::Classes::Representations::ClassificationFamily--><g id="link_DDICDIModels::DDICDILibrary::Classes::Conceptual::Concept_DDICDIModels::DDICDILibrary::Classes::Representations::ClassificationFamily"><a href="" target="_top" title=" ― isDefinedBy:&#10;The conceptual basis for the collection of members." xlink:actuate="onRequest" xlink:href="" xlink:show="new" xlink:title=" ― isDefinedBy:&#10;The conceptual basis for the collection of members." xlink:type="simple"><path codeLine="110" d="M797.949,201.9853 C827.145,185.4343 860.139,169.9993 892.8,161.4943 C925.317,153.0343 935.55,154.4293 968.4,161.4943 C1029.717,174.7063 1088.226,223.5133 1116.774,250.4503 " fill="none" id="DDICDIModels::DDICDILibrary::Classes::Conceptual::Concept-backto-DDICDIModels::DDICDILibrary::Classes::Representations::ClassificationFamily" style="stroke:#808080;stroke-width:1.35;"/><polygon fill="#808080" points="794.043,204.2173,802.8612,203.318,797.9485,201.9819,799.2846,197.0692,794.043,204.2173" style="stroke:#808080;stroke-width:1.35;"/><text fill="#000000" font-family="sans-serif" font-size="11.7" lengthAdjust="spacing" textLength="73.8" x="893.7" y="155.6399"> isDefinedBy</text></a></g><!--MD5=[d5163b2644e79755e86d48deb554973d]
reverse link DDICDIModels::DDICDILibrary::Classes::Conceptual::Concept to DDICDIModels::DDICDILibrary::Classes::Representations::ClassificationIndex--><g id="link_DDICDIModels::DDICDILibrary::Classes::Conceptual::Concept_DDICDIModels::DDICDILibrary::Classes::Representations::ClassificationIndex"><a href="" target="_top" title=" ― isDefinedBy:&#10;The conceptual basis for the collection of members." xlink:actuate="onRequest" xlink:href="" xlink:show="new" xlink:title=" ― isDefinedBy:&#10;The conceptual basis for the collection of members." xlink:type="simple"><path codeLine="115" d="M798.39,268.5943 C832.338,268.5943 869.67,268.5943 900.684,268.5943 " fill="none" id="DDICDIModels::DDICDILibrary::Classes::Conceptual::Concept-backto-DDICDIModels::DDICDILibrary::Classes::Representations::ClassificationIndex" style="stroke:#808080;stroke-width:1.35;"/><polygon fill="#808080" points="793.836,268.5943,801.936,272.1943,798.336,268.5943,801.936,264.9943,793.836,268.5943" style="stroke:#808080;stroke-width:1.35;"/><text fill="#000000" font-family="sans-serif" font-size="11.7" lengthAdjust="spacing" textLength="73.8" x="810.45" y="262.7399"> isDefinedBy</text></a></g><!--MD5=[cace811c10dc2f377b7703590306f5b3]
reverse link DDICDIModels::DDICDILibrary::Classes::Conceptual::RepresentedVariable to DDICDIModels::DDICDILibrary::Classes::DataDescription::Long::DescriptorVariable--><g id="link_DDICDIModels::DDICDILibrary::Classes::Conceptual::RepresentedVariable_DDICDIModels::DDICDILibrary::Classes::DataDescription::Long::DescriptorVariable"><path codeLine="136" d="M1097.559,703.5013 C1037.475,738.2863 933.264,798.6223 882.216,828.1783 " fill="none" id="DDICDIModels::DDICDILibrary::Classes::Conceptual::RepresentedVariable-backto-DDICDIModels::DDICDILibrary::Classes::DataDescription::Long::DescriptorVariable" style="stroke:#D2691E;stroke-width:1.35;"/><polygon fill="none" points="1094.526,697.9843,1113.255,694.4203,1100.835,708.8923,1094.526,697.9843" style="stroke:#D2691E;stroke-width:1.35;"/></g><!--MD5=[263cfd23b0c4edc5e90f1513f50c2fdd]
reverse link DDICDIModels::DDICDILibrary::Classes::Conceptual::RepresentedVariable to DDICDIModels::DDICDILibrary::Classes::Conceptual::InstanceVariable--><g id="link_DDICDIModels::DDICDILibrary::Classes::Conceptual::RepresentedVariable_DDICDIModels::DDICDILibrary::Classes::Conceptual::InstanceVariable"><path codeLine="137" d="M1119.366,709.2253 C1093.257,744.6043 1052.199,800.2423 1031.553,828.2143 " fill="none" id="DDICDIModels::DDICDILibrary::Classes::Conceptual::RepresentedVariable-backto-DDICDIModels::DDICDILibrary::Classes::Conceptual::InstanceVariable" style="stroke:#D2691E;stroke-width:1.35;"/><polygon fill="none" points="1114.416,705.3193,1130.175,694.5733,1124.559,712.7983,1114.416,705.3193" style="stroke:#D2691E;stroke-width:1.35;"/></g><!--MD5=[ca141f381d461214a7acf4d87ab4420c]
reverse link DDICDIModels::DDICDILibrary::Classes::Conceptual::RepresentedVariable to DDICDIModels::DDICDILibrary::Classes::DataDescription::Long::ReferenceVariable--><g id="link_DDICDIModels::DDICDILibrary::Classes::Conceptual::RepresentedVariable_DDICDIModels::DDICDILibrary::Classes::DataDescription::Long::ReferenceVariable"><path codeLine="138" d="M1151.784,712.1413 C1160.694,747.5923 1174.113,800.9983 1180.953,828.2143 " fill="none" id="DDICDIModels::DDICDILibrary::Classes::Conceptual::RepresentedVariable-backto-DDICDIModels::DDICDILibrary::Classes::DataDescription::Long::ReferenceVariable" style="stroke:#D2691E;stroke-width:1.35;"/><polygon fill="none" points="1145.646,713.5723,1147.365,694.5733,1157.868,710.4943,1145.646,713.5723" style="stroke:#D2691E;stroke-width:1.35;"/></g><!--MD5=[d94b263d233474fb07964b8663ff18e3]
link DDICDIModels::DDICDILibrary::Classes::Conceptual::ConceptualVariable to DDICDIModels::DesignPatterns::CollectionsPattern::IndividualMember--><g id="link_DDICDIModels::DDICDILibrary::Classes::Conceptual::ConceptualVariable_DDICDIModels::DesignPatterns::CollectionsPattern::IndividualMember"><path codeLine="141" d="M842.517,483.0913 C1017.18,500.9743 1291.5,536.2903 1291.5,581.7943 C1291.5,581.7943 1291.5,581.7943 1291.5,762.2443 C1291.5,787.1383 1309.392,809.6113 1325.682,824.9203 " fill="none" id="DDICDIModels::DDICDILibrary::Classes::Conceptual::ConceptualVariable-to-DDICDIModels::DesignPatterns::CollectionsPattern::IndividualMember" style="stroke:#404040;stroke-width:1.35;stroke-dasharray:7.0,7.0;"/><polygon fill="#404040" points="1329.345,828.2683,1325.7825,820.1518,1326.0188,825.2375,1320.9331,825.4738,1329.345,828.2683" style="stroke:#404040;stroke-width:1.35;"/><text fill="#000000" font-family="sans-serif" font-size="11.7" lengthAdjust="spacing" textLength="45" x="1292.4" y="681.2399">«Refine»</text></g><rect height="33.9609" style="stroke:#00000000;stroke-width:0.9;fill:none;" width="335.7" x="538.2" y="869.0631"/><text fill="#888888" font-family="sans-serif" font-size="9" lengthAdjust="spacing" textLength="2.7" x="704.7" y="878.4058"> </text><text fill="#888888" font-family="sans-serif" font-size="9" lengthAdjust="spacing" textLength="2.7" x="704.7" y="889.7261"> </text><text fill="#888888" font-family="sans-serif" font-size="9" lengthAdjust="spacing" textLength="335.7" x="538.2" y="901.0465">DDI Cross Domain Integration (DDI-CDI)   1.0 - Conceptual::ConceptualVariable</text><!--MD5=[b7aa52e57e345ec1f2aa2518e762fbe9]
@startuml
!pragma ratio 0.5625
' HD display aspect ratio 16:9
' hyperlinkColor and pathHoverColor do not seem to work with class diagrams
' working approach: colors per item
' default font size for class names is 14

hide circle
hide empty members
scale 0.9

skinparam {
  ArrowThickness 1.5
  MinClassWidth 150
}

skinparam legend {
  BackgroundColor white
  FontSize 10
}

skinparam note {
  BackgroundColor white
}

skinparam class {
  ArrowColor #404040
  BorderColor #404040
}

skinparam package {
  FontColor lightgrey
  BorderColor lightgrey
}

title <size:20>UML Diagram: Class ConceptualVariable in Context\n
footer \n\nDDI Cross Domain Integration (DDI-CDI)   1.0 - Conceptual::ConceptualVariable

legend top left
**Hints**
<color:grey>- Move the mouse cursor over a name to see more information.
<color:grey>- Click on a name to go to the corresponding page.
<color:grey>- The arrows of the inheritance tree are <color:#D2691E>colored<color:grey>.
endlegend

' Core class of diagram
class DDICDIModels::DDICDILibrary::Classes::Conceptual::ConceptualVariable as "<size:10>Conceptual::\n<color:black>ConceptualVariable" #FFD700 {
  descriptiveText : <color:blue>InternationalString   	  [[[../DDICDILibrary/DataTypes/StructuredDataTypes/InternationalString.html#diagram{ <U+2015> InternationalString:\nPackaging structure for multiple language versions of the same string content. Where an element of this type is repeatable, the expectation is that each repetition contains different content, each of which can be expressed in multiple languages. The language designation goes on the individual String ...}]]]
  unitOfMeasureKind : <color:blue>ControlledVocabularyEntry   	  [[[../DDICDILibrary/DataTypes/StructuredDataTypes/ControlledVocabularyEntry.html#diagram{ <U+2015> ControlledVocabularyEntry:\nAllows for unstructured content which may be an entry from an externally maintained controlled vocabulary.If the content is from a controlled vocabulary provide the code value of the entry, as well as a reference to the controlled vocabulary from which the value is taken. Provide as many of the iden ...}]]]
}

' Class definitions for associated classes without superclass (might have also an association)
' This would be too many constraints for Graphviz. 
together {
  class DDICDIModels::DDICDILibrary::Classes::Conceptual::SubstantiveConceptualDomain as "<size:10>Conceptual::\n<color:blue>SubstantiveConceptualDomain" [[../DDICDILibrary/Classes/Conceptual/SubstantiveConceptualDomain.html#super-class-hierarchy-generalization{ <U+2015> SubstantiveConceptualDomain:\nConceptual domain of substantive concepts.}]]
  class DDICDIModels::DDICDILibrary::Classes::Conceptual::VariableRelationship as "<size:10>Conceptual::\n<color:blue>VariableRelationship" [[../DDICDILibrary/Classes/Conceptual/VariableRelationship.html#super-class-hierarchy-generalization{ <U+2015> VariableRelationship:\nRelationship between any variables in the variable cascade (conceptual, represented, instance), based on an ordered relation.}]]
  class DDICDIModels::DDICDILibrary::Classes::Conceptual::UnitType as "<size:10>Conceptual::\n<color:blue>UnitType" [[../DDICDILibrary/Classes/Conceptual/UnitType.html#super-class-hierarchy-generalization{ <U+2015> UnitType:\nUnit type is a type or class of objects of interest (units).}]]
  class DDICDIModels::DDICDILibrary::Classes::Conceptual::VariablePosition as "<size:10>Conceptual::\n<color:blue>VariablePosition" [[../DDICDILibrary/Classes/Conceptual/VariablePosition.html#super-class-hierarchy-generalization{ <U+2015> VariablePosition:\nAssigns a sequence number to a variable within a list.}]]
  class DDICDIModels::DDICDILibrary::Classes::Conceptual::SentinelConceptualDomain as "<size:10>Conceptual::\n<color:blue>SentinelConceptualDomain" [[../DDICDILibrary/Classes/Conceptual/SentinelConceptualDomain.html#super-class-hierarchy-generalization{ <U+2015> SentinelConceptualDomain:\nConceptual domain of sentinel concepts.}]]
  class DDICDIModels::DDICDILibrary::Classes::Conceptual::VariableCollection as "<size:10>Conceptual::\n<color:blue>VariableCollection" [[../DDICDILibrary/Classes/Conceptual/VariableCollection.html#super-class-hierarchy-generalization{ <U+2015> VariableCollection:\nGroup of any type of variable within the variable cascade (conceptual, represented, instance).}]]
  class DDICDIModels::DDICDILibrary::Classes::Conceptual::RepresentedVariable as "<size:10>Conceptual::\n<color:blue>RepresentedVariable" [[../DDICDILibrary/Classes/Conceptual/RepresentedVariable.html#super-class-hierarchy-generalization{ <U+2015> RepresentedVariable:\nConceptual variable with a substantive value domain specified.}]]
}

' Class definitions for suppliers of abstractions
together {
  abstract class DDICDIModels::DesignPatterns::CollectionsPattern::IndividualMember as "<size:10>CollectionsPattern::\n<color:blue>IndividualMember" [[../DesignPatterns/CollectionsPattern/IndividualMember.html#super-class-hierarchy-generalization{ <U+2015> IndividualMember:\nDistinct element that is not itself a collection (atomic).}]]
}

' Rest of class definitions, without associated classes of core class and abstraction supplier classes
class DDICDIModels::DDICDILibrary::Classes::DataDescription::Long::DescriptorVariable as "<size:10>Long::\n<color:blue>DescriptorVariable" [[../DDICDILibrary/Classes/DataDescription/Long/DescriptorVariable.html#super-class-hierarchy-generalization{ <U+2015> DescriptorVariable:\nVariable that provides codes for variable identification in the context of a data structure. Variable playing the role of a variable descriptor component.}]]
class DDICDIModels::DDICDILibrary::Classes::Conceptual::InstanceVariable as "<size:10>Conceptual::\n<color:blue>InstanceVariable" [[../DDICDILibrary/Classes/Conceptual/InstanceVariable.html#super-class-hierarchy-generalization{ <U+2015> InstanceVariable:\nUse of a represented variable within a data set.}]]
class DDICDIModels::DDICDILibrary::Classes::Representations::ClassificationFamily as "<size:10>Representations::\n<color:blue>ClassificationFamily" [[../DDICDILibrary/Classes/Representations/ClassificationFamily.html#super-class-hierarchy-generalization{ <U+2015> ClassificationFamily:\nCollection of classification series related by being based on a common concept}]]
class DDICDIModels::DDICDILibrary::Classes::Conceptual::Concept as "<size:10>Conceptual::\n<color:blue>Concept" [[../DDICDILibrary/Classes/Conceptual/Concept.html#super-class-hierarchy-generalization{ <U+2015> Concept:\nUnit of thought differentiated by characteristics (from the Generic Statistical Information Model version 1.2: https://statswiki.unece.org/display/clickablegsim/Concept).}]]
class DDICDIModels::DDICDILibrary::Classes::Representations::ClassificationIndex as "<size:10>Representations::\n<color:blue>ClassificationIndex" [[../DDICDILibrary/Classes/Representations/ClassificationIndex.html#super-class-hierarchy-generalization{ <U+2015> ClassificationIndex:\nOrdered list of classification index entries.}]]
class DDICDIModels::DDICDILibrary::Classes::Agents::AgentListing as "<size:10>Agents::\n<color:blue>AgentListing" [[../DDICDILibrary/Classes/Agents/AgentListing.html#super-class-hierarchy-generalization{ <U+2015> AgentListing:\nListing of agents of any type who may be organized to describe relationships between agents.}]]
class DDICDIModels::DDICDILibrary::Classes::DataDescription::Long::ReferenceVariable as "<size:10>Long::\n<color:blue>ReferenceVariable" [[../DDICDILibrary/Classes/DataDescription/Long/ReferenceVariable.html#super-class-hierarchy-generalization{ <U+2015> ReferenceVariable:\nVariable that records values of multiple variables in the context of a data structure. Variable playing the role of a variable value component.}]]



' Associations
DDICDIModels::DDICDILibrary::Classes::Conceptual::ConceptualVariable -[#grey]-> DDICDIModels::DDICDILibrary::Classes::Conceptual::UnitType [[{ <U+2015> measures:\nIdentifies the unit type associated with the conceptual variable.}]] : measures
DDICDIModels::DDICDILibrary::Classes::Conceptual::ConceptualVariable -[#grey]-> DDICDIModels::DDICDILibrary::Classes::Conceptual::SentinelConceptualDomain [[{ <U+2015> takesSentinelConceptsFrom:\nIdentifies the conceptual domain containing the set of sentinel concepts used to describe the conceptual variable.}]] : takesSentinelConceptsFrom
DDICDIModels::DDICDILibrary::Classes::Conceptual::ConceptualVariable -[#grey]-> DDICDIModels::DDICDILibrary::Classes::Conceptual::SubstantiveConceptualDomain [[{ <U+2015> takesSubstantiveConceptsFrom:\nIdentifies the substantive conceptual domain containing the set of substantive concepts used to describe the conceptual variable.}]] : takesSubstantiveConceptsFrom
DDICDIModels::DDICDILibrary::Classes::Conceptual::ConceptualVariable -[#grey]-> DDICDIModels::DDICDILibrary::Classes::Conceptual::Concept [[{ <U+2015> uses:\nReference to a concept that is being used.}]] : uses
DDICDIModels::DDICDILibrary::Classes::Conceptual::ConceptualVariable <-[#grey]- DDICDIModels::DDICDILibrary::Classes::Conceptual::RepresentedVariable [[{ <U+2015> isBasedOn:\nThe conceptual variable that can be shared by a set of represented variables. Indicates comparability in conceptual domain and unit type.}]] : isBasedOn
DDICDIModels::DDICDILibrary::Classes::Conceptual::ConceptualVariable <-[#grey]- DDICDIModels::DDICDILibrary::Classes::Conceptual::VariableCollection [[{ <U+2015> has:\nVariable collection has zero to many conceptual variables.}]] : has
DDICDIModels::DDICDILibrary::Classes::Conceptual::ConceptualVariable <-[#grey]- DDICDIModels::DDICDILibrary::Classes::Conceptual::VariablePosition [[{ <U+2015> indexes:\nVariable position indexes a conceptual variable.}]] : indexes
DDICDIModels::DDICDILibrary::Classes::Conceptual::ConceptualVariable <-[#grey]- DDICDIModels::DDICDILibrary::Classes::Conceptual::VariableRelationship [[{ <U+2015> hasSource:\n}]] : hasSource
DDICDIModels::DDICDILibrary::Classes::Conceptual::ConceptualVariable <-[#grey]- DDICDIModels::DDICDILibrary::Classes::Conceptual::VariableRelationship [[{ <U+2015> hasTarget:\nNote that this can be realized as a collection to support tuples.}]] : hasTarget

' Super classes
' Associations of Super classes
note left of DDICDIModels::DDICDILibrary::Classes::Conceptual::Concept : Class has 21 associations.\nOnly 3 are shown here.
' firstAncestor:	org.eclipse.uml2.uml.internal.impl.ClassImpl@258ee7de (name: Concept, visibility: <unset>) (isLeaf: false, isAbstract: false, isFinalSpecialization: false) (isActive: false)
' secondAncestor:	org.eclipse.uml2.uml.internal.impl.ClassImpl@258ee7de (name: Concept, visibility: <unset>) (isLeaf: false, isAbstract: false, isFinalSpecialization: false) (isActive: false)



' aClass:			ConceptualVariable
' aSuperClass:		Concept
' e_ownedEndClass:	AgentListing
' e_otherEndClass:	Concept
DDICDIModels::DDICDILibrary::Classes::Conceptual::Concept <-[#grey] DDICDIModels::DDICDILibrary::Classes::Agents::AgentListing [[{ <U+2015> isDefinedBy:\nThe conceptual basis for the collection of members.}]] : <U+2003>isDefinedBy
' aClass:			ConceptualVariable
' aSuperClass:		Concept
' e_ownedEndClass:	ClassificationFamily
' e_otherEndClass:	Concept
DDICDIModels::DDICDILibrary::Classes::Conceptual::Concept <-[#grey] DDICDIModels::DDICDILibrary::Classes::Representations::ClassificationFamily [[{ <U+2015> isDefinedBy:\nThe conceptual basis for the collection of members.}]] : <U+2003>isDefinedBy
' aClass:			ConceptualVariable
' aSuperClass:		Concept
' e_ownedEndClass:	ClassificationIndex
' e_otherEndClass:	Concept
DDICDIModels::DDICDILibrary::Classes::Conceptual::Concept <-[#grey] DDICDIModels::DDICDILibrary::Classes::Representations::ClassificationIndex [[{ <U+2015> isDefinedBy:\nThe conceptual basis for the collection of members.}]] : <U+2003>isDefinedBy

class DDICDIModels::DDICDILibrary::Classes::Conceptual::Concept as "<size:10> \n<color:blue>Concept" [[../DDICDILibrary/Classes/Conceptual/Concept.html#super-class-hierarchy-generalization{ <U+2015> Concept:\nUnit of thought differentiated by characteristics (from the Generic Statistical Information Model version 1.2: https://statswiki.unece.org/display/clickablegsim/Concept).}]] #FAFAD2 {
  catalogDetails : <color:blue>CatalogDetails   	  [[[../DDICDILibrary/DataTypes/StructuredDataTypes/CatalogDetails.html#diagram{ <U+2015> CatalogDetails:\nA set of information useful for attribution, data discovery, and access.}]]]
  definition : <color:blue>InternationalString   	  [[[../DDICDILibrary/DataTypes/StructuredDataTypes/InternationalString.html#diagram{ <U+2015> InternationalString:\nPackaging structure for multiple language versions of the same string content. Where an element of this type is repeatable, the expectation is that each repetition contains different content, each of which can be expressed in multiple languages. The language designation goes on the individual String ...}]]]
  displayLabel : <color:blue>LabelForDisplay   	  [[[../DDICDILibrary/DataTypes/StructuredDataTypes/LabelForDisplay.html#diagram{ <U+2015> LabelForDisplay:\nA structured display label. Label provides display content of a fully human readable display for the identification of the object.}]]]
  externalDefinition : <color:blue>Reference   	  [[[../DDICDILibrary/DataTypes/StructuredDataTypes/Reference.html#diagram{ <U+2015> Reference:\nProvides a way of pointing to resources outside of the information described in the set of DDI-CDI metadata.}]]]
  identifier : <color:blue>Identifier   	  [[[../DDICDILibrary/DataTypes/StructuredDataTypes/Identifier.html#diagram{ <U+2015> Identifier:\nIdentifier for objects requiring short- or long-lasting referencing and management.}]]]
  name : <color:blue>ObjectName   	  [[[../DDICDILibrary/DataTypes/StructuredDataTypes/ObjectName.html#diagram{ <U+2015> ObjectName:\nA standard means of expressing a name for a class object. A linguistic signifier. Human understandable name (word, phrase, or mnemonic) that reflects the ISO/IEC 11179-5 naming principles.}]]]
}

DDICDIModels::DDICDILibrary::Classes::Conceptual::Concept <|-[#D2691E]- DDICDIModels::DDICDILibrary::Classes::Conceptual::ConceptualVariable

' Sub classes
  DDICDIModels::DDICDILibrary::Classes::Conceptual::ConceptualVariable <|- -[#D2691E]- DDICDIModels::DDICDILibrary::Classes::Conceptual::RepresentedVariable 
  DDICDIModels::DDICDILibrary::Classes::Conceptual::RepresentedVariable <|- -[#D2691E]- DDICDIModels::DDICDILibrary::Classes::DataDescription::Long::DescriptorVariable 
  DDICDIModels::DDICDILibrary::Classes::Conceptual::RepresentedVariable <|- -[#D2691E]- DDICDIModels::DDICDILibrary::Classes::Conceptual::InstanceVariable 
  DDICDIModels::DDICDILibrary::Classes::Conceptual::RepresentedVariable <|- -[#D2691E]- DDICDIModels::DDICDILibrary::Classes::DataDescription::Long::ReferenceVariable 

' Abstractions
  DDICDIModels::DDICDILibrary::Classes::Conceptual::ConceptualVariable .....> DDICDIModels::DesignPatterns::CollectionsPattern::IndividualMember : <U+00AB>Refine<U+00BB>
   
@enduml

@startuml
!pragma ratio 0.5625

hide circle
hide empty members
scale 0.9

skinparam {
  ArrowThickness 1.5
  MinClassWidth 150
}

skinparam legend {
  BackgroundColor white
  FontSize 10
}

skinparam note {
  BackgroundColor white
}

skinparam class {
  ArrowColor #404040
  BorderColor #404040
}

skinparam package {
  FontColor lightgrey
  BorderColor lightgrey
}

title <size:20>UML Diagram: Class ConceptualVariable in Context\n
footer \n\nDDI Cross Domain Integration (DDI-CDI)   1.0 - Conceptual::ConceptualVariable

legend top left
**Hints**
<color:grey>- Move the mouse cursor over a name to see more information.
<color:grey>- Click on a name to go to the corresponding page.
<color:grey>- The arrows of the inheritance tree are <color:#D2691E>colored<color:grey>.
endlegend

class DDICDIModels::DDICDILibrary::Classes::Conceptual::ConceptualVariable as "<size:10>Conceptual::\n<color:black>ConceptualVariable" #FFD700 {
  descriptiveText : <color:blue>InternationalString   	  [[[../DDICDILibrary/DataTypes/StructuredDataTypes/InternationalString.html#diagram{ <U+2015> InternationalString:\nPackaging structure for multiple language versions of the same string content. Where an element of this type is repeatable, the expectation is that each repetition contains different content, each of which can be expressed in multiple languages. The language designation goes on the individual String ...}]]]
  unitOfMeasureKind : <color:blue>ControlledVocabularyEntry   	  [[[../DDICDILibrary/DataTypes/StructuredDataTypes/ControlledVocabularyEntry.html#diagram{ <U+2015> ControlledVocabularyEntry:\nAllows for unstructured content which may be an entry from an externally maintained controlled vocabulary.If the content is from a controlled vocabulary provide the code value of the entry, as well as a reference to the controlled vocabulary from which the value is taken. Provide as many of the iden ...}]]]
}

together {
  class DDICDIModels::DDICDILibrary::Classes::Conceptual::SubstantiveConceptualDomain as "<size:10>Conceptual::\n<color:blue>SubstantiveConceptualDomain" [[../DDICDILibrary/Classes/Conceptual/SubstantiveConceptualDomain.html#super-class-hierarchy-generalization{ <U+2015> SubstantiveConceptualDomain:\nConceptual domain of substantive concepts.}]]
  class DDICDIModels::DDICDILibrary::Classes::Conceptual::VariableRelationship as "<size:10>Conceptual::\n<color:blue>VariableRelationship" [[../DDICDILibrary/Classes/Conceptual/VariableRelationship.html#super-class-hierarchy-generalization{ <U+2015> VariableRelationship:\nRelationship between any variables in the variable cascade (conceptual, represented, instance), based on an ordered relation.}]]
  class DDICDIModels::DDICDILibrary::Classes::Conceptual::UnitType as "<size:10>Conceptual::\n<color:blue>UnitType" [[../DDICDILibrary/Classes/Conceptual/UnitType.html#super-class-hierarchy-generalization{ <U+2015> UnitType:\nUnit type is a type or class of objects of interest (units).}]]
  class DDICDIModels::DDICDILibrary::Classes::Conceptual::VariablePosition as "<size:10>Conceptual::\n<color:blue>VariablePosition" [[../DDICDILibrary/Classes/Conceptual/VariablePosition.html#super-class-hierarchy-generalization{ <U+2015> VariablePosition:\nAssigns a sequence number to a variable within a list.}]]
  class DDICDIModels::DDICDILibrary::Classes::Conceptual::SentinelConceptualDomain as "<size:10>Conceptual::\n<color:blue>SentinelConceptualDomain" [[../DDICDILibrary/Classes/Conceptual/SentinelConceptualDomain.html#super-class-hierarchy-generalization{ <U+2015> SentinelConceptualDomain:\nConceptual domain of sentinel concepts.}]]
  class DDICDIModels::DDICDILibrary::Classes::Conceptual::VariableCollection as "<size:10>Conceptual::\n<color:blue>VariableCollection" [[../DDICDILibrary/Classes/Conceptual/VariableCollection.html#super-class-hierarchy-generalization{ <U+2015> VariableCollection:\nGroup of any type of variable within the variable cascade (conceptual, represented, instance).}]]
  class DDICDIModels::DDICDILibrary::Classes::Conceptual::RepresentedVariable as "<size:10>Conceptual::\n<color:blue>RepresentedVariable" [[../DDICDILibrary/Classes/Conceptual/RepresentedVariable.html#super-class-hierarchy-generalization{ <U+2015> RepresentedVariable:\nConceptual variable with a substantive value domain specified.}]]
}

together {
  abstract class DDICDIModels::DesignPatterns::CollectionsPattern::IndividualMember as "<size:10>CollectionsPattern::\n<color:blue>IndividualMember" [[../DesignPatterns/CollectionsPattern/IndividualMember.html#super-class-hierarchy-generalization{ <U+2015> IndividualMember:\nDistinct element that is not itself a collection (atomic).}]]
}

class DDICDIModels::DDICDILibrary::Classes::DataDescription::Long::DescriptorVariable as "<size:10>Long::\n<color:blue>DescriptorVariable" [[../DDICDILibrary/Classes/DataDescription/Long/DescriptorVariable.html#super-class-hierarchy-generalization{ <U+2015> DescriptorVariable:\nVariable that provides codes for variable identification in the context of a data structure. Variable playing the role of a variable descriptor component.}]]
class DDICDIModels::DDICDILibrary::Classes::Conceptual::InstanceVariable as "<size:10>Conceptual::\n<color:blue>InstanceVariable" [[../DDICDILibrary/Classes/Conceptual/InstanceVariable.html#super-class-hierarchy-generalization{ <U+2015> InstanceVariable:\nUse of a represented variable within a data set.}]]
class DDICDIModels::DDICDILibrary::Classes::Representations::ClassificationFamily as "<size:10>Representations::\n<color:blue>ClassificationFamily" [[../DDICDILibrary/Classes/Representations/ClassificationFamily.html#super-class-hierarchy-generalization{ <U+2015> ClassificationFamily:\nCollection of classification series related by being based on a common concept}]]
class DDICDIModels::DDICDILibrary::Classes::Conceptual::Concept as "<size:10>Conceptual::\n<color:blue>Concept" [[../DDICDILibrary/Classes/Conceptual/Concept.html#super-class-hierarchy-generalization{ <U+2015> Concept:\nUnit of thought differentiated by characteristics (from the Generic Statistical Information Model version 1.2: https://statswiki.unece.org/display/clickablegsim/Concept).}]]
class DDICDIModels::DDICDILibrary::Classes::Representations::ClassificationIndex as "<size:10>Representations::\n<color:blue>ClassificationIndex" [[../DDICDILibrary/Classes/Representations/ClassificationIndex.html#super-class-hierarchy-generalization{ <U+2015> ClassificationIndex:\nOrdered list of classification index entries.}]]
class DDICDIModels::DDICDILibrary::Classes::Agents::AgentListing as "<size:10>Agents::\n<color:blue>AgentListing" [[../DDICDILibrary/Classes/Agents/AgentListing.html#super-class-hierarchy-generalization{ <U+2015> AgentListing:\nListing of agents of any type who may be organized to describe relationships between agents.}]]
class DDICDIModels::DDICDILibrary::Classes::DataDescription::Long::ReferenceVariable as "<size:10>Long::\n<color:blue>ReferenceVariable" [[../DDICDILibrary/Classes/DataDescription/Long/ReferenceVariable.html#super-class-hierarchy-generalization{ <U+2015> ReferenceVariable:\nVariable that records values of multiple variables in the context of a data structure. Variable playing the role of a variable value component.}]]



DDICDIModels::DDICDILibrary::Classes::Conceptual::ConceptualVariable -[#grey]-> DDICDIModels::DDICDILibrary::Classes::Conceptual::UnitType [[{ <U+2015> measures:\nIdentifies the unit type associated with the conceptual variable.}]] : measures
DDICDIModels::DDICDILibrary::Classes::Conceptual::ConceptualVariable -[#grey]-> DDICDIModels::DDICDILibrary::Classes::Conceptual::SentinelConceptualDomain [[{ <U+2015> takesSentinelConceptsFrom:\nIdentifies the conceptual domain containing the set of sentinel concepts used to describe the conceptual variable.}]] : takesSentinelConceptsFrom
DDICDIModels::DDICDILibrary::Classes::Conceptual::ConceptualVariable -[#grey]-> DDICDIModels::DDICDILibrary::Classes::Conceptual::SubstantiveConceptualDomain [[{ <U+2015> takesSubstantiveConceptsFrom:\nIdentifies the substantive conceptual domain containing the set of substantive concepts used to describe the conceptual variable.}]] : takesSubstantiveConceptsFrom
DDICDIModels::DDICDILibrary::Classes::Conceptual::ConceptualVariable -[#grey]-> DDICDIModels::DDICDILibrary::Classes::Conceptual::Concept [[{ <U+2015> uses:\nReference to a concept that is being used.}]] : uses
DDICDIModels::DDICDILibrary::Classes::Conceptual::ConceptualVariable <-[#grey]- DDICDIModels::DDICDILibrary::Classes::Conceptual::RepresentedVariable [[{ <U+2015> isBasedOn:\nThe conceptual variable that can be shared by a set of represented variables. Indicates comparability in conceptual domain and unit type.}]] : isBasedOn
DDICDIModels::DDICDILibrary::Classes::Conceptual::ConceptualVariable <-[#grey]- DDICDIModels::DDICDILibrary::Classes::Conceptual::VariableCollection [[{ <U+2015> has:\nVariable collection has zero to many conceptual variables.}]] : has
DDICDIModels::DDICDILibrary::Classes::Conceptual::ConceptualVariable <-[#grey]- DDICDIModels::DDICDILibrary::Classes::Conceptual::VariablePosition [[{ <U+2015> indexes:\nVariable position indexes a conceptual variable.}]] : indexes
DDICDIModels::DDICDILibrary::Classes::Conceptual::ConceptualVariable <-[#grey]- DDICDIModels::DDICDILibrary::Classes::Conceptual::VariableRelationship [[{ <U+2015> hasSource:\n}]] : hasSource
DDICDIModels::DDICDILibrary::Classes::Conceptual::ConceptualVariable <-[#grey]- DDICDIModels::DDICDILibrary::Classes::Conceptual::VariableRelationship [[{ <U+2015> hasTarget:\nNote that this can be realized as a collection to support tuples.}]] : hasTarget

note left of DDICDIModels::DDICDILibrary::Classes::Conceptual::Concept : Class has 21 associations.\nOnly 3 are shown here.



DDICDIModels::DDICDILibrary::Classes::Conceptual::Concept <-[#grey] DDICDIModels::DDICDILibrary::Classes::Agents::AgentListing [[{ <U+2015> isDefinedBy:\nThe conceptual basis for the collection of members.}]] : <U+2003>isDefinedBy
DDICDIModels::DDICDILibrary::Classes::Conceptual::Concept <-[#grey] DDICDIModels::DDICDILibrary::Classes::Representations::ClassificationFamily [[{ <U+2015> isDefinedBy:\nThe conceptual basis for the collection of members.}]] : <U+2003>isDefinedBy
DDICDIModels::DDICDILibrary::Classes::Conceptual::Concept <-[#grey] DDICDIModels::DDICDILibrary::Classes::Representations::ClassificationIndex [[{ <U+2015> isDefinedBy:\nThe conceptual basis for the collection of members.}]] : <U+2003>isDefinedBy

class DDICDIModels::DDICDILibrary::Classes::Conceptual::Concept as "<size:10> \n<color:blue>Concept" [[../DDICDILibrary/Classes/Conceptual/Concept.html#super-class-hierarchy-generalization{ <U+2015> Concept:\nUnit of thought differentiated by characteristics (from the Generic Statistical Information Model version 1.2: https://statswiki.unece.org/display/clickablegsim/Concept).}]] #FAFAD2 {
  catalogDetails : <color:blue>CatalogDetails   	  [[[../DDICDILibrary/DataTypes/StructuredDataTypes/CatalogDetails.html#diagram{ <U+2015> CatalogDetails:\nA set of information useful for attribution, data discovery, and access.}]]]
  definition : <color:blue>InternationalString   	  [[[../DDICDILibrary/DataTypes/StructuredDataTypes/InternationalString.html#diagram{ <U+2015> InternationalString:\nPackaging structure for multiple language versions of the same string content. Where an element of this type is repeatable, the expectation is that each repetition contains different content, each of which can be expressed in multiple languages. The language designation goes on the individual String ...}]]]
  displayLabel : <color:blue>LabelForDisplay   	  [[[../DDICDILibrary/DataTypes/StructuredDataTypes/LabelForDisplay.html#diagram{ <U+2015> LabelForDisplay:\nA structured display label. Label provides display content of a fully human readable display for the identification of the object.}]]]
  externalDefinition : <color:blue>Reference   	  [[[../DDICDILibrary/DataTypes/StructuredDataTypes/Reference.html#diagram{ <U+2015> Reference:\nProvides a way of pointing to resources outside of the information described in the set of DDI-CDI metadata.}]]]
  identifier : <color:blue>Identifier   	  [[[../DDICDILibrary/DataTypes/StructuredDataTypes/Identifier.html#diagram{ <U+2015> Identifier:\nIdentifier for objects requiring short- or long-lasting referencing and management.}]]]
  name : <color:blue>ObjectName   	  [[[../DDICDILibrary/DataTypes/StructuredDataTypes/ObjectName.html#diagram{ <U+2015> ObjectName:\nA standard means of expressing a name for a class object. A linguistic signifier. Human understandable name (word, phrase, or mnemonic) that reflects the ISO/IEC 11179-5 naming principles.}]]]
}

DDICDIModels::DDICDILibrary::Classes::Conceptual::Concept <|-[#D2691E]- DDICDIModels::DDICDILibrary::Classes::Conceptual::ConceptualVariable

  DDICDIModels::DDICDILibrary::Classes::Conceptual::ConceptualVariable <|- -[#D2691E]- DDICDIModels::DDICDILibrary::Classes::Conceptual::RepresentedVariable 
  DDICDIModels::DDICDILibrary::Classes::Conceptual::RepresentedVariable <|- -[#D2691E]- DDICDIModels::DDICDILibrary::Classes::DataDescription::Long::DescriptorVariable 
  DDICDIModels::DDICDILibrary::Classes::Conceptual::RepresentedVariable <|- -[#D2691E]- DDICDIModels::DDICDILibrary::Classes::Conceptual::InstanceVariable 
  DDICDIModels::DDICDILibrary::Classes::Conceptual::RepresentedVariable <|- -[#D2691E]- DDICDIModels::DDICDILibrary::Classes::DataDescription::Long::ReferenceVariable 

  DDICDIModels::DDICDILibrary::Classes::Conceptual::ConceptualVariable .....> DDICDIModels::DesignPatterns::CollectionsPattern::IndividualMember : <U+00AB>Refine<U+00BB>
   
@enduml

PlantUML version 1.2022.6(Tue Jun 21 19:34:49 CEST 2022)
(GPL source distribution)
Java Runtime: OpenJDK Runtime Environment
JVM: OpenJDK 64-Bit Server VM
Default Encoding: Cp1252
Language: en
Country: US
--></g></svg>