<?xml version="1.0" encoding="UTF-8" standalone="no"?><svg xmlns="http://www.w3.org/2000/svg" xmlns:xlink="http://www.w3.org/1999/xlink" contentStyleType="text/css" height="476.1px" preserveAspectRatio="none" style="width:678px;height:476px;background:#FFFFFF;" version="1.1" viewBox="0 0 678 476" width="678.6px" zoomAndPan="magnify"><defs/><g><rect height="47.4891" style="stroke:#00000000;stroke-width:0.9;fill:none;" width="378" x="144" y="4.5"/><text fill="#000000" font-family="sans-serif" font-size="18" font-weight="bold" lengthAdjust="spacing" textLength="369" x="148.5" y="27.6855">UML Diagram: DataType relation in Context</text><text fill="#000000" font-family="sans-serif" font-size="12.6" font-weight="bold" lengthAdjust="spacing" textLength="3.6" x="331.2" y="44.7205"> </text><rect fill="#FFFFFF" height="56.0813" rx="6.75" ry="6.75" style="stroke:#000000;stroke-width:0.9;" width="348.3" x="310.5" y="64.5891"/><text fill="#000000" font-family="sans-serif" font-size="9" font-weight="bold" lengthAdjust="spacing" textLength="22.5" x="315.9" y="79.3318">Hints</text><text fill="#808080" font-family="sans-serif" font-size="9" lengthAdjust="spacing" textLength="265.5" x="315.9" y="90.6521">- Move the mouse cursor over a name to see more information.</text><text fill="#808080" font-family="sans-serif" font-size="9" lengthAdjust="spacing" textLength="216" x="315.9" y="101.9725">- Click on a name to go to the corresponding page.</text><text fill="#808080" font-family="sans-serif" font-size="9" lengthAdjust="spacing" textLength="337.5" x="315.9" y="113.2928">- The use of the data type is represented here by a dotted line (not formal UML).</text><!--MD5=[02009956934ec10683a08703356fd7bb]
entity ##4--><!--MD5=[fa26dd5b28bd31e0227766c25574e362]
entity ##6--><!--MD5=[c06aa8b4bf8dd1de226025c5b3a8c4b7]
class DDICDIModels::Context::DCTerms::relation--><g id="elem_DDICDIModels::Context::DCTerms::relation"><rect codeLine="47" fill="#FFD700" height="49.7531" id="DDICDIModels::Context::DCTerms::relation" rx="2.25" ry="2.25" style="stroke:#404040;stroke-width:0.45;" width="135" x="6.3" y="257.4703"/><text fill="#000000" font-family="sans-serif" font-size="10.8" font-style="italic" lengthAdjust="spacing" textLength="58.5" x="44.55" y="273.1816">«dataType»</text><text fill="#000000" font-family="sans-serif" font-size="9" lengthAdjust="spacing" textLength="2.7" x="72.45" y="284.8975"> </text><text fill="#000000" font-family="sans-serif" font-size="12.6" lengthAdjust="spacing" textLength="42.3" x="52.65" y="299.9549">relation</text></g><!--MD5=[99136fb6073ed1cee59bf5a7f593eaf7]
class DDICDIModels::DDICDILibrary::DataTypes::StructuredDataTypes::CatalogDetails--><a href="../DDICDILibrary/DataTypes/StructuredDataTypes/CatalogDetails.html#super-class-hierarchy-generalization" target="_top" title=" ― CatalogDetails:&#10;A set of information useful for attribution, data discovery, and access." xlink:actuate="onRequest" xlink:href="../DDICDILibrary/DataTypes/StructuredDataTypes/CatalogDetails.html#super-class-hierarchy-generalization" xlink:show="new" xlink:title=" ― CatalogDetails:&#10;A set of information useful for attribution, data discovery, and access." xlink:type="simple"><g id="elem_DDICDIModels::DDICDILibrary::DataTypes::StructuredDataTypes::CatalogDetails"><rect codeLine="54" fill="#F1F1F1" height="294.6797" id="DDICDIModels::DDICDILibrary::DataTypes::StructuredDataTypes::CatalogDetails" rx="2.25" ry="2.25" style="stroke:#404040;stroke-width:0.45;" width="266.4" x="405.9" y="135.0703"/><text fill="#000000" font-family="sans-serif" font-size="10.8" font-style="italic" lengthAdjust="spacing" textLength="58.5" x="509.85" y="150.7816">«dataType»</text><text fill="#808080" font-family="sans-serif" font-size="9" lengthAdjust="spacing" textLength="94.5" x="491.85" y="162.4975">StructuredDataTypes::</text><text fill="#0000FF" font-family="sans-serif" font-size="12.6" lengthAdjust="spacing" textLength="82.8" x="497.7" y="177.5549">CatalogDetails</text><line style="stroke:#404040;stroke-width:0.45;" x1="406.8" x2="671.4" y1="184.8234" y2="184.8234"/><a href="../DDICDILibrary/DataTypes/StructuredDataTypes/AccessInformation.html#diagram" target="_top" title=" ― AccessInformation:&#10;A set of information important for understanding access conditions." xlink:actuate="onRequest" xlink:href="../DDICDILibrary/DataTypes/StructuredDataTypes/AccessInformation.html#diagram" xlink:show="new" xlink:title=" ― AccessInformation:&#10;A set of information important for understanding access conditions." xlink:type="simple"><text fill="#000000" font-family="sans-serif" font-size="12.6" lengthAdjust="spacing" textLength="46.8" x="411.3" y="201.5033">access :</text><text fill="#0000FF" font-family="sans-serif" font-size="12.6" lengthAdjust="spacing" textLength="103.5" x="461.7" y="201.5033">AccessInformation</text></a><a href="../DDICDILibrary/DataTypes/StructuredDataTypes/InternationalString.html#diagram" target="_top" title=" ― InternationalString:&#10;Packaging structure for multiple language versions of the same string content. Where an element of this type is repeatable, the expectation is that each repetition contains different content, each of which can be expressed in multiple languages. The language designation goes on the individual String ..." xlink:actuate="onRequest" xlink:href="../DDICDILibrary/DataTypes/StructuredDataTypes/InternationalString.html#diagram" xlink:show="new" xlink:title=" ― InternationalString:&#10;Packaging structure for multiple language versions of the same string content. Where an element of this type is repeatable, the expectation is that each repetition contains different content, each of which can be expressed in multiple languages. The language designation goes on the individual String ..." xlink:type="simple"><text fill="#000000" font-family="sans-serif" font-size="12.6" lengthAdjust="spacing" textLength="90.9" x="411.3" y="217.3518">alternativeTitle :</text><text fill="#0000FF" font-family="sans-serif" font-size="12.6" lengthAdjust="spacing" textLength="103.5" x="505.8" y="217.3518">InternationalString</text></a><a href="../DDICDILibrary/DataTypes/StructuredDataTypes/AgentInRole.html#diagram" target="_top" title=" ― AgentInRole:&#10;A reference to an agent (organization, individual, or machine) including a role for that agent in the context of this specific reference." xlink:actuate="onRequest" xlink:href="../DDICDILibrary/DataTypes/StructuredDataTypes/AgentInRole.html#diagram" xlink:show="new" xlink:title=" ― AgentInRole:&#10;A reference to an agent (organization, individual, or machine) including a role for that agent in the context of this specific reference." xlink:type="simple"><text fill="#000000" font-family="sans-serif" font-size="12.6" lengthAdjust="spacing" textLength="68.4" x="411.3" y="233.2002">contributor :</text><text fill="#0000FF" font-family="sans-serif" font-size="12.6" lengthAdjust="spacing" textLength="69.3" x="483.3" y="233.2002">AgentInRole</text></a><a href="../DDICDILibrary/DataTypes/StructuredDataTypes/AgentInRole.html#diagram" target="_top" title=" ― AgentInRole:&#10;A reference to an agent (organization, individual, or machine) including a role for that agent in the context of this specific reference." xlink:actuate="onRequest" xlink:href="../DDICDILibrary/DataTypes/StructuredDataTypes/AgentInRole.html#diagram" xlink:show="new" xlink:title=" ― AgentInRole:&#10;A reference to an agent (organization, individual, or machine) including a role for that agent in the context of this specific reference." xlink:type="simple"><text fill="#000000" font-family="sans-serif" font-size="12.6" lengthAdjust="spacing" textLength="47.7" x="411.3" y="249.0486">creator :</text><text fill="#0000FF" font-family="sans-serif" font-size="12.6" lengthAdjust="spacing" textLength="69.3" x="462.6" y="249.0486">AgentInRole</text></a><a href="../DDICDILibrary/DataTypes/StructuredDataTypes/CombinedDate.html#diagram" target="_top" title=" ― CombinedDate:&#10;Provides the structure of a single Date expressed in an ISO date structure along with equivalent expression in any number of non-ISO formats. While it supports the use of the ISO time interval structure this should only be used when the exact date is unclear (i.e. occurring at some point in time bet ..." xlink:actuate="onRequest" xlink:href="../DDICDILibrary/DataTypes/StructuredDataTypes/CombinedDate.html#diagram" xlink:show="new" xlink:title=" ― CombinedDate:&#10;Provides the structure of a single Date expressed in an ISO date structure along with equivalent expression in any number of non-ISO formats. While it supports the use of the ISO time interval structure this should only be used when the exact date is unclear (i.e. occurring at some point in time bet ..." xlink:type="simple"><text fill="#000000" font-family="sans-serif" font-size="12.6" lengthAdjust="spacing" textLength="32.4" x="411.3" y="264.8971">date :</text><text fill="#0000FF" font-family="sans-serif" font-size="12.6" lengthAdjust="spacing" textLength="84.6" x="447.3" y="264.8971">CombinedDate</text></a><a href="../DDICDILibrary/DataTypes/StructuredDataTypes/InternationalIdentifier.html#diagram" target="_top" title=" ― InternationalIdentifier:&#10;An identifier whose scope of uniqueness is broader than the local archive. Common forms of an international identifier are ISBN, ISSN, DOI or similar designator. Provides both the value of the identifier and the agency who manages it." xlink:actuate="onRequest" xlink:href="../DDICDILibrary/DataTypes/StructuredDataTypes/InternationalIdentifier.html#diagram" xlink:show="new" xlink:title=" ― InternationalIdentifier:&#10;An identifier whose scope of uniqueness is broader than the local archive. Common forms of an international identifier are ISBN, ISSN, DOI or similar designator. Provides both the value of the identifier and the agency who manages it." xlink:type="simple"><text fill="#000000" font-family="sans-serif" font-size="12.6" lengthAdjust="spacing" textLength="55.8" x="411.3" y="280.7455">identifier :</text><text fill="#0000FF" font-family="sans-serif" font-size="12.6" lengthAdjust="spacing" textLength="118.8" x="470.7" y="280.7455">InternationalIdentifier</text></a><a href="../DDICDILibrary/DataTypes/StructuredDataTypes/InternationalString.html#diagram" target="_top" title=" ― InternationalString:&#10;Packaging structure for multiple language versions of the same string content. Where an element of this type is repeatable, the expectation is that each repetition contains different content, each of which can be expressed in multiple languages. The language designation goes on the individual String ..." xlink:actuate="onRequest" xlink:href="../DDICDILibrary/DataTypes/StructuredDataTypes/InternationalString.html#diagram" xlink:show="new" xlink:title=" ― InternationalString:&#10;Packaging structure for multiple language versions of the same string content. Where an element of this type is repeatable, the expectation is that each repetition contains different content, each of which can be expressed in multiple languages. The language designation goes on the individual String ..." xlink:type="simple"><text fill="#000000" font-family="sans-serif" font-size="12.6" lengthAdjust="spacing" textLength="110.7" x="411.3" y="296.5939">informationSource :</text><text fill="#0000FF" font-family="sans-serif" font-size="12.6" lengthAdjust="spacing" textLength="103.5" x="525.6" y="296.5939">InternationalString</text></a><a href="../DDICDILibrary/DataTypes/XMLSchemaDataTypes/XsdLanguage.html#diagram" target="_top" title=" ― XsdLanguage:&#10;Derived data type &quot;language&quot; of the XML Schema data types. Definition from XML Schema Part 2: Datatypes Second Edition: &quot;language&quot; represents natural language identifiers as defined by by [RFC 3066]. The value space of &quot;language&quot; is the set of all strings that are valid language identifiers as defin ..." xlink:actuate="onRequest" xlink:href="../DDICDILibrary/DataTypes/XMLSchemaDataTypes/XsdLanguage.html#diagram" xlink:show="new" xlink:title=" ― XsdLanguage:&#10;Derived data type &quot;language&quot; of the XML Schema data types. Definition from XML Schema Part 2: Datatypes Second Edition: &quot;language&quot; represents natural language identifiers as defined by by [RFC 3066]. The value space of &quot;language&quot; is the set of all strings that are valid language identifiers as defin ..." xlink:type="simple"><text fill="#000000" font-family="sans-serif" font-size="12.6" lengthAdjust="spacing" textLength="110.7" x="411.3" y="312.4424">languageOfObject :</text><text fill="#0000FF" font-family="sans-serif" font-size="12.6" lengthAdjust="spacing" textLength="78.3" x="525.6" y="312.4424">XsdLanguage</text></a><a href="../DDICDILibrary/DataTypes/StructuredDataTypes/ProvenanceInformation.html#diagram" target="_top" title=" ― ProvenanceInformation:&#10;Basic information about the provenance of the object. Includes a simple description, but not detailed modeling of a process." xlink:actuate="onRequest" xlink:href="../DDICDILibrary/DataTypes/StructuredDataTypes/ProvenanceInformation.html#diagram" xlink:show="new" xlink:title=" ― ProvenanceInformation:&#10;Basic information about the provenance of the object. Includes a simple description, but not detailed modeling of a process." xlink:type="simple"><text fill="#000000" font-family="sans-serif" font-size="12.6" lengthAdjust="spacing" textLength="74.7" x="411.3" y="328.2908">provenance :</text><text fill="#0000FF" font-family="sans-serif" font-size="12.6" lengthAdjust="spacing" textLength="131.4" x="489.6" y="328.2908">ProvenanceInformation</text></a><a href="../DDICDILibrary/DataTypes/StructuredDataTypes/AgentInRole.html#diagram" target="_top" title=" ― AgentInRole:&#10;A reference to an agent (organization, individual, or machine) including a role for that agent in the context of this specific reference." xlink:actuate="onRequest" xlink:href="../DDICDILibrary/DataTypes/StructuredDataTypes/AgentInRole.html#diagram" xlink:show="new" xlink:title=" ― AgentInRole:&#10;A reference to an agent (organization, individual, or machine) including a role for that agent in the context of this specific reference." xlink:type="simple"><text fill="#000000" font-family="sans-serif" font-size="12.6" lengthAdjust="spacing" textLength="59.4" x="411.3" y="344.1393">publisher :</text><text fill="#0000FF" font-family="sans-serif" font-size="12.6" lengthAdjust="spacing" textLength="69.3" x="474.3" y="344.1393">AgentInRole</text></a><a href="../DDICDILibrary/DataTypes/StructuredDataTypes/Reference.html#diagram" target="_top" title=" ― Reference:&#10;Provides a way of pointing to resources outside of the information described in the set of DDI-CDI metadata." xlink:actuate="onRequest" xlink:href="../DDICDILibrary/DataTypes/StructuredDataTypes/Reference.html#diagram" xlink:show="new" xlink:title=" ― Reference:&#10;Provides a way of pointing to resources outside of the information described in the set of DDI-CDI metadata." xlink:type="simple"><text fill="#000000" font-family="sans-serif" font-size="12.6" lengthAdjust="spacing" textLength="101.7" x="411.3" y="359.9877">relatedResource :</text><text fill="#0000FF" font-family="sans-serif" font-size="12.6" lengthAdjust="spacing" textLength="59.4" x="516.6" y="359.9877">Reference</text></a><a href="../DDICDILibrary/DataTypes/StructuredDataTypes/InternationalString.html#diagram" target="_top" title=" ― InternationalString:&#10;Packaging structure for multiple language versions of the same string content. Where an element of this type is repeatable, the expectation is that each repetition contains different content, each of which can be expressed in multiple languages. The language designation goes on the individual String ..." xlink:actuate="onRequest" xlink:href="../DDICDILibrary/DataTypes/StructuredDataTypes/InternationalString.html#diagram" xlink:show="new" xlink:title=" ― InternationalString:&#10;Packaging structure for multiple language versions of the same string content. Where an element of this type is repeatable, the expectation is that each repetition contains different content, each of which can be expressed in multiple languages. The language designation goes on the individual String ..." xlink:type="simple"><text fill="#000000" font-family="sans-serif" font-size="12.6" lengthAdjust="spacing" textLength="52.2" x="411.3" y="375.8361">subTitle :</text><text fill="#0000FF" font-family="sans-serif" font-size="12.6" lengthAdjust="spacing" textLength="103.5" x="467.1" y="375.8361">InternationalString</text></a><a href="../DDICDILibrary/DataTypes/StructuredDataTypes/InternationalString.html#diagram" target="_top" title=" ― InternationalString:&#10;Packaging structure for multiple language versions of the same string content. Where an element of this type is repeatable, the expectation is that each repetition contains different content, each of which can be expressed in multiple languages. The language designation goes on the individual String ..." xlink:actuate="onRequest" xlink:href="../DDICDILibrary/DataTypes/StructuredDataTypes/InternationalString.html#diagram" xlink:show="new" xlink:title=" ― InternationalString:&#10;Packaging structure for multiple language versions of the same string content. Where an element of this type is repeatable, the expectation is that each repetition contains different content, each of which can be expressed in multiple languages. The language designation goes on the individual String ..." xlink:type="simple"><text fill="#000000" font-family="sans-serif" font-size="12.6" lengthAdjust="spacing" textLength="58.5" x="411.3" y="391.6846">summary :</text><text fill="#0000FF" font-family="sans-serif" font-size="12.6" lengthAdjust="spacing" textLength="103.5" x="473.4" y="391.6846">InternationalString</text></a><a href="../DDICDILibrary/DataTypes/StructuredDataTypes/InternationalString.html#diagram" target="_top" title=" ― InternationalString:&#10;Packaging structure for multiple language versions of the same string content. Where an element of this type is repeatable, the expectation is that each repetition contains different content, each of which can be expressed in multiple languages. The language designation goes on the individual String ..." xlink:actuate="onRequest" xlink:href="../DDICDILibrary/DataTypes/StructuredDataTypes/InternationalString.html#diagram" xlink:show="new" xlink:title=" ― InternationalString:&#10;Packaging structure for multiple language versions of the same string content. Where an element of this type is repeatable, the expectation is that each repetition contains different content, each of which can be expressed in multiple languages. The language designation goes on the individual String ..." xlink:type="simple"><text fill="#000000" font-family="sans-serif" font-size="12.6" lengthAdjust="spacing" textLength="27" x="411.3" y="407.533">title :</text><text fill="#0000FF" font-family="sans-serif" font-size="12.6" lengthAdjust="spacing" textLength="103.5" x="441.9" y="407.533">InternationalString</text></a><a href="../DDICDILibrary/DataTypes/StructuredDataTypes/ControlledVocabularyEntry.html#diagram" target="_top" title=" ― ControlledVocabularyEntry:&#10;Allows for unstructured content which may be an entry from an externally maintained controlled vocabulary.If the content is from a controlled vocabulary provide the code value of the entry, as well as a reference to the controlled vocabulary from which the value is taken. Provide as many of the iden ..." xlink:actuate="onRequest" xlink:href="../DDICDILibrary/DataTypes/StructuredDataTypes/ControlledVocabularyEntry.html#diagram" xlink:show="new" xlink:title=" ― ControlledVocabularyEntry:&#10;Allows for unstructured content which may be an entry from an externally maintained controlled vocabulary.If the content is from a controlled vocabulary provide the code value of the entry, as well as a reference to the controlled vocabulary from which the value is taken. Provide as many of the iden ..." xlink:type="simple"><text fill="#000000" font-family="sans-serif" font-size="12.6" lengthAdjust="spacing" textLength="99.9" x="411.3" y="423.3814">typeOfResource :</text><text fill="#0000FF" font-family="sans-serif" font-size="12.6" lengthAdjust="spacing" textLength="152.1" x="514.8" y="423.3814">ControlledVocabularyEntry</text></a></g></a><!--MD5=[0491dcf8ef50076f0ce4835e5910cb97]
reverse link DDICDIModels::Context::DCTerms::relation to DDICDIModels::DDICDILibrary::DataTypes::StructuredDataTypes::CatalogDetails--><g id="link_DDICDIModels::Context::DCTerms::relation_DDICDIModels::DDICDILibrary::DataTypes::StructuredDataTypes::CatalogDetails"><path codeLine="94" d="M146.151,282.2203 C162.594,282.2203 180,282.2203 196.2,282.2203 C196.2,282.2203 196.2,282.2203 351,282.2203 C368.712,282.2203 387.369,282.2203 405.765,282.2203 " fill="none" id="DDICDIModels::Context::DCTerms::relation-backto-DDICDIModels::DDICDILibrary::DataTypes::StructuredDataTypes::CatalogDetails" style="stroke:#404040;stroke-width:1.35;stroke-dasharray:7.0,7.0;"/><polygon fill="#404040" points="141.543,282.2203,149.643,285.8203,146.043,282.2203,149.643,278.6203,141.543,282.2203" style="stroke:#404040;stroke-width:1.35;"/><text fill="#000000" font-family="sans-serif" font-size="11.7" lengthAdjust="spacing" textLength="41.4" x="252.9" y="279.0659">«Trace»</text></g><rect height="33.9609" style="stroke:#00000000;stroke-width:0.9;fill:none;" width="271.8" x="197.1" y="435.15"/><text fill="#888888" font-family="sans-serif" font-size="9" lengthAdjust="spacing" textLength="2.7" x="331.65" y="444.4928"> </text><text fill="#888888" font-family="sans-serif" font-size="9" lengthAdjust="spacing" textLength="2.7" x="331.65" y="455.8131"> </text><text fill="#888888" font-family="sans-serif" font-size="9" lengthAdjust="spacing" textLength="271.8" x="197.1" y="467.1334">DDI Cross Domain Integration (DDI-CDI)   1.0 - DCTerms::relation</text><!--MD5=[8da6288e22c65050fa27001f633949e6]
@startuml
left to right direction
' HD display aspect ratio 16:9
' hyperlinkColor and pathHoverColor do not seem to work with class diagrams
' working approach: colors per item
' default font size for class names is 14

hide circle
hide empty members
scale 0.9

skinparam {
  ArrowThickness 1.5
  MinClassWidth 150
}

skinparam legend {
  BackgroundColor white
  FontSize 10
}

skinparam note {
  BackgroundColor white
}

skinparam class {
  ArrowColor #404040
  BorderColor #404040
}

skinparam package {
  FontColor lightgrey
  BorderColor lightgrey
}

title <size:20>UML Diagram: DataType relation in Context\n
footer \n\nDDI Cross Domain Integration (DDI-CDI)   1.0 - DCTerms::relation

legend top right
**Hints**
<color:grey>- Move the mouse cursor over a name to see more information.
<color:grey>- Click on a name to go to the corresponding page.
<color:grey>- The use of the data type is represented here by a dotted line (not formal UML).
endlegend

' Core data type of diagram
class DDICDIModels::Context::DCTerms::relation as "<size:10> \n<color:black>relation" <<dataType>>   #FFD700 {
}

' Data type definitions in own package

' Data type definitions in other packages
  class DDICDIModels::DDICDILibrary::DataTypes::StructuredDataTypes::CatalogDetails as "<size:10><color:grey>StructuredDataTypes::\n<color:blue>CatalogDetails" <<dataType>> [[../DDICDILibrary/DataTypes/StructuredDataTypes/CatalogDetails.html#super-class-hierarchy-generalization{ <U+2015> CatalogDetails:\nA set of information useful for attribution, data discovery, and access.}]] {
  access : <color:blue>AccessInformation   	  [[[../DDICDILibrary/DataTypes/StructuredDataTypes/AccessInformation.html#diagram{ <U+2015> AccessInformation:\nA set of information important for understanding access conditions.}]]]
  alternativeTitle : <color:blue>InternationalString   	  [[[../DDICDILibrary/DataTypes/StructuredDataTypes/InternationalString.html#diagram{ <U+2015> InternationalString:\nPackaging structure for multiple language versions of the same string content. Where an element of this type is repeatable, the expectation is that each repetition contains different content, each of which can be expressed in multiple languages. The language designation goes on the individual String ...}]]]
  contributor : <color:blue>AgentInRole   	  [[[../DDICDILibrary/DataTypes/StructuredDataTypes/AgentInRole.html#diagram{ <U+2015> AgentInRole:\nA reference to an agent (organization, individual, or machine) including a role for that agent in the context of this specific reference.}]]]
  creator : <color:blue>AgentInRole   	  [[[../DDICDILibrary/DataTypes/StructuredDataTypes/AgentInRole.html#diagram{ <U+2015> AgentInRole:\nA reference to an agent (organization, individual, or machine) including a role for that agent in the context of this specific reference.}]]]
  date : <color:blue>CombinedDate   	  [[[../DDICDILibrary/DataTypes/StructuredDataTypes/CombinedDate.html#diagram{ <U+2015> CombinedDate:\nProvides the structure of a single Date expressed in an ISO date structure along with equivalent expression in any number of non-ISO formats. While it supports the use of the ISO time interval structure this should only be used when the exact date is unclear (i.e. occurring at some point in time bet ...}]]]
  identifier : <color:blue>InternationalIdentifier   	  [[[../DDICDILibrary/DataTypes/StructuredDataTypes/InternationalIdentifier.html#diagram{ <U+2015> InternationalIdentifier:\nAn identifier whose scope of uniqueness is broader than the local archive. Common forms of an international identifier are ISBN, ISSN, DOI or similar designator. Provides both the value of the identifier and the agency who manages it.}]]]
  informationSource : <color:blue>InternationalString   	  [[[../DDICDILibrary/DataTypes/StructuredDataTypes/InternationalString.html#diagram{ <U+2015> InternationalString:\nPackaging structure for multiple language versions of the same string content. Where an element of this type is repeatable, the expectation is that each repetition contains different content, each of which can be expressed in multiple languages. The language designation goes on the individual String ...}]]]
  languageOfObject : <color:blue>XsdLanguage   	  [[[../DDICDILibrary/DataTypes/XMLSchemaDataTypes/XsdLanguage.html#diagram{ <U+2015> XsdLanguage:\nDerived data type "language" of the XML Schema data types. Definition from XML Schema Part 2: Datatypes Second Edition: "language" represents natural language identifiers as defined by by [RFC 3066]. The value space of "language" is the set of all strings that are valid language identifiers as defin ...}]]]
  provenance : <color:blue>ProvenanceInformation   	  [[[../DDICDILibrary/DataTypes/StructuredDataTypes/ProvenanceInformation.html#diagram{ <U+2015> ProvenanceInformation:\nBasic information about the provenance of the object. Includes a simple description, but not detailed modeling of a process.}]]]
  publisher : <color:blue>AgentInRole   	  [[[../DDICDILibrary/DataTypes/StructuredDataTypes/AgentInRole.html#diagram{ <U+2015> AgentInRole:\nA reference to an agent (organization, individual, or machine) including a role for that agent in the context of this specific reference.}]]]
  relatedResource : <color:blue>Reference   	  [[[../DDICDILibrary/DataTypes/StructuredDataTypes/Reference.html#diagram{ <U+2015> Reference:\nProvides a way of pointing to resources outside of the information described in the set of DDI-CDI metadata.}]]]
  subTitle : <color:blue>InternationalString   	  [[[../DDICDILibrary/DataTypes/StructuredDataTypes/InternationalString.html#diagram{ <U+2015> InternationalString:\nPackaging structure for multiple language versions of the same string content. Where an element of this type is repeatable, the expectation is that each repetition contains different content, each of which can be expressed in multiple languages. The language designation goes on the individual String ...}]]]
  summary : <color:blue>InternationalString   	  [[[../DDICDILibrary/DataTypes/StructuredDataTypes/InternationalString.html#diagram{ <U+2015> InternationalString:\nPackaging structure for multiple language versions of the same string content. Where an element of this type is repeatable, the expectation is that each repetition contains different content, each of which can be expressed in multiple languages. The language designation goes on the individual String ...}]]]
  title : <color:blue>InternationalString   	  [[[../DDICDILibrary/DataTypes/StructuredDataTypes/InternationalString.html#diagram{ <U+2015> InternationalString:\nPackaging structure for multiple language versions of the same string content. Where an element of this type is repeatable, the expectation is that each repetition contains different content, each of which can be expressed in multiple languages. The language designation goes on the individual String ...}]]]
  typeOfResource : <color:blue>ControlledVocabularyEntry   	  [[[../DDICDILibrary/DataTypes/StructuredDataTypes/ControlledVocabularyEntry.html#diagram{ <U+2015> ControlledVocabularyEntry:\nAllows for unstructured content which may be an entry from an externally maintained controlled vocabulary.If the content is from a controlled vocabulary provide the code value of the entry, as well as a reference to the controlled vocabulary from which the value is taken. Provide as many of the iden ...}]]]
}

' Use of data type
together {
}


' Abstractions
together {
  DDICDIModels::Context::DCTerms::relation <..... DDICDIModels::DDICDILibrary::DataTypes::StructuredDataTypes::CatalogDetails : <U+00AB>Trace<U+00BB>
   
}
@enduml

@startuml
left to right direction

hide circle
hide empty members
scale 0.9

skinparam {
  ArrowThickness 1.5
  MinClassWidth 150
}

skinparam legend {
  BackgroundColor white
  FontSize 10
}

skinparam note {
  BackgroundColor white
}

skinparam class {
  ArrowColor #404040
  BorderColor #404040
}

skinparam package {
  FontColor lightgrey
  BorderColor lightgrey
}

title <size:20>UML Diagram: DataType relation in Context\n
footer \n\nDDI Cross Domain Integration (DDI-CDI)   1.0 - DCTerms::relation

legend top right
**Hints**
<color:grey>- Move the mouse cursor over a name to see more information.
<color:grey>- Click on a name to go to the corresponding page.
<color:grey>- The use of the data type is represented here by a dotted line (not formal UML).
endlegend

class DDICDIModels::Context::DCTerms::relation as "<size:10> \n<color:black>relation" <<dataType>>   #FFD700 {
}


  class DDICDIModels::DDICDILibrary::DataTypes::StructuredDataTypes::CatalogDetails as "<size:10><color:grey>StructuredDataTypes::\n<color:blue>CatalogDetails" <<dataType>> [[../DDICDILibrary/DataTypes/StructuredDataTypes/CatalogDetails.html#super-class-hierarchy-generalization{ <U+2015> CatalogDetails:\nA set of information useful for attribution, data discovery, and access.}]] {
  access : <color:blue>AccessInformation   	  [[[../DDICDILibrary/DataTypes/StructuredDataTypes/AccessInformation.html#diagram{ <U+2015> AccessInformation:\nA set of information important for understanding access conditions.}]]]
  alternativeTitle : <color:blue>InternationalString   	  [[[../DDICDILibrary/DataTypes/StructuredDataTypes/InternationalString.html#diagram{ <U+2015> InternationalString:\nPackaging structure for multiple language versions of the same string content. Where an element of this type is repeatable, the expectation is that each repetition contains different content, each of which can be expressed in multiple languages. The language designation goes on the individual String ...}]]]
  contributor : <color:blue>AgentInRole   	  [[[../DDICDILibrary/DataTypes/StructuredDataTypes/AgentInRole.html#diagram{ <U+2015> AgentInRole:\nA reference to an agent (organization, individual, or machine) including a role for that agent in the context of this specific reference.}]]]
  creator : <color:blue>AgentInRole   	  [[[../DDICDILibrary/DataTypes/StructuredDataTypes/AgentInRole.html#diagram{ <U+2015> AgentInRole:\nA reference to an agent (organization, individual, or machine) including a role for that agent in the context of this specific reference.}]]]
  date : <color:blue>CombinedDate   	  [[[../DDICDILibrary/DataTypes/StructuredDataTypes/CombinedDate.html#diagram{ <U+2015> CombinedDate:\nProvides the structure of a single Date expressed in an ISO date structure along with equivalent expression in any number of non-ISO formats. While it supports the use of the ISO time interval structure this should only be used when the exact date is unclear (i.e. occurring at some point in time bet ...}]]]
  identifier : <color:blue>InternationalIdentifier   	  [[[../DDICDILibrary/DataTypes/StructuredDataTypes/InternationalIdentifier.html#diagram{ <U+2015> InternationalIdentifier:\nAn identifier whose scope of uniqueness is broader than the local archive. Common forms of an international identifier are ISBN, ISSN, DOI or similar designator. Provides both the value of the identifier and the agency who manages it.}]]]
  informationSource : <color:blue>InternationalString   	  [[[../DDICDILibrary/DataTypes/StructuredDataTypes/InternationalString.html#diagram{ <U+2015> InternationalString:\nPackaging structure for multiple language versions of the same string content. Where an element of this type is repeatable, the expectation is that each repetition contains different content, each of which can be expressed in multiple languages. The language designation goes on the individual String ...}]]]
  languageOfObject : <color:blue>XsdLanguage   	  [[[../DDICDILibrary/DataTypes/XMLSchemaDataTypes/XsdLanguage.html#diagram{ <U+2015> XsdLanguage:\nDerived data type "language" of the XML Schema data types. Definition from XML Schema Part 2: Datatypes Second Edition: "language" represents natural language identifiers as defined by by [RFC 3066]. The value space of "language" is the set of all strings that are valid language identifiers as defin ...}]]]
  provenance : <color:blue>ProvenanceInformation   	  [[[../DDICDILibrary/DataTypes/StructuredDataTypes/ProvenanceInformation.html#diagram{ <U+2015> ProvenanceInformation:\nBasic information about the provenance of the object. Includes a simple description, but not detailed modeling of a process.}]]]
  publisher : <color:blue>AgentInRole   	  [[[../DDICDILibrary/DataTypes/StructuredDataTypes/AgentInRole.html#diagram{ <U+2015> AgentInRole:\nA reference to an agent (organization, individual, or machine) including a role for that agent in the context of this specific reference.}]]]
  relatedResource : <color:blue>Reference   	  [[[../DDICDILibrary/DataTypes/StructuredDataTypes/Reference.html#diagram{ <U+2015> Reference:\nProvides a way of pointing to resources outside of the information described in the set of DDI-CDI metadata.}]]]
  subTitle : <color:blue>InternationalString   	  [[[../DDICDILibrary/DataTypes/StructuredDataTypes/InternationalString.html#diagram{ <U+2015> InternationalString:\nPackaging structure for multiple language versions of the same string content. Where an element of this type is repeatable, the expectation is that each repetition contains different content, each of which can be expressed in multiple languages. The language designation goes on the individual String ...}]]]
  summary : <color:blue>InternationalString   	  [[[../DDICDILibrary/DataTypes/StructuredDataTypes/InternationalString.html#diagram{ <U+2015> InternationalString:\nPackaging structure for multiple language versions of the same string content. Where an element of this type is repeatable, the expectation is that each repetition contains different content, each of which can be expressed in multiple languages. The language designation goes on the individual String ...}]]]
  title : <color:blue>InternationalString   	  [[[../DDICDILibrary/DataTypes/StructuredDataTypes/InternationalString.html#diagram{ <U+2015> InternationalString:\nPackaging structure for multiple language versions of the same string content. Where an element of this type is repeatable, the expectation is that each repetition contains different content, each of which can be expressed in multiple languages. The language designation goes on the individual String ...}]]]
  typeOfResource : <color:blue>ControlledVocabularyEntry   	  [[[../DDICDILibrary/DataTypes/StructuredDataTypes/ControlledVocabularyEntry.html#diagram{ <U+2015> ControlledVocabularyEntry:\nAllows for unstructured content which may be an entry from an externally maintained controlled vocabulary.If the content is from a controlled vocabulary provide the code value of the entry, as well as a reference to the controlled vocabulary from which the value is taken. Provide as many of the iden ...}]]]
}

together {
}


together {
  DDICDIModels::Context::DCTerms::relation <..... DDICDIModels::DDICDILibrary::DataTypes::StructuredDataTypes::CatalogDetails : <U+00AB>Trace<U+00BB>
   
}
@enduml

PlantUML version 1.2022.6(Tue Jun 21 19:34:49 CEST 2022)
(GPL source distribution)
Java Runtime: OpenJDK Runtime Environment
JVM: OpenJDK 64-Bit Server VM
Default Encoding: Cp1252
Language: en
Country: US
--></g></svg>