<?xml version="1.0" encoding="UTF-8" standalone="no"?><svg xmlns="http://www.w3.org/2000/svg" xmlns:xlink="http://www.w3.org/1999/xlink" contentStyleType="text/css" height="532.8px" preserveAspectRatio="none" style="width:620px;height:532px;background:#FFFFFF;" version="1.1" viewBox="0 0 620 532" width="620.1px" zoomAndPan="magnify"><defs/><g><rect height="47.4891" style="stroke:#00000000;stroke-width:0.9;fill:none;" width="353.7" x="126.9" y="4.5"/><text fill="#000000" font-family="sans-serif" font-size="18" font-weight="bold" lengthAdjust="spacing" textLength="344.7" x="131.4" y="27.6855">UML Diagram: Class Signified in Context</text><text fill="#000000" font-family="sans-serif" font-size="12.6" font-weight="bold" lengthAdjust="spacing" textLength="3.6" x="301.95" y="44.7205"> </text><rect fill="#FFFFFF" height="44.7609" rx="6.75" ry="6.75" style="stroke:#000000;stroke-width:0.9;" width="276.3" x="7.2" y="64.5891"/><text fill="#000000" font-family="sans-serif" font-size="9" font-weight="bold" lengthAdjust="spacing" textLength="22.5" x="12.6" y="79.3318">Hints</text><text fill="#808080" font-family="sans-serif" font-size="9" lengthAdjust="spacing" textLength="265.5" x="12.6" y="90.6521">- Move the mouse cursor over a name to see more information.</text><text fill="#808080" font-family="sans-serif" font-size="9" lengthAdjust="spacing" textLength="216" x="12.6" y="101.9725">- Click on a name to go to the corresponding page.</text><!--MD5=[718c9ccf910fa9d0edd15e6a7992dfdd]
class DDICDIModels::DesignPatterns::SignificationPattern::Signifier--><a href="../DesignPatterns/SignificationPattern/Signifier.html#super-class-hierarchy-generalization" target="_top" title=" ― Signifier:&#10;Concept whose extension includes perceivable objects." xlink:actuate="onRequest" xlink:href="../DesignPatterns/SignificationPattern/Signifier.html#super-class-hierarchy-generalization" xlink:show="new" xlink:title=" ― Signifier:&#10;Concept whose extension includes perceivable objects." xlink:type="simple"><g id="elem_DDICDIModels::DesignPatterns::SignificationPattern::Signifier"><rect codeLine="52" fill="#F1F1F1" height="36.1688" id="DDICDIModels::DesignPatterns::SignificationPattern::Signifier" rx="2.25" ry="2.25" style="stroke:#404040;stroke-width:0.45;" width="135" x="303.3" y="231.75"/><text fill="#000000" font-family="sans-serif" font-size="9" font-style="italic" lengthAdjust="spacing" textLength="90" x="325.8" y="245.5928">SignificationPattern::</text><text fill="#0000FF" font-family="sans-serif" font-size="12.6" font-style="italic" lengthAdjust="spacing" textLength="45.9" x="347.85" y="260.6502">Signifier</text></g></a><!--MD5=[f47d3e746fb7ad6238bccd36a0909031]
class DDICDIModels::DesignPatterns::SignificationPattern::Sign--><a href="../DesignPatterns/SignificationPattern/Sign.html#super-class-hierarchy-generalization" target="_top" title=" ― Sign:&#10;Something that suggests the presence or existence of a fact, condition, or quality." xlink:actuate="onRequest" xlink:href="../DesignPatterns/SignificationPattern/Sign.html#super-class-hierarchy-generalization" xlink:show="new" xlink:title=" ― Sign:&#10;Something that suggests the presence or existence of a fact, condition, or quality." xlink:type="simple"><g id="elem_DDICDIModels::DesignPatterns::SignificationPattern::Sign"><rect codeLine="53" fill="#F1F1F1" height="36.1688" id="DDICDIModels::DesignPatterns::SignificationPattern::Sign" rx="2.25" ry="2.25" style="stroke:#404040;stroke-width:0.45;" width="135" x="479.7" y="231.75"/><text fill="#000000" font-family="sans-serif" font-size="9" font-style="italic" lengthAdjust="spacing" textLength="90" x="502.2" y="245.5928">SignificationPattern::</text><text fill="#0000FF" font-family="sans-serif" font-size="12.6" font-style="italic" lengthAdjust="spacing" textLength="25.2" x="534.6" y="260.6502">Sign</text></g></a><!--MD5=[cf2b466143bd797820c9416be252779d]
entity ##7--><!--MD5=[71a7a2ce0662d4c24c6bea8e66a5b8df]
class DDICDIModels::DesignPatterns::SignificationPattern::Signified--><a href="../DesignPatterns/SignificationPattern/Signified.html#super-class-hierarchy-generalization" target="_top" title=" ― Signified:&#10;Concept or object denoted by the signifier associated to a sign." xlink:actuate="onRequest" xlink:href="../DesignPatterns/SignificationPattern/Signified.html#super-class-hierarchy-generalization" xlink:show="new" xlink:title=" ― Signified:&#10;Concept or object denoted by the signifier associated to a sign." xlink:type="simple"><g id="elem_DDICDIModels::DesignPatterns::SignificationPattern::Signified"><rect codeLine="59" fill="#F1F1F1" height="36.1688" id="DDICDIModels::DesignPatterns::SignificationPattern::Signified" rx="2.25" ry="2.25" style="stroke:#404040;stroke-width:0.45;" width="135" x="225.9" y="123.75"/><text fill="#000000" font-family="sans-serif" font-size="9" font-style="italic" lengthAdjust="spacing" textLength="90" x="248.4" y="137.5928">SignificationPattern::</text><text fill="#000000" font-family="sans-serif" font-size="12.6" font-style="italic" lengthAdjust="spacing" textLength="48.6" x="269.1" y="152.6502">Signified</text></g></a><!--MD5=[dcbe118f13496bfa82f9b0557ee64903]
class DDICDIModels::DDICDILibrary::Classes::DataDescription::ConceptualValue--><a href="../DDICDILibrary/Classes/DataDescription/ConceptualValue.html#super-class-hierarchy-generalization" target="_top" title=" ― ConceptualValue:&#10;Concept (with a notion of equality defined) being observed, captured, or derived which is associated to a single data instance." xlink:actuate="onRequest" xlink:href="../DDICDILibrary/Classes/DataDescription/ConceptualValue.html#super-class-hierarchy-generalization" xlink:show="new" xlink:title=" ― ConceptualValue:&#10;Concept (with a notion of equality defined) being observed, captured, or derived which is associated to a single data instance." xlink:type="simple"><g id="elem_DDICDIModels::DDICDILibrary::Classes::DataDescription::ConceptualValue"><rect codeLine="63" fill="#F1F1F1" height="36.1688" id="DDICDIModels::DDICDILibrary::Classes::DataDescription::ConceptualValue" rx="2.25" ry="2.25" style="stroke:#404040;stroke-width:0.45;" width="135" x="6.3" y="451.35"/><text fill="#000000" font-family="sans-serif" font-size="9" lengthAdjust="spacing" textLength="72.9" x="37.35" y="465.1928">DataDescription::</text><text fill="#0000FF" font-family="sans-serif" font-size="12.6" lengthAdjust="spacing" textLength="97.2" x="25.2" y="480.2502">ConceptualValue</text></g></a><!--MD5=[773bbebeccb7db9d342b93d3d3d1bf2c]
class DDICDIModels::DDICDILibrary::Classes::Conceptual::Category--><a href="../DDICDILibrary/Classes/Conceptual/Category.html#super-class-hierarchy-generalization" target="_top" title=" ― Category:&#10;Concept whose role is to define and measure a characteristic." xlink:actuate="onRequest" xlink:href="../DDICDILibrary/Classes/Conceptual/Category.html#super-class-hierarchy-generalization" xlink:show="new" xlink:title=" ― Category:&#10;Concept whose role is to define and measure a characteristic." xlink:type="simple"><g id="elem_DDICDIModels::DDICDILibrary::Classes::Conceptual::Category"><rect codeLine="64" fill="#F1F1F1" height="36.1688" id="DDICDIModels::DDICDILibrary::Classes::Conceptual::Category" rx="2.25" ry="2.25" style="stroke:#404040;stroke-width:0.45;" width="135" x="181.8" y="451.35"/><text fill="#000000" font-family="sans-serif" font-size="9" lengthAdjust="spacing" textLength="54.9" x="221.85" y="465.1928">Conceptual::</text><text fill="#0000FF" font-family="sans-serif" font-size="12.6" lengthAdjust="spacing" textLength="52.2" x="223.2" y="480.2502">Category</text></g></a><!--MD5=[6346c2b771e7ba9eb2158e469db359a9]
reverse link DDICDIModels::DesignPatterns::SignificationPattern::Signified to DDICDIModels::DesignPatterns::SignificationPattern::Sign--><g id="link_DDICDIModels::DesignPatterns::SignificationPattern::Signified_DDICDIModels::DesignPatterns::SignificationPattern::Sign"><a href="" target="_top" title=" ― denotes:&#10;Concept or object denoted by the signifier associated to the sign." xlink:actuate="onRequest" xlink:href="" xlink:show="new" xlink:title=" ― denotes:&#10;Concept or object denoted by the signifier associated to the sign." xlink:type="simple"><path codeLine="69" d="M339.624,161.568 C358.515,169.335 380.574,178.434 400.5,186.75 C436.608,201.825 477.621,219.213 507.078,231.741 " fill="none" id="DDICDIModels::DesignPatterns::SignificationPattern::Signified-backto-DDICDIModels::DesignPatterns::SignificationPattern::Sign" style="stroke:#808080;stroke-width:1.35;"/><polygon fill="#808080" points="335.403,159.831,341.5292,166.2373,339.5659,161.5398,344.2633,159.5766,335.403,159.831" style="stroke:#808080;stroke-width:1.35;"/><text fill="#000000" font-family="sans-serif" font-size="11.7" lengthAdjust="spacing" textLength="41.4" x="437.4" y="199.7956">denotes</text></a></g><!--MD5=[dde7c088d1fd9e9864e5bb5fcab1860b]
reverse link DDICDIModels::DesignPatterns::SignificationPattern::Signified to DDICDIModels::DesignPatterns::SignificationPattern::Signifier--><g id="link_DDICDIModels::DesignPatterns::SignificationPattern::Signified_DDICDIModels::DesignPatterns::SignificationPattern::Signifier"><a href="" target="_top" title=" ― represents:&#10;" xlink:actuate="onRequest" xlink:href="" xlink:show="new" xlink:title=" ― represents:&#10;" xlink:type="simple"><path codeLine="70" d="M308.808,163.791 C323.289,183.663 344.7,213.048 358.191,231.561 " fill="none" id="DDICDIModels::DesignPatterns::SignificationPattern::Signified-backto-DDICDIModels::DesignPatterns::SignificationPattern::Signifier" style="stroke:#808080;stroke-width:1.35;"/><polygon fill="#808080" points="306,159.948,307.871,168.6123,308.6544,163.5817,313.685,164.3652,306,159.948" style="stroke:#808080;stroke-width:1.35;"/><text fill="#000000" font-family="sans-serif" font-size="11.7" lengthAdjust="spacing" textLength="54.9" x="337.5" y="199.7956">represents</text></a></g><!--MD5=[13cb010da3614e8232db6b896910a969]
reverse link DDICDIModels::DesignPatterns::SignificationPattern::Signified to DDICDIModels::DDICDILibrary::Classes::Conceptual::Category--><g id="link_DDICDIModels::DesignPatterns::SignificationPattern::Signified_DDICDIModels::DDICDILibrary::Classes::Conceptual::Category"><path codeLine="74" d="M278.838,163.755 C265.986,184.455 249.3,217.404 249.3,248.85 C249.3,248.85 249.3,248.85 249.3,396 C249.3,414.864 249.3,436.5 249.3,451.179 " fill="none" id="DDICDIModels::DesignPatterns::SignificationPattern::Signified-backto-DDICDIModels::DDICDILibrary::Classes::Conceptual::Category" style="stroke:#404040;stroke-width:1.35;stroke-dasharray:7.0,7.0;"/><polygon fill="#404040" points="281.349,159.777,273.9717,164.6909,278.9397,163.5777,280.0529,168.5457,281.349,159.777" style="stroke:#404040;stroke-width:1.35;"/><text fill="#000000" font-family="sans-serif" font-size="11.7" lengthAdjust="spacing" textLength="45" x="250.2" y="337.4956">«Refine»</text></g><!--MD5=[6c97344439ddeb2319aae5d800fc82bd]
reverse link DDICDIModels::DesignPatterns::SignificationPattern::Signified to DDICDIModels::DDICDILibrary::Classes::DataDescription::ConceptualValue--><g id="link_DDICDIModels::DesignPatterns::SignificationPattern::Signified_DDICDIModels::DDICDILibrary::Classes::DataDescription::ConceptualValue"><path codeLine="76" d="M226.449,161.172 C161.856,181.089 73.8,214.524 73.8,248.85 C73.8,248.85 73.8,248.85 73.8,396 C73.8,414.864 73.8,436.5 73.8,451.179 " fill="none" id="DDICDIModels::DesignPatterns::SignificationPattern::Signified-backto-DDICDIModels::DDICDILibrary::Classes::DataDescription::ConceptualValue" style="stroke:#404040;stroke-width:1.35;stroke-dasharray:7.0,7.0;"/><polygon fill="#404040" points="231.057,159.768,222.2558,158.7148,226.7568,161.0941,224.3776,165.5951,231.057,159.768" style="stroke:#404040;stroke-width:1.35;"/><text fill="#000000" font-family="sans-serif" font-size="11.7" lengthAdjust="spacing" textLength="45" x="74.7" y="337.4956">«Refine»</text></g><rect height="33.9609" style="stroke:#00000000;stroke-width:0.9;fill:none;" width="324.9" x="141.3" y="492.0188"/><text fill="#888888" font-family="sans-serif" font-size="9" lengthAdjust="spacing" textLength="2.7" x="302.4" y="501.3615"> </text><text fill="#888888" font-family="sans-serif" font-size="9" lengthAdjust="spacing" textLength="2.7" x="302.4" y="512.6818"> </text><text fill="#888888" font-family="sans-serif" font-size="9" lengthAdjust="spacing" textLength="324.9" x="141.3" y="524.0021">DDI Cross Domain Integration (DDI-CDI)   1.0 - SignificationPattern::Signified</text><!--MD5=[392cbef5e78dba4614851b5c65cbe1f8]
@startuml
!pragma ratio 0.5625
' HD display aspect ratio 16:9
' hyperlinkColor and pathHoverColor do not seem to work with class diagrams
' working approach: colors per item
' default font size for class names is 14

hide circle
hide empty members
scale 0.9

skinparam {
  ArrowThickness 1.5
  MinClassWidth 150
}

skinparam legend {
  BackgroundColor white
  FontSize 10
}

skinparam note {
  BackgroundColor white
}

skinparam class {
  ArrowColor #404040
  BorderColor #404040
}

skinparam package {
  FontColor lightgrey
  BorderColor lightgrey
}

title <size:20>UML Diagram: Class Signified in Context\n
footer \n\nDDI Cross Domain Integration (DDI-CDI)   1.0 - SignificationPattern::Signified

legend top left
**Hints**
<color:grey>- Move the mouse cursor over a name to see more information.
<color:grey>- Click on a name to go to the corresponding page.
endlegend

' Core class of diagram
abstract class DDICDIModels::DesignPatterns::SignificationPattern::Signified as "<size:10>SignificationPattern::\n<color:black>Signified" #FFD700 {
}

' Class definitions for associated classes without superclass (might have also an association)
' This would be too many constraints for Graphviz. 
together {
  abstract class DDICDIModels::DesignPatterns::SignificationPattern::Signifier as "<size:10>SignificationPattern::\n<color:blue>Signifier" [[../DesignPatterns/SignificationPattern/Signifier.html#super-class-hierarchy-generalization{ <U+2015> Signifier:\nConcept whose extension includes perceivable objects.}]]
  abstract class DDICDIModels::DesignPatterns::SignificationPattern::Sign as "<size:10>SignificationPattern::\n<color:blue>Sign" [[../DesignPatterns/SignificationPattern/Sign.html#super-class-hierarchy-generalization{ <U+2015> Sign:\nSomething that suggests the presence or existence of a fact, condition, or quality.}]]
}

' Class definitions for suppliers of abstractions
together {
  abstract class DDICDIModels::DesignPatterns::SignificationPattern::Signified as "<size:10>SignificationPattern::\n<color:blue>Signified" [[../DesignPatterns/SignificationPattern/Signified.html#super-class-hierarchy-generalization{ <U+2015> Signified:\nConcept or object denoted by the signifier associated to a sign.}]]
  abstract class DDICDIModels::DesignPatterns::SignificationPattern::Signified as "<size:10>SignificationPattern::\n<color:blue>Signified" [[../DesignPatterns/SignificationPattern/Signified.html#super-class-hierarchy-generalization{ <U+2015> Signified:\nConcept or object denoted by the signifier associated to a sign.}]]
}

' Rest of class definitions, without associated classes of core class and abstraction supplier classes
class DDICDIModels::DDICDILibrary::Classes::DataDescription::ConceptualValue as "<size:10>DataDescription::\n<color:blue>ConceptualValue" [[../DDICDILibrary/Classes/DataDescription/ConceptualValue.html#super-class-hierarchy-generalization{ <U+2015> ConceptualValue:\nConcept (with a notion of equality defined) being observed, captured, or derived which is associated to a single data instance.}]]
class DDICDIModels::DDICDILibrary::Classes::Conceptual::Category as "<size:10>Conceptual::\n<color:blue>Category" [[../DDICDILibrary/Classes/Conceptual/Category.html#super-class-hierarchy-generalization{ <U+2015> Category:\nConcept whose role is to define and measure a characteristic.}]]



' Associations
DDICDIModels::DesignPatterns::SignificationPattern::Signified <-[#grey]- DDICDIModels::DesignPatterns::SignificationPattern::Sign [[{ <U+2015> denotes:\nConcept or object denoted by the signifier associated to the sign.}]] : denotes
DDICDIModels::DesignPatterns::SignificationPattern::Signified <-[#grey]- DDICDIModels::DesignPatterns::SignificationPattern::Signifier [[{ <U+2015> represents:\n}]] : represents


' Abstractions
  DDICDIModels::DesignPatterns::SignificationPattern::Signified <..... DDICDIModels::DDICDILibrary::Classes::Conceptual::Category : <U+00AB>Refine<U+00BB>
   
  DDICDIModels::DesignPatterns::SignificationPattern::Signified <..... DDICDIModels::DDICDILibrary::Classes::DataDescription::ConceptualValue : <U+00AB>Refine<U+00BB>
   
@enduml

@startuml
!pragma ratio 0.5625

hide circle
hide empty members
scale 0.9

skinparam {
  ArrowThickness 1.5
  MinClassWidth 150
}

skinparam legend {
  BackgroundColor white
  FontSize 10
}

skinparam note {
  BackgroundColor white
}

skinparam class {
  ArrowColor #404040
  BorderColor #404040
}

skinparam package {
  FontColor lightgrey
  BorderColor lightgrey
}

title <size:20>UML Diagram: Class Signified in Context\n
footer \n\nDDI Cross Domain Integration (DDI-CDI)   1.0 - SignificationPattern::Signified

legend top left
**Hints**
<color:grey>- Move the mouse cursor over a name to see more information.
<color:grey>- Click on a name to go to the corresponding page.
endlegend

abstract class DDICDIModels::DesignPatterns::SignificationPattern::Signified as "<size:10>SignificationPattern::\n<color:black>Signified" #FFD700 {
}

together {
  abstract class DDICDIModels::DesignPatterns::SignificationPattern::Signifier as "<size:10>SignificationPattern::\n<color:blue>Signifier" [[../DesignPatterns/SignificationPattern/Signifier.html#super-class-hierarchy-generalization{ <U+2015> Signifier:\nConcept whose extension includes perceivable objects.}]]
  abstract class DDICDIModels::DesignPatterns::SignificationPattern::Sign as "<size:10>SignificationPattern::\n<color:blue>Sign" [[../DesignPatterns/SignificationPattern/Sign.html#super-class-hierarchy-generalization{ <U+2015> Sign:\nSomething that suggests the presence or existence of a fact, condition, or quality.}]]
}

together {
  abstract class DDICDIModels::DesignPatterns::SignificationPattern::Signified as "<size:10>SignificationPattern::\n<color:blue>Signified" [[../DesignPatterns/SignificationPattern/Signified.html#super-class-hierarchy-generalization{ <U+2015> Signified:\nConcept or object denoted by the signifier associated to a sign.}]]
  abstract class DDICDIModels::DesignPatterns::SignificationPattern::Signified as "<size:10>SignificationPattern::\n<color:blue>Signified" [[../DesignPatterns/SignificationPattern/Signified.html#super-class-hierarchy-generalization{ <U+2015> Signified:\nConcept or object denoted by the signifier associated to a sign.}]]
}

class DDICDIModels::DDICDILibrary::Classes::DataDescription::ConceptualValue as "<size:10>DataDescription::\n<color:blue>ConceptualValue" [[../DDICDILibrary/Classes/DataDescription/ConceptualValue.html#super-class-hierarchy-generalization{ <U+2015> ConceptualValue:\nConcept (with a notion of equality defined) being observed, captured, or derived which is associated to a single data instance.}]]
class DDICDIModels::DDICDILibrary::Classes::Conceptual::Category as "<size:10>Conceptual::\n<color:blue>Category" [[../DDICDILibrary/Classes/Conceptual/Category.html#super-class-hierarchy-generalization{ <U+2015> Category:\nConcept whose role is to define and measure a characteristic.}]]



DDICDIModels::DesignPatterns::SignificationPattern::Signified <-[#grey]- DDICDIModels::DesignPatterns::SignificationPattern::Sign [[{ <U+2015> denotes:\nConcept or object denoted by the signifier associated to the sign.}]] : denotes
DDICDIModels::DesignPatterns::SignificationPattern::Signified <-[#grey]- DDICDIModels::DesignPatterns::SignificationPattern::Signifier [[{ <U+2015> represents:\n}]] : represents


  DDICDIModels::DesignPatterns::SignificationPattern::Signified <..... DDICDIModels::DDICDILibrary::Classes::Conceptual::Category : <U+00AB>Refine<U+00BB>
   
  DDICDIModels::DesignPatterns::SignificationPattern::Signified <..... DDICDIModels::DDICDILibrary::Classes::DataDescription::ConceptualValue : <U+00AB>Refine<U+00BB>
   
@enduml

PlantUML version 1.2022.6(Tue Jun 21 19:34:49 CEST 2022)
(GPL source distribution)
Java Runtime: OpenJDK Runtime Environment
JVM: OpenJDK 64-Bit Server VM
Default Encoding: Cp1252
Language: en
Country: US
--></g></svg>