<?xml version="1.0" encoding="UTF-8" standalone="no"?><svg xmlns="http://www.w3.org/2000/svg" xmlns:xlink="http://www.w3.org/1999/xlink" contentStyleType="text/css" height="414.9px" preserveAspectRatio="none" style="width:479px;height:414px;background:#FFFFFF;" version="1.1" viewBox="0 0 479 414" width="479.7px" zoomAndPan="magnify"><defs/><g><rect height="47.4891" style="stroke:#00000000;stroke-width:0.9;fill:none;" width="449.1" x="9" y="4.5"/><text fill="#000000" font-family="sans-serif" font-size="18" font-weight="bold" lengthAdjust="spacing" textLength="440.1" x="13.5" y="27.6855">UML Diagram: Class ClassificationFamily in Context</text><text fill="#000000" font-family="sans-serif" font-size="12.6" font-weight="bold" lengthAdjust="spacing" textLength="3.6" x="231.75" y="44.7205"> </text><rect fill="#FFFFFF" height="44.7609" rx="6.75" ry="6.75" style="stroke:#000000;stroke-width:0.9;" width="276.3" x="7.2" y="64.5891"/><text fill="#000000" font-family="sans-serif" font-size="9" font-weight="bold" lengthAdjust="spacing" textLength="22.5" x="12.6" y="79.3318">Hints</text><text fill="#808080" font-family="sans-serif" font-size="9" lengthAdjust="spacing" textLength="265.5" x="12.6" y="90.6521">- Move the mouse cursor over a name to see more information.</text><text fill="#808080" font-family="sans-serif" font-size="9" lengthAdjust="spacing" textLength="216" x="12.6" y="101.9725">- Click on a name to go to the corresponding page.</text><!--MD5=[24a257863b398b5270390d96fe65d257]
class DDICDIModels::DDICDILibrary::Classes::Conceptual::Concept--><a href="../DDICDILibrary/Classes/Conceptual/Concept.html#super-class-hierarchy-generalization" target="_top" title=" ― Concept:&#10;Unit of thought differentiated by characteristics (from the Generic Statistical Information Model version 1.2: https://statswiki.unece.org/display/clickablegsim/Concept)." xlink:actuate="onRequest" xlink:href="../DDICDILibrary/Classes/Conceptual/Concept.html#super-class-hierarchy-generalization" xlink:show="new" xlink:title=" ― Concept:&#10;Unit of thought differentiated by characteristics (from the Generic Statistical Information Model version 1.2: https://statswiki.unece.org/display/clickablegsim/Concept)." xlink:type="simple"><g id="elem_DDICDIModels::DDICDILibrary::Classes::Conceptual::Concept"><rect codeLine="60" fill="#F1F1F1" height="36.1688" id="DDICDIModels::DDICDILibrary::Classes::Conceptual::Concept" rx="2.25" ry="2.25" style="stroke:#404040;stroke-width:0.45;" width="135" x="6.3" y="333.9"/><text fill="#000000" font-family="sans-serif" font-size="9" lengthAdjust="spacing" textLength="54.9" x="46.35" y="347.7428">Conceptual::</text><text fill="#0000FF" font-family="sans-serif" font-size="12.6" lengthAdjust="spacing" textLength="47.7" x="49.95" y="362.8002">Concept</text></g></a><!--MD5=[fb888e6dc6054b81ee1c71b5b7db0a6f]
class DDICDIModels::DDICDILibrary::Classes::Representations::ClassificationIndex--><a href="../DDICDILibrary/Classes/Representations/ClassificationIndex.html#super-class-hierarchy-generalization" target="_top" title=" ― ClassificationIndex:&#10;Ordered list of classification index entries." xlink:actuate="onRequest" xlink:href="../DDICDILibrary/Classes/Representations/ClassificationIndex.html#super-class-hierarchy-generalization" xlink:show="new" xlink:title=" ― ClassificationIndex:&#10;Ordered list of classification index entries." xlink:type="simple"><g id="elem_DDICDIModels::DDICDILibrary::Classes::Representations::ClassificationIndex"><rect codeLine="61" fill="#F1F1F1" height="36.1688" id="DDICDIModels::DDICDILibrary::Classes::Representations::ClassificationIndex" rx="2.25" ry="2.25" style="stroke:#404040;stroke-width:0.45;" width="135" x="172.8" y="333.9"/><text fill="#000000" font-family="sans-serif" font-size="9" lengthAdjust="spacing" textLength="72.9" x="203.85" y="347.7428">Representations::</text><text fill="#0000FF" font-family="sans-serif" font-size="12.6" lengthAdjust="spacing" textLength="104.4" x="188.1" y="362.8002">ClassificationIndex</text></g></a><!--MD5=[cc04dd1da48773e6fc5a6fe8fa5533a2]
class DDICDIModels::DDICDILibrary::Classes::Representations::ClassificationSeries--><a href="../DDICDILibrary/Classes/Representations/ClassificationSeries.html#super-class-hierarchy-generalization" target="_top" title=" ― ClassificationSeries:&#10;Ensemble of one or more statistical classifications, based on the same concept, and related to each other as versions or updates." xlink:actuate="onRequest" xlink:href="../DDICDILibrary/Classes/Representations/ClassificationSeries.html#super-class-hierarchy-generalization" xlink:show="new" xlink:title=" ― ClassificationSeries:&#10;Ensemble of one or more statistical classifications, based on the same concept, and related to each other as versions or updates." xlink:type="simple"><g id="elem_DDICDIModels::DDICDILibrary::Classes::Representations::ClassificationSeries"><rect codeLine="62" fill="#F1F1F1" height="36.1688" id="DDICDIModels::DDICDILibrary::Classes::Representations::ClassificationSeries" rx="2.25" ry="2.25" style="stroke:#404040;stroke-width:0.45;" width="135" x="339.3" y="333.9"/><text fill="#000000" font-family="sans-serif" font-size="9" lengthAdjust="spacing" textLength="72.9" x="370.35" y="347.7428">Representations::</text><text fill="#0000FF" font-family="sans-serif" font-size="12.6" lengthAdjust="spacing" textLength="110.7" x="351.45" y="362.8002">ClassificationSeries</text></g></a><!--MD5=[f9cab4dd997d7c1fc86d2ab62e0cc130]
entity ##8--><!--MD5=[2e0e69502bb67ecc0266f8464f7fab86]
class DDICDIModels::DDICDILibrary::Classes::Representations::ClassificationFamily--><g id="elem_DDICDIModels::DDICDILibrary::Classes::Representations::ClassificationFamily"><rect codeLine="46" fill="#FFD700" height="106.7625" id="DDICDIModels::DDICDILibrary::Classes::Representations::ClassificationFamily" rx="2.25" ry="2.25" style="stroke:#404040;stroke-width:0.45;" width="184.5" x="148.05" y="123.75"/><text fill="#000000" font-family="sans-serif" font-size="9" lengthAdjust="spacing" textLength="72.9" x="203.85" y="137.5928">Representations::</text><text fill="#000000" font-family="sans-serif" font-size="12.6" lengthAdjust="spacing" textLength="111.6" x="184.5" y="152.6502">ClassificationFamily</text><line style="stroke:#404040;stroke-width:0.45;" x1="148.95" x2="331.65" y1="159.9188" y2="159.9188"/><a href="../DDICDILibrary/DataTypes/StructuredDataTypes/CatalogDetails.html#diagram" target="_top" title=" ― CatalogDetails:&#10;A set of information useful for attribution, data discovery, and access." xlink:actuate="onRequest" xlink:href="../DDICDILibrary/DataTypes/StructuredDataTypes/CatalogDetails.html#diagram" xlink:show="new" xlink:title=" ― CatalogDetails:&#10;A set of information useful for attribution, data discovery, and access." xlink:type="simple"><text fill="#000000" font-family="sans-serif" font-size="12.6" lengthAdjust="spacing" textLength="87.3" x="153.45" y="176.5986">catalogDetails :</text><text fill="#0000FF" font-family="sans-serif" font-size="12.6" lengthAdjust="spacing" textLength="82.8" x="244.35" y="176.5986">CatalogDetails</text></a><a href="../DDICDILibrary/DataTypes/StructuredDataTypes/Identifier.html#diagram" target="_top" title=" ― Identifier:&#10;Identifier for objects requiring short- or long-lasting referencing and management." xlink:actuate="onRequest" xlink:href="../DDICDILibrary/DataTypes/StructuredDataTypes/Identifier.html#diagram" xlink:show="new" xlink:title=" ― Identifier:&#10;Identifier for objects requiring short- or long-lasting referencing and management." xlink:type="simple"><text fill="#000000" font-family="sans-serif" font-size="12.6" lengthAdjust="spacing" textLength="55.8" x="153.45" y="192.4471">identifier :</text><text fill="#0000FF" font-family="sans-serif" font-size="12.6" lengthAdjust="spacing" textLength="48.6" x="212.85" y="192.4471">Identifier</text></a><a href="../DDICDILibrary/DataTypes/StructuredDataTypes/ObjectName.html#diagram" target="_top" title=" ― ObjectName:&#10;A standard means of expressing a name for a class object. A linguistic signifier. Human understandable name (word, phrase, or mnemonic) that reflects the ISO/IEC 11179-5 naming principles." xlink:actuate="onRequest" xlink:href="../DDICDILibrary/DataTypes/StructuredDataTypes/ObjectName.html#diagram" xlink:show="new" xlink:title=" ― ObjectName:&#10;A standard means of expressing a name for a class object. A linguistic signifier. Human understandable name (word, phrase, or mnemonic) that reflects the ISO/IEC 11179-5 naming principles." xlink:type="simple"><text fill="#000000" font-family="sans-serif" font-size="12.6" lengthAdjust="spacing" textLength="38.7" x="153.45" y="208.2955">name :</text><text fill="#0000FF" font-family="sans-serif" font-size="12.6" lengthAdjust="spacing" textLength="69.3" x="195.75" y="208.2955">ObjectName</text></a><a href="../DDICDILibrary/DataTypes/StructuredDataTypes/InternationalString.html#diagram" target="_top" title=" ― InternationalString:&#10;Packaging structure for multiple language versions of the same string content. Where an element of this type is repeatable, the expectation is that each repetition contains different content, each of which can be expressed in multiple languages. The language designation goes on the individual String ..." xlink:actuate="onRequest" xlink:href="../DDICDILibrary/DataTypes/StructuredDataTypes/InternationalString.html#diagram" xlink:show="new" xlink:title=" ― InternationalString:&#10;Packaging structure for multiple language versions of the same string content. Where an element of this type is repeatable, the expectation is that each repetition contains different content, each of which can be expressed in multiple languages. The language designation goes on the individual String ..." xlink:type="simple"><text fill="#000000" font-family="sans-serif" font-size="12.6" lengthAdjust="spacing" textLength="54" x="153.45" y="224.1439">purpose :</text><text fill="#0000FF" font-family="sans-serif" font-size="12.6" lengthAdjust="spacing" textLength="103.5" x="211.05" y="224.1439">InternationalString</text></a></g><!--MD5=[93f8c6bedde3907febfb8cf5ac980323]
link DDICDIModels::DDICDILibrary::Classes::Representations::ClassificationFamily to DDICDIModels::DDICDILibrary::Classes::Conceptual::Concept--><g id="link_DDICDIModels::DDICDILibrary::Classes::Representations::ClassificationFamily_DDICDIModels::DDICDILibrary::Classes::Conceptual::Concept"><a href="" target="_top" title=" ― isDefinedBy:&#10;The conceptual basis for the collection of members." xlink:actuate="onRequest" xlink:href="" xlink:show="new" xlink:title=" ― isDefinedBy:&#10;The conceptual basis for the collection of members." xlink:type="simple"><path codeLine="74" d="M189.441,230.985 C157.176,264.474 117.216,305.946 93.717,330.336 " fill="none" id="DDICDIModels::DDICDILibrary::Classes::Representations::ClassificationFamily-to-DDICDIModels::DDICDILibrary::Classes::Conceptual::Concept" style="stroke:#808080;stroke-width:1.35;"/><polygon fill="#808080" points="90.369,333.81,98.5829,330.4781,93.4926,330.5707,93.4001,325.4804,90.369,333.81" style="stroke:#808080;stroke-width:1.35;"/><text fill="#000000" font-family="sans-serif" font-size="11.7" lengthAdjust="spacing" textLength="62.1" x="143.1" y="290.2456">isDefinedBy</text></a></g><!--MD5=[bb2eb2c5f284e79aa3184a223744bff5]
link DDICDIModels::DDICDILibrary::Classes::Representations::ClassificationFamily to DDICDIModels::DDICDILibrary::Classes::Representations::ClassificationSeries--><g id="link_DDICDIModels::DDICDILibrary::Classes::Representations::ClassificationFamily_DDICDIModels::DDICDILibrary::Classes::Representations::ClassificationSeries"><a href="" target="_top" title=" ― groups:&#10;" xlink:actuate="onRequest" xlink:href="" xlink:show="new" xlink:title=" ― groups:&#10;" xlink:type="simple"><path codeLine="75" d="M298.646,238.7686 C298.646,238.7686 360.234,302.679 381.915,325.179 " fill="none" id="DDICDIModels::DDICDILibrary::Classes::Representations::ClassificationFamily-DDICDIModels::DDICDILibrary::Classes::Representations::ClassificationSeries" style="stroke:#808080;stroke-width:1.35;"/><polygon fill="#808080" points="390.231,333.81,387.2103,325.4766,387.1114,330.5668,382.0212,330.4679,390.231,333.81" style="stroke:#808080;stroke-width:1.35;"/><line style="stroke:#808080;stroke-width:1.35;" x1="387.1114" x2="382.113" y1="330.5668" y2="325.3815"/><polygon fill="none" points="291.159,230.985,292.308,237.3725,298.646,238.7686,297.497,232.3811,291.159,230.985" style="stroke:#808080;stroke-width:1.35;"/><text fill="#000000" font-family="sans-serif" font-size="11.7" lengthAdjust="spacing" textLength="35.1" x="348.3" y="290.2456">groups</text></a></g><!--MD5=[df64e4f842f97c40737f59ee568c215f]
link DDICDIModels::DDICDILibrary::Classes::Representations::ClassificationFamily to DDICDIModels::DDICDILibrary::Classes::Representations::ClassificationIndex--><g id="link_DDICDIModels::DDICDILibrary::Classes::Representations::ClassificationFamily_DDICDIModels::DDICDILibrary::Classes::Representations::ClassificationIndex"><a href="" target="_top" title=" ― uses:&#10;Classification indexes associated to the classification family." xlink:actuate="onRequest" xlink:href="" xlink:show="new" xlink:title=" ― uses:&#10;Classification indexes associated to the classification family." xlink:type="simple"><path codeLine="76" d="M240.3,230.985 C240.3,263.925 240.3,304.587 240.3,329.121 " fill="none" id="DDICDIModels::DDICDILibrary::Classes::Representations::ClassificationFamily-to-DDICDIModels::DDICDILibrary::Classes::Representations::ClassificationIndex" style="stroke:#808080;stroke-width:1.35;"/><polygon fill="#808080" points="240.3,333.81,243.9,325.71,240.3,329.31,236.7,325.71,240.3,333.81" style="stroke:#808080;stroke-width:1.35;"/><text fill="#000000" font-family="sans-serif" font-size="11.7" lengthAdjust="spacing" textLength="25.2" x="241.2" y="290.2456">uses</text></a></g><rect height="33.9609" style="stroke:#00000000;stroke-width:0.9;fill:none;" width="353.7" x="56.7" y="374.5688"/><text fill="#888888" font-family="sans-serif" font-size="9" lengthAdjust="spacing" textLength="2.7" x="232.2" y="383.9115"> </text><text fill="#888888" font-family="sans-serif" font-size="9" lengthAdjust="spacing" textLength="2.7" x="232.2" y="395.2318"> </text><text fill="#888888" font-family="sans-serif" font-size="9" lengthAdjust="spacing" textLength="353.7" x="56.7" y="406.5521">DDI Cross Domain Integration (DDI-CDI)   1.0 - Representations::ClassificationFamily</text><!--MD5=[fa95b626d227bdb7d116cedb9030f880]
@startuml
!pragma ratio 0.5625
' HD display aspect ratio 16:9
' hyperlinkColor and pathHoverColor do not seem to work with class diagrams
' working approach: colors per item
' default font size for class names is 14

hide circle
hide empty members
scale 0.9

skinparam {
  ArrowThickness 1.5
  MinClassWidth 150
}

skinparam legend {
  BackgroundColor white
  FontSize 10
}

skinparam note {
  BackgroundColor white
}

skinparam class {
  ArrowColor #404040
  BorderColor #404040
}

skinparam package {
  FontColor lightgrey
  BorderColor lightgrey
}

title <size:20>UML Diagram: Class ClassificationFamily in Context\n
footer \n\nDDI Cross Domain Integration (DDI-CDI)   1.0 - Representations::ClassificationFamily

legend top left
**Hints**
<color:grey>- Move the mouse cursor over a name to see more information.
<color:grey>- Click on a name to go to the corresponding page.
endlegend

' Core class of diagram
class DDICDIModels::DDICDILibrary::Classes::Representations::ClassificationFamily as "<size:10>Representations::\n<color:black>ClassificationFamily" #FFD700 {
  catalogDetails : <color:blue>CatalogDetails   	  [[[../DDICDILibrary/DataTypes/StructuredDataTypes/CatalogDetails.html#diagram{ <U+2015> CatalogDetails:\nA set of information useful for attribution, data discovery, and access.}]]]
  identifier : <color:blue>Identifier   	  [[[../DDICDILibrary/DataTypes/StructuredDataTypes/Identifier.html#diagram{ <U+2015> Identifier:\nIdentifier for objects requiring short- or long-lasting referencing and management.}]]]
  name : <color:blue>ObjectName   	  [[[../DDICDILibrary/DataTypes/StructuredDataTypes/ObjectName.html#diagram{ <U+2015> ObjectName:\nA standard means of expressing a name for a class object. A linguistic signifier. Human understandable name (word, phrase, or mnemonic) that reflects the ISO/IEC 11179-5 naming principles.}]]]
  purpose : <color:blue>InternationalString   	  [[[../DDICDILibrary/DataTypes/StructuredDataTypes/InternationalString.html#diagram{ <U+2015> InternationalString:\nPackaging structure for multiple language versions of the same string content. Where an element of this type is repeatable, the expectation is that each repetition contains different content, each of which can be expressed in multiple languages. The language designation goes on the individual String ...}]]]
}

' Class definitions for associated classes without superclass (might have also an association)
' This would be too many constraints for Graphviz. 
together {
  class DDICDIModels::DDICDILibrary::Classes::Conceptual::Concept as "<size:10>Conceptual::\n<color:blue>Concept" [[../DDICDILibrary/Classes/Conceptual/Concept.html#super-class-hierarchy-generalization{ <U+2015> Concept:\nUnit of thought differentiated by characteristics (from the Generic Statistical Information Model version 1.2: https://statswiki.unece.org/display/clickablegsim/Concept).}]]
  class DDICDIModels::DDICDILibrary::Classes::Representations::ClassificationIndex as "<size:10>Representations::\n<color:blue>ClassificationIndex" [[../DDICDILibrary/Classes/Representations/ClassificationIndex.html#super-class-hierarchy-generalization{ <U+2015> ClassificationIndex:\nOrdered list of classification index entries.}]]
  class DDICDIModels::DDICDILibrary::Classes::Representations::ClassificationSeries as "<size:10>Representations::\n<color:blue>ClassificationSeries" [[../DDICDILibrary/Classes/Representations/ClassificationSeries.html#super-class-hierarchy-generalization{ <U+2015> ClassificationSeries:\nEnsemble of one or more statistical classifications, based on the same concept, and related to each other as versions or updates.}]]
}

' Class definitions for suppliers of abstractions
together {
}

' Rest of class definitions, without associated classes of core class and abstraction supplier classes



' Associations
DDICDIModels::DDICDILibrary::Classes::Representations::ClassificationFamily -[#grey]-> DDICDIModels::DDICDILibrary::Classes::Conceptual::Concept [[{ <U+2015> isDefinedBy:\nThe conceptual basis for the collection of members.}]] : isDefinedBy
DDICDIModels::DDICDILibrary::Classes::Representations::ClassificationFamily o-[#grey]-> DDICDIModels::DDICDILibrary::Classes::Representations::ClassificationSeries [[{ <U+2015> groups:\n}]] : groups
DDICDIModels::DDICDILibrary::Classes::Representations::ClassificationFamily -[#grey]-> DDICDIModels::DDICDILibrary::Classes::Representations::ClassificationIndex [[{ <U+2015> uses:\nClassification indexes associated to the classification family.}]] : uses


' Abstractions
@enduml

@startuml
!pragma ratio 0.5625

hide circle
hide empty members
scale 0.9

skinparam {
  ArrowThickness 1.5
  MinClassWidth 150
}

skinparam legend {
  BackgroundColor white
  FontSize 10
}

skinparam note {
  BackgroundColor white
}

skinparam class {
  ArrowColor #404040
  BorderColor #404040
}

skinparam package {
  FontColor lightgrey
  BorderColor lightgrey
}

title <size:20>UML Diagram: Class ClassificationFamily in Context\n
footer \n\nDDI Cross Domain Integration (DDI-CDI)   1.0 - Representations::ClassificationFamily

legend top left
**Hints**
<color:grey>- Move the mouse cursor over a name to see more information.
<color:grey>- Click on a name to go to the corresponding page.
endlegend

class DDICDIModels::DDICDILibrary::Classes::Representations::ClassificationFamily as "<size:10>Representations::\n<color:black>ClassificationFamily" #FFD700 {
  catalogDetails : <color:blue>CatalogDetails   	  [[[../DDICDILibrary/DataTypes/StructuredDataTypes/CatalogDetails.html#diagram{ <U+2015> CatalogDetails:\nA set of information useful for attribution, data discovery, and access.}]]]
  identifier : <color:blue>Identifier   	  [[[../DDICDILibrary/DataTypes/StructuredDataTypes/Identifier.html#diagram{ <U+2015> Identifier:\nIdentifier for objects requiring short- or long-lasting referencing and management.}]]]
  name : <color:blue>ObjectName   	  [[[../DDICDILibrary/DataTypes/StructuredDataTypes/ObjectName.html#diagram{ <U+2015> ObjectName:\nA standard means of expressing a name for a class object. A linguistic signifier. Human understandable name (word, phrase, or mnemonic) that reflects the ISO/IEC 11179-5 naming principles.}]]]
  purpose : <color:blue>InternationalString   	  [[[../DDICDILibrary/DataTypes/StructuredDataTypes/InternationalString.html#diagram{ <U+2015> InternationalString:\nPackaging structure for multiple language versions of the same string content. Where an element of this type is repeatable, the expectation is that each repetition contains different content, each of which can be expressed in multiple languages. The language designation goes on the individual String ...}]]]
}

together {
  class DDICDIModels::DDICDILibrary::Classes::Conceptual::Concept as "<size:10>Conceptual::\n<color:blue>Concept" [[../DDICDILibrary/Classes/Conceptual/Concept.html#super-class-hierarchy-generalization{ <U+2015> Concept:\nUnit of thought differentiated by characteristics (from the Generic Statistical Information Model version 1.2: https://statswiki.unece.org/display/clickablegsim/Concept).}]]
  class DDICDIModels::DDICDILibrary::Classes::Representations::ClassificationIndex as "<size:10>Representations::\n<color:blue>ClassificationIndex" [[../DDICDILibrary/Classes/Representations/ClassificationIndex.html#super-class-hierarchy-generalization{ <U+2015> ClassificationIndex:\nOrdered list of classification index entries.}]]
  class DDICDIModels::DDICDILibrary::Classes::Representations::ClassificationSeries as "<size:10>Representations::\n<color:blue>ClassificationSeries" [[../DDICDILibrary/Classes/Representations/ClassificationSeries.html#super-class-hierarchy-generalization{ <U+2015> ClassificationSeries:\nEnsemble of one or more statistical classifications, based on the same concept, and related to each other as versions or updates.}]]
}

together {
}




DDICDIModels::DDICDILibrary::Classes::Representations::ClassificationFamily -[#grey]-> DDICDIModels::DDICDILibrary::Classes::Conceptual::Concept [[{ <U+2015> isDefinedBy:\nThe conceptual basis for the collection of members.}]] : isDefinedBy
DDICDIModels::DDICDILibrary::Classes::Representations::ClassificationFamily o-[#grey]-> DDICDIModels::DDICDILibrary::Classes::Representations::ClassificationSeries [[{ <U+2015> groups:\n}]] : groups
DDICDIModels::DDICDILibrary::Classes::Representations::ClassificationFamily -[#grey]-> DDICDIModels::DDICDILibrary::Classes::Representations::ClassificationIndex [[{ <U+2015> uses:\nClassification indexes associated to the classification family.}]] : uses


@enduml

PlantUML version 1.2022.6(Tue Jun 21 19:34:49 CEST 2022)
(GPL source distribution)
Java Runtime: OpenJDK Runtime Environment
JVM: OpenJDK 64-Bit Server VM
Default Encoding: Cp1252
Language: en
Country: US
--></g></svg>