<?xml version="1.0" encoding="UTF-8" standalone="no"?><svg xmlns="http://www.w3.org/2000/svg" xmlns:xlink="http://www.w3.org/1999/xlink" contentStyleType="text/css" height="727.2px" preserveAspectRatio="none" style="width:1049px;height:727px;background:#FFFFFF;" version="1.1" viewBox="0 0 1049 727" width="1049.4px" zoomAndPan="magnify"><defs/><g><rect height="47.4891" style="stroke:#00000000;stroke-width:0.9;fill:none;" width="491.4" x="272.925" y="4.5"/><text fill="#000000" font-family="sans-serif" font-size="18" font-weight="bold" lengthAdjust="spacing" textLength="482.4" x="277.425" y="27.6855">UML Diagram: Class SubstantiveValueDomain in Context</text><text fill="#000000" font-family="sans-serif" font-size="12.6" font-weight="bold" lengthAdjust="spacing" textLength="3.6" x="516.825" y="44.7205"> </text><rect fill="#FFFFFF" height="56.0813" rx="6.75" ry="6.75" style="stroke:#000000;stroke-width:0.9;" width="276.3" x="7.2" y="64.5891"/><text fill="#000000" font-family="sans-serif" font-size="9" font-weight="bold" lengthAdjust="spacing" textLength="22.5" x="12.6" y="79.3318">Hints</text><text fill="#808080" font-family="sans-serif" font-size="9" lengthAdjust="spacing" textLength="265.5" x="12.6" y="90.6521">- Move the mouse cursor over a name to see more information.</text><text fill="#808080" font-family="sans-serif" font-size="9" lengthAdjust="spacing" textLength="216" x="12.6" y="101.9725">- Click on a name to go to the corresponding page.</text><text fill="#808080" font-family="sans-serif" font-size="9" lengthAdjust="spacing" textLength="164.7" x="12.6" y="113.2928">- The arrows of the inheritance tree are</text><text fill="#D2691E" font-family="sans-serif" font-size="9" lengthAdjust="spacing" textLength="32.4" x="180" y="113.2928">colored</text><text fill="#808080" font-family="sans-serif" font-size="9" lengthAdjust="spacing" textLength="2.7" x="212.4" y="113.2928">.</text><!--MD5=[8f11a1741f24cbd1af2154c4885c9a6c]
class DDICDIModels::DDICDILibrary::Classes::Conceptual::SubstantiveConceptualDomain--><a href="../DDICDILibrary/Classes/Conceptual/SubstantiveConceptualDomain.html#super-class-hierarchy-generalization" target="_top" title=" ― SubstantiveConceptualDomain:&#10;Conceptual domain of substantive concepts." xlink:actuate="onRequest" xlink:href="../DDICDILibrary/Classes/Conceptual/SubstantiveConceptualDomain.html#super-class-hierarchy-generalization" xlink:show="new" xlink:title=" ― SubstantiveConceptualDomain:&#10;Conceptual domain of substantive concepts." xlink:type="simple"><g id="elem_DDICDIModels::DDICDILibrary::Classes::Conceptual::SubstantiveConceptualDomain"><rect codeLine="53" fill="#F1F1F1" height="36.1688" id="DDICDIModels::DDICDILibrary::Classes::Conceptual::SubstantiveConceptualDomain" rx="2.25" ry="2.25" style="stroke:#404040;stroke-width:0.45;" width="180" x="123.75" y="530.4133"/><text fill="#000000" font-family="sans-serif" font-size="9" lengthAdjust="spacing" textLength="54.9" x="186.3" y="544.2561">Conceptual::</text><text fill="#0000FF" font-family="sans-serif" font-size="12.6" lengthAdjust="spacing" textLength="174.6" x="126.45" y="559.3135">SubstantiveConceptualDomain</text></g></a><!--MD5=[1e072c045d3045cf50b952b68f6c1e7f]
class DDICDIModels::DDICDILibrary::Classes::DataDescription::KeyValue::MainKeyMember--><a href="../DDICDILibrary/Classes/DataDescription/KeyValue/MainKeyMember.html#super-class-hierarchy-generalization" target="_top" title=" ― MainKeyMember:&#10;Identifies the unit of interest, either a statistical unit or a population, via identifier or dimension components, respectively, plus an optional contextual component. If neither identifier nor dimension components are present, then a synthetic id component is used." xlink:actuate="onRequest" xlink:href="../DDICDILibrary/Classes/DataDescription/KeyValue/MainKeyMember.html#super-class-hierarchy-generalization" xlink:show="new" xlink:title=" ― MainKeyMember:&#10;Identifies the unit of interest, either a statistical unit or a population, via identifier or dimension components, respectively, plus an optional contextual component. If neither identifier nor dimension components are present, then a synthetic id component is used." xlink:type="simple"><g id="elem_DDICDIModels::DDICDILibrary::Classes::DataDescription::KeyValue::MainKeyMember"><rect codeLine="54" fill="#F1F1F1" height="36.1688" id="DDICDIModels::DDICDILibrary::Classes::DataDescription::KeyValue::MainKeyMember" rx="2.25" ry="2.25" style="stroke:#404040;stroke-width:0.45;" width="135" x="335.25" y="530.4133"/><text fill="#000000" font-family="sans-serif" font-size="9" lengthAdjust="spacing" textLength="46.8" x="379.35" y="544.2561">KeyValue::</text><text fill="#0000FF" font-family="sans-serif" font-size="12.6" lengthAdjust="spacing" textLength="94.5" x="355.5" y="559.3135">MainKeyMember</text></g></a><!--MD5=[65a51a3beb66455af85c430549e256a7]
class DDICDIModels::DDICDILibrary::Classes::Conceptual::RepresentedVariable--><a href="../DDICDILibrary/Classes/Conceptual/RepresentedVariable.html#super-class-hierarchy-generalization" target="_top" title=" ― RepresentedVariable:&#10;Conceptual variable with a substantive value domain specified." xlink:actuate="onRequest" xlink:href="../DDICDILibrary/Classes/Conceptual/RepresentedVariable.html#super-class-hierarchy-generalization" xlink:show="new" xlink:title=" ― RepresentedVariable:&#10;Conceptual variable with a substantive value domain specified." xlink:type="simple"><g id="elem_DDICDIModels::DDICDILibrary::Classes::Conceptual::RepresentedVariable"><rect codeLine="55" fill="#F1F1F1" height="36.1688" id="DDICDIModels::DDICDILibrary::Classes::Conceptual::RepresentedVariable" rx="2.25" ry="2.25" style="stroke:#404040;stroke-width:0.45;" width="135" x="501.75" y="530.4133"/><text fill="#000000" font-family="sans-serif" font-size="9" lengthAdjust="spacing" textLength="54.9" x="541.8" y="544.2561">Conceptual::</text><text fill="#0000FF" font-family="sans-serif" font-size="12.6" lengthAdjust="spacing" textLength="120.6" x="508.95" y="559.3135">RepresentedVariable</text></g></a><!--MD5=[296bbaf9e8829ea7176055b294e3da05]
class DDICDIModels::DDICDILibrary::Classes::Representations::ValueAndConceptDescription--><a href="../DDICDILibrary/Classes/Representations/ValueAndConceptDescription.html#super-class-hierarchy-generalization" target="_top" title=" ― ValueAndConceptDescription:&#10;Formal description of a set of values." xlink:actuate="onRequest" xlink:href="../DDICDILibrary/Classes/Representations/ValueAndConceptDescription.html#super-class-hierarchy-generalization" xlink:show="new" xlink:title=" ― ValueAndConceptDescription:&#10;Formal description of a set of values." xlink:type="simple"><g id="elem_DDICDIModels::DDICDILibrary::Classes::Representations::ValueAndConceptDescription"><rect codeLine="56" fill="#F1F1F1" height="36.1688" id="DDICDIModels::DDICDILibrary::Classes::Representations::ValueAndConceptDescription" rx="2.25" ry="2.25" style="stroke:#404040;stroke-width:0.45;" width="171.9" x="668.7" y="530.4133"/><text fill="#000000" font-family="sans-serif" font-size="9" lengthAdjust="spacing" textLength="72.9" x="718.2" y="544.2561">Representations::</text><text fill="#0000FF" font-family="sans-serif" font-size="12.6" lengthAdjust="spacing" textLength="166.5" x="671.4" y="559.3135">ValueAndConceptDescription</text></g></a><!--MD5=[658edc803bccf704560a61f47c0b4554]
class DDICDIModels::DDICDILibrary::Classes::Representations::EnumerationDomain--><a href="../DDICDILibrary/Classes/Representations/EnumerationDomain.html#super-class-hierarchy-generalization" target="_top" title=" ― EnumerationDomain:&#10;A base class acting as an extension point to allow all codifications (codelist, statistical classification, etc.) to be understood as enumerated value domains." xlink:actuate="onRequest" xlink:href="../DDICDILibrary/Classes/Representations/EnumerationDomain.html#super-class-hierarchy-generalization" xlink:show="new" xlink:title=" ― EnumerationDomain:&#10;A base class acting as an extension point to allow all codifications (codelist, statistical classification, etc.) to be understood as enumerated value domains." xlink:type="simple"><g id="elem_DDICDIModels::DDICDILibrary::Classes::Representations::EnumerationDomain"><rect codeLine="57" fill="#F1F1F1" height="36.1688" id="DDICDIModels::DDICDILibrary::Classes::Representations::EnumerationDomain" rx="2.25" ry="2.25" style="stroke:#404040;stroke-width:0.45;" width="135" x="872.55" y="530.4133"/><text fill="#000000" font-family="sans-serif" font-size="9" lengthAdjust="spacing" textLength="72.9" x="903.6" y="544.2561">Representations::</text><text fill="#0000FF" font-family="sans-serif" font-size="12.6" lengthAdjust="spacing" textLength="115.2" x="882.45" y="559.3135">EnumerationDomain</text></g></a><!--MD5=[c09f5ef791110389cd3fbb684c42cc6c]
entity ##10--><!--MD5=[48dd8570e1f8a0ac97ec2802de29911d]
class DDICDIModels::DDICDILibrary::Classes::Representations::SubstantiveValueDomain--><g id="elem_DDICDIModels::DDICDILibrary::Classes::Representations::SubstantiveValueDomain"><rect codeLine="47" fill="#FFD700" height="36.1688" id="DDICDIModels::DDICDILibrary::Classes::Representations::SubstantiveValueDomain" rx="2.25" ry="2.25" style="stroke:#404040;stroke-width:0.45;" width="147.6" x="391.95" y="395.4133"/><text fill="#000000" font-family="sans-serif" font-size="9" lengthAdjust="spacing" textLength="72.9" x="429.3" y="409.2561">Representations::</text><text fill="#000000" font-family="sans-serif" font-size="12.6" lengthAdjust="spacing" textLength="142.2" x="394.65" y="424.3135">SubstantiveValueDomain</text></g><!--MD5=[b1253a53301db6ab67c056d26d02fd88]
class DDICDIModels::DDICDILibrary::Classes::Representations::ValueDomain--><a href="../DDICDILibrary/Classes/Representations/ValueDomain.html#super-class-hierarchy-generalization" target="_top" title=" ― ValueDomain:&#10;Set of permissible values for a variable (adapted from ISO/IEC 11179)." xlink:actuate="onRequest" xlink:href="../DDICDILibrary/Classes/Representations/ValueDomain.html#super-class-hierarchy-generalization" xlink:show="new" xlink:title=" ― ValueDomain:&#10;Set of permissible values for a variable (adapted from ISO/IEC 11179)." xlink:type="simple"><g id="elem_DDICDIModels::DDICDILibrary::Classes::Representations::ValueDomain"><rect codeLine="97" fill="#FAFAD2" height="106.7625" id="DDICDIModels::DDICDILibrary::Classes::Representations::ValueDomain" rx="2.25" ry="2.25" style="stroke:#404040;stroke-width:0.45;" width="310.5" x="310.5" y="202.3633"/><text fill="#000000" font-family="sans-serif" font-size="9" lengthAdjust="spacing" textLength="72.9" x="429.3" y="216.2061">Representations::</text><text fill="#0000FF" font-family="sans-serif" font-size="12.6" lengthAdjust="spacing" textLength="75.6" x="427.95" y="231.2635">ValueDomain</text><line style="stroke:#404040;stroke-width:0.45;" x1="311.4" x2="620.1" y1="238.5321" y2="238.5321"/><a href="../DDICDILibrary/DataTypes/StructuredDataTypes/CatalogDetails.html#diagram" target="_top" title=" ― CatalogDetails:&#10;A set of information useful for attribution, data discovery, and access." xlink:actuate="onRequest" xlink:href="../DDICDILibrary/DataTypes/StructuredDataTypes/CatalogDetails.html#diagram" xlink:show="new" xlink:title=" ― CatalogDetails:&#10;A set of information useful for attribution, data discovery, and access." xlink:type="simple"><text fill="#000000" font-family="sans-serif" font-size="12.6" lengthAdjust="spacing" textLength="87.3" x="315.9" y="255.2119">catalogDetails :</text><text fill="#0000FF" font-family="sans-serif" font-size="12.6" lengthAdjust="spacing" textLength="82.8" x="406.8" y="255.2119">CatalogDetails</text></a><a href="../DDICDILibrary/DataTypes/StructuredDataTypes/LabelForDisplay.html#diagram" target="_top" title=" ― LabelForDisplay:&#10;A structured display label. Label provides display content of a fully human readable display for the identification of the object." xlink:actuate="onRequest" xlink:href="../DDICDILibrary/DataTypes/StructuredDataTypes/LabelForDisplay.html#diagram" xlink:show="new" xlink:title=" ― LabelForDisplay:&#10;A structured display label. Label provides display content of a fully human readable display for the identification of the object." xlink:type="simple"><text fill="#000000" font-family="sans-serif" font-size="12.6" lengthAdjust="spacing" textLength="78.3" x="315.9" y="271.0604">displayLabel :</text><text fill="#0000FF" font-family="sans-serif" font-size="12.6" lengthAdjust="spacing" textLength="92.7" x="397.8" y="271.0604">LabelForDisplay</text></a><a href="../DDICDILibrary/DataTypes/StructuredDataTypes/Identifier.html#diagram" target="_top" title=" ― Identifier:&#10;Identifier for objects requiring short- or long-lasting referencing and management." xlink:actuate="onRequest" xlink:href="../DDICDILibrary/DataTypes/StructuredDataTypes/Identifier.html#diagram" xlink:show="new" xlink:title=" ― Identifier:&#10;Identifier for objects requiring short- or long-lasting referencing and management." xlink:type="simple"><text fill="#000000" font-family="sans-serif" font-size="12.6" lengthAdjust="spacing" textLength="55.8" x="315.9" y="286.9088">identifier :</text><text fill="#0000FF" font-family="sans-serif" font-size="12.6" lengthAdjust="spacing" textLength="48.6" x="375.3" y="286.9088">Identifier</text></a><a href="../DDICDILibrary/DataTypes/StructuredDataTypes/ControlledVocabularyEntry.html#diagram" target="_top" title=" ― ControlledVocabularyEntry:&#10;Allows for unstructured content which may be an entry from an externally maintained controlled vocabulary.If the content is from a controlled vocabulary provide the code value of the entry, as well as a reference to the controlled vocabulary from which the value is taken. Provide as many of the iden ..." xlink:actuate="onRequest" xlink:href="../DDICDILibrary/DataTypes/StructuredDataTypes/ControlledVocabularyEntry.html#diagram" xlink:show="new" xlink:title=" ― ControlledVocabularyEntry:&#10;Allows for unstructured content which may be an entry from an externally maintained controlled vocabulary.If the content is from a controlled vocabulary provide the code value of the entry, as well as a reference to the controlled vocabulary from which the value is taken. Provide as many of the iden ..." xlink:type="simple"><text fill="#000000" font-family="sans-serif" font-size="12.6" lengthAdjust="spacing" textLength="144" x="315.9" y="302.7573">recommendedDataType :</text><text fill="#0000FF" font-family="sans-serif" font-size="12.6" lengthAdjust="spacing" textLength="152.1" x="463.5" y="302.7573">ControlledVocabularyEntry</text></a></g></a><!--MD5=[9995a2dceb5f31a5260ac52ed8e35176]
class DDICDIModels::DDICDILibrary::Classes::DataDescription::InstanceValue--><a href="../DDICDILibrary/Classes/DataDescription/InstanceValue.html#super-class-hierarchy-generalization" target="_top" title=" ― InstanceValue:&#10;Single data instance corresponding to a concept (with a notion of equality defined) being observed, captured, or derived." xlink:actuate="onRequest" xlink:href="../DDICDILibrary/Classes/DataDescription/InstanceValue.html#super-class-hierarchy-generalization" xlink:show="new" xlink:title=" ― InstanceValue:&#10;Single data instance corresponding to a concept (with a notion of equality defined) being observed, captured, or derived." xlink:type="simple"><g id="elem_DDICDIModels::DDICDILibrary::Classes::DataDescription::InstanceValue"><rect codeLine="66" fill="#F1F1F1" height="36.1688" id="DDICDIModels::DDICDILibrary::Classes::DataDescription::InstanceValue" rx="2.25" ry="2.25" style="stroke:#404040;stroke-width:0.45;" width="135" x="909.45" y="237.9133"/><text fill="#000000" font-family="sans-serif" font-size="9" lengthAdjust="spacing" textLength="72.9" x="940.5" y="251.7561">DataDescription::</text><text fill="#0000FF" font-family="sans-serif" font-size="12.6" lengthAdjust="spacing" textLength="80.1" x="936.9" y="266.8135">InstanceValue</text></g></a><!--MD5=[fa2035f782ffe255071e1a72690dd811]
class DDICDIModels::DDICDILibrary::Classes::DataDescription::Long::DescriptorValueDomain--><a href="../DDICDILibrary/Classes/DataDescription/Long/DescriptorValueDomain.html#super-class-hierarchy-generalization" target="_top" title=" ― DescriptorValueDomain:&#10;Set of permissible values for a variable playing the role of a variable descriptor component." xlink:actuate="onRequest" xlink:href="../DDICDILibrary/Classes/DataDescription/Long/DescriptorValueDomain.html#super-class-hierarchy-generalization" xlink:show="new" xlink:title=" ― DescriptorValueDomain:&#10;Set of permissible values for a variable playing the role of a variable descriptor component." xlink:type="simple"><g id="elem_DDICDIModels::DDICDILibrary::Classes::DataDescription::Long::DescriptorValueDomain"><rect codeLine="67" fill="#F1F1F1" height="36.1688" id="DDICDIModels::DDICDILibrary::Classes::DataDescription::Long::DescriptorValueDomain" rx="2.25" ry="2.25" style="stroke:#404040;stroke-width:0.45;" width="139.5" x="6.3" y="645.6133"/><text fill="#000000" font-family="sans-serif" font-size="9" lengthAdjust="spacing" textLength="27" x="62.55" y="659.4561">Long::</text><text fill="#0000FF" font-family="sans-serif" font-size="12.6" lengthAdjust="spacing" textLength="134.1" x="9" y="674.5135">DescriptorValueDomain</text></g></a><!--MD5=[a30a9f063a93b6f2a18559a229be9a29]
class DDICDIModels::DDICDILibrary::Classes::DataDescription::Components::DimensionComponent--><a href="../DDICDILibrary/Classes/DataDescription/Components/DimensionComponent.html#super-class-hierarchy-generalization" target="_top" title=" ― DimensionComponent:&#10;Role given to a represented variable in the context of a dimensional data structure to identify the universes associated with data points. The variable acts as a field in the compound identifier (the key structure) to disambiguate the cells in the multi-dimensional &quot;cube&quot;." xlink:actuate="onRequest" xlink:href="../DDICDILibrary/Classes/DataDescription/Components/DimensionComponent.html#super-class-hierarchy-generalization" xlink:show="new" xlink:title=" ― DimensionComponent:&#10;Role given to a represented variable in the context of a dimensional data structure to identify the universes associated with data points. The variable acts as a field in the compound identifier (the key structure) to disambiguate the cells in the multi-dimensional &quot;cube&quot;." xlink:type="simple"><g id="elem_DDICDIModels::DDICDILibrary::Classes::DataDescription::Components::DimensionComponent"><rect codeLine="68" fill="#F1F1F1" height="36.1688" id="DDICDIModels::DDICDILibrary::Classes::DataDescription::Components::DimensionComponent" rx="2.25" ry="2.25" style="stroke:#404040;stroke-width:0.45;" width="135" x="742.95" y="237.9133"/><text fill="#000000" font-family="sans-serif" font-size="9" lengthAdjust="spacing" textLength="58.5" x="781.2" y="251.7561">Components::</text><text fill="#0000FF" font-family="sans-serif" font-size="12.6" lengthAdjust="spacing" textLength="125.1" x="747.9" y="266.8135">DimensionComponent</text></g></a><!--MD5=[d415ae5b9b28f85964831ce2272dac98]
reverse link DDICDIModels::DDICDILibrary::Classes::Representations::SubstantiveValueDomain to DDICDIModels::DDICDILibrary::Classes::Conceptual::RepresentedVariable--><g id="link_DDICDIModels::DDICDILibrary::Classes::Representations::SubstantiveValueDomain_DDICDIModels::DDICDILibrary::Classes::Conceptual::RepresentedVariable"><a href="" target="_top" title=" ― takesSubstantiveValuesFrom:&#10;The substantive representation (substantive value domain) of the variable. This is equivalent to the relationship &quot;Measures&quot; in the Generic Statistical Information Model (GSIM) although GSIM makes no distinction between substantive and sentinel values." xlink:actuate="onRequest" xlink:href="" xlink:show="new" xlink:title=" ― takesSubstantiveValuesFrom:&#10;The substantive representation (substantive value domain) of the variable. This is equivalent to the relationship &quot;Measures&quot; in the Generic Statistical Information Model (GSIM) although GSIM makes no distinction between substantive and sentinel values." xlink:type="simple"><path codeLine="73" d="M482.58,435.2113 C491.31,446.1103 502.119,459.6823 511.65,471.9133 C527.166,491.8303 544.707,514.9423 556.317,530.3143 " fill="none" id="DDICDIModels::DDICDILibrary::Classes::Representations::SubstantiveValueDomain-backto-DDICDIModels::DDICDILibrary::Classes::Conceptual::RepresentedVariable" style="stroke:#808080;stroke-width:1.35;"/><polygon fill="#808080" points="479.709,431.6293,481.9694,440.2002,482.5248,435.1395,487.5856,435.6949,479.709,431.6293" style="stroke:#808080;stroke-width:1.35;"/><text fill="#000000" font-family="sans-serif" font-size="11.7" lengthAdjust="spacing" textLength="152.1" x="523.35" y="484.9589">takesSubstantiveValuesFrom</text></a></g><!--MD5=[feafc05cd6d16996c04f09c0f848b454]
link DDICDIModels::DDICDILibrary::Classes::Representations::SubstantiveValueDomain to DDICDIModels::DDICDILibrary::Classes::Conceptual::SubstantiveConceptualDomain--><g id="link_DDICDIModels::DDICDILibrary::Classes::Representations::SubstantiveValueDomain_DDICDIModels::DDICDILibrary::Classes::Conceptual::SubstantiveConceptualDomain"><a href="" target="_top" title=" ― takesConceptsFrom:&#10;Corresponding conceptual definition given by an substantive conceptual domain." xlink:actuate="onRequest" xlink:href="" xlink:show="new" xlink:title=" ― takesConceptsFrom:&#10;Corresponding conceptual definition given by an substantive conceptual domain." xlink:type="simple"><path codeLine="74" d="M405.414,431.5303 C375.471,441.2953 339.336,454.9753 309.15,471.9133 C281.682,487.3303 253.854,510.4243 235.404,527.0293 " fill="none" id="DDICDIModels::DDICDILibrary::Classes::Representations::SubstantiveValueDomain-to-DDICDIModels::DDICDILibrary::Classes::Conceptual::SubstantiveConceptualDomain" style="stroke:#808080;stroke-width:1.35;"/><polygon fill="#808080" points="231.84,530.2603,240.2631,527.4997,235.1784,527.2429,235.4352,522.1582,231.84,530.2603" style="stroke:#808080;stroke-width:1.35;"/><text fill="#000000" font-family="sans-serif" font-size="11.7" lengthAdjust="spacing" textLength="105.3" x="310.05" y="484.9589">takesConceptsFrom</text></a></g><!--MD5=[39932da594994e9a9f1b9c6ff3af11fb]
reverse link DDICDIModels::DDICDILibrary::Classes::Representations::SubstantiveValueDomain to DDICDIModels::DDICDILibrary::Classes::DataDescription::KeyValue::MainKeyMember--><g id="link_DDICDIModels::DDICDILibrary::Classes::Representations::SubstantiveValueDomain_DDICDIModels::DDICDILibrary::Classes::DataDescription::KeyValue::MainKeyMember"><a href="" target="_top" title=" ― hasValueFrom:&#10;" xlink:actuate="onRequest" xlink:href="" xlink:show="new" xlink:title=" ― hasValueFrom:&#10;" xlink:type="simple"><path codeLine="75" d="M451.62,435.2743 C444.771,445.9663 436.734,459.3313 430.65,471.9133 C421.272,491.3083 413.082,514.7263 408.042,530.3053 " fill="none" id="DDICDIModels::DDICDILibrary::Classes::Representations::SubstantiveValueDomain-backto-DDICDIModels::DDICDILibrary::Classes::DataDescription::KeyValue::MainKeyMember" style="stroke:#808080;stroke-width:1.35;"/><polygon fill="#808080" points="454.086,431.4673,446.6659,436.3163,451.6435,435.2468,452.7131,440.2243,454.086,431.4673" style="stroke:#808080;stroke-width:1.35;"/><text fill="#000000" font-family="sans-serif" font-size="11.7" lengthAdjust="spacing" textLength="75.6" x="431.55" y="484.9589">hasValueFrom</text></a></g><!--MD5=[7615690ce2e32044194a1aa2d6dba355]
link DDICDIModels::DDICDILibrary::Classes::Representations::SubstantiveValueDomain to DDICDIModels::DDICDILibrary::Classes::Representations::ValueAndConceptDescription--><g id="link_DDICDIModels::DDICDILibrary::Classes::Representations::SubstantiveValueDomain_DDICDIModels::DDICDILibrary::Classes::Representations::ValueAndConceptDescription"><a href="" target="_top" title=" ― isDescribedBy:&#10;A formal description of the set of valid values - for described value domains." xlink:actuate="onRequest" xlink:href="" xlink:show="new" xlink:title=" ― isDescribedBy:&#10;A formal description of the set of valid values - for described value domains." xlink:type="simple"><path codeLine="76" d="M539.595,423.3853 C583.749,431.2783 639.612,445.7413 683.55,471.9133 C706.716,485.7193 727.101,509.2273 740.034,526.3633 " fill="none" id="DDICDIModels::DDICDILibrary::Classes::Representations::SubstantiveValueDomain-to-DDICDIModels::DDICDILibrary::Classes::Representations::ValueAndConceptDescription" style="stroke:#808080;stroke-width:1.35;"/><polygon fill="#808080" points="742.842,530.1433,740.8966,521.4955,740.1564,526.5325,735.1193,525.7924,742.842,530.1433" style="stroke:#808080;stroke-width:1.35;"/><text fill="#000000" font-family="sans-serif" font-size="11.7" lengthAdjust="spacing" textLength="75.6" x="704.25" y="484.9589">isDescribedBy</text></a></g><!--MD5=[36f328db3bdaa7459a58ce58a10994af]
link DDICDIModels::DDICDILibrary::Classes::Representations::SubstantiveValueDomain to DDICDIModels::DDICDILibrary::Classes::Representations::EnumerationDomain--><g id="link_DDICDIModels::DDICDILibrary::Classes::Representations::SubstantiveValueDomain_DDICDIModels::DDICDILibrary::Classes::Representations::EnumerationDomain"><a href="" target="_top" title=" ― takesValuesFrom:&#10;Any subtype of an enumeration domain enumerating the set of valid values." xlink:actuate="onRequest" xlink:href="" xlink:show="new" xlink:title=" ― takesValuesFrom:&#10;Any subtype of an enumeration domain enumerating the set of valid values." xlink:type="simple"><path codeLine="77" d="M539.838,421.4953 C606.114,429.3433 705.267,444.5983 787.95,471.9133 C831.222,486.2143 877.689,510.8023 907.713,528.0463 " fill="none" id="DDICDIModels::DDICDILibrary::Classes::Representations::SubstantiveValueDomain-to-DDICDIModels::DDICDILibrary::Classes::Representations::EnumerationDomain" style="stroke:#808080;stroke-width:1.35;"/><polygon fill="#808080" points="911.655,530.3233,906.4413,523.1548,907.7582,528.0727,902.8403,529.3896,911.655,530.3233" style="stroke:#808080;stroke-width:1.35;"/><text fill="#000000" font-family="sans-serif" font-size="11.7" lengthAdjust="spacing" textLength="91.8" x="827.55" y="484.9589">takesValuesFrom</text></a></g><!--MD5=[8a52f4105b3a92aa44d1d99bd218e7f6]
reverse link DDICDIModels::DDICDILibrary::Classes::Representations::ValueDomain to DDICDIModels::DDICDILibrary::Classes::DataDescription::InstanceValue--><g id="link_DDICDIModels::DDICDILibrary::Classes::Representations::ValueDomain_DDICDIModels::DDICDILibrary::Classes::DataDescription::InstanceValue"><a href="" target="_top" title=" ― hasValueFrom:&#10;" xlink:actuate="onRequest" xlink:href="" xlink:show="new" xlink:title=" ― hasValueFrom:&#10;" xlink:type="simple"><path codeLine="90" d="M560.385,200.2753 C629.298,166.6603 725.058,134.1703 810,156.0133 C868.23,170.9893 926.199,213.4333 956.115,237.9133 " fill="none" id="DDICDIModels::DDICDILibrary::Classes::Representations::ValueDomain-backto-DDICDIModels::DDICDILibrary::Classes::DataDescription::InstanceValue" style="stroke:#808080;stroke-width:1.35;"/><polygon fill="#808080" points="556.299,202.2823,565.1571,201.9589,560.3417,200.3059,561.9948,195.4905,556.299,202.2823" style="stroke:#808080;stroke-width:1.35;"/><text fill="#000000" font-family="sans-serif" font-size="11.7" lengthAdjust="spacing" textLength="87.3" x="721.8" y="151.0589"> hasValueFrom</text></a></g><!--MD5=[812705a917d96b92f6fc2a2a97c35230]
reverse link DDICDIModels::DDICDILibrary::Classes::Representations::ValueDomain to DDICDIModels::DDICDILibrary::Classes::DataDescription::Components::DimensionComponent--><g id="link_DDICDIModels::DDICDILibrary::Classes::Representations::ValueDomain_DDICDIModels::DDICDILibrary::Classes::DataDescription::Components::DimensionComponent"><a href="" target="_top" title=" ― isStructuredBy:&#10;" xlink:actuate="onRequest" xlink:href="" xlink:show="new" xlink:title=" ― isStructuredBy:&#10;" xlink:type="simple"><path codeLine="95" d="M625.716,255.9133 C666.972,255.9133 709.182,255.9133 742.815,255.9133 " fill="none" id="DDICDIModels::DDICDILibrary::Classes::Representations::ValueDomain-backto-DDICDIModels::DDICDILibrary::Classes::DataDescription::Components::DimensionComponent" style="stroke:#808080;stroke-width:1.35;"/><polygon fill="#808080" points="621.207,255.9133,629.307,259.5133,625.707,255.9133,629.307,252.3133,621.207,255.9133" style="stroke:#808080;stroke-width:1.35;"/><text fill="#000000" font-family="sans-serif" font-size="11.7" lengthAdjust="spacing" textLength="89.1" x="637.425" y="250.0589"> isStructuredBy</text></a></g><!--MD5=[dbeb5dea5f3d80e0e355fc56df37520d]
reverse link DDICDIModels::DDICDILibrary::Classes::Representations::ValueDomain to DDICDIModels::DDICDILibrary::Classes::Representations::SubstantiveValueDomain--><g id="link_DDICDIModels::DDICDILibrary::Classes::Representations::ValueDomain_DDICDIModels::DDICDILibrary::Classes::Representations::SubstantiveValueDomain"><path codeLine="108" d="M465.75,327.8413 C465.75,352.8343 465.75,378.7723 465.75,395.2423 " fill="none" id="DDICDIModels::DDICDILibrary::Classes::Representations::ValueDomain-backto-DDICDIModels::DDICDILibrary::Classes::Representations::SubstantiveValueDomain" style="stroke:#D2691E;stroke-width:1.35;"/><polygon fill="none" points="459.45,327.5263,465.75,309.5263,472.05,327.5263,459.45,327.5263" style="stroke:#D2691E;stroke-width:1.35;"/></g><!--MD5=[5fb5c3cf8e3fc78e22ee11c25826ba6b]
reverse link DDICDIModels::DDICDILibrary::Classes::Representations::SubstantiveValueDomain to DDICDIModels::DDICDILibrary::Classes::DataDescription::Long::DescriptorValueDomain--><g id="link_DDICDIModels::DDICDILibrary::Classes::Representations::SubstantiveValueDomain_DDICDIModels::DDICDILibrary::Classes::DataDescription::Long::DescriptorValueDomain"><path codeLine="111" d="M373.698,427.6243 C280.611,442.9693 145.458,470.9953 109.35,508.8133 C73.197,546.6763 72.495,614.0143 74.439,645.5413 " fill="none" id="DDICDIModels::DDICDILibrary::Classes::Representations::SubstantiveValueDomain-backto-DDICDIModels::DDICDILibrary::Classes::DataDescription::Long::DescriptorValueDomain" style="stroke:#D2691E;stroke-width:1.35;"/><polygon fill="none" points="372.942,421.3693,391.716,424.7263,374.94,433.8073,372.942,421.3693" style="stroke:#D2691E;stroke-width:1.35;"/></g><rect height="33.9609" style="stroke:#00000000;stroke-width:0.9;fill:none;" width="376.2" x="330.525" y="686.2821"/><text fill="#888888" font-family="sans-serif" font-size="9" lengthAdjust="spacing" textLength="2.7" x="517.275" y="695.6248"> </text><text fill="#888888" font-family="sans-serif" font-size="9" lengthAdjust="spacing" textLength="2.7" x="517.275" y="706.9451"> </text><text fill="#888888" font-family="sans-serif" font-size="9" lengthAdjust="spacing" textLength="376.2" x="330.525" y="718.2655">DDI Cross Domain Integration (DDI-CDI)   1.0 - Representations::SubstantiveValueDomain</text><!--MD5=[8d50d420c56a9e125cc3ce36a4d637cf]
@startuml
!pragma ratio 0.5625
' HD display aspect ratio 16:9
' hyperlinkColor and pathHoverColor do not seem to work with class diagrams
' working approach: colors per item
' default font size for class names is 14

hide circle
hide empty members
scale 0.9

skinparam {
  ArrowThickness 1.5
  MinClassWidth 150
}

skinparam legend {
  BackgroundColor white
  FontSize 10
}

skinparam note {
  BackgroundColor white
}

skinparam class {
  ArrowColor #404040
  BorderColor #404040
}

skinparam package {
  FontColor lightgrey
  BorderColor lightgrey
}

title <size:20>UML Diagram: Class SubstantiveValueDomain in Context\n
footer \n\nDDI Cross Domain Integration (DDI-CDI)   1.0 - Representations::SubstantiveValueDomain

legend top left
**Hints**
<color:grey>- Move the mouse cursor over a name to see more information.
<color:grey>- Click on a name to go to the corresponding page.
<color:grey>- The arrows of the inheritance tree are <color:#D2691E>colored<color:grey>.
endlegend

' Core class of diagram
class DDICDIModels::DDICDILibrary::Classes::Representations::SubstantiveValueDomain as "<size:10>Representations::\n<color:black>SubstantiveValueDomain" #FFD700 {
}

' Class definitions for associated classes without superclass (might have also an association)
' This would be too many constraints for Graphviz. 
together {
  class DDICDIModels::DDICDILibrary::Classes::Conceptual::SubstantiveConceptualDomain as "<size:10>Conceptual::\n<color:blue>SubstantiveConceptualDomain" [[../DDICDILibrary/Classes/Conceptual/SubstantiveConceptualDomain.html#super-class-hierarchy-generalization{ <U+2015> SubstantiveConceptualDomain:\nConceptual domain of substantive concepts.}]]
  class DDICDIModels::DDICDILibrary::Classes::DataDescription::KeyValue::MainKeyMember as "<size:10>KeyValue::\n<color:blue>MainKeyMember" [[../DDICDILibrary/Classes/DataDescription/KeyValue/MainKeyMember.html#super-class-hierarchy-generalization{ <U+2015> MainKeyMember:\nIdentifies the unit of interest, either a statistical unit or a population, via identifier or dimension components, respectively, plus an optional contextual component. If neither identifier nor dimension components are present, then a synthetic id component is used.}]]
  class DDICDIModels::DDICDILibrary::Classes::Conceptual::RepresentedVariable as "<size:10>Conceptual::\n<color:blue>RepresentedVariable" [[../DDICDILibrary/Classes/Conceptual/RepresentedVariable.html#super-class-hierarchy-generalization{ <U+2015> RepresentedVariable:\nConceptual variable with a substantive value domain specified.}]]
  class DDICDIModels::DDICDILibrary::Classes::Representations::ValueAndConceptDescription as "<size:10>Representations::\n<color:blue>ValueAndConceptDescription" [[../DDICDILibrary/Classes/Representations/ValueAndConceptDescription.html#super-class-hierarchy-generalization{ <U+2015> ValueAndConceptDescription:\nFormal description of a set of values.}]]
  class DDICDIModels::DDICDILibrary::Classes::Representations::EnumerationDomain as "<size:10>Representations::\n<color:blue>EnumerationDomain" [[../DDICDILibrary/Classes/Representations/EnumerationDomain.html#super-class-hierarchy-generalization{ <U+2015> EnumerationDomain:\nA base class acting as an extension point to allow all codifications (codelist, statistical classification, etc.) to be understood as enumerated value domains.}]]
}

' Class definitions for suppliers of abstractions
together {
}

' Rest of class definitions, without associated classes of core class and abstraction supplier classes
class DDICDIModels::DDICDILibrary::Classes::Representations::ValueDomain as "<size:10>Representations::\n<color:blue>ValueDomain" [[../DDICDILibrary/Classes/Representations/ValueDomain.html#super-class-hierarchy-generalization{ <U+2015> ValueDomain:\nSet of permissible values for a variable (adapted from ISO/IEC 11179).}]]
class DDICDIModels::DDICDILibrary::Classes::DataDescription::InstanceValue as "<size:10>DataDescription::\n<color:blue>InstanceValue" [[../DDICDILibrary/Classes/DataDescription/InstanceValue.html#super-class-hierarchy-generalization{ <U+2015> InstanceValue:\nSingle data instance corresponding to a concept (with a notion of equality defined) being observed, captured, or derived.}]]
class DDICDIModels::DDICDILibrary::Classes::DataDescription::Long::DescriptorValueDomain as "<size:10>Long::\n<color:blue>DescriptorValueDomain" [[../DDICDILibrary/Classes/DataDescription/Long/DescriptorValueDomain.html#super-class-hierarchy-generalization{ <U+2015> DescriptorValueDomain:\nSet of permissible values for a variable playing the role of a variable descriptor component.}]]
class DDICDIModels::DDICDILibrary::Classes::DataDescription::Components::DimensionComponent as "<size:10>Components::\n<color:blue>DimensionComponent" [[../DDICDILibrary/Classes/DataDescription/Components/DimensionComponent.html#super-class-hierarchy-generalization{ <U+2015> DimensionComponent:\nRole given to a represented variable in the context of a dimensional data structure to identify the universes associated with data points. The variable acts as a field in the compound identifier (the key structure) to disambiguate the cells in the multi-dimensional "cube".}]]



' Associations
DDICDIModels::DDICDILibrary::Classes::Representations::SubstantiveValueDomain <-[#grey]- DDICDIModels::DDICDILibrary::Classes::Conceptual::RepresentedVariable [[{ <U+2015> takesSubstantiveValuesFrom:\nThe substantive representation (substantive value domain) of the variable. This is equivalent to the relationship "Measures" in the Generic Statistical Information Model (GSIM) although GSIM makes no distinction between substantive and sentinel values.}]] : takesSubstantiveValuesFrom
DDICDIModels::DDICDILibrary::Classes::Representations::SubstantiveValueDomain -[#grey]-> DDICDIModels::DDICDILibrary::Classes::Conceptual::SubstantiveConceptualDomain [[{ <U+2015> takesConceptsFrom:\nCorresponding conceptual definition given by an substantive conceptual domain.}]] : takesConceptsFrom
DDICDIModels::DDICDILibrary::Classes::Representations::SubstantiveValueDomain <-[#grey]- DDICDIModels::DDICDILibrary::Classes::DataDescription::KeyValue::MainKeyMember [[{ <U+2015> hasValueFrom:\n}]] : hasValueFrom
DDICDIModels::DDICDILibrary::Classes::Representations::SubstantiveValueDomain -[#grey]-> DDICDIModels::DDICDILibrary::Classes::Representations::ValueAndConceptDescription [[{ <U+2015> isDescribedBy:\nA formal description of the set of valid values - for described value domains.}]] : isDescribedBy
DDICDIModels::DDICDILibrary::Classes::Representations::SubstantiveValueDomain -[#grey]-> DDICDIModels::DDICDILibrary::Classes::Representations::EnumerationDomain [[{ <U+2015> takesValuesFrom:\nAny subtype of an enumeration domain enumerating the set of valid values.}]] : takesValuesFrom

' Super classes
' Associations of Super classes
' firstAncestor:	org.eclipse.uml2.uml.internal.impl.ClassImpl@45f756e6 (name: ValueDomain, visibility: <unset>) (isLeaf: false, isAbstract: false, isFinalSpecialization: false) (isActive: false)
' secondAncestor:	org.eclipse.uml2.uml.internal.impl.ClassImpl@45f756e6 (name: ValueDomain, visibility: <unset>) (isLeaf: false, isAbstract: false, isFinalSpecialization: false) (isActive: false)



' aClass:			SubstantiveValueDomain
' aSuperClass:		ValueDomain
' e_ownedEndClass:	InstanceValue
' e_otherEndClass:	ValueDomain
DDICDIModels::DDICDILibrary::Classes::Representations::ValueDomain <-[#grey] DDICDIModels::DDICDILibrary::Classes::DataDescription::InstanceValue [[{ <U+2015> hasValueFrom:\n}]] : <U+2003>hasValueFrom
' aClass:			SubstantiveValueDomain
' aSuperClass:		ValueDomain
' e_ownedEndClass:	DimensionComponent
' e_otherEndClass:	ValueDomain
DDICDIModels::DDICDILibrary::Classes::Representations::ValueDomain <-[#grey] DDICDIModels::DDICDILibrary::Classes::DataDescription::Components::DimensionComponent [[{ <U+2015> isStructuredBy:\n}]] : <U+2003>isStructuredBy

class DDICDIModels::DDICDILibrary::Classes::Representations::ValueDomain as "<size:10> \n<color:blue>ValueDomain" [[../DDICDILibrary/Classes/Representations/ValueDomain.html#super-class-hierarchy-generalization{ <U+2015> ValueDomain:\nSet of permissible values for a variable (adapted from ISO/IEC 11179).}]] #FAFAD2 {
  catalogDetails : <color:blue>CatalogDetails   	  [[[../DDICDILibrary/DataTypes/StructuredDataTypes/CatalogDetails.html#diagram{ <U+2015> CatalogDetails:\nA set of information useful for attribution, data discovery, and access.}]]]
  displayLabel : <color:blue>LabelForDisplay   	  [[[../DDICDILibrary/DataTypes/StructuredDataTypes/LabelForDisplay.html#diagram{ <U+2015> LabelForDisplay:\nA structured display label. Label provides display content of a fully human readable display for the identification of the object.}]]]
  identifier : <color:blue>Identifier   	  [[[../DDICDILibrary/DataTypes/StructuredDataTypes/Identifier.html#diagram{ <U+2015> Identifier:\nIdentifier for objects requiring short- or long-lasting referencing and management.}]]]
  recommendedDataType : <color:blue>ControlledVocabularyEntry   	  [[[../DDICDILibrary/DataTypes/StructuredDataTypes/ControlledVocabularyEntry.html#diagram{ <U+2015> ControlledVocabularyEntry:\nAllows for unstructured content which may be an entry from an externally maintained controlled vocabulary.If the content is from a controlled vocabulary provide the code value of the entry, as well as a reference to the controlled vocabulary from which the value is taken. Provide as many of the iden ...}]]]
}

DDICDIModels::DDICDILibrary::Classes::Representations::ValueDomain <|-[#D2691E]- DDICDIModels::DDICDILibrary::Classes::Representations::SubstantiveValueDomain

' Sub classes
  DDICDIModels::DDICDILibrary::Classes::Representations::SubstantiveValueDomain <|- -[#D2691E]- DDICDIModels::DDICDILibrary::Classes::DataDescription::Long::DescriptorValueDomain 

' Abstractions
@enduml

@startuml
!pragma ratio 0.5625

hide circle
hide empty members
scale 0.9

skinparam {
  ArrowThickness 1.5
  MinClassWidth 150
}

skinparam legend {
  BackgroundColor white
  FontSize 10
}

skinparam note {
  BackgroundColor white
}

skinparam class {
  ArrowColor #404040
  BorderColor #404040
}

skinparam package {
  FontColor lightgrey
  BorderColor lightgrey
}

title <size:20>UML Diagram: Class SubstantiveValueDomain in Context\n
footer \n\nDDI Cross Domain Integration (DDI-CDI)   1.0 - Representations::SubstantiveValueDomain

legend top left
**Hints**
<color:grey>- Move the mouse cursor over a name to see more information.
<color:grey>- Click on a name to go to the corresponding page.
<color:grey>- The arrows of the inheritance tree are <color:#D2691E>colored<color:grey>.
endlegend

class DDICDIModels::DDICDILibrary::Classes::Representations::SubstantiveValueDomain as "<size:10>Representations::\n<color:black>SubstantiveValueDomain" #FFD700 {
}

together {
  class DDICDIModels::DDICDILibrary::Classes::Conceptual::SubstantiveConceptualDomain as "<size:10>Conceptual::\n<color:blue>SubstantiveConceptualDomain" [[../DDICDILibrary/Classes/Conceptual/SubstantiveConceptualDomain.html#super-class-hierarchy-generalization{ <U+2015> SubstantiveConceptualDomain:\nConceptual domain of substantive concepts.}]]
  class DDICDIModels::DDICDILibrary::Classes::DataDescription::KeyValue::MainKeyMember as "<size:10>KeyValue::\n<color:blue>MainKeyMember" [[../DDICDILibrary/Classes/DataDescription/KeyValue/MainKeyMember.html#super-class-hierarchy-generalization{ <U+2015> MainKeyMember:\nIdentifies the unit of interest, either a statistical unit or a population, via identifier or dimension components, respectively, plus an optional contextual component. If neither identifier nor dimension components are present, then a synthetic id component is used.}]]
  class DDICDIModels::DDICDILibrary::Classes::Conceptual::RepresentedVariable as "<size:10>Conceptual::\n<color:blue>RepresentedVariable" [[../DDICDILibrary/Classes/Conceptual/RepresentedVariable.html#super-class-hierarchy-generalization{ <U+2015> RepresentedVariable:\nConceptual variable with a substantive value domain specified.}]]
  class DDICDIModels::DDICDILibrary::Classes::Representations::ValueAndConceptDescription as "<size:10>Representations::\n<color:blue>ValueAndConceptDescription" [[../DDICDILibrary/Classes/Representations/ValueAndConceptDescription.html#super-class-hierarchy-generalization{ <U+2015> ValueAndConceptDescription:\nFormal description of a set of values.}]]
  class DDICDIModels::DDICDILibrary::Classes::Representations::EnumerationDomain as "<size:10>Representations::\n<color:blue>EnumerationDomain" [[../DDICDILibrary/Classes/Representations/EnumerationDomain.html#super-class-hierarchy-generalization{ <U+2015> EnumerationDomain:\nA base class acting as an extension point to allow all codifications (codelist, statistical classification, etc.) to be understood as enumerated value domains.}]]
}

together {
}

class DDICDIModels::DDICDILibrary::Classes::Representations::ValueDomain as "<size:10>Representations::\n<color:blue>ValueDomain" [[../DDICDILibrary/Classes/Representations/ValueDomain.html#super-class-hierarchy-generalization{ <U+2015> ValueDomain:\nSet of permissible values for a variable (adapted from ISO/IEC 11179).}]]
class DDICDIModels::DDICDILibrary::Classes::DataDescription::InstanceValue as "<size:10>DataDescription::\n<color:blue>InstanceValue" [[../DDICDILibrary/Classes/DataDescription/InstanceValue.html#super-class-hierarchy-generalization{ <U+2015> InstanceValue:\nSingle data instance corresponding to a concept (with a notion of equality defined) being observed, captured, or derived.}]]
class DDICDIModels::DDICDILibrary::Classes::DataDescription::Long::DescriptorValueDomain as "<size:10>Long::\n<color:blue>DescriptorValueDomain" [[../DDICDILibrary/Classes/DataDescription/Long/DescriptorValueDomain.html#super-class-hierarchy-generalization{ <U+2015> DescriptorValueDomain:\nSet of permissible values for a variable playing the role of a variable descriptor component.}]]
class DDICDIModels::DDICDILibrary::Classes::DataDescription::Components::DimensionComponent as "<size:10>Components::\n<color:blue>DimensionComponent" [[../DDICDILibrary/Classes/DataDescription/Components/DimensionComponent.html#super-class-hierarchy-generalization{ <U+2015> DimensionComponent:\nRole given to a represented variable in the context of a dimensional data structure to identify the universes associated with data points. The variable acts as a field in the compound identifier (the key structure) to disambiguate the cells in the multi-dimensional "cube".}]]



DDICDIModels::DDICDILibrary::Classes::Representations::SubstantiveValueDomain <-[#grey]- DDICDIModels::DDICDILibrary::Classes::Conceptual::RepresentedVariable [[{ <U+2015> takesSubstantiveValuesFrom:\nThe substantive representation (substantive value domain) of the variable. This is equivalent to the relationship "Measures" in the Generic Statistical Information Model (GSIM) although GSIM makes no distinction between substantive and sentinel values.}]] : takesSubstantiveValuesFrom
DDICDIModels::DDICDILibrary::Classes::Representations::SubstantiveValueDomain -[#grey]-> DDICDIModels::DDICDILibrary::Classes::Conceptual::SubstantiveConceptualDomain [[{ <U+2015> takesConceptsFrom:\nCorresponding conceptual definition given by an substantive conceptual domain.}]] : takesConceptsFrom
DDICDIModels::DDICDILibrary::Classes::Representations::SubstantiveValueDomain <-[#grey]- DDICDIModels::DDICDILibrary::Classes::DataDescription::KeyValue::MainKeyMember [[{ <U+2015> hasValueFrom:\n}]] : hasValueFrom
DDICDIModels::DDICDILibrary::Classes::Representations::SubstantiveValueDomain -[#grey]-> DDICDIModels::DDICDILibrary::Classes::Representations::ValueAndConceptDescription [[{ <U+2015> isDescribedBy:\nA formal description of the set of valid values - for described value domains.}]] : isDescribedBy
DDICDIModels::DDICDILibrary::Classes::Representations::SubstantiveValueDomain -[#grey]-> DDICDIModels::DDICDILibrary::Classes::Representations::EnumerationDomain [[{ <U+2015> takesValuesFrom:\nAny subtype of an enumeration domain enumerating the set of valid values.}]] : takesValuesFrom




DDICDIModels::DDICDILibrary::Classes::Representations::ValueDomain <-[#grey] DDICDIModels::DDICDILibrary::Classes::DataDescription::InstanceValue [[{ <U+2015> hasValueFrom:\n}]] : <U+2003>hasValueFrom
DDICDIModels::DDICDILibrary::Classes::Representations::ValueDomain <-[#grey] DDICDIModels::DDICDILibrary::Classes::DataDescription::Components::DimensionComponent [[{ <U+2015> isStructuredBy:\n}]] : <U+2003>isStructuredBy

class DDICDIModels::DDICDILibrary::Classes::Representations::ValueDomain as "<size:10> \n<color:blue>ValueDomain" [[../DDICDILibrary/Classes/Representations/ValueDomain.html#super-class-hierarchy-generalization{ <U+2015> ValueDomain:\nSet of permissible values for a variable (adapted from ISO/IEC 11179).}]] #FAFAD2 {
  catalogDetails : <color:blue>CatalogDetails   	  [[[../DDICDILibrary/DataTypes/StructuredDataTypes/CatalogDetails.html#diagram{ <U+2015> CatalogDetails:\nA set of information useful for attribution, data discovery, and access.}]]]
  displayLabel : <color:blue>LabelForDisplay   	  [[[../DDICDILibrary/DataTypes/StructuredDataTypes/LabelForDisplay.html#diagram{ <U+2015> LabelForDisplay:\nA structured display label. Label provides display content of a fully human readable display for the identification of the object.}]]]
  identifier : <color:blue>Identifier   	  [[[../DDICDILibrary/DataTypes/StructuredDataTypes/Identifier.html#diagram{ <U+2015> Identifier:\nIdentifier for objects requiring short- or long-lasting referencing and management.}]]]
  recommendedDataType : <color:blue>ControlledVocabularyEntry   	  [[[../DDICDILibrary/DataTypes/StructuredDataTypes/ControlledVocabularyEntry.html#diagram{ <U+2015> ControlledVocabularyEntry:\nAllows for unstructured content which may be an entry from an externally maintained controlled vocabulary.If the content is from a controlled vocabulary provide the code value of the entry, as well as a reference to the controlled vocabulary from which the value is taken. Provide as many of the iden ...}]]]
}

DDICDIModels::DDICDILibrary::Classes::Representations::ValueDomain <|-[#D2691E]- DDICDIModels::DDICDILibrary::Classes::Representations::SubstantiveValueDomain

  DDICDIModels::DDICDILibrary::Classes::Representations::SubstantiveValueDomain <|- -[#D2691E]- DDICDIModels::DDICDILibrary::Classes::DataDescription::Long::DescriptorValueDomain 

@enduml

PlantUML version 1.2022.6(Tue Jun 21 19:34:49 CEST 2022)
(GPL source distribution)
Java Runtime: OpenJDK Runtime Environment
JVM: OpenJDK 64-Bit Server VM
Default Encoding: Cp1252
Language: en
Country: US
--></g></svg>