<?xml version="1.0" encoding="UTF-8" standalone="no"?><svg xmlns="http://www.w3.org/2000/svg" xmlns:xlink="http://www.w3.org/1999/xlink" contentStyleType="text/css" height="744.3px" preserveAspectRatio="none" style="width:1012px;height:744px;background:#FFFFFF;" version="1.1" viewBox="0 0 1012 744" width="1012.5px" zoomAndPan="magnify"><defs/><g><rect height="47.4891" style="stroke:#00000000;stroke-width:0.9;fill:none;" width="441" x="279.675" y="4.5"/><text fill="#000000" font-family="sans-serif" font-size="18" font-weight="bold" lengthAdjust="spacing" textLength="432" x="284.175" y="27.6855">UML Diagram: Class WideDataStructure in Context</text><text fill="#000000" font-family="sans-serif" font-size="12.6" font-weight="bold" lengthAdjust="spacing" textLength="3.6" x="498.375" y="44.7205"> </text><rect fill="#FFFFFF" height="56.0813" rx="6.75" ry="6.75" style="stroke:#000000;stroke-width:0.9;" width="276.3" x="7.2" y="64.5891"/><text fill="#000000" font-family="sans-serif" font-size="9" font-weight="bold" lengthAdjust="spacing" textLength="22.5" x="12.6" y="79.3318">Hints</text><text fill="#808080" font-family="sans-serif" font-size="9" lengthAdjust="spacing" textLength="265.5" x="12.6" y="90.6521">- Move the mouse cursor over a name to see more information.</text><text fill="#808080" font-family="sans-serif" font-size="9" lengthAdjust="spacing" textLength="216" x="12.6" y="101.9725">- Click on a name to go to the corresponding page.</text><text fill="#808080" font-family="sans-serif" font-size="9" lengthAdjust="spacing" textLength="164.7" x="12.6" y="113.2928">- The arrows of the inheritance tree are</text><text fill="#D2691E" font-family="sans-serif" font-size="9" lengthAdjust="spacing" textLength="32.4" x="180" y="113.2928">colored</text><text fill="#808080" font-family="sans-serif" font-size="9" lengthAdjust="spacing" textLength="2.7" x="212.4" y="113.2928">.</text><!--MD5=[a0438961881a4fc606840d398cef942c]
entity ##3--><!--MD5=[7639129a7208b5720b5c8dbdaf72c8f5]
entity ##5--><!--MD5=[8c268783d4ecb9a35e6f36075e611102]
class DDICDIModels::DDICDILibrary::Classes::DataDescription::Wide::WideDataStructure--><g id="elem_DDICDIModels::DDICDILibrary::Classes::DataDescription::Wide::WideDataStructure"><rect codeLine="47" fill="#FFD700" height="36.1688" id="DDICDIModels::DDICDILibrary::Classes::DataDescription::Wide::WideDataStructure" rx="2.25" ry="2.25" style="stroke:#404040;stroke-width:0.45;" width="135" x="254.25" y="663.2083"/><text fill="#000000" font-family="sans-serif" font-size="9" lengthAdjust="spacing" textLength="27" x="308.25" y="677.0511">Wide::</text><text fill="#000000" font-family="sans-serif" font-size="12.6" lengthAdjust="spacing" textLength="108" x="267.75" y="692.1085">WideDataStructure</text></g><!--MD5=[e7e7182780bccba8828738500ef82a58]
class DDICDIModels::DDICDILibrary::Classes::DataDescription::DataPoint--><a href="../DDICDILibrary/Classes/DataDescription/DataPoint.html#super-class-hierarchy-generalization" target="_top" title=" ― DataPoint:&#10;Container for an instance value." xlink:actuate="onRequest" xlink:href="../DDICDILibrary/Classes/DataDescription/DataPoint.html#super-class-hierarchy-generalization" xlink:show="new" xlink:title=" ― DataPoint:&#10;Container for an instance value." xlink:type="simple"><g id="elem_DDICDIModels::DDICDILibrary::Classes::DataDescription::DataPoint"><rect codeLine="60" fill="#F1F1F1" height="36.1688" id="DDICDIModels::DDICDILibrary::Classes::DataDescription::DataPoint" rx="2.25" ry="2.25" style="stroke:#404040;stroke-width:0.45;" width="135" x="706.05" y="289.7083"/><text fill="#000000" font-family="sans-serif" font-size="9" lengthAdjust="spacing" textLength="72.9" x="737.1" y="303.5511">DataDescription::</text><text fill="#0000FF" font-family="sans-serif" font-size="12.6" lengthAdjust="spacing" textLength="55.8" x="745.65" y="318.6085">DataPoint</text></g></a><!--MD5=[bbf1ea3cf368e545a614fab04683f093]
class DDICDIModels::DDICDILibrary::Classes::DataDescription::DataSet--><a href="../DDICDILibrary/Classes/DataDescription/DataSet.html#super-class-hierarchy-generalization" target="_top" title=" ― DataSet:&#10;Organized collection of data based on keys." xlink:actuate="onRequest" xlink:href="../DDICDILibrary/Classes/DataDescription/DataSet.html#super-class-hierarchy-generalization" xlink:show="new" xlink:title=" ― DataSet:&#10;Organized collection of data based on keys." xlink:type="simple"><g id="elem_DDICDIModels::DDICDILibrary::Classes::DataDescription::DataSet"><rect codeLine="61" fill="#F1F1F1" height="36.1688" id="DDICDIModels::DDICDILibrary::Classes::DataDescription::DataSet" rx="2.25" ry="2.25" style="stroke:#404040;stroke-width:0.45;" width="135" x="786.15" y="512.0083"/><text fill="#000000" font-family="sans-serif" font-size="9" lengthAdjust="spacing" textLength="72.9" x="817.2" y="525.8511">DataDescription::</text><text fill="#0000FF" font-family="sans-serif" font-size="12.6" lengthAdjust="spacing" textLength="45.9" x="830.7" y="540.9085">DataSet</text></g></a><!--MD5=[6ad7b2ef38a4f700249d0e2b32d82517]
class DDICDIModels::DDICDILibrary::Classes::DataDescription::DataStructure--><a href="../DDICDILibrary/Classes/DataDescription/DataStructure.html#super-class-hierarchy-generalization" target="_top" title=" ― DataStructure:&#10;Data organization based on reusable data structure components." xlink:actuate="onRequest" xlink:href="../DDICDILibrary/Classes/DataDescription/DataStructure.html#super-class-hierarchy-generalization" xlink:show="new" xlink:title=" ― DataStructure:&#10;Data organization based on reusable data structure components." xlink:type="simple"><g id="elem_DDICDIModels::DDICDILibrary::Classes::DataDescription::DataStructure"><rect codeLine="97" fill="#FAFAD2" height="36.1688" id="DDICDIModels::DDICDILibrary::Classes::DataDescription::DataStructure" rx="2.25" ry="2.25" style="stroke:#404040;stroke-width:0.45;" width="135" x="254.25" y="512.0083"/><text fill="#000000" font-family="sans-serif" font-size="9" lengthAdjust="spacing" textLength="72.9" x="285.3" y="525.8511">DataDescription::</text><text fill="#0000FF" font-family="sans-serif" font-size="12.6" lengthAdjust="spacing" textLength="79.2" x="282.15" y="540.9085">DataStructure</text></g></a><!--MD5=[b0d8b834a31de0f9d033a4fef235e477]
class DDICDIModels::DDICDILibrary::Classes::DataDescription::Components::ForeignKey--><a href="../DDICDILibrary/Classes/DataDescription/Components/ForeignKey.html#super-class-hierarchy-generalization" target="_top" title=" ― ForeignKey:&#10;Role of a set of data structure components for content referencing purposes" xlink:actuate="onRequest" xlink:href="../DDICDILibrary/Classes/DataDescription/Components/ForeignKey.html#super-class-hierarchy-generalization" xlink:show="new" xlink:title=" ― ForeignKey:&#10;Role of a set of data structure components for content referencing purposes" xlink:type="simple"><g id="elem_DDICDIModels::DDICDILibrary::Classes::DataDescription::Components::ForeignKey"><rect codeLine="63" fill="#F1F1F1" height="36.1688" id="DDICDIModels::DDICDILibrary::Classes::DataDescription::Components::ForeignKey" rx="2.25" ry="2.25" style="stroke:#404040;stroke-width:0.45;" width="135" x="453.15" y="512.0083"/><text fill="#000000" font-family="sans-serif" font-size="9" lengthAdjust="spacing" textLength="58.5" x="491.4" y="525.8511">Components::</text><text fill="#0000FF" font-family="sans-serif" font-size="12.6" lengthAdjust="spacing" textLength="65.7" x="487.8" y="540.9085">ForeignKey</text></g></a><!--MD5=[357fbaa6e3f3ff67349d0db07bd7d662]
class DDICDIModels::DDICDILibrary::Classes::DataDescription::Components::AttributeComponent--><a href="../DDICDILibrary/Classes/DataDescription/Components/AttributeComponent.html#super-class-hierarchy-generalization" target="_top" title=" ― AttributeComponent:&#10;Role given to a represented variable in the context of a data structure to qualify observations or provide other types of supplementary information." xlink:actuate="onRequest" xlink:href="../DDICDILibrary/Classes/DataDescription/Components/AttributeComponent.html#super-class-hierarchy-generalization" xlink:show="new" xlink:title=" ― AttributeComponent:&#10;Role given to a represented variable in the context of a data structure to qualify observations or provide other types of supplementary information." xlink:type="simple"><g id="elem_DDICDIModels::DDICDILibrary::Classes::DataDescription::Components::AttributeComponent"><rect codeLine="64" fill="#F1F1F1" height="36.1688" id="DDICDIModels::DDICDILibrary::Classes::DataDescription::Components::AttributeComponent" rx="2.25" ry="2.25" style="stroke:#404040;stroke-width:0.45;" width="135" x="539.55" y="289.7083"/><text fill="#000000" font-family="sans-serif" font-size="9" lengthAdjust="spacing" textLength="58.5" x="577.8" y="303.5511">Components::</text><text fill="#0000FF" font-family="sans-serif" font-size="12.6" lengthAdjust="spacing" textLength="113.4" x="550.35" y="318.6085">AttributeComponent</text></g></a><!--MD5=[3dc292ffb443c3ac68d72d8d9435b2f5]
class DDICDIModels::DDICDILibrary::Classes::DataDescription::Components::ComponentPosition--><a href="../DDICDILibrary/Classes/DataDescription/Components/ComponentPosition.html#super-class-hierarchy-generalization" target="_top" title=" ― ComponentPosition:&#10;Indexes the components in a data structure using integers with a position indicated by incrementing upward from 0 or 1." xlink:actuate="onRequest" xlink:href="../DDICDILibrary/Classes/DataDescription/Components/ComponentPosition.html#super-class-hierarchy-generalization" xlink:show="new" xlink:title=" ― ComponentPosition:&#10;Indexes the components in a data structure using integers with a position indicated by incrementing upward from 0 or 1." xlink:type="simple"><g id="elem_DDICDIModels::DDICDILibrary::Classes::DataDescription::Components::ComponentPosition"><rect codeLine="65" fill="#F1F1F1" height="36.1688" id="DDICDIModels::DDICDILibrary::Classes::DataDescription::Components::ComponentPosition" rx="2.25" ry="2.25" style="stroke:#404040;stroke-width:0.45;" width="135" x="619.65" y="512.0083"/><text fill="#000000" font-family="sans-serif" font-size="9" lengthAdjust="spacing" textLength="58.5" x="657.9" y="525.8511">Components::</text><text fill="#0000FF" font-family="sans-serif" font-size="12.6" lengthAdjust="spacing" textLength="110.7" x="631.8" y="540.9085">ComponentPosition</text></g></a><!--MD5=[65a51a3beb66455af85c430549e256a7]
class DDICDIModels::DDICDILibrary::Classes::Conceptual::RepresentedVariable--><a href="../DDICDILibrary/Classes/Conceptual/RepresentedVariable.html#super-class-hierarchy-generalization" target="_top" title=" ― RepresentedVariable:&#10;Conceptual variable with a substantive value domain specified." xlink:actuate="onRequest" xlink:href="../DDICDILibrary/Classes/Conceptual/RepresentedVariable.html#super-class-hierarchy-generalization" xlink:show="new" xlink:title=" ― RepresentedVariable:&#10;Conceptual variable with a substantive value domain specified." xlink:type="simple"><g id="elem_DDICDIModels::DDICDILibrary::Classes::Conceptual::RepresentedVariable"><rect codeLine="66" fill="#F1F1F1" height="36.1688" id="DDICDIModels::DDICDILibrary::Classes::Conceptual::RepresentedVariable" rx="2.25" ry="2.25" style="stroke:#404040;stroke-width:0.45;" width="135" x="872.55" y="289.7083"/><text fill="#000000" font-family="sans-serif" font-size="9" lengthAdjust="spacing" textLength="54.9" x="912.6" y="303.5511">Conceptual::</text><text fill="#0000FF" font-family="sans-serif" font-size="12.6" lengthAdjust="spacing" textLength="120.6" x="879.75" y="318.6085">RepresentedVariable</text></g></a><!--MD5=[1fe5a69c56948e803e4ee51554e950d9]
class DDICDIModels::DDICDILibrary::Classes::DataDescription::Components::DataStructureComponent--><a href="../DDICDILibrary/Classes/DataDescription/Components/DataStructureComponent.html#super-class-hierarchy-generalization" target="_top" title=" ― DataStructureComponent:&#10;Role given to a represented variable in the context of a data structure." xlink:actuate="onRequest" xlink:href="../DDICDILibrary/Classes/DataDescription/Components/DataStructureComponent.html#super-class-hierarchy-generalization" xlink:show="new" xlink:title=" ― DataStructureComponent:&#10;Role given to a represented variable in the context of a data structure." xlink:type="simple"><g id="elem_DDICDIModels::DDICDILibrary::Classes::DataDescription::Components::DataStructureComponent"><rect codeLine="124" fill="#FAFAD2" height="90.9141" id="DDICDIModels::DDICDILibrary::Classes::DataDescription::Components::DataStructureComponent" rx="2.25" ry="2.25" style="stroke:#404040;stroke-width:0.45;" width="261" x="191.25" y="262.2583"/><text fill="#000000" font-family="sans-serif" font-size="9" lengthAdjust="spacing" textLength="58.5" x="292.5" y="276.1011">Components::</text><text fill="#0000FF" font-family="sans-serif" font-size="12.6" lengthAdjust="spacing" textLength="144.9" x="249.3" y="291.1585">DataStructureComponent</text><line style="stroke:#404040;stroke-width:0.45;" x1="192.15" x2="451.35" y1="298.4271" y2="298.4271"/><a href="../DDICDILibrary/DataTypes/StructuredDataTypes/Identifier.html#diagram" target="_top" title=" ― Identifier:&#10;Identifier for objects requiring short- or long-lasting referencing and management." xlink:actuate="onRequest" xlink:href="../DDICDILibrary/DataTypes/StructuredDataTypes/Identifier.html#diagram" xlink:show="new" xlink:title=" ― Identifier:&#10;Identifier for objects requiring short- or long-lasting referencing and management." xlink:type="simple"><text fill="#000000" font-family="sans-serif" font-size="12.6" lengthAdjust="spacing" textLength="55.8" x="196.65" y="315.1069">identifier :</text><text fill="#0000FF" font-family="sans-serif" font-size="12.6" lengthAdjust="spacing" textLength="48.6" x="256.05" y="315.1069">Identifier</text></a><a href="../DDICDILibrary/DataTypes/StructuredDataTypes/PairedControlledVocabularyEntry.html#diagram" target="_top" title=" ― PairedControlledVocabularyEntry:&#10;A tightly bound pair of items from an external controlled vocabulary. The extent property describes the extent to which the parent term applies for the specific case." xlink:actuate="onRequest" xlink:href="../DDICDILibrary/DataTypes/StructuredDataTypes/PairedControlledVocabularyEntry.html#diagram" xlink:show="new" xlink:title=" ― PairedControlledVocabularyEntry:&#10;A tightly bound pair of items from an external controlled vocabulary. The extent property describes the extent to which the parent term applies for the specific case." xlink:type="simple"><text fill="#000000" font-family="sans-serif" font-size="12.6" lengthAdjust="spacing" textLength="57.6" x="196.65" y="330.9554">semantic :</text><text fill="#0000FF" font-family="sans-serif" font-size="12.6" lengthAdjust="spacing" textLength="189" x="257.85" y="330.9554">PairedControlledVocabularyEntry</text></a><a href="../DDICDILibrary/DataTypes/StructuredDataTypes/SpecializationRole.html#diagram" target="_top" title=" ― SpecializationRole:&#10;Specific roles played by represented variables in terms of time, geography, and other concepts which are important for the harmonization and integration of data." xlink:actuate="onRequest" xlink:href="../DDICDILibrary/DataTypes/StructuredDataTypes/SpecializationRole.html#diagram" xlink:show="new" xlink:title=" ― SpecializationRole:&#10;Specific roles played by represented variables in terms of time, geography, and other concepts which are important for the harmonization and integration of data." xlink:type="simple"><text fill="#000000" font-family="sans-serif" font-size="12.6" lengthAdjust="spacing" textLength="82.8" x="196.65" y="346.8038">specialization :</text><text fill="#0000FF" font-family="sans-serif" font-size="12.6" lengthAdjust="spacing" textLength="103.5" x="283.05" y="346.8038">SpecializationRole</text></a></g></a><g id="elem_GMN15"><path d="M68.4,510.6583 L68.4,549.0911 A0,0 0 0 0 68.4,549.0911 L222.3,549.0911 A0,0 0 0 0 222.3,549.0911 L222.3,533.6083 L253.917,530.0083 L222.3,526.4083 L222.3,519.6583 L213.3,510.6583 L68.4,510.6583 A0,0 0 0 0 68.4,510.6583 " fill="#FFFFFF" style="stroke:#181818;stroke-width:0.45;"/><path d="M213.3,510.6583 L213.3,519.6583 L222.3,519.6583 L213.3,510.6583 " fill="#FFFFFF" style="stroke:#181818;stroke-width:0.45;"/><text fill="#000000" font-family="sans-serif" font-size="11.7" lengthAdjust="spacing" textLength="135" x="73.8" y="527.3039">Class has 5 associations.</text><text fill="#000000" font-family="sans-serif" font-size="11.7" lengthAdjust="spacing" textLength="120.6" x="73.8" y="542.0203">Only 3 are shown here.</text></g><g id="elem_GMN22"><path d="M5.4,288.3583 L5.4,326.7911 A0,0 0 0 0 5.4,326.7911 L159.3,326.7911 A0,0 0 0 0 159.3,326.7911 L159.3,311.3083 L191.187,307.7083 L159.3,304.1083 L159.3,297.3583 L150.3,288.3583 L5.4,288.3583 A0,0 0 0 0 5.4,288.3583 " fill="#FFFFFF" style="stroke:#181818;stroke-width:0.45;"/><path d="M150.3,288.3583 L150.3,297.3583 L159.3,297.3583 L150.3,288.3583 " fill="#FFFFFF" style="stroke:#181818;stroke-width:0.45;"/><text fill="#000000" font-family="sans-serif" font-size="11.7" lengthAdjust="spacing" textLength="135" x="10.8" y="305.0039">Class has 8 associations.</text><text fill="#000000" font-family="sans-serif" font-size="11.7" lengthAdjust="spacing" textLength="120.6" x="10.8" y="319.7203">Only 3 are shown here.</text></g><!--MD5=[cf98eebe09f4598bdf6ff6d5491f99ab]
reverse link DDICDIModels::DDICDILibrary::Classes::DataDescription::DataStructure to DDICDIModels::DDICDILibrary::Classes::DataDescription::DataSet--><g id="link_DDICDIModels::DDICDILibrary::Classes::DataDescription::DataStructure_DDICDIModels::DDICDILibrary::Classes::DataDescription::DataSet"><a href="" target="_top" title=" ― isStructuredBy:&#10;" xlink:actuate="onRequest" xlink:href="" xlink:show="new" xlink:title=" ― isStructuredBy:&#10;" xlink:type="simple"><path codeLine="85" d="M337.896,508.0753 C354.402,487.6723 382.095,458.6293 414,446.3083 C483.588,419.4433 696.096,479.9593 798.003,511.8913 " fill="none" id="DDICDIModels::DDICDILibrary::Classes::DataDescription::DataStructure-backto-DDICDIModels::DDICDILibrary::Classes::DataDescription::DataSet" style="stroke:#808080;stroke-width:1.35;"/><polygon fill="#808080" points="334.944,511.7743,342.8115,507.6911,337.752,508.2579,337.1852,503.1984,334.944,511.7743" style="stroke:#808080;stroke-width:1.35;"/><text fill="#000000" font-family="sans-serif" font-size="11.7" lengthAdjust="spacing" textLength="89.1" x="414.9" y="444.9539"> isStructuredBy</text></a></g><!--MD5=[0a497732b527691ecfef66a3fb3768c2]
link DDICDIModels::DDICDILibrary::Classes::DataDescription::DataStructure to DDICDIModels::DDICDILibrary::Classes::DataDescription::Components::ComponentPosition--><g id="link_DDICDIModels::DDICDILibrary::Classes::DataDescription::DataStructure_DDICDIModels::DDICDILibrary::Classes::DataDescription::Components::ComponentPosition"><a href="" target="_top" title=" ― has:&#10;" xlink:actuate="onRequest" xlink:href="" xlink:show="new" xlink:title=" ― has:&#10;" xlink:type="simple"><path codeLine="90" d="M354.6232,505.7742 C354.6232,505.7742 509.445,414.1873 593.55,446.3083 C622.953,457.5403 648.963,482.7223 666.054,502.5493 " fill="none" id="DDICDIModels::DDICDILibrary::Classes::DataDescription::DataStructure-DDICDIModels::DDICDILibrary::Classes::DataDescription::Components::ComponentPosition" style="stroke:#808080;stroke-width:1.35;"/><polygon fill="#808080" points="673.704,511.7653,671.2997,503.2336,670.8295,508.3031,665.7601,507.8329,673.704,511.7653" style="stroke:#808080;stroke-width:1.35;"/><line style="stroke:#808080;stroke-width:1.35;" x1="670.8295" x2="666.2295" y1="508.3031" y2="502.7653"/><polygon fill="#808080" points="345.735,511.9093,352.2241,511.8045,354.6232,505.7742,348.1341,505.879,345.735,511.9093" style="stroke:#808080;stroke-width:1.35;"/><text fill="#000000" font-family="sans-serif" font-size="11.7" lengthAdjust="spacing" textLength="30.6" x="562.05" y="444.9539"> has</text></a></g><!--MD5=[94df6032e3ced95cc309e061fd4eda4c]
link DDICDIModels::DDICDILibrary::Classes::DataDescription::DataStructure to DDICDIModels::DDICDILibrary::Classes::DataDescription::Components::ForeignKey--><g id="link_DDICDIModels::DDICDILibrary::Classes::DataDescription::DataStructure_DDICDIModels::DDICDILibrary::Classes::DataDescription::Components::ForeignKey"><a href="" target="_top" title=" ― has:&#10;" xlink:actuate="onRequest" xlink:href="" xlink:show="new" xlink:title=" ― has:&#10;" xlink:type="simple"><path codeLine="95" d="M400.167,530.0083 C400.167,530.0083 427.833,530.0083 440.973,530.0083 " fill="none" id="DDICDIModels::DDICDILibrary::Classes::DataDescription::DataStructure-DDICDIModels::DDICDILibrary::Classes::DataDescription::Components::ForeignKey" style="stroke:#808080;stroke-width:1.35;"/><polygon fill="#808080" points="452.88,530.0083,444.78,526.4083,448.38,530.0083,444.78,533.6083,452.88,530.0083" style="stroke:#808080;stroke-width:1.35;"/><line style="stroke:#808080;stroke-width:1.35;" x1="448.38" x2="441.18" y1="530.0083" y2="530.0083"/><polygon fill="#808080" points="389.367,530.0083,394.767,533.6083,400.167,530.0083,394.767,526.4083,389.367,530.0083" style="stroke:#808080;stroke-width:1.35;"/><text fill="#000000" font-family="sans-serif" font-size="11.7" lengthAdjust="spacing" textLength="30.6" x="405.9" y="524.1539"> has</text></a></g><!--MD5=[e24a44b6e8c6cad08a66545a850b16d8]
reverse link DDICDIModels::DDICDILibrary::Classes::DataDescription::DataStructure to DDICDIModels::DDICDILibrary::Classes::DataDescription::Wide::WideDataStructure--><g id="link_DDICDIModels::DDICDILibrary::Classes::DataDescription::DataStructure_DDICDIModels::DDICDILibrary::Classes::DataDescription::Wide::WideDataStructure"><path codeLine="100" d="M321.75,566.4403 C321.75,596.9593 321.75,639.6553 321.75,663.1363 " fill="none" id="DDICDIModels::DDICDILibrary::Classes::DataDescription::DataStructure-backto-DDICDIModels::DDICDILibrary::Classes::DataDescription::Wide::WideDataStructure" style="stroke:#D2691E;stroke-width:1.35;"/><polygon fill="none" points="315.45,566.0443,321.75,548.0443,328.05,566.0443,315.45,566.0443" style="stroke:#D2691E;stroke-width:1.35;"/></g><!--MD5=[c63541bbe79c986839a22d272db8c3c1]
link DDICDIModels::DDICDILibrary::Classes::DataDescription::Components::DataStructureComponent to DDICDIModels::DDICDILibrary::Classes::Conceptual::RepresentedVariable--><g id="link_DDICDIModels::DDICDILibrary::Classes::DataDescription::Components::DataStructureComponent_DDICDIModels::DDICDILibrary::Classes::Conceptual::RepresentedVariable"><a href="" target="_top" title=" ― isDefinedBy:&#10;Data structure component is defined by zero to one represented variable." xlink:actuate="onRequest" xlink:href="" xlink:show="new" xlink:title=" ― isDefinedBy:&#10;Data structure component is defined by zero to one represented variable." xlink:type="simple"><path codeLine="112" d="M396.297,262.1053 C493.587,208.7263 668.106,134.1703 809.55,188.9083 C859.869,208.3843 902.709,257.2723 924.552,285.9013 " fill="none" id="DDICDIModels::DDICDILibrary::Classes::DataDescription::Components::DataStructureComponent-to-DDICDIModels::DDICDILibrary::Classes::Conceptual::RepresentedVariable" style="stroke:#808080;stroke-width:1.35;"/><polygon fill="#808080" points="927.36,289.6273,925.3454,280.9953,924.6456,286.0381,919.6028,285.3383,927.36,289.6273" style="stroke:#808080;stroke-width:1.35;"/><text fill="#000000" font-family="sans-serif" font-size="11.7" lengthAdjust="spacing" textLength="73.8" x="734.85" y="180.3539"> isDefinedBy</text></a></g><!--MD5=[de733db451d17b880e005c897cb725c2]
reverse link DDICDIModels::DDICDILibrary::Classes::DataDescription::Components::DataStructureComponent to DDICDIModels::DDICDILibrary::Classes::DataDescription::DataPoint--><g id="link_DDICDIModels::DDICDILibrary::Classes::DataDescription::Components::DataStructureComponent_DDICDIModels::DDICDILibrary::Classes::DataDescription::DataPoint"><a href="" target="_top" title=" ― correspondsTo:&#10;" xlink:actuate="onRequest" xlink:href="" xlink:show="new" xlink:title=" ― correspondsTo:&#10;" xlink:type="simple"><path codeLine="117" d="M376.929,259.2883 C433.08,216.0613 523.161,163.2493 604.35,188.9083 C667.323,208.8073 727.182,261.4753 755.874,289.5283 " fill="none" id="DDICDIModels::DDICDILibrary::Classes::DataDescription::Components::DataStructureComponent-backto-DDICDIModels::DDICDILibrary::Classes::DataDescription::DataPoint" style="stroke:#808080;stroke-width:1.35;"/><polygon fill="#808080" points="373.275,262.1143,381.8858,260.0111,376.8361,259.3632,377.484,254.3134,373.275,262.1143" style="stroke:#808080;stroke-width:1.35;"/><text fill="#000000" font-family="sans-serif" font-size="11.7" lengthAdjust="spacing" textLength="88.2" x="515.25" y="180.3539"> correspondsTo</text></a></g><!--MD5=[e9414a62ec8c8c32f3d004a172b196b9]
reverse link DDICDIModels::DDICDILibrary::Classes::DataDescription::Components::DataStructureComponent to DDICDIModels::DDICDILibrary::Classes::DataDescription::Components::AttributeComponent--><g id="link_DDICDIModels::DDICDILibrary::Classes::DataDescription::Components::DataStructureComponent_DDICDIModels::DDICDILibrary::Classes::DataDescription::Components::AttributeComponent"><a href="" target="_top" title=" ― qualifies:&#10;" xlink:actuate="onRequest" xlink:href="" xlink:show="new" xlink:title=" ― qualifies:&#10;" xlink:type="simple"><path codeLine="122" d="M456.876,307.7083 C485.487,307.7083 514.503,307.7083 539.298,307.7083 " fill="none" id="DDICDIModels::DDICDILibrary::Classes::DataDescription::Components::DataStructureComponent-backto-DDICDIModels::DDICDILibrary::Classes::DataDescription::Components::AttributeComponent" style="stroke:#808080;stroke-width:1.35;"/><polygon fill="#808080" points="452.295,307.7083,460.395,311.3083,456.795,307.7083,460.395,304.1083,452.295,307.7083" style="stroke:#808080;stroke-width:1.35;"/><text fill="#000000" font-family="sans-serif" font-size="11.7" lengthAdjust="spacing" textLength="54" x="468.9" y="301.8539"> qualifies</text></a></g><!--MD5=[686c287475af6761e2c6bf05bcd759ac]
reverse link DDICDIModels::DDICDILibrary::Classes::DataDescription::Components::DataStructureComponent to DDICDIModels::DDICDILibrary::Classes::DataDescription::DataStructure--><g id="link_DDICDIModels::DDICDILibrary::Classes::DataDescription::Components::DataStructureComponent_DDICDIModels::DDICDILibrary::Classes::DataDescription::DataStructure"><path codeLine="133" d="M321.75,371.3923 C321.75,419.2543 321.75,481.8493 321.75,511.7473 " fill="none" id="DDICDIModels::DDICDILibrary::Classes::DataDescription::Components::DataStructureComponent-backto-DDICDIModels::DDICDILibrary::Classes::DataDescription::DataStructure" style="stroke:#D2691E;stroke-width:1.35;"/><polygon fill="none" points="315.45,371.2303,321.75,353.2303,328.05,371.2303,315.45,371.2303" style="stroke:#D2691E;stroke-width:1.35;"/></g><rect height="33.9609" style="stroke:#00000000;stroke-width:0.9;fill:none;" width="302.4" x="348.975" y="703.8771"/><text fill="#888888" font-family="sans-serif" font-size="9" lengthAdjust="spacing" textLength="2.7" x="498.825" y="713.2198"> </text><text fill="#888888" font-family="sans-serif" font-size="9" lengthAdjust="spacing" textLength="2.7" x="498.825" y="724.5401"> </text><text fill="#888888" font-family="sans-serif" font-size="9" lengthAdjust="spacing" textLength="302.4" x="348.975" y="735.8605">DDI Cross Domain Integration (DDI-CDI)   1.0 - Wide::WideDataStructure</text><!--MD5=[356e9ba5651055856fefefdb520dd49f]
@startuml
!pragma ratio 0.5625
' HD display aspect ratio 16:9
' hyperlinkColor and pathHoverColor do not seem to work with class diagrams
' working approach: colors per item
' default font size for class names is 14

hide circle
hide empty members
scale 0.9

skinparam {
  ArrowThickness 1.5
  MinClassWidth 150
}

skinparam legend {
  BackgroundColor white
  FontSize 10
}

skinparam note {
  BackgroundColor white
}

skinparam class {
  ArrowColor #404040
  BorderColor #404040
}

skinparam package {
  FontColor lightgrey
  BorderColor lightgrey
}

title <size:20>UML Diagram: Class WideDataStructure in Context\n
footer \n\nDDI Cross Domain Integration (DDI-CDI)   1.0 - Wide::WideDataStructure

legend top left
**Hints**
<color:grey>- Move the mouse cursor over a name to see more information.
<color:grey>- Click on a name to go to the corresponding page.
<color:grey>- The arrows of the inheritance tree are <color:#D2691E>colored<color:grey>.
endlegend

' Core class of diagram
class DDICDIModels::DDICDILibrary::Classes::DataDescription::Wide::WideDataStructure as "<size:10>Wide::\n<color:black>WideDataStructure" #FFD700 {
}

' Class definitions for associated classes without superclass (might have also an association)
' This would be too many constraints for Graphviz. 
together {
}

' Class definitions for suppliers of abstractions
together {
}

' Rest of class definitions, without associated classes of core class and abstraction supplier classes
class DDICDIModels::DDICDILibrary::Classes::DataDescription::DataPoint as "<size:10>DataDescription::\n<color:blue>DataPoint" [[../DDICDILibrary/Classes/DataDescription/DataPoint.html#super-class-hierarchy-generalization{ <U+2015> DataPoint:\nContainer for an instance value.}]]
class DDICDIModels::DDICDILibrary::Classes::DataDescription::DataSet as "<size:10>DataDescription::\n<color:blue>DataSet" [[../DDICDILibrary/Classes/DataDescription/DataSet.html#super-class-hierarchy-generalization{ <U+2015> DataSet:\nOrganized collection of data based on keys.}]]
class DDICDIModels::DDICDILibrary::Classes::DataDescription::DataStructure as "<size:10>DataDescription::\n<color:blue>DataStructure" [[../DDICDILibrary/Classes/DataDescription/DataStructure.html#super-class-hierarchy-generalization{ <U+2015> DataStructure:\nData organization based on reusable data structure components.}]]
class DDICDIModels::DDICDILibrary::Classes::DataDescription::Components::ForeignKey as "<size:10>Components::\n<color:blue>ForeignKey" [[../DDICDILibrary/Classes/DataDescription/Components/ForeignKey.html#super-class-hierarchy-generalization{ <U+2015> ForeignKey:\nRole of a set of data structure components for content referencing purposes}]]
class DDICDIModels::DDICDILibrary::Classes::DataDescription::Components::AttributeComponent as "<size:10>Components::\n<color:blue>AttributeComponent" [[../DDICDILibrary/Classes/DataDescription/Components/AttributeComponent.html#super-class-hierarchy-generalization{ <U+2015> AttributeComponent:\nRole given to a represented variable in the context of a data structure to qualify observations or provide other types of supplementary information.}]]
class DDICDIModels::DDICDILibrary::Classes::DataDescription::Components::ComponentPosition as "<size:10>Components::\n<color:blue>ComponentPosition" [[../DDICDILibrary/Classes/DataDescription/Components/ComponentPosition.html#super-class-hierarchy-generalization{ <U+2015> ComponentPosition:\nIndexes the components in a data structure using integers with a position indicated by incrementing upward from 0 or 1.}]]
class DDICDIModels::DDICDILibrary::Classes::Conceptual::RepresentedVariable as "<size:10>Conceptual::\n<color:blue>RepresentedVariable" [[../DDICDILibrary/Classes/Conceptual/RepresentedVariable.html#super-class-hierarchy-generalization{ <U+2015> RepresentedVariable:\nConceptual variable with a substantive value domain specified.}]]
class DDICDIModels::DDICDILibrary::Classes::DataDescription::Components::DataStructureComponent as "<size:10>Components::\n<color:blue>DataStructureComponent" [[../DDICDILibrary/Classes/DataDescription/Components/DataStructureComponent.html#super-class-hierarchy-generalization{ <U+2015> DataStructureComponent:\nRole given to a represented variable in the context of a data structure.}]]



' Associations

' Super classes
' Associations of Super classes
note left of DDICDIModels::DDICDILibrary::Classes::DataDescription::DataStructure : Class has 5 associations.\nOnly 3 are shown here.
' firstAncestor:	org.eclipse.uml2.uml.internal.impl.ClassImpl@7a8136b3 (name: DataStructure, visibility: <unset>) (isLeaf: false, isAbstract: false, isFinalSpecialization: false) (isActive: false)org.eclipse.uml2.uml.internal.impl.ClassImpl@46d567cb (name: DataStructureComponent, visibility: <unset>) (isLeaf: false, isAbstract: false, isFinalSpecialization: false) (isActive: false)
' secondAncestor:	org.eclipse.uml2.uml.internal.impl.ClassImpl@46d567cb (name: DataStructureComponent, visibility: <unset>) (isLeaf: false, isAbstract: false, isFinalSpecialization: false) (isActive: false)



' aClass:			WideDataStructure
' aSuperClass:		DataStructure
' e_ownedEndClass:	DataSet
' e_otherEndClass:	DataStructure
DDICDIModels::DDICDILibrary::Classes::DataDescription::DataStructure <-[#grey] DDICDIModels::DDICDILibrary::Classes::DataDescription::DataSet [[{ <U+2015> isStructuredBy:\n}]] : <U+2003>isStructuredBy
' aClass:			WideDataStructure
' aSuperClass:		DataStructure
' e_ownedEndClass:	DataStructure
' e_otherEndClass:	ComponentPosition
DDICDIModels::DDICDILibrary::Classes::DataDescription::DataStructure *-[#grey]> DDICDIModels::DDICDILibrary::Classes::DataDescription::Components::ComponentPosition [[{ <U+2015> has:\n}]] : <U+2003>has
' aClass:			WideDataStructure
' aSuperClass:		DataStructure
' e_ownedEndClass:	DataStructure
' e_otherEndClass:	ForeignKey
DDICDIModels::DDICDILibrary::Classes::DataDescription::DataStructure *-[#grey]> DDICDIModels::DDICDILibrary::Classes::DataDescription::Components::ForeignKey [[{ <U+2015> has:\n}]] : <U+2003>has

class DDICDIModels::DDICDILibrary::Classes::DataDescription::DataStructure as "<size:10> \n<color:blue>DataStructure" [[../DDICDILibrary/Classes/DataDescription/DataStructure.html#super-class-hierarchy-generalization{ <U+2015> DataStructure:\nData organization based on reusable data structure components.}]] #FAFAD2 {
}

DDICDIModels::DDICDILibrary::Classes::DataDescription::DataStructure <|-[#D2691E]- DDICDIModels::DDICDILibrary::Classes::DataDescription::Wide::WideDataStructure
' Associations of Super classes
note left of DDICDIModels::DDICDILibrary::Classes::DataDescription::Components::DataStructureComponent : Class has 8 associations.\nOnly 3 are shown here.
' firstAncestor:	org.eclipse.uml2.uml.internal.impl.ClassImpl@46d567cb (name: DataStructureComponent, visibility: <unset>) (isLeaf: false, isAbstract: false, isFinalSpecialization: false) (isActive: false)
' secondAncestor:	org.eclipse.uml2.uml.internal.impl.ClassImpl@46d567cb (name: DataStructureComponent, visibility: <unset>) (isLeaf: false, isAbstract: false, isFinalSpecialization: false) (isActive: false)



' aClass:			DataStructure
' aSuperClass:		DataStructureComponent
' e_ownedEndClass:	DataStructureComponent
' e_otherEndClass:	RepresentedVariable
DDICDIModels::DDICDILibrary::Classes::DataDescription::Components::DataStructureComponent -[#grey]> DDICDIModels::DDICDILibrary::Classes::Conceptual::RepresentedVariable [[{ <U+2015> isDefinedBy:\nData structure component is defined by zero to one represented variable.}]] : <U+2003>isDefinedBy
' aClass:			DataStructure
' aSuperClass:		DataStructureComponent
' e_ownedEndClass:	DataPoint
' e_otherEndClass:	DataStructureComponent
DDICDIModels::DDICDILibrary::Classes::DataDescription::Components::DataStructureComponent <-[#grey] DDICDIModels::DDICDILibrary::Classes::DataDescription::DataPoint [[{ <U+2015> correspondsTo:\n}]] : <U+2003>correspondsTo
' aClass:			DataStructure
' aSuperClass:		DataStructureComponent
' e_ownedEndClass:	AttributeComponent
' e_otherEndClass:	DataStructureComponent
DDICDIModels::DDICDILibrary::Classes::DataDescription::Components::DataStructureComponent <-[#grey] DDICDIModels::DDICDILibrary::Classes::DataDescription::Components::AttributeComponent [[{ <U+2015> qualifies:\n}]] : <U+2003>qualifies

class DDICDIModels::DDICDILibrary::Classes::DataDescription::Components::DataStructureComponent as "<size:10> \n<color:blue>DataStructureComponent" [[../DDICDILibrary/Classes/DataDescription/Components/DataStructureComponent.html#super-class-hierarchy-generalization{ <U+2015> DataStructureComponent:\nRole given to a represented variable in the context of a data structure.}]] #FAFAD2 {
  identifier : <color:blue>Identifier   	  [[[../DDICDILibrary/DataTypes/StructuredDataTypes/Identifier.html#diagram{ <U+2015> Identifier:\nIdentifier for objects requiring short- or long-lasting referencing and management.}]]]
  semantic : <color:blue>PairedControlledVocabularyEntry   	  [[[../DDICDILibrary/DataTypes/StructuredDataTypes/PairedControlledVocabularyEntry.html#diagram{ <U+2015> PairedControlledVocabularyEntry:\nA tightly bound pair of items from an external controlled vocabulary. The extent property describes the extent to which the parent term applies for the specific case.}]]]
  specialization : <color:blue>SpecializationRole   	  [[[../DDICDILibrary/DataTypes/StructuredDataTypes/SpecializationRole.html#diagram{ <U+2015> SpecializationRole:\nSpecific roles played by represented variables in terms of time, geography, and other concepts which are important for the harmonization and integration of data.}]]]
}

DDICDIModels::DDICDILibrary::Classes::DataDescription::Components::DataStructureComponent <|-[#D2691E]- DDICDIModels::DDICDILibrary::Classes::DataDescription::DataStructure



' Abstractions
@enduml

@startuml
!pragma ratio 0.5625

hide circle
hide empty members
scale 0.9

skinparam {
  ArrowThickness 1.5
  MinClassWidth 150
}

skinparam legend {
  BackgroundColor white
  FontSize 10
}

skinparam note {
  BackgroundColor white
}

skinparam class {
  ArrowColor #404040
  BorderColor #404040
}

skinparam package {
  FontColor lightgrey
  BorderColor lightgrey
}

title <size:20>UML Diagram: Class WideDataStructure in Context\n
footer \n\nDDI Cross Domain Integration (DDI-CDI)   1.0 - Wide::WideDataStructure

legend top left
**Hints**
<color:grey>- Move the mouse cursor over a name to see more information.
<color:grey>- Click on a name to go to the corresponding page.
<color:grey>- The arrows of the inheritance tree are <color:#D2691E>colored<color:grey>.
endlegend

class DDICDIModels::DDICDILibrary::Classes::DataDescription::Wide::WideDataStructure as "<size:10>Wide::\n<color:black>WideDataStructure" #FFD700 {
}

together {
}

together {
}

class DDICDIModels::DDICDILibrary::Classes::DataDescription::DataPoint as "<size:10>DataDescription::\n<color:blue>DataPoint" [[../DDICDILibrary/Classes/DataDescription/DataPoint.html#super-class-hierarchy-generalization{ <U+2015> DataPoint:\nContainer for an instance value.}]]
class DDICDIModels::DDICDILibrary::Classes::DataDescription::DataSet as "<size:10>DataDescription::\n<color:blue>DataSet" [[../DDICDILibrary/Classes/DataDescription/DataSet.html#super-class-hierarchy-generalization{ <U+2015> DataSet:\nOrganized collection of data based on keys.}]]
class DDICDIModels::DDICDILibrary::Classes::DataDescription::DataStructure as "<size:10>DataDescription::\n<color:blue>DataStructure" [[../DDICDILibrary/Classes/DataDescription/DataStructure.html#super-class-hierarchy-generalization{ <U+2015> DataStructure:\nData organization based on reusable data structure components.}]]
class DDICDIModels::DDICDILibrary::Classes::DataDescription::Components::ForeignKey as "<size:10>Components::\n<color:blue>ForeignKey" [[../DDICDILibrary/Classes/DataDescription/Components/ForeignKey.html#super-class-hierarchy-generalization{ <U+2015> ForeignKey:\nRole of a set of data structure components for content referencing purposes}]]
class DDICDIModels::DDICDILibrary::Classes::DataDescription::Components::AttributeComponent as "<size:10>Components::\n<color:blue>AttributeComponent" [[../DDICDILibrary/Classes/DataDescription/Components/AttributeComponent.html#super-class-hierarchy-generalization{ <U+2015> AttributeComponent:\nRole given to a represented variable in the context of a data structure to qualify observations or provide other types of supplementary information.}]]
class DDICDIModels::DDICDILibrary::Classes::DataDescription::Components::ComponentPosition as "<size:10>Components::\n<color:blue>ComponentPosition" [[../DDICDILibrary/Classes/DataDescription/Components/ComponentPosition.html#super-class-hierarchy-generalization{ <U+2015> ComponentPosition:\nIndexes the components in a data structure using integers with a position indicated by incrementing upward from 0 or 1.}]]
class DDICDIModels::DDICDILibrary::Classes::Conceptual::RepresentedVariable as "<size:10>Conceptual::\n<color:blue>RepresentedVariable" [[../DDICDILibrary/Classes/Conceptual/RepresentedVariable.html#super-class-hierarchy-generalization{ <U+2015> RepresentedVariable:\nConceptual variable with a substantive value domain specified.}]]
class DDICDIModels::DDICDILibrary::Classes::DataDescription::Components::DataStructureComponent as "<size:10>Components::\n<color:blue>DataStructureComponent" [[../DDICDILibrary/Classes/DataDescription/Components/DataStructureComponent.html#super-class-hierarchy-generalization{ <U+2015> DataStructureComponent:\nRole given to a represented variable in the context of a data structure.}]]




note left of DDICDIModels::DDICDILibrary::Classes::DataDescription::DataStructure : Class has 5 associations.\nOnly 3 are shown here.



DDICDIModels::DDICDILibrary::Classes::DataDescription::DataStructure <-[#grey] DDICDIModels::DDICDILibrary::Classes::DataDescription::DataSet [[{ <U+2015> isStructuredBy:\n}]] : <U+2003>isStructuredBy
DDICDIModels::DDICDILibrary::Classes::DataDescription::DataStructure *-[#grey]> DDICDIModels::DDICDILibrary::Classes::DataDescription::Components::ComponentPosition [[{ <U+2015> has:\n}]] : <U+2003>has
DDICDIModels::DDICDILibrary::Classes::DataDescription::DataStructure *-[#grey]> DDICDIModels::DDICDILibrary::Classes::DataDescription::Components::ForeignKey [[{ <U+2015> has:\n}]] : <U+2003>has

class DDICDIModels::DDICDILibrary::Classes::DataDescription::DataStructure as "<size:10> \n<color:blue>DataStructure" [[../DDICDILibrary/Classes/DataDescription/DataStructure.html#super-class-hierarchy-generalization{ <U+2015> DataStructure:\nData organization based on reusable data structure components.}]] #FAFAD2 {
}

DDICDIModels::DDICDILibrary::Classes::DataDescription::DataStructure <|-[#D2691E]- DDICDIModels::DDICDILibrary::Classes::DataDescription::Wide::WideDataStructure
note left of DDICDIModels::DDICDILibrary::Classes::DataDescription::Components::DataStructureComponent : Class has 8 associations.\nOnly 3 are shown here.



DDICDIModels::DDICDILibrary::Classes::DataDescription::Components::DataStructureComponent -[#grey]> DDICDIModels::DDICDILibrary::Classes::Conceptual::RepresentedVariable [[{ <U+2015> isDefinedBy:\nData structure component is defined by zero to one represented variable.}]] : <U+2003>isDefinedBy
DDICDIModels::DDICDILibrary::Classes::DataDescription::Components::DataStructureComponent <-[#grey] DDICDIModels::DDICDILibrary::Classes::DataDescription::DataPoint [[{ <U+2015> correspondsTo:\n}]] : <U+2003>correspondsTo
DDICDIModels::DDICDILibrary::Classes::DataDescription::Components::DataStructureComponent <-[#grey] DDICDIModels::DDICDILibrary::Classes::DataDescription::Components::AttributeComponent [[{ <U+2015> qualifies:\n}]] : <U+2003>qualifies

class DDICDIModels::DDICDILibrary::Classes::DataDescription::Components::DataStructureComponent as "<size:10> \n<color:blue>DataStructureComponent" [[../DDICDILibrary/Classes/DataDescription/Components/DataStructureComponent.html#super-class-hierarchy-generalization{ <U+2015> DataStructureComponent:\nRole given to a represented variable in the context of a data structure.}]] #FAFAD2 {
  identifier : <color:blue>Identifier   	  [[[../DDICDILibrary/DataTypes/StructuredDataTypes/Identifier.html#diagram{ <U+2015> Identifier:\nIdentifier for objects requiring short- or long-lasting referencing and management.}]]]
  semantic : <color:blue>PairedControlledVocabularyEntry   	  [[[../DDICDILibrary/DataTypes/StructuredDataTypes/PairedControlledVocabularyEntry.html#diagram{ <U+2015> PairedControlledVocabularyEntry:\nA tightly bound pair of items from an external controlled vocabulary. The extent property describes the extent to which the parent term applies for the specific case.}]]]
  specialization : <color:blue>SpecializationRole   	  [[[../DDICDILibrary/DataTypes/StructuredDataTypes/SpecializationRole.html#diagram{ <U+2015> SpecializationRole:\nSpecific roles played by represented variables in terms of time, geography, and other concepts which are important for the harmonization and integration of data.}]]]
}

DDICDIModels::DDICDILibrary::Classes::DataDescription::Components::DataStructureComponent <|-[#D2691E]- DDICDIModels::DDICDILibrary::Classes::DataDescription::DataStructure



@enduml

PlantUML version 1.2022.6(Tue Jun 21 19:34:49 CEST 2022)
(GPL source distribution)
Java Runtime: OpenJDK Runtime Environment
JVM: OpenJDK 64-Bit Server VM
Default Encoding: Cp1252
Language: en
Country: US
--></g></svg>