<?xml version="1.0" encoding="UTF-8" standalone="no"?><svg xmlns="http://www.w3.org/2000/svg" xmlns:xlink="http://www.w3.org/1999/xlink" contentStyleType="text/css" height="205.2px" preserveAspectRatio="none" style="width:345px;height:205px;background:#FFFFFF;" version="1.1" viewBox="0 0 345 205" width="345.6px" zoomAndPan="magnify"><defs/><g><rect height="47.4891" style="stroke:#00000000;stroke-width:0.9;fill:none;" width="329.4" x="4.5" y="4.5"/><text fill="#000000" font-family="sans-serif" font-size="18" font-weight="bold" lengthAdjust="spacing" textLength="320.4" x="9" y="27.6855">UML Diagram: Class Entity in Context</text><text fill="#000000" font-family="sans-serif" font-size="12.6" font-weight="bold" lengthAdjust="spacing" textLength="3.6" x="167.4" y="44.7205"> </text><rect fill="#FFFFFF" height="44.7609" rx="6.75" ry="6.75" style="stroke:#000000;stroke-width:0.9;" width="276.3" x="31.05" y="64.5891"/><text fill="#000000" font-family="sans-serif" font-size="9" font-weight="bold" lengthAdjust="spacing" textLength="22.5" x="36.45" y="79.3318">Hints</text><text fill="#808080" font-family="sans-serif" font-size="9" lengthAdjust="spacing" textLength="265.5" x="36.45" y="90.6521">- Move the mouse cursor over a name to see more information.</text><text fill="#808080" font-family="sans-serif" font-size="9" lengthAdjust="spacing" textLength="216" x="36.45" y="101.9725">- Click on a name to go to the corresponding page.</text><!--MD5=[a0438961881a4fc606840d398cef942c]
entity ##3--><!--MD5=[7639129a7208b5720b5c8dbdaf72c8f5]
entity ##5--><!--MD5=[e168fd97886bdde14a534e33cd074066]
class DDICDIModels::Context::PROV::Entity--><g id="elem_DDICDIModels::Context::PROV::Entity"><rect codeLine="46" fill="#FFD700" height="36.1688" id="DDICDIModels::Context::PROV::Entity" rx="2.25" ry="2.25" style="stroke:#404040;stroke-width:0.45;" width="135" x="108.45" y="123.75"/><text fill="#000000" font-family="sans-serif" font-size="9" lengthAdjust="spacing" textLength="31.5" x="160.2" y="137.5928">PROV::</text><text fill="#000000" font-family="sans-serif" font-size="12.6" lengthAdjust="spacing" textLength="31.5" x="160.2" y="152.6502">Entity</text></g><rect height="33.9609" style="stroke:#00000000;stroke-width:0.9;fill:none;" width="251.1" x="43.65" y="164.4188"/><text fill="#888888" font-family="sans-serif" font-size="9" lengthAdjust="spacing" textLength="2.7" x="167.85" y="173.7615"> </text><text fill="#888888" font-family="sans-serif" font-size="9" lengthAdjust="spacing" textLength="2.7" x="167.85" y="185.0818"> </text><text fill="#888888" font-family="sans-serif" font-size="9" lengthAdjust="spacing" textLength="251.1" x="43.65" y="196.4021">DDI Cross Domain Integration (DDI-CDI)   1.0 - PROV::Entity</text><!--MD5=[d840b8fc713eb0a31a8a6e15e37f48a6]
@startuml
!pragma ratio 0.5625
' HD display aspect ratio 16:9
' hyperlinkColor and pathHoverColor do not seem to work with class diagrams
' working approach: colors per item
' default font size for class names is 14

hide circle
hide empty members
scale 0.9

skinparam {
  ArrowThickness 1.5
  MinClassWidth 150
}

skinparam legend {
  BackgroundColor white
  FontSize 10
}

skinparam note {
  BackgroundColor white
}

skinparam class {
  ArrowColor #404040
  BorderColor #404040
}

skinparam package {
  FontColor lightgrey
  BorderColor lightgrey
}

title <size:20>UML Diagram: Class Entity in Context\n
footer \n\nDDI Cross Domain Integration (DDI-CDI)   1.0 - PROV::Entity

legend top left
**Hints**
<color:grey>- Move the mouse cursor over a name to see more information.
<color:grey>- Click on a name to go to the corresponding page.
endlegend

' Core class of diagram
class DDICDIModels::Context::PROV::Entity as "<size:10>PROV::\n<color:black>Entity" #FFD700 {
}

' Class definitions for associated classes without superclass (might have also an association)
' This would be too many constraints for Graphviz. 
together {
}

' Class definitions for suppliers of abstractions
together {
}

' Rest of class definitions, without associated classes of core class and abstraction supplier classes



' Associations


' Abstractions
@enduml

@startuml
!pragma ratio 0.5625

hide circle
hide empty members
scale 0.9

skinparam {
  ArrowThickness 1.5
  MinClassWidth 150
}

skinparam legend {
  BackgroundColor white
  FontSize 10
}

skinparam note {
  BackgroundColor white
}

skinparam class {
  ArrowColor #404040
  BorderColor #404040
}

skinparam package {
  FontColor lightgrey
  BorderColor lightgrey
}

title <size:20>UML Diagram: Class Entity in Context\n
footer \n\nDDI Cross Domain Integration (DDI-CDI)   1.0 - PROV::Entity

legend top left
**Hints**
<color:grey>- Move the mouse cursor over a name to see more information.
<color:grey>- Click on a name to go to the corresponding page.
endlegend

class DDICDIModels::Context::PROV::Entity as "<size:10>PROV::\n<color:black>Entity" #FFD700 {
}

together {
}

together {
}






@enduml

PlantUML version 1.2022.6(Tue Jun 21 19:34:49 CEST 2022)
(GPL source distribution)
Java Runtime: OpenJDK Runtime Environment
JVM: OpenJDK 64-Bit Server VM
Default Encoding: Cp1252
Language: en
Country: US
--></g></svg>