<?xml version="1.0" encoding="UTF-8" standalone="no"?><svg xmlns="http://www.w3.org/2000/svg" xmlns:xlink="http://www.w3.org/1999/xlink" contentStyleType="text/css" height="421.2px" preserveAspectRatio="none" style="width:479px;height:421px;background:#FFFFFF;" version="1.1" viewBox="0 0 479 421" width="479.7px" zoomAndPan="magnify"><defs/><g><rect height="47.4891" style="stroke:#00000000;stroke-width:0.9;fill:none;" width="405" x="31.05" y="4.5"/><text fill="#000000" font-family="sans-serif" font-size="18" font-weight="bold" lengthAdjust="spacing" textLength="396" x="35.55" y="27.6855">UML Diagram: Class LevelStructure in Context</text><text fill="#000000" font-family="sans-serif" font-size="12.6" font-weight="bold" lengthAdjust="spacing" textLength="3.6" x="231.75" y="44.7205"> </text><rect fill="#FFFFFF" height="44.7609" rx="6.75" ry="6.75" style="stroke:#000000;stroke-width:0.9;" width="276.3" x="7.2" y="64.5891"/><text fill="#000000" font-family="sans-serif" font-size="9" font-weight="bold" lengthAdjust="spacing" textLength="22.5" x="12.6" y="79.3318">Hints</text><text fill="#808080" font-family="sans-serif" font-size="9" lengthAdjust="spacing" textLength="265.5" x="12.6" y="90.6521">- Move the mouse cursor over a name to see more information.</text><text fill="#808080" font-family="sans-serif" font-size="9" lengthAdjust="spacing" textLength="216" x="12.6" y="101.9725">- Click on a name to go to the corresponding page.</text><!--MD5=[1d83e88dbbdb96075cf050a5702520b3]
class DDICDIModels::DDICDILibrary::Classes::Representations::StatisticalClassification--><a href="../DDICDILibrary/Classes/Representations/StatisticalClassification.html#super-class-hierarchy-generalization" target="_top" title=" ― StatisticalClassification:&#10;Set of categories represented by classification items where the subset of immediate children categories for any given parent category are mutually exclusive and jointly exhaustive with respect to that parent." xlink:actuate="onRequest" xlink:href="../DDICDILibrary/Classes/Representations/StatisticalClassification.html#super-class-hierarchy-generalization" xlink:show="new" xlink:title=" ― StatisticalClassification:&#10;Set of categories represented by classification items where the subset of immediate children categories for any given parent category are mutually exclusive and jointly exhaustive with respect to that parent." xlink:type="simple"><g id="elem_DDICDIModels::DDICDILibrary::Classes::Representations::StatisticalClassification"><rect codeLine="62" fill="#F1F1F1" height="36.1688" id="DDICDIModels::DDICDILibrary::Classes::Representations::StatisticalClassification" rx="2.25" ry="2.25" style="stroke:#404040;stroke-width:0.45;" width="135" x="6.3" y="339.75"/><text fill="#000000" font-family="sans-serif" font-size="9" lengthAdjust="spacing" textLength="72.9" x="37.35" y="353.5928">Representations::</text><text fill="#0000FF" font-family="sans-serif" font-size="12.6" lengthAdjust="spacing" textLength="128.7" x="9.45" y="368.6502">StatisticalClassification</text></g></a><!--MD5=[d6b3b1a053bd1cd1a117f81e60f26254]
class DDICDIModels::DDICDILibrary::Classes::Representations::Level--><a href="../DDICDILibrary/Classes/Representations/Level.html#super-class-hierarchy-generalization" target="_top" title=" ― Level:&#10;Set of all classification items the same number of relationships from the root (or top) classification item." xlink:actuate="onRequest" xlink:href="../DDICDILibrary/Classes/Representations/Level.html#super-class-hierarchy-generalization" xlink:show="new" xlink:title=" ― Level:&#10;Set of all classification items the same number of relationships from the root (or top) classification item." xlink:type="simple"><g id="elem_DDICDIModels::DDICDILibrary::Classes::Representations::Level"><rect codeLine="63" fill="#F1F1F1" height="36.1688" id="DDICDIModels::DDICDILibrary::Classes::Representations::Level" rx="2.25" ry="2.25" style="stroke:#404040;stroke-width:0.45;" width="135" x="172.8" y="339.75"/><text fill="#000000" font-family="sans-serif" font-size="9" lengthAdjust="spacing" textLength="72.9" x="203.85" y="353.5928">Representations::</text><text fill="#0000FF" font-family="sans-serif" font-size="12.6" lengthAdjust="spacing" textLength="30.6" x="225" y="368.6502">Level</text></g></a><!--MD5=[658edc803bccf704560a61f47c0b4554]
class DDICDIModels::DDICDILibrary::Classes::Representations::EnumerationDomain--><a href="../DDICDILibrary/Classes/Representations/EnumerationDomain.html#super-class-hierarchy-generalization" target="_top" title=" ― EnumerationDomain:&#10;A base class acting as an extension point to allow all codifications (codelist, statistical classification, etc.) to be understood as enumerated value domains." xlink:actuate="onRequest" xlink:href="../DDICDILibrary/Classes/Representations/EnumerationDomain.html#super-class-hierarchy-generalization" xlink:show="new" xlink:title=" ― EnumerationDomain:&#10;A base class acting as an extension point to allow all codifications (codelist, statistical classification, etc.) to be understood as enumerated value domains." xlink:type="simple"><g id="elem_DDICDIModels::DDICDILibrary::Classes::Representations::EnumerationDomain"><rect codeLine="64" fill="#F1F1F1" height="36.1688" id="DDICDIModels::DDICDILibrary::Classes::Representations::EnumerationDomain" rx="2.25" ry="2.25" style="stroke:#404040;stroke-width:0.45;" width="135" x="339.3" y="339.75"/><text fill="#000000" font-family="sans-serif" font-size="9" lengthAdjust="spacing" textLength="72.9" x="370.35" y="353.5928">Representations::</text><text fill="#0000FF" font-family="sans-serif" font-size="12.6" lengthAdjust="spacing" textLength="115.2" x="349.2" y="368.6502">EnumerationDomain</text></g></a><!--MD5=[f9cab4dd997d7c1fc86d2ab62e0cc130]
entity ##8--><!--MD5=[fd3f591cac85f0e3b667bf51705631d8]
class DDICDIModels::DDICDILibrary::Classes::Representations::LevelStructure--><g id="elem_DDICDIModels::DDICDILibrary::Classes::Representations::LevelStructure"><rect codeLine="46" fill="#FFD700" height="122.6109" id="DDICDIModels::DDICDILibrary::Classes::Representations::LevelStructure" rx="2.25" ry="2.25" style="stroke:#404040;stroke-width:0.45;" width="184.5" x="148.05" y="123.75"/><text fill="#000000" font-family="sans-serif" font-size="9" lengthAdjust="spacing" textLength="72.9" x="203.85" y="137.5928">Representations::</text><text fill="#000000" font-family="sans-serif" font-size="12.6" lengthAdjust="spacing" textLength="82.8" x="198.9" y="152.6502">LevelStructure</text><line style="stroke:#404040;stroke-width:0.45;" x1="148.95" x2="331.65" y1="159.9188" y2="159.9188"/><a href="../DDICDILibrary/DataTypes/StructuredDataTypes/CatalogDetails.html#diagram" target="_top" title=" ― CatalogDetails:&#10;A set of information useful for attribution, data discovery, and access." xlink:actuate="onRequest" xlink:href="../DDICDILibrary/DataTypes/StructuredDataTypes/CatalogDetails.html#diagram" xlink:show="new" xlink:title=" ― CatalogDetails:&#10;A set of information useful for attribution, data discovery, and access." xlink:type="simple"><text fill="#000000" font-family="sans-serif" font-size="12.6" lengthAdjust="spacing" textLength="87.3" x="153.45" y="176.5986">catalogDetails :</text><text fill="#0000FF" font-family="sans-serif" font-size="12.6" lengthAdjust="spacing" textLength="82.8" x="244.35" y="176.5986">CatalogDetails</text></a><a href="../DDICDILibrary/DataTypes/StructuredDataTypes/Identifier.html#diagram" target="_top" title=" ― Identifier:&#10;Identifier for objects requiring short- or long-lasting referencing and management." xlink:actuate="onRequest" xlink:href="../DDICDILibrary/DataTypes/StructuredDataTypes/Identifier.html#diagram" xlink:show="new" xlink:title=" ― Identifier:&#10;Identifier for objects requiring short- or long-lasting referencing and management." xlink:type="simple"><text fill="#000000" font-family="sans-serif" font-size="12.6" lengthAdjust="spacing" textLength="55.8" x="153.45" y="192.4471">identifier :</text><text fill="#0000FF" font-family="sans-serif" font-size="12.6" lengthAdjust="spacing" textLength="48.6" x="212.85" y="192.4471">Identifier</text></a><a href="../DDICDILibrary/DataTypes/StructuredDataTypes/ObjectName.html#diagram" target="_top" title=" ― ObjectName:&#10;A standard means of expressing a name for a class object. A linguistic signifier. Human understandable name (word, phrase, or mnemonic) that reflects the ISO/IEC 11179-5 naming principles." xlink:actuate="onRequest" xlink:href="../DDICDILibrary/DataTypes/StructuredDataTypes/ObjectName.html#diagram" xlink:show="new" xlink:title=" ― ObjectName:&#10;A standard means of expressing a name for a class object. A linguistic signifier. Human understandable name (word, phrase, or mnemonic) that reflects the ISO/IEC 11179-5 naming principles." xlink:type="simple"><text fill="#000000" font-family="sans-serif" font-size="12.6" lengthAdjust="spacing" textLength="38.7" x="153.45" y="208.2955">name :</text><text fill="#0000FF" font-family="sans-serif" font-size="12.6" lengthAdjust="spacing" textLength="69.3" x="195.75" y="208.2955">ObjectName</text></a><a href="../DDICDILibrary/DataTypes/StructuredDataTypes/InternationalString.html#diagram" target="_top" title=" ― InternationalString:&#10;Packaging structure for multiple language versions of the same string content. Where an element of this type is repeatable, the expectation is that each repetition contains different content, each of which can be expressed in multiple languages. The language designation goes on the individual String ..." xlink:actuate="onRequest" xlink:href="../DDICDILibrary/DataTypes/StructuredDataTypes/InternationalString.html#diagram" xlink:show="new" xlink:title=" ― InternationalString:&#10;Packaging structure for multiple language versions of the same string content. Where an element of this type is repeatable, the expectation is that each repetition contains different content, each of which can be expressed in multiple languages. The language designation goes on the individual String ..." xlink:type="simple"><text fill="#000000" font-family="sans-serif" font-size="12.6" lengthAdjust="spacing" textLength="42.3" x="153.45" y="224.1439">usage :</text><text fill="#0000FF" font-family="sans-serif" font-size="12.6" lengthAdjust="spacing" textLength="103.5" x="199.35" y="224.1439">InternationalString</text></a><a href="../DDICDILibrary/DataTypes/StructuredDataTypes/DateRange.html#diagram" target="_top" title=" ― DateRange:&#10;Expresses a date/time range using a start date and end date (both with the structure of Date and supporting the use of ISO and non-ISO date structures). Use in all locations where a range of dates is required, i.e. validFor, embargoPeriod, collectionPeriod, etc." xlink:actuate="onRequest" xlink:href="../DDICDILibrary/DataTypes/StructuredDataTypes/DateRange.html#diagram" xlink:show="new" xlink:title=" ― DateRange:&#10;Expresses a date/time range using a start date and end date (both with the structure of Date and supporting the use of ISO and non-ISO date structures). Use in all locations where a range of dates is required, i.e. validFor, embargoPeriod, collectionPeriod, etc." xlink:type="simple"><text fill="#000000" font-family="sans-serif" font-size="12.6" lengthAdjust="spacing" textLength="98.1" x="153.45" y="239.9924">validDateRange :</text><text fill="#0000FF" font-family="sans-serif" font-size="12.6" lengthAdjust="spacing" textLength="64.8" x="255.15" y="239.9924">DateRange</text></a></g><!--MD5=[416982919f86194e70ddc6ef8f3e8ebf]
reverse link DDICDIModels::DDICDILibrary::Classes::Representations::LevelStructure to DDICDIModels::DDICDILibrary::Classes::Representations::EnumerationDomain--><g id="link_DDICDIModels::DDICDILibrary::Classes::Representations::LevelStructure_DDICDIModels::DDICDILibrary::Classes::Representations::EnumerationDomain"><a href="" target="_top" title=" ― uses:&#10;Has meaningful level to which members belong." xlink:actuate="onRequest" xlink:href="" xlink:show="new" xlink:title=" ― uses:&#10;Has meaningful level to which members belong." xlink:type="simple"><path codeLine="76" d="M302.652,249.876 C334.035,282.114 369.657,318.699 390.051,339.642 " fill="none" id="DDICDIModels::DDICDILibrary::Classes::Representations::LevelStructure-backto-DDICDIModels::DDICDILibrary::Classes::Representations::EnumerationDomain" style="stroke:#808080;stroke-width:1.35;"/><polygon fill="#808080" points="299.232,246.375,302.2967,254.6923,302.3687,249.6017,307.4593,249.6736,299.232,246.375" style="stroke:#808080;stroke-width:1.35;"/><text fill="#000000" font-family="sans-serif" font-size="11.7" lengthAdjust="spacing" textLength="25.2" x="353.7" y="299.6956">uses</text></a></g><!--MD5=[6cabb9d0e365e00d3ff5f0b16dfe1ccc]
link DDICDIModels::DDICDILibrary::Classes::Representations::LevelStructure to DDICDIModels::DDICDILibrary::Classes::Representations::Level--><g id="link_DDICDIModels::DDICDILibrary::Classes::Representations::LevelStructure_DDICDIModels::DDICDILibrary::Classes::Representations::Level"><a href="" target="_top" title=" ― has:&#10;" xlink:actuate="onRequest" xlink:href="" xlink:show="new" xlink:title=" ― has:&#10;" xlink:type="simple"><path codeLine="77" d="M240.3,257.175 C240.3,257.175 240.3,308.709 240.3,327.861 " fill="none" id="DDICDIModels::DDICDILibrary::Classes::Representations::LevelStructure-DDICDIModels::DDICDILibrary::Classes::Representations::Level" style="stroke:#808080;stroke-width:1.35;"/><polygon fill="#808080" points="240.3,339.642,243.9,331.542,240.3,335.142,236.7,331.542,240.3,339.642" style="stroke:#808080;stroke-width:1.35;"/><line style="stroke:#808080;stroke-width:1.35;" x1="240.3" x2="240.3" y1="335.142" y2="327.942"/><polygon fill="none" points="240.3,246.375,236.7,251.775,240.3,257.175,243.9,251.775,240.3,246.375" style="stroke:#808080;stroke-width:1.35;"/><text fill="#000000" font-family="sans-serif" font-size="11.7" lengthAdjust="spacing" textLength="18.9" x="241.2" y="299.6956">has</text></a></g><!--MD5=[15de754a8c62b585dc83aa679077b2e7]
reverse link DDICDIModels::DDICDILibrary::Classes::Representations::LevelStructure to DDICDIModels::DDICDILibrary::Classes::Representations::StatisticalClassification--><g id="link_DDICDIModels::DDICDILibrary::Classes::Representations::LevelStructure_DDICDIModels::DDICDILibrary::Classes::Representations::StatisticalClassification"><a href="" target="_top" title=" ― has:&#10;" xlink:actuate="onRequest" xlink:href="" xlink:show="new" xlink:title=" ― has:&#10;" xlink:type="simple"><path codeLine="78" d="M177.948,249.876 C146.565,282.114 110.943,318.699 90.549,339.642 " fill="none" id="DDICDIModels::DDICDILibrary::Classes::Representations::LevelStructure-backto-DDICDIModels::DDICDILibrary::Classes::Representations::StatisticalClassification" style="stroke:#808080;stroke-width:1.35;"/><polygon fill="#808080" points="181.368,246.375,173.1407,249.6736,178.2313,249.6017,178.3033,254.6923,181.368,246.375" style="stroke:#808080;stroke-width:1.35;"/><text fill="#000000" font-family="sans-serif" font-size="11.7" lengthAdjust="spacing" textLength="18.9" x="143.1" y="299.6956">has</text></a></g><rect height="33.9609" style="stroke:#00000000;stroke-width:0.9;fill:none;" width="330.3" x="68.4" y="380.4188"/><text fill="#888888" font-family="sans-serif" font-size="9" lengthAdjust="spacing" textLength="2.7" x="232.2" y="389.7615"> </text><text fill="#888888" font-family="sans-serif" font-size="9" lengthAdjust="spacing" textLength="2.7" x="232.2" y="401.0818"> </text><text fill="#888888" font-family="sans-serif" font-size="9" lengthAdjust="spacing" textLength="330.3" x="68.4" y="412.4021">DDI Cross Domain Integration (DDI-CDI)   1.0 - Representations::LevelStructure</text><!--MD5=[23f7f9a7fd14a9b08bf9d3ff4887365c]
@startuml
!pragma ratio 0.5625
' HD display aspect ratio 16:9
' hyperlinkColor and pathHoverColor do not seem to work with class diagrams
' working approach: colors per item
' default font size for class names is 14

hide circle
hide empty members
scale 0.9

skinparam {
  ArrowThickness 1.5
  MinClassWidth 150
}

skinparam legend {
  BackgroundColor white
  FontSize 10
}

skinparam note {
  BackgroundColor white
}

skinparam class {
  ArrowColor #404040
  BorderColor #404040
}

skinparam package {
  FontColor lightgrey
  BorderColor lightgrey
}

title <size:20>UML Diagram: Class LevelStructure in Context\n
footer \n\nDDI Cross Domain Integration (DDI-CDI)   1.0 - Representations::LevelStructure

legend top left
**Hints**
<color:grey>- Move the mouse cursor over a name to see more information.
<color:grey>- Click on a name to go to the corresponding page.
endlegend

' Core class of diagram
class DDICDIModels::DDICDILibrary::Classes::Representations::LevelStructure as "<size:10>Representations::\n<color:black>LevelStructure" #FFD700 {
  catalogDetails : <color:blue>CatalogDetails   	  [[[../DDICDILibrary/DataTypes/StructuredDataTypes/CatalogDetails.html#diagram{ <U+2015> CatalogDetails:\nA set of information useful for attribution, data discovery, and access.}]]]
  identifier : <color:blue>Identifier   	  [[[../DDICDILibrary/DataTypes/StructuredDataTypes/Identifier.html#diagram{ <U+2015> Identifier:\nIdentifier for objects requiring short- or long-lasting referencing and management.}]]]
  name : <color:blue>ObjectName   	  [[[../DDICDILibrary/DataTypes/StructuredDataTypes/ObjectName.html#diagram{ <U+2015> ObjectName:\nA standard means of expressing a name for a class object. A linguistic signifier. Human understandable name (word, phrase, or mnemonic) that reflects the ISO/IEC 11179-5 naming principles.}]]]
  usage : <color:blue>InternationalString   	  [[[../DDICDILibrary/DataTypes/StructuredDataTypes/InternationalString.html#diagram{ <U+2015> InternationalString:\nPackaging structure for multiple language versions of the same string content. Where an element of this type is repeatable, the expectation is that each repetition contains different content, each of which can be expressed in multiple languages. The language designation goes on the individual String ...}]]]
  validDateRange : <color:blue>DateRange   	  [[[../DDICDILibrary/DataTypes/StructuredDataTypes/DateRange.html#diagram{ <U+2015> DateRange:\nExpresses a date/time range using a start date and end date (both with the structure of Date and supporting the use of ISO and non-ISO date structures). Use in all locations where a range of dates is required, i.e. validFor, embargoPeriod, collectionPeriod, etc.}]]]
}

' Class definitions for associated classes without superclass (might have also an association)
' This would be too many constraints for Graphviz. 
together {
  class DDICDIModels::DDICDILibrary::Classes::Representations::StatisticalClassification as "<size:10>Representations::\n<color:blue>StatisticalClassification" [[../DDICDILibrary/Classes/Representations/StatisticalClassification.html#super-class-hierarchy-generalization{ <U+2015> StatisticalClassification:\nSet of categories represented by classification items where the subset of immediate children categories for any given parent category are mutually exclusive and jointly exhaustive with respect to that parent.}]]
  class DDICDIModels::DDICDILibrary::Classes::Representations::Level as "<size:10>Representations::\n<color:blue>Level" [[../DDICDILibrary/Classes/Representations/Level.html#super-class-hierarchy-generalization{ <U+2015> Level:\nSet of all classification items the same number of relationships from the root (or top) classification item.}]]
  class DDICDIModels::DDICDILibrary::Classes::Representations::EnumerationDomain as "<size:10>Representations::\n<color:blue>EnumerationDomain" [[../DDICDILibrary/Classes/Representations/EnumerationDomain.html#super-class-hierarchy-generalization{ <U+2015> EnumerationDomain:\nA base class acting as an extension point to allow all codifications (codelist, statistical classification, etc.) to be understood as enumerated value domains.}]]
}

' Class definitions for suppliers of abstractions
together {
}

' Rest of class definitions, without associated classes of core class and abstraction supplier classes



' Associations
DDICDIModels::DDICDILibrary::Classes::Representations::LevelStructure <-[#grey]- DDICDIModels::DDICDILibrary::Classes::Representations::EnumerationDomain [[{ <U+2015> uses:\nHas meaningful level to which members belong.}]] : uses
DDICDIModels::DDICDILibrary::Classes::Representations::LevelStructure o-[#grey]-> DDICDIModels::DDICDILibrary::Classes::Representations::Level [[{ <U+2015> has:\n}]] : has
DDICDIModels::DDICDILibrary::Classes::Representations::LevelStructure <-[#grey]- DDICDIModels::DDICDILibrary::Classes::Representations::StatisticalClassification [[{ <U+2015> has:\n}]] : has


' Abstractions
@enduml

@startuml
!pragma ratio 0.5625

hide circle
hide empty members
scale 0.9

skinparam {
  ArrowThickness 1.5
  MinClassWidth 150
}

skinparam legend {
  BackgroundColor white
  FontSize 10
}

skinparam note {
  BackgroundColor white
}

skinparam class {
  ArrowColor #404040
  BorderColor #404040
}

skinparam package {
  FontColor lightgrey
  BorderColor lightgrey
}

title <size:20>UML Diagram: Class LevelStructure in Context\n
footer \n\nDDI Cross Domain Integration (DDI-CDI)   1.0 - Representations::LevelStructure

legend top left
**Hints**
<color:grey>- Move the mouse cursor over a name to see more information.
<color:grey>- Click on a name to go to the corresponding page.
endlegend

class DDICDIModels::DDICDILibrary::Classes::Representations::LevelStructure as "<size:10>Representations::\n<color:black>LevelStructure" #FFD700 {
  catalogDetails : <color:blue>CatalogDetails   	  [[[../DDICDILibrary/DataTypes/StructuredDataTypes/CatalogDetails.html#diagram{ <U+2015> CatalogDetails:\nA set of information useful for attribution, data discovery, and access.}]]]
  identifier : <color:blue>Identifier   	  [[[../DDICDILibrary/DataTypes/StructuredDataTypes/Identifier.html#diagram{ <U+2015> Identifier:\nIdentifier for objects requiring short- or long-lasting referencing and management.}]]]
  name : <color:blue>ObjectName   	  [[[../DDICDILibrary/DataTypes/StructuredDataTypes/ObjectName.html#diagram{ <U+2015> ObjectName:\nA standard means of expressing a name for a class object. A linguistic signifier. Human understandable name (word, phrase, or mnemonic) that reflects the ISO/IEC 11179-5 naming principles.}]]]
  usage : <color:blue>InternationalString   	  [[[../DDICDILibrary/DataTypes/StructuredDataTypes/InternationalString.html#diagram{ <U+2015> InternationalString:\nPackaging structure for multiple language versions of the same string content. Where an element of this type is repeatable, the expectation is that each repetition contains different content, each of which can be expressed in multiple languages. The language designation goes on the individual String ...}]]]
  validDateRange : <color:blue>DateRange   	  [[[../DDICDILibrary/DataTypes/StructuredDataTypes/DateRange.html#diagram{ <U+2015> DateRange:\nExpresses a date/time range using a start date and end date (both with the structure of Date and supporting the use of ISO and non-ISO date structures). Use in all locations where a range of dates is required, i.e. validFor, embargoPeriod, collectionPeriod, etc.}]]]
}

together {
  class DDICDIModels::DDICDILibrary::Classes::Representations::StatisticalClassification as "<size:10>Representations::\n<color:blue>StatisticalClassification" [[../DDICDILibrary/Classes/Representations/StatisticalClassification.html#super-class-hierarchy-generalization{ <U+2015> StatisticalClassification:\nSet of categories represented by classification items where the subset of immediate children categories for any given parent category are mutually exclusive and jointly exhaustive with respect to that parent.}]]
  class DDICDIModels::DDICDILibrary::Classes::Representations::Level as "<size:10>Representations::\n<color:blue>Level" [[../DDICDILibrary/Classes/Representations/Level.html#super-class-hierarchy-generalization{ <U+2015> Level:\nSet of all classification items the same number of relationships from the root (or top) classification item.}]]
  class DDICDIModels::DDICDILibrary::Classes::Representations::EnumerationDomain as "<size:10>Representations::\n<color:blue>EnumerationDomain" [[../DDICDILibrary/Classes/Representations/EnumerationDomain.html#super-class-hierarchy-generalization{ <U+2015> EnumerationDomain:\nA base class acting as an extension point to allow all codifications (codelist, statistical classification, etc.) to be understood as enumerated value domains.}]]
}

together {
}




DDICDIModels::DDICDILibrary::Classes::Representations::LevelStructure <-[#grey]- DDICDIModels::DDICDILibrary::Classes::Representations::EnumerationDomain [[{ <U+2015> uses:\nHas meaningful level to which members belong.}]] : uses
DDICDIModels::DDICDILibrary::Classes::Representations::LevelStructure o-[#grey]-> DDICDIModels::DDICDILibrary::Classes::Representations::Level [[{ <U+2015> has:\n}]] : has
DDICDIModels::DDICDILibrary::Classes::Representations::LevelStructure <-[#grey]- DDICDIModels::DDICDILibrary::Classes::Representations::StatisticalClassification [[{ <U+2015> has:\n}]] : has


@enduml

PlantUML version 1.2022.6(Tue Jun 21 19:34:49 CEST 2022)
(GPL source distribution)
Java Runtime: OpenJDK Runtime Environment
JVM: OpenJDK 64-Bit Server VM
Default Encoding: Cp1252
Language: en
Country: US
--></g></svg>