<?xml version="1.0" encoding="UTF-8" standalone="no"?><svg xmlns="http://www.w3.org/2000/svg" xmlns:xlink="http://www.w3.org/1999/xlink" contentStyleType="text/css" height="790.2px" preserveAspectRatio="none" style="width:1339px;height:790px;background:#FFFFFF;" version="1.1" viewBox="0 0 1339 790" width="1339.2px" zoomAndPan="magnify"><defs/><g><rect height="47.4891" style="stroke:#00000000;stroke-width:0.9;fill:none;" width="447.3" x="439.875" y="4.5"/><text fill="#000000" font-family="sans-serif" font-size="18" font-weight="bold" lengthAdjust="spacing" textLength="438.3" x="444.375" y="27.6855">UML Diagram: Class UnitSegmentLayout in Context</text><text fill="#000000" font-family="sans-serif" font-size="12.6" font-weight="bold" lengthAdjust="spacing" textLength="3.6" x="661.725" y="44.7205"> </text><rect fill="#FFFFFF" height="56.0813" rx="6.75" ry="6.75" style="stroke:#000000;stroke-width:0.9;" width="276.3" x="7.2" y="64.5891"/><text fill="#000000" font-family="sans-serif" font-size="9" font-weight="bold" lengthAdjust="spacing" textLength="22.5" x="12.6" y="79.3318">Hints</text><text fill="#808080" font-family="sans-serif" font-size="9" lengthAdjust="spacing" textLength="265.5" x="12.6" y="90.6521">- Move the mouse cursor over a name to see more information.</text><text fill="#808080" font-family="sans-serif" font-size="9" lengthAdjust="spacing" textLength="216" x="12.6" y="101.9725">- Click on a name to go to the corresponding page.</text><text fill="#808080" font-family="sans-serif" font-size="9" lengthAdjust="spacing" textLength="164.7" x="12.6" y="113.2928">- The arrows of the inheritance tree are</text><text fill="#D2691E" font-family="sans-serif" font-size="9" lengthAdjust="spacing" textLength="32.4" x="180" y="113.2928">colored</text><text fill="#808080" font-family="sans-serif" font-size="9" lengthAdjust="spacing" textLength="2.7" x="212.4" y="113.2928">.</text><!--MD5=[a0438961881a4fc606840d398cef942c]
entity ##3--><!--MD5=[7639129a7208b5720b5c8dbdaf72c8f5]
entity ##5--><!--MD5=[043361a6d3fed6fa98abca3550b75076]
class DDICDIModels::DDICDILibrary::Classes::FormatDescription::UnitSegmentLayout--><g id="elem_DDICDIModels::DDICDILibrary::Classes::FormatDescription::UnitSegmentLayout"><rect codeLine="47" fill="#FFD700" height="36.1688" id="DDICDIModels::DDICDILibrary::Classes::FormatDescription::UnitSegmentLayout" rx="2.25" ry="2.25" style="stroke:#404040;stroke-width:0.45;" width="135" x="328.95" y="708.6673"/><text fill="#000000" font-family="sans-serif" font-size="9" lengthAdjust="spacing" textLength="82.8" x="355.05" y="722.5101">FormatDescription::</text><text fill="#000000" font-family="sans-serif" font-size="12.6" lengthAdjust="spacing" textLength="110.7" x="341.1" y="737.5675">UnitSegmentLayout</text></g><!--MD5=[24a257863b398b5270390d96fe65d257]
class DDICDIModels::DDICDILibrary::Classes::Conceptual::Concept--><a href="../DDICDILibrary/Classes/Conceptual/Concept.html#super-class-hierarchy-generalization" target="_top" title=" ― Concept:&#10;Unit of thought differentiated by characteristics (from the Generic Statistical Information Model version 1.2: https://statswiki.unece.org/display/clickablegsim/Concept)." xlink:actuate="onRequest" xlink:href="../DDICDILibrary/Classes/Conceptual/Concept.html#super-class-hierarchy-generalization" xlink:show="new" xlink:title=" ― Concept:&#10;Unit of thought differentiated by characteristics (from the Generic Statistical Information Model version 1.2: https://statswiki.unece.org/display/clickablegsim/Concept)." xlink:type="simple"><g id="elem_DDICDIModels::DDICDILibrary::Classes::Conceptual::Concept"><rect codeLine="60" fill="#F1F1F1" height="36.1688" id="DDICDIModels::DDICDILibrary::Classes::Conceptual::Concept" rx="2.25" ry="2.25" style="stroke:#404040;stroke-width:0.45;" width="135" x="1199.25" y="399.9673"/><text fill="#000000" font-family="sans-serif" font-size="9" lengthAdjust="spacing" textLength="54.9" x="1239.3" y="413.8101">Conceptual::</text><text fill="#0000FF" font-family="sans-serif" font-size="12.6" lengthAdjust="spacing" textLength="47.7" x="1242.9" y="428.8675">Concept</text></g></a><!--MD5=[12fcf3977e8693b6de1a598c6c39a735]
class DDICDIModels::DDICDILibrary::Classes::FormatDescription::PhysicalSegmentLayout--><a href="../DDICDILibrary/Classes/FormatDescription/PhysicalSegmentLayout.html#super-class-hierarchy-generalization" target="_top" title=" ― PhysicalSegmentLayout:&#10;Used as an extension point in the description of the different layout styles of data structure descriptions." xlink:actuate="onRequest" xlink:href="../DDICDILibrary/Classes/FormatDescription/PhysicalSegmentLayout.html#super-class-hierarchy-generalization" xlink:show="new" xlink:title=" ― PhysicalSegmentLayout:&#10;Used as an extension point in the description of the different layout styles of data structure descriptions." xlink:type="simple"><g id="elem_DDICDIModels::DDICDILibrary::Classes::FormatDescription::PhysicalSegmentLayout"><rect codeLine="93" fill="#FAFAD2" height="471.2766" id="DDICDIModels::DDICDILibrary::Classes::FormatDescription::PhysicalSegmentLayout" rx="2.25" ry="2.25" style="stroke:#404040;stroke-width:0.45;" width="259.2" x="266.85" y="182.1673"/><text fill="#000000" font-family="sans-serif" font-size="9" lengthAdjust="spacing" textLength="82.8" x="355.05" y="196.0101">FormatDescription::</text><text fill="#0000FF" font-family="sans-serif" font-size="12.6" lengthAdjust="spacing" textLength="135.9" x="328.5" y="211.0675">PhysicalSegmentLayout</text><line style="stroke:#404040;stroke-width:0.45;" x1="267.75" x2="525.15" y1="218.3361" y2="218.3361"/><text fill="#000000" font-family="sans-serif" font-size="12.6" lengthAdjust="spacing" textLength="151.2" x="272.25" y="235.0159">allowsDuplicates : Boolean</text><text fill="#000000" font-family="sans-serif" font-size="12.6" lengthAdjust="spacing" textLength="108.9" x="272.25" y="250.8644">arrayBase : Integer</text><a href="../DDICDILibrary/DataTypes/StructuredDataTypes/CatalogDetails.html#diagram" target="_top" title=" ― CatalogDetails:&#10;A set of information useful for attribution, data discovery, and access." xlink:actuate="onRequest" xlink:href="../DDICDILibrary/DataTypes/StructuredDataTypes/CatalogDetails.html#diagram" xlink:show="new" xlink:title=" ― CatalogDetails:&#10;A set of information useful for attribution, data discovery, and access." xlink:type="simple"><text fill="#000000" font-family="sans-serif" font-size="12.6" lengthAdjust="spacing" textLength="87.3" x="272.25" y="266.7128">catalogDetails :</text><text fill="#0000FF" font-family="sans-serif" font-size="12.6" lengthAdjust="spacing" textLength="82.8" x="363.15" y="266.7128">CatalogDetails</text></a><text fill="#000000" font-family="sans-serif" font-size="12.6" lengthAdjust="spacing" textLength="126.9" x="272.25" y="282.5613">commentPrefix : String</text><text fill="#000000" font-family="sans-serif" font-size="12.6" lengthAdjust="spacing" textLength="91.8" x="272.25" y="298.4097">delimiter : String</text><a href="../DDICDILibrary/DataTypes/StructuredDataTypes/ControlledVocabularyEntry.html#diagram" target="_top" title=" ― ControlledVocabularyEntry:&#10;Allows for unstructured content which may be an entry from an externally maintained controlled vocabulary.If the content is from a controlled vocabulary provide the code value of the entry, as well as a reference to the controlled vocabulary from which the value is taken. Provide as many of the iden ..." xlink:actuate="onRequest" xlink:href="../DDICDILibrary/DataTypes/StructuredDataTypes/ControlledVocabularyEntry.html#diagram" xlink:show="new" xlink:title=" ― ControlledVocabularyEntry:&#10;Allows for unstructured content which may be an entry from an externally maintained controlled vocabulary.If the content is from a controlled vocabulary provide the code value of the entry, as well as a reference to the controlled vocabulary from which the value is taken. Provide as many of the iden ..." xlink:type="simple"><text fill="#000000" font-family="sans-serif" font-size="12.6" lengthAdjust="spacing" textLength="59.4" x="272.25" y="314.2581">encoding :</text><text fill="#0000FF" font-family="sans-serif" font-size="12.6" lengthAdjust="spacing" textLength="152.1" x="335.25" y="314.2581">ControlledVocabularyEntry</text></a><text fill="#000000" font-family="sans-serif" font-size="12.6" lengthAdjust="spacing" textLength="142.2" x="272.25" y="330.1066">escapeCharacter : String</text><text fill="#000000" font-family="sans-serif" font-size="12.6" lengthAdjust="spacing" textLength="119.7" x="272.25" y="345.955">hasHeader : Boolean</text><text fill="#000000" font-family="sans-serif" font-size="12.6" lengthAdjust="spacing" textLength="188.1" x="272.25" y="361.8034">headerIsCaseSensitive : Boolean</text><text fill="#000000" font-family="sans-serif" font-size="12.6" lengthAdjust="spacing" textLength="149.4" x="272.25" y="377.6519">headerRowCount : Integer</text><a href="../DDICDILibrary/DataTypes/StructuredDataTypes/Identifier.html#diagram" target="_top" title=" ― Identifier:&#10;Identifier for objects requiring short- or long-lasting referencing and management." xlink:actuate="onRequest" xlink:href="../DDICDILibrary/DataTypes/StructuredDataTypes/Identifier.html#diagram" xlink:show="new" xlink:title=" ― Identifier:&#10;Identifier for objects requiring short- or long-lasting referencing and management." xlink:type="simple"><text fill="#000000" font-family="sans-serif" font-size="12.6" lengthAdjust="spacing" textLength="55.8" x="272.25" y="393.5003">identifier :</text><text fill="#0000FF" font-family="sans-serif" font-size="12.6" lengthAdjust="spacing" textLength="48.6" x="331.65" y="393.5003">Identifier</text></a><text fill="#000000" font-family="sans-serif" font-size="12.6" lengthAdjust="spacing" textLength="118.8" x="272.25" y="409.3488">isDelimited : Boolean</text><text fill="#000000" font-family="sans-serif" font-size="12.6" lengthAdjust="spacing" textLength="129.6" x="272.25" y="425.1972">isFixedWidth : Boolean</text><text fill="#000000" font-family="sans-serif" font-size="12.6" lengthAdjust="spacing" textLength="126" x="272.25" y="441.0456">lineTerminator : String</text><a href="../DDICDILibrary/DataTypes/StructuredDataTypes/ObjectName.html#diagram" target="_top" title=" ― ObjectName:&#10;A standard means of expressing a name for a class object. A linguistic signifier. Human understandable name (word, phrase, or mnemonic) that reflects the ISO/IEC 11179-5 naming principles." xlink:actuate="onRequest" xlink:href="../DDICDILibrary/DataTypes/StructuredDataTypes/ObjectName.html#diagram" xlink:show="new" xlink:title=" ― ObjectName:&#10;A standard means of expressing a name for a class object. A linguistic signifier. Human understandable name (word, phrase, or mnemonic) that reflects the ISO/IEC 11179-5 naming principles." xlink:type="simple"><text fill="#000000" font-family="sans-serif" font-size="12.6" lengthAdjust="spacing" textLength="38.7" x="272.25" y="456.8941">name :</text><text fill="#0000FF" font-family="sans-serif" font-size="12.6" lengthAdjust="spacing" textLength="69.3" x="314.55" y="456.8941">ObjectName</text></a><text fill="#000000" font-family="sans-serif" font-size="12.6" lengthAdjust="spacing" textLength="121.5" x="272.25" y="472.7425">nullSequence : String</text><a href="../DDICDILibrary/DataTypes/StructuredDataTypes/InternationalString.html#diagram" target="_top" title=" ― InternationalString:&#10;Packaging structure for multiple language versions of the same string content. Where an element of this type is repeatable, the expectation is that each repetition contains different content, each of which can be expressed in multiple languages. The language designation goes on the individual String ..." xlink:actuate="onRequest" xlink:href="../DDICDILibrary/DataTypes/StructuredDataTypes/InternationalString.html#diagram" xlink:show="new" xlink:title=" ― InternationalString:&#10;Packaging structure for multiple language versions of the same string content. Where an element of this type is repeatable, the expectation is that each repetition contains different content, each of which can be expressed in multiple languages. The language designation goes on the individual String ..." xlink:type="simple"><text fill="#000000" font-family="sans-serif" font-size="12.6" lengthAdjust="spacing" textLength="56.7" x="272.25" y="488.5909">overview :</text><text fill="#0000FF" font-family="sans-serif" font-size="12.6" lengthAdjust="spacing" textLength="103.5" x="332.55" y="488.5909">InternationalString</text></a><a href="../DDICDILibrary/DataTypes/StructuredDataTypes/InternationalString.html#diagram" target="_top" title=" ― InternationalString:&#10;Packaging structure for multiple language versions of the same string content. Where an element of this type is repeatable, the expectation is that each repetition contains different content, each of which can be expressed in multiple languages. The language designation goes on the individual String ..." xlink:actuate="onRequest" xlink:href="../DDICDILibrary/DataTypes/StructuredDataTypes/InternationalString.html#diagram" xlink:show="new" xlink:title=" ― InternationalString:&#10;Packaging structure for multiple language versions of the same string content. Where an element of this type is repeatable, the expectation is that each repetition contains different content, each of which can be expressed in multiple languages. The language designation goes on the individual String ..." xlink:type="simple"><text fill="#000000" font-family="sans-serif" font-size="12.6" lengthAdjust="spacing" textLength="54" x="272.25" y="504.4394">purpose :</text><text fill="#0000FF" font-family="sans-serif" font-size="12.6" lengthAdjust="spacing" textLength="103.5" x="329.85" y="504.4394">InternationalString</text></a><text fill="#000000" font-family="sans-serif" font-size="12.6" lengthAdjust="spacing" textLength="133.2" x="272.25" y="520.2878">quoteCharacter : String</text><text fill="#000000" font-family="sans-serif" font-size="12.6" lengthAdjust="spacing" textLength="142.2" x="272.25" y="536.1363">skipBlankRows : Boolean</text><text fill="#000000" font-family="sans-serif" font-size="12.6" lengthAdjust="spacing" textLength="149.4" x="272.25" y="551.9847">skipDataColumns : Integer</text><text fill="#000000" font-family="sans-serif" font-size="12.6" lengthAdjust="spacing" textLength="144.9" x="272.25" y="567.8331">skipInitialSpace : Boolean</text><text fill="#000000" font-family="sans-serif" font-size="12.6" lengthAdjust="spacing" textLength="103.5" x="272.25" y="583.6816">skipRows : Integer</text><a href="../DDICDILibrary/DataTypes/Enumerations/TableDirectionValues.html#diagram" target="_top" title=" ― TableDirectionValues:&#10;Indicates whether the tables in the group should be displayed with the first column on the right, on the left, or based on the first character in the table that has a specific direction." xlink:actuate="onRequest" xlink:href="../DDICDILibrary/DataTypes/Enumerations/TableDirectionValues.html#diagram" xlink:show="new" xlink:title=" ― TableDirectionValues:&#10;Indicates whether the tables in the group should be displayed with the first column on the right, on the left, or based on the first character in the table that has a specific direction." xlink:type="simple"><text fill="#000000" font-family="sans-serif" font-size="12.6" lengthAdjust="spacing" textLength="85.5" x="272.25" y="599.53">tableDirection :</text><text fill="#0000FF" font-family="sans-serif" font-size="12.6" lengthAdjust="spacing" textLength="121.5" x="361.35" y="599.53">TableDirectionValues</text></a><a href="../DDICDILibrary/DataTypes/Enumerations/TextDirectionValues.html#diagram" target="_top" title=" ― TextDirectionValues:&#10;Indicates whether the text within cells should be displayed as left-to-right text (ltr), as right-to-left text (rtl), according to the content of the cell (auto) or in the direction inherited from the table direction annotation of the table." xlink:actuate="onRequest" xlink:href="../DDICDILibrary/DataTypes/Enumerations/TextDirectionValues.html#diagram" xlink:show="new" xlink:title=" ― TextDirectionValues:&#10;Indicates whether the text within cells should be displayed as left-to-right text (ltr), as right-to-left text (rtl), according to the content of the cell (auto) or in the direction inherited from the table direction annotation of the table." xlink:type="simple"><text fill="#000000" font-family="sans-serif" font-size="12.6" lengthAdjust="spacing" textLength="77.4" x="272.25" y="615.3784">textDirection :</text><text fill="#0000FF" font-family="sans-serif" font-size="12.6" lengthAdjust="spacing" textLength="113.4" x="353.25" y="615.3784">TextDirectionValues</text></a><text fill="#000000" font-family="sans-serif" font-size="12.6" lengthAdjust="spacing" textLength="248.4" x="272.25" y="631.2269">treatConsecutiveDelimitersAsOne : Boolean</text><a href="../DDICDILibrary/DataTypes/Enumerations/TrimValues.html#diagram" target="_top" title=" ― TrimValues:&#10;Specifies which spaces to remove from a data value (start, end, both, neither)." xlink:actuate="onRequest" xlink:href="../DDICDILibrary/DataTypes/Enumerations/TrimValues.html#diagram" xlink:show="new" xlink:title=" ― TrimValues:&#10;Specifies which spaces to remove from a data value (start, end, both, neither)." xlink:type="simple"><text fill="#000000" font-family="sans-serif" font-size="12.6" lengthAdjust="spacing" textLength="27.9" x="272.25" y="647.0753">trim :</text><text fill="#0000FF" font-family="sans-serif" font-size="12.6" lengthAdjust="spacing" textLength="63.9" x="303.75" y="647.0753">TrimValues</text></a></g></a><!--MD5=[78687ac1e18b9499ac1adbe94a0f57de]
class DDICDIModels::DDICDILibrary::Classes::FormatDescription::PhysicalRecordSegment--><a href="../DDICDILibrary/Classes/FormatDescription/PhysicalRecordSegment.html#super-class-hierarchy-generalization" target="_top" title=" ― PhysicalRecordSegment:&#10;Description of each physical storage segment required to completely cover a physical record representing the logical record." xlink:actuate="onRequest" xlink:href="../DDICDILibrary/Classes/FormatDescription/PhysicalRecordSegment.html#super-class-hierarchy-generalization" xlink:show="new" xlink:title=" ― PhysicalRecordSegment:&#10;Description of each physical storage segment required to completely cover a physical record representing the logical record." xlink:type="simple"><g id="elem_DDICDIModels::DDICDILibrary::Classes::FormatDescription::PhysicalRecordSegment"><rect codeLine="62" fill="#F1F1F1" height="36.1688" id="DDICDIModels::DDICDILibrary::Classes::FormatDescription::PhysicalRecordSegment" rx="2.25" ry="2.25" style="stroke:#404040;stroke-width:0.45;" width="144" x="675.45" y="399.9673"/><text fill="#000000" font-family="sans-serif" font-size="9" lengthAdjust="spacing" textLength="82.8" x="706.05" y="413.8101">FormatDescription::</text><text fill="#0000FF" font-family="sans-serif" font-size="12.6" lengthAdjust="spacing" textLength="138.6" x="678.15" y="428.8675">PhysicalRecordSegment</text></g></a><!--MD5=[a9adb7d5838f1b0bea24c92aee024397]
class DDICDIModels::DDICDILibrary::Classes::FormatDescription::PhysicalLayoutRelationStructure--><a href="../DDICDILibrary/Classes/FormatDescription/PhysicalLayoutRelationStructure.html#super-class-hierarchy-generalization" target="_top" title=" ― PhysicalLayoutRelationStructure:&#10;Realization of relation structure that is used to describe the sequence of value mappings in a physical layout." xlink:actuate="onRequest" xlink:href="../DDICDILibrary/Classes/FormatDescription/PhysicalLayoutRelationStructure.html#super-class-hierarchy-generalization" xlink:show="new" xlink:title=" ― PhysicalLayoutRelationStructure:&#10;Realization of relation structure that is used to describe the sequence of value mappings in a physical layout." xlink:type="simple"><g id="elem_DDICDIModels::DDICDILibrary::Classes::FormatDescription::PhysicalLayoutRelationStructure"><rect codeLine="63" fill="#F1F1F1" height="36.1688" id="DDICDIModels::DDICDILibrary::Classes::FormatDescription::PhysicalLayoutRelationStructure" rx="2.25" ry="2.25" style="stroke:#404040;stroke-width:0.45;" width="189.9" x="915.3" y="399.9673"/><text fill="#000000" font-family="sans-serif" font-size="9" lengthAdjust="spacing" textLength="82.8" x="968.85" y="413.8101">FormatDescription::</text><text fill="#0000FF" font-family="sans-serif" font-size="12.6" lengthAdjust="spacing" textLength="184.5" x="918" y="428.8675">PhysicalLayoutRelationStructure</text></g></a><g id="elem_GMN11"><path d="M5.4,398.6173 L5.4,437.0501 A0,0 0 0 0 5.4,437.0501 L159.3,437.0501 A0,0 0 0 0 159.3,437.0501 L159.3,421.5673 L266.787,417.9673 L159.3,414.3673 L159.3,407.6173 L150.3,398.6173 L5.4,398.6173 A0,0 0 0 0 5.4,398.6173 " fill="#FFFFFF" style="stroke:#181818;stroke-width:0.45;"/><path d="M150.3,398.6173 L150.3,407.6173 L159.3,407.6173 L150.3,398.6173 " fill="#FFFFFF" style="stroke:#181818;stroke-width:0.45;"/><text fill="#000000" font-family="sans-serif" font-size="11.7" lengthAdjust="spacing" textLength="135" x="10.8" y="415.2629">Class has 6 associations.</text><text fill="#000000" font-family="sans-serif" font-size="11.7" lengthAdjust="spacing" textLength="120.6" x="10.8" y="429.9793">Only 3 are shown here.</text></g><!--MD5=[59e37648ad2ba15d85f7b62009201883]
link DDICDIModels::DDICDILibrary::Classes::FormatDescription::PhysicalSegmentLayout to DDICDIModels::DDICDILibrary::Classes::Conceptual::Concept--><g id="link_DDICDIModels::DDICDILibrary::Classes::FormatDescription::PhysicalSegmentLayout_DDICDIModels::DDICDILibrary::Classes::Conceptual::Concept"><a href="" target="_top" title=" ― isDefinedBy:&#10;The conceptual basis for the collection of members." xlink:actuate="onRequest" xlink:href="" xlink:show="new" xlink:title=" ― isDefinedBy:&#10;The conceptual basis for the collection of members." xlink:type="simple"><path codeLine="81" d="M526.275,269.2603 C565.182,234.6373 610.578,202.4983 659.25,183.9673 C755.145,147.4633 1031.247,134.1703 1120.95,183.9673 C1204.263,230.2183 1246.176,346.0483 1260.693,395.2693 " fill="none" id="DDICDIModels::DDICDILibrary::Classes::FormatDescription::PhysicalSegmentLayout-to-DDICDIModels::DDICDILibrary::Classes::Conceptual::Concept" style="stroke:#808080;stroke-width:1.35;"/><polygon fill="#808080" points="1262.016,399.8143,1263.204,391.0303,1260.756,395.4943,1256.292,393.0463,1262.016,399.8143" style="stroke:#808080;stroke-width:1.35;"/><text fill="#000000" font-family="sans-serif" font-size="11.7" lengthAdjust="spacing" textLength="73.8" x="940.05" y="152.0129"> isDefinedBy</text></a></g><!--MD5=[eaae9a79d7c0d0214db6d07ecfc6095e]
reverse link DDICDIModels::DDICDILibrary::Classes::FormatDescription::PhysicalSegmentLayout to DDICDIModels::DDICDILibrary::Classes::FormatDescription::PhysicalLayoutRelationStructure--><g id="link_DDICDIModels::DDICDILibrary::Classes::FormatDescription::PhysicalSegmentLayout_DDICDIModels::DDICDILibrary::Classes::FormatDescription::PhysicalLayoutRelationStructure"><a href="" target="_top" title=" ― structures:&#10;" xlink:actuate="onRequest" xlink:href="" xlink:show="new" xlink:title=" ― structures:&#10;" xlink:type="simple"><path codeLine="86" d="M529.713,266.2273 C567.846,232.7653 612.009,201.9493 659.25,183.9673 C732.528,156.0763 765.576,148.8223 835.65,183.9673 C928.764,230.6683 984.897,353.1763 1003.419,399.6973 " fill="none" id="DDICDIModels::DDICDILibrary::Classes::FormatDescription::PhysicalSegmentLayout-backto-DDICDIModels::DDICDILibrary::Classes::FormatDescription::PhysicalLayoutRelationStructure" style="stroke:#808080;stroke-width:1.35;"/><polygon fill="#808080" points="526.275,269.2603,534.7258,266.5857,529.644,266.2771,529.9526,261.1953,526.275,269.2603" style="stroke:#808080;stroke-width:1.35;"/><text fill="#000000" font-family="sans-serif" font-size="11.7" lengthAdjust="spacing" textLength="63.9" x="693.9" y="152.0129"> structures</text></a></g><!--MD5=[f93c26c37f9a6ffedc45b87ff6312a88]
reverse link DDICDIModels::DDICDILibrary::Classes::FormatDescription::PhysicalSegmentLayout to DDICDIModels::DDICDILibrary::Classes::FormatDescription::PhysicalRecordSegment--><g id="link_DDICDIModels::DDICDILibrary::Classes::FormatDescription::PhysicalSegmentLayout_DDICDIModels::DDICDILibrary::Classes::FormatDescription::PhysicalRecordSegment"><a href="" target="_top" title=" ― has:&#10;" xlink:actuate="onRequest" xlink:href="" xlink:show="new" xlink:title=" ― has:&#10;" xlink:type="simple"><path codeLine="91" d="M530.892,417.9673 C580.014,417.9673 633.681,417.9673 675.306,417.9673 " fill="none" id="DDICDIModels::DDICDILibrary::Classes::FormatDescription::PhysicalSegmentLayout-backto-DDICDIModels::DDICDILibrary::Classes::FormatDescription::PhysicalRecordSegment" style="stroke:#808080;stroke-width:1.35;"/><polygon fill="#808080" points="526.158,417.9673,534.258,421.5673,530.658,417.9673,534.258,414.3673,526.158,417.9673" style="stroke:#808080;stroke-width:1.35;"/><text fill="#000000" font-family="sans-serif" font-size="11.7" lengthAdjust="spacing" textLength="30.6" x="585.45" y="412.1129"> has</text></a></g><!--MD5=[cc1f6386a770d8c957d6d959fe23053f]
reverse link DDICDIModels::DDICDILibrary::Classes::FormatDescription::PhysicalSegmentLayout to DDICDIModels::DDICDILibrary::Classes::FormatDescription::UnitSegmentLayout--><g id="link_DDICDIModels::DDICDILibrary::Classes::FormatDescription::PhysicalSegmentLayout_DDICDIModels::DDICDILibrary::Classes::FormatDescription::UnitSegmentLayout"><path codeLine="132" d="M396.45,672.0193 C396.45,686.7433 396.45,699.3073 396.45,708.5773 " fill="none" id="DDICDIModels::DDICDILibrary::Classes::FormatDescription::PhysicalSegmentLayout-backto-DDICDIModels::DDICDILibrary::Classes::FormatDescription::UnitSegmentLayout" style="stroke:#D2691E;stroke-width:1.35;"/><polygon fill="none" points="390.15,671.8123,396.45,653.8123,402.75,671.8123,390.15,671.8123" style="stroke:#D2691E;stroke-width:1.35;"/></g><rect height="33.9609" style="stroke:#00000000;stroke-width:0.9;fill:none;" width="362.7" x="482.175" y="749.3361"/><text fill="#888888" font-family="sans-serif" font-size="9" lengthAdjust="spacing" textLength="2.7" x="662.175" y="758.6788"> </text><text fill="#888888" font-family="sans-serif" font-size="9" lengthAdjust="spacing" textLength="2.7" x="662.175" y="769.9991"> </text><text fill="#888888" font-family="sans-serif" font-size="9" lengthAdjust="spacing" textLength="362.7" x="482.175" y="781.3195">DDI Cross Domain Integration (DDI-CDI)   1.0 - FormatDescription::UnitSegmentLayout</text><!--MD5=[f24090b31b321669c2f3ec9993dabd13]
@startuml
!pragma ratio 0.5625
' HD display aspect ratio 16:9
' hyperlinkColor and pathHoverColor do not seem to work with class diagrams
' working approach: colors per item
' default font size for class names is 14

hide circle
hide empty members
scale 0.9

skinparam {
  ArrowThickness 1.5
  MinClassWidth 150
}

skinparam legend {
  BackgroundColor white
  FontSize 10
}

skinparam note {
  BackgroundColor white
}

skinparam class {
  ArrowColor #404040
  BorderColor #404040
}

skinparam package {
  FontColor lightgrey
  BorderColor lightgrey
}

title <size:20>UML Diagram: Class UnitSegmentLayout in Context\n
footer \n\nDDI Cross Domain Integration (DDI-CDI)   1.0 - FormatDescription::UnitSegmentLayout

legend top left
**Hints**
<color:grey>- Move the mouse cursor over a name to see more information.
<color:grey>- Click on a name to go to the corresponding page.
<color:grey>- The arrows of the inheritance tree are <color:#D2691E>colored<color:grey>.
endlegend

' Core class of diagram
class DDICDIModels::DDICDILibrary::Classes::FormatDescription::UnitSegmentLayout as "<size:10>FormatDescription::\n<color:black>UnitSegmentLayout" #FFD700 {
}

' Class definitions for associated classes without superclass (might have also an association)
' This would be too many constraints for Graphviz. 
together {
}

' Class definitions for suppliers of abstractions
together {
}

' Rest of class definitions, without associated classes of core class and abstraction supplier classes
class DDICDIModels::DDICDILibrary::Classes::Conceptual::Concept as "<size:10>Conceptual::\n<color:blue>Concept" [[../DDICDILibrary/Classes/Conceptual/Concept.html#super-class-hierarchy-generalization{ <U+2015> Concept:\nUnit of thought differentiated by characteristics (from the Generic Statistical Information Model version 1.2: https://statswiki.unece.org/display/clickablegsim/Concept).}]]
class DDICDIModels::DDICDILibrary::Classes::FormatDescription::PhysicalSegmentLayout as "<size:10>FormatDescription::\n<color:blue>PhysicalSegmentLayout" [[../DDICDILibrary/Classes/FormatDescription/PhysicalSegmentLayout.html#super-class-hierarchy-generalization{ <U+2015> PhysicalSegmentLayout:\nUsed as an extension point in the description of the different layout styles of data structure descriptions.}]]
class DDICDIModels::DDICDILibrary::Classes::FormatDescription::PhysicalRecordSegment as "<size:10>FormatDescription::\n<color:blue>PhysicalRecordSegment" [[../DDICDILibrary/Classes/FormatDescription/PhysicalRecordSegment.html#super-class-hierarchy-generalization{ <U+2015> PhysicalRecordSegment:\nDescription of each physical storage segment required to completely cover a physical record representing the logical record.}]]
class DDICDIModels::DDICDILibrary::Classes::FormatDescription::PhysicalLayoutRelationStructure as "<size:10>FormatDescription::\n<color:blue>PhysicalLayoutRelationStructure" [[../DDICDILibrary/Classes/FormatDescription/PhysicalLayoutRelationStructure.html#super-class-hierarchy-generalization{ <U+2015> PhysicalLayoutRelationStructure:\nRealization of relation structure that is used to describe the sequence of value mappings in a physical layout.}]]



' Associations

' Super classes
' Associations of Super classes
note left of DDICDIModels::DDICDILibrary::Classes::FormatDescription::PhysicalSegmentLayout : Class has 6 associations.\nOnly 3 are shown here.
' firstAncestor:	org.eclipse.uml2.uml.internal.impl.ClassImpl@1bc49bc5 (name: PhysicalSegmentLayout, visibility: <unset>) (isLeaf: false, isAbstract: false, isFinalSpecialization: false) (isActive: false)
' secondAncestor:	org.eclipse.uml2.uml.internal.impl.ClassImpl@1bc49bc5 (name: PhysicalSegmentLayout, visibility: <unset>) (isLeaf: false, isAbstract: false, isFinalSpecialization: false) (isActive: false)



' aClass:			UnitSegmentLayout
' aSuperClass:		PhysicalSegmentLayout
' e_ownedEndClass:	PhysicalSegmentLayout
' e_otherEndClass:	Concept
DDICDIModels::DDICDILibrary::Classes::FormatDescription::PhysicalSegmentLayout -[#grey]> DDICDIModels::DDICDILibrary::Classes::Conceptual::Concept [[{ <U+2015> isDefinedBy:\nThe conceptual basis for the collection of members.}]] : <U+2003>isDefinedBy
' aClass:			UnitSegmentLayout
' aSuperClass:		PhysicalSegmentLayout
' e_ownedEndClass:	PhysicalLayoutRelationStructure
' e_otherEndClass:	PhysicalSegmentLayout
DDICDIModels::DDICDILibrary::Classes::FormatDescription::PhysicalSegmentLayout <-[#grey] DDICDIModels::DDICDILibrary::Classes::FormatDescription::PhysicalLayoutRelationStructure [[{ <U+2015> structures:\n}]] : <U+2003>structures
' aClass:			UnitSegmentLayout
' aSuperClass:		PhysicalSegmentLayout
' e_ownedEndClass:	PhysicalRecordSegment
' e_otherEndClass:	PhysicalSegmentLayout
DDICDIModels::DDICDILibrary::Classes::FormatDescription::PhysicalSegmentLayout <-[#grey] DDICDIModels::DDICDILibrary::Classes::FormatDescription::PhysicalRecordSegment [[{ <U+2015> has:\n}]] : <U+2003>has

class DDICDIModels::DDICDILibrary::Classes::FormatDescription::PhysicalSegmentLayout as "<size:10> \n<color:blue>PhysicalSegmentLayout" [[../DDICDILibrary/Classes/FormatDescription/PhysicalSegmentLayout.html#super-class-hierarchy-generalization{ <U+2015> PhysicalSegmentLayout:\nUsed as an extension point in the description of the different layout styles of data structure descriptions.}]] #FAFAD2 {
  allowsDuplicates : Boolean
  arrayBase : Integer
  catalogDetails : <color:blue>CatalogDetails   	  [[[../DDICDILibrary/DataTypes/StructuredDataTypes/CatalogDetails.html#diagram{ <U+2015> CatalogDetails:\nA set of information useful for attribution, data discovery, and access.}]]]
  commentPrefix : String
  delimiter : String
  encoding : <color:blue>ControlledVocabularyEntry   	  [[[../DDICDILibrary/DataTypes/StructuredDataTypes/ControlledVocabularyEntry.html#diagram{ <U+2015> ControlledVocabularyEntry:\nAllows for unstructured content which may be an entry from an externally maintained controlled vocabulary.If the content is from a controlled vocabulary provide the code value of the entry, as well as a reference to the controlled vocabulary from which the value is taken. Provide as many of the iden ...}]]]
  escapeCharacter : String
  hasHeader : Boolean
  headerIsCaseSensitive : Boolean
  headerRowCount : Integer
  identifier : <color:blue>Identifier   	  [[[../DDICDILibrary/DataTypes/StructuredDataTypes/Identifier.html#diagram{ <U+2015> Identifier:\nIdentifier for objects requiring short- or long-lasting referencing and management.}]]]
  isDelimited : Boolean
  isFixedWidth : Boolean
  lineTerminator : String
  name : <color:blue>ObjectName   	  [[[../DDICDILibrary/DataTypes/StructuredDataTypes/ObjectName.html#diagram{ <U+2015> ObjectName:\nA standard means of expressing a name for a class object. A linguistic signifier. Human understandable name (word, phrase, or mnemonic) that reflects the ISO/IEC 11179-5 naming principles.}]]]
  nullSequence : String
  overview : <color:blue>InternationalString   	  [[[../DDICDILibrary/DataTypes/StructuredDataTypes/InternationalString.html#diagram{ <U+2015> InternationalString:\nPackaging structure for multiple language versions of the same string content. Where an element of this type is repeatable, the expectation is that each repetition contains different content, each of which can be expressed in multiple languages. The language designation goes on the individual String ...}]]]
  purpose : <color:blue>InternationalString   	  [[[../DDICDILibrary/DataTypes/StructuredDataTypes/InternationalString.html#diagram{ <U+2015> InternationalString:\nPackaging structure for multiple language versions of the same string content. Where an element of this type is repeatable, the expectation is that each repetition contains different content, each of which can be expressed in multiple languages. The language designation goes on the individual String ...}]]]
  quoteCharacter : String
  skipBlankRows : Boolean
  skipDataColumns : Integer
  skipInitialSpace : Boolean
  skipRows : Integer
  tableDirection : <color:blue>TableDirectionValues   	  [[[../DDICDILibrary/DataTypes/Enumerations/TableDirectionValues.html#diagram{ <U+2015> TableDirectionValues:\nIndicates whether the tables in the group should be displayed with the first column on the right, on the left, or based on the first character in the table that has a specific direction.}]]]
  textDirection : <color:blue>TextDirectionValues   	  [[[../DDICDILibrary/DataTypes/Enumerations/TextDirectionValues.html#diagram{ <U+2015> TextDirectionValues:\nIndicates whether the text within cells should be displayed as left-to-right text (ltr), as right-to-left text (rtl), according to the content of the cell (auto) or in the direction inherited from the table direction annotation of the table.}]]]
  treatConsecutiveDelimitersAsOne : Boolean
  trim : <color:blue>TrimValues   	  [[[../DDICDILibrary/DataTypes/Enumerations/TrimValues.html#diagram{ <U+2015> TrimValues:\nSpecifies which spaces to remove from a data value (start, end, both, neither).}]]]
}

DDICDIModels::DDICDILibrary::Classes::FormatDescription::PhysicalSegmentLayout <|-[#D2691E]- DDICDIModels::DDICDILibrary::Classes::FormatDescription::UnitSegmentLayout


' Abstractions
@enduml

@startuml
!pragma ratio 0.5625

hide circle
hide empty members
scale 0.9

skinparam {
  ArrowThickness 1.5
  MinClassWidth 150
}

skinparam legend {
  BackgroundColor white
  FontSize 10
}

skinparam note {
  BackgroundColor white
}

skinparam class {
  ArrowColor #404040
  BorderColor #404040
}

skinparam package {
  FontColor lightgrey
  BorderColor lightgrey
}

title <size:20>UML Diagram: Class UnitSegmentLayout in Context\n
footer \n\nDDI Cross Domain Integration (DDI-CDI)   1.0 - FormatDescription::UnitSegmentLayout

legend top left
**Hints**
<color:grey>- Move the mouse cursor over a name to see more information.
<color:grey>- Click on a name to go to the corresponding page.
<color:grey>- The arrows of the inheritance tree are <color:#D2691E>colored<color:grey>.
endlegend

class DDICDIModels::DDICDILibrary::Classes::FormatDescription::UnitSegmentLayout as "<size:10>FormatDescription::\n<color:black>UnitSegmentLayout" #FFD700 {
}

together {
}

together {
}

class DDICDIModels::DDICDILibrary::Classes::Conceptual::Concept as "<size:10>Conceptual::\n<color:blue>Concept" [[../DDICDILibrary/Classes/Conceptual/Concept.html#super-class-hierarchy-generalization{ <U+2015> Concept:\nUnit of thought differentiated by characteristics (from the Generic Statistical Information Model version 1.2: https://statswiki.unece.org/display/clickablegsim/Concept).}]]
class DDICDIModels::DDICDILibrary::Classes::FormatDescription::PhysicalSegmentLayout as "<size:10>FormatDescription::\n<color:blue>PhysicalSegmentLayout" [[../DDICDILibrary/Classes/FormatDescription/PhysicalSegmentLayout.html#super-class-hierarchy-generalization{ <U+2015> PhysicalSegmentLayout:\nUsed as an extension point in the description of the different layout styles of data structure descriptions.}]]
class DDICDIModels::DDICDILibrary::Classes::FormatDescription::PhysicalRecordSegment as "<size:10>FormatDescription::\n<color:blue>PhysicalRecordSegment" [[../DDICDILibrary/Classes/FormatDescription/PhysicalRecordSegment.html#super-class-hierarchy-generalization{ <U+2015> PhysicalRecordSegment:\nDescription of each physical storage segment required to completely cover a physical record representing the logical record.}]]
class DDICDIModels::DDICDILibrary::Classes::FormatDescription::PhysicalLayoutRelationStructure as "<size:10>FormatDescription::\n<color:blue>PhysicalLayoutRelationStructure" [[../DDICDILibrary/Classes/FormatDescription/PhysicalLayoutRelationStructure.html#super-class-hierarchy-generalization{ <U+2015> PhysicalLayoutRelationStructure:\nRealization of relation structure that is used to describe the sequence of value mappings in a physical layout.}]]




note left of DDICDIModels::DDICDILibrary::Classes::FormatDescription::PhysicalSegmentLayout : Class has 6 associations.\nOnly 3 are shown here.



DDICDIModels::DDICDILibrary::Classes::FormatDescription::PhysicalSegmentLayout -[#grey]> DDICDIModels::DDICDILibrary::Classes::Conceptual::Concept [[{ <U+2015> isDefinedBy:\nThe conceptual basis for the collection of members.}]] : <U+2003>isDefinedBy
DDICDIModels::DDICDILibrary::Classes::FormatDescription::PhysicalSegmentLayout <-[#grey] DDICDIModels::DDICDILibrary::Classes::FormatDescription::PhysicalLayoutRelationStructure [[{ <U+2015> structures:\n}]] : <U+2003>structures
DDICDIModels::DDICDILibrary::Classes::FormatDescription::PhysicalSegmentLayout <-[#grey] DDICDIModels::DDICDILibrary::Classes::FormatDescription::PhysicalRecordSegment [[{ <U+2015> has:\n}]] : <U+2003>has

class DDICDIModels::DDICDILibrary::Classes::FormatDescription::PhysicalSegmentLayout as "<size:10> \n<color:blue>PhysicalSegmentLayout" [[../DDICDILibrary/Classes/FormatDescription/PhysicalSegmentLayout.html#super-class-hierarchy-generalization{ <U+2015> PhysicalSegmentLayout:\nUsed as an extension point in the description of the different layout styles of data structure descriptions.}]] #FAFAD2 {
  allowsDuplicates : Boolean
  arrayBase : Integer
  catalogDetails : <color:blue>CatalogDetails   	  [[[../DDICDILibrary/DataTypes/StructuredDataTypes/CatalogDetails.html#diagram{ <U+2015> CatalogDetails:\nA set of information useful for attribution, data discovery, and access.}]]]
  commentPrefix : String
  delimiter : String
  encoding : <color:blue>ControlledVocabularyEntry   	  [[[../DDICDILibrary/DataTypes/StructuredDataTypes/ControlledVocabularyEntry.html#diagram{ <U+2015> ControlledVocabularyEntry:\nAllows for unstructured content which may be an entry from an externally maintained controlled vocabulary.If the content is from a controlled vocabulary provide the code value of the entry, as well as a reference to the controlled vocabulary from which the value is taken. Provide as many of the iden ...}]]]
  escapeCharacter : String
  hasHeader : Boolean
  headerIsCaseSensitive : Boolean
  headerRowCount : Integer
  identifier : <color:blue>Identifier   	  [[[../DDICDILibrary/DataTypes/StructuredDataTypes/Identifier.html#diagram{ <U+2015> Identifier:\nIdentifier for objects requiring short- or long-lasting referencing and management.}]]]
  isDelimited : Boolean
  isFixedWidth : Boolean
  lineTerminator : String
  name : <color:blue>ObjectName   	  [[[../DDICDILibrary/DataTypes/StructuredDataTypes/ObjectName.html#diagram{ <U+2015> ObjectName:\nA standard means of expressing a name for a class object. A linguistic signifier. Human understandable name (word, phrase, or mnemonic) that reflects the ISO/IEC 11179-5 naming principles.}]]]
  nullSequence : String
  overview : <color:blue>InternationalString   	  [[[../DDICDILibrary/DataTypes/StructuredDataTypes/InternationalString.html#diagram{ <U+2015> InternationalString:\nPackaging structure for multiple language versions of the same string content. Where an element of this type is repeatable, the expectation is that each repetition contains different content, each of which can be expressed in multiple languages. The language designation goes on the individual String ...}]]]
  purpose : <color:blue>InternationalString   	  [[[../DDICDILibrary/DataTypes/StructuredDataTypes/InternationalString.html#diagram{ <U+2015> InternationalString:\nPackaging structure for multiple language versions of the same string content. Where an element of this type is repeatable, the expectation is that each repetition contains different content, each of which can be expressed in multiple languages. The language designation goes on the individual String ...}]]]
  quoteCharacter : String
  skipBlankRows : Boolean
  skipDataColumns : Integer
  skipInitialSpace : Boolean
  skipRows : Integer
  tableDirection : <color:blue>TableDirectionValues   	  [[[../DDICDILibrary/DataTypes/Enumerations/TableDirectionValues.html#diagram{ <U+2015> TableDirectionValues:\nIndicates whether the tables in the group should be displayed with the first column on the right, on the left, or based on the first character in the table that has a specific direction.}]]]
  textDirection : <color:blue>TextDirectionValues   	  [[[../DDICDILibrary/DataTypes/Enumerations/TextDirectionValues.html#diagram{ <U+2015> TextDirectionValues:\nIndicates whether the text within cells should be displayed as left-to-right text (ltr), as right-to-left text (rtl), according to the content of the cell (auto) or in the direction inherited from the table direction annotation of the table.}]]]
  treatConsecutiveDelimitersAsOne : Boolean
  trim : <color:blue>TrimValues   	  [[[../DDICDILibrary/DataTypes/Enumerations/TrimValues.html#diagram{ <U+2015> TrimValues:\nSpecifies which spaces to remove from a data value (start, end, both, neither).}]]]
}

DDICDIModels::DDICDILibrary::Classes::FormatDescription::PhysicalSegmentLayout <|-[#D2691E]- DDICDIModels::DDICDILibrary::Classes::FormatDescription::UnitSegmentLayout


@enduml

PlantUML version 1.2022.6(Tue Jun 21 19:34:49 CEST 2022)
(GPL source distribution)
Java Runtime: OpenJDK Runtime Environment
JVM: OpenJDK 64-Bit Server VM
Default Encoding: Cp1252
Language: en
Country: US
--></g></svg>