<?xml version="1.0" encoding="UTF-8" standalone="no"?><svg xmlns="http://www.w3.org/2000/svg" xmlns:xlink="http://www.w3.org/1999/xlink" contentStyleType="text/css" height="667.8px" preserveAspectRatio="none" style="width:989px;height:667px;background:#FFFFFF;" version="1.1" viewBox="0 0 989 667" width="989.1px" zoomAndPan="magnify"><defs/><g><rect height="47.4891" style="stroke:#00000000;stroke-width:0.9;fill:none;" width="452.7" x="262.125" y="4.5"/><text fill="#000000" font-family="sans-serif" font-size="18" font-weight="bold" lengthAdjust="spacing" textLength="443.7" x="266.625" y="27.6855">UML Diagram: Class IdentifierComponent in Context</text><text fill="#000000" font-family="sans-serif" font-size="12.6" font-weight="bold" lengthAdjust="spacing" textLength="3.6" x="486.675" y="44.7205"> </text><rect fill="#FFFFFF" height="56.0813" rx="6.75" ry="6.75" style="stroke:#000000;stroke-width:0.9;" width="276.3" x="7.2" y="64.5891"/><text fill="#000000" font-family="sans-serif" font-size="9" font-weight="bold" lengthAdjust="spacing" textLength="22.5" x="12.6" y="79.3318">Hints</text><text fill="#808080" font-family="sans-serif" font-size="9" lengthAdjust="spacing" textLength="265.5" x="12.6" y="90.6521">- Move the mouse cursor over a name to see more information.</text><text fill="#808080" font-family="sans-serif" font-size="9" lengthAdjust="spacing" textLength="216" x="12.6" y="101.9725">- Click on a name to go to the corresponding page.</text><text fill="#808080" font-family="sans-serif" font-size="9" lengthAdjust="spacing" textLength="164.7" x="12.6" y="113.2928">- The arrows of the inheritance tree are</text><text fill="#D2691E" font-family="sans-serif" font-size="9" lengthAdjust="spacing" textLength="32.4" x="180" y="113.2928">colored</text><text fill="#808080" font-family="sans-serif" font-size="9" lengthAdjust="spacing" textLength="2.7" x="212.4" y="113.2928">.</text><!--MD5=[96efadafc80a3ed57ff66fa3707a7134]
class DDICDIModels::DDICDILibrary::Classes::DataDescription::Wide::WideKeyMember--><a href="../DDICDILibrary/Classes/DataDescription/Wide/WideKeyMember.html#super-class-hierarchy-generalization" target="_top" title=" ― WideKeyMember:&#10;Single data instance that is part of a wide key." xlink:actuate="onRequest" xlink:href="../DDICDILibrary/Classes/DataDescription/Wide/WideKeyMember.html#super-class-hierarchy-generalization" xlink:show="new" xlink:title=" ― WideKeyMember:&#10;Single data instance that is part of a wide key." xlink:type="simple"><g id="elem_DDICDIModels::DDICDILibrary::Classes::DataDescription::Wide::WideKeyMember"><rect codeLine="53" fill="#F1F1F1" height="36.1688" id="DDICDIModels::DDICDILibrary::Classes::DataDescription::Wide::WideKeyMember" rx="2.25" ry="2.25" style="stroke:#404040;stroke-width:0.45;" width="135" x="87.75" y="586.7533"/><text fill="#000000" font-family="sans-serif" font-size="9" lengthAdjust="spacing" textLength="27" x="141.75" y="600.5961">Wide::</text><text fill="#0000FF" font-family="sans-serif" font-size="12.6" lengthAdjust="spacing" textLength="96.3" x="107.1" y="615.6535">WideKeyMember</text></g></a><!--MD5=[1e072c045d3045cf50b952b68f6c1e7f]
class DDICDIModels::DDICDILibrary::Classes::DataDescription::KeyValue::MainKeyMember--><a href="../DDICDILibrary/Classes/DataDescription/KeyValue/MainKeyMember.html#super-class-hierarchy-generalization" target="_top" title=" ― MainKeyMember:&#10;Identifies the unit of interest, either a statistical unit or a population, via identifier or dimension components, respectively, plus an optional contextual component. If neither identifier nor dimension components are present, then a synthetic id component is used." xlink:actuate="onRequest" xlink:href="../DDICDILibrary/Classes/DataDescription/KeyValue/MainKeyMember.html#super-class-hierarchy-generalization" xlink:show="new" xlink:title=" ― MainKeyMember:&#10;Identifies the unit of interest, either a statistical unit or a population, via identifier or dimension components, respectively, plus an optional contextual component. If neither identifier nor dimension components are present, then a synthetic id component is used." xlink:type="simple"><g id="elem_DDICDIModels::DDICDILibrary::Classes::DataDescription::KeyValue::MainKeyMember"><rect codeLine="54" fill="#F1F1F1" height="36.1688" id="DDICDIModels::DDICDILibrary::Classes::DataDescription::KeyValue::MainKeyMember" rx="2.25" ry="2.25" style="stroke:#404040;stroke-width:0.45;" width="135" x="254.25" y="586.7533"/><text fill="#000000" font-family="sans-serif" font-size="9" lengthAdjust="spacing" textLength="46.8" x="298.35" y="600.5961">KeyValue::</text><text fill="#0000FF" font-family="sans-serif" font-size="12.6" lengthAdjust="spacing" textLength="94.5" x="274.5" y="615.6535">MainKeyMember</text></g></a><!--MD5=[bb41f45ac46f4ee5542eed3acac73083]
class DDICDIModels::DDICDILibrary::Classes::DataDescription::Long::LongMainKeyMember--><a href="../DDICDILibrary/Classes/DataDescription/Long/LongMainKeyMember.html#super-class-hierarchy-generalization" target="_top" title=" ― LongMainKeyMember:&#10;Single data instance that is part of a long key." xlink:actuate="onRequest" xlink:href="../DDICDILibrary/Classes/DataDescription/Long/LongMainKeyMember.html#super-class-hierarchy-generalization" xlink:show="new" xlink:title=" ― LongMainKeyMember:&#10;Single data instance that is part of a long key." xlink:type="simple"><g id="elem_DDICDIModels::DDICDILibrary::Classes::DataDescription::Long::LongMainKeyMember"><rect codeLine="55" fill="#F1F1F1" height="36.1688" id="DDICDIModels::DDICDILibrary::Classes::DataDescription::Long::LongMainKeyMember" rx="2.25" ry="2.25" style="stroke:#404040;stroke-width:0.45;" width="135" x="420.75" y="586.7533"/><text fill="#000000" font-family="sans-serif" font-size="9" lengthAdjust="spacing" textLength="27" x="474.75" y="600.5961">Long::</text><text fill="#0000FF" font-family="sans-serif" font-size="12.6" lengthAdjust="spacing" textLength="123.3" x="426.6" y="615.6535">LongMainKeyMember</text></g></a><!--MD5=[f9cab4dd997d7c1fc86d2ab62e0cc130]
entity ##8--><!--MD5=[99cf15a7a316677af9bdbbf2aed221fb]
class DDICDIModels::DDICDILibrary::Classes::DataDescription::Components::IdentifierComponent--><g id="elem_DDICDIModels::DDICDILibrary::Classes::DataDescription::Components::IdentifierComponent"><rect codeLine="47" fill="#FFD700" height="36.1688" id="DDICDIModels::DDICDILibrary::Classes::DataDescription::Components::IdentifierComponent" rx="2.25" ry="2.25" style="stroke:#404040;stroke-width:0.45;" width="135" x="254.25" y="431.0533"/><text fill="#000000" font-family="sans-serif" font-size="9" lengthAdjust="spacing" textLength="58.5" x="292.5" y="444.8961">Components::</text><text fill="#000000" font-family="sans-serif" font-size="12.6" lengthAdjust="spacing" textLength="114.3" x="264.6" y="459.9535">IdentifierComponent</text></g><!--MD5=[e7e7182780bccba8828738500ef82a58]
class DDICDIModels::DDICDILibrary::Classes::DataDescription::DataPoint--><a href="../DDICDILibrary/Classes/DataDescription/DataPoint.html#super-class-hierarchy-generalization" target="_top" title=" ― DataPoint:&#10;Container for an instance value." xlink:actuate="onRequest" xlink:href="../DDICDILibrary/Classes/DataDescription/DataPoint.html#super-class-hierarchy-generalization" xlink:show="new" xlink:title=" ― DataPoint:&#10;Container for an instance value." xlink:type="simple"><g id="elem_DDICDIModels::DDICDILibrary::Classes::DataDescription::DataPoint"><rect codeLine="63" fill="#F1F1F1" height="36.1688" id="DDICDIModels::DDICDILibrary::Classes::DataDescription::DataPoint" rx="2.25" ry="2.25" style="stroke:#404040;stroke-width:0.45;" width="135" x="682.65" y="260.9533"/><text fill="#000000" font-family="sans-serif" font-size="9" lengthAdjust="spacing" textLength="72.9" x="713.7" y="274.7961">DataDescription::</text><text fill="#0000FF" font-family="sans-serif" font-size="12.6" lengthAdjust="spacing" textLength="55.8" x="722.25" y="289.8535">DataPoint</text></g></a><!--MD5=[6ad7b2ef38a4f700249d0e2b32d82517]
class DDICDIModels::DDICDILibrary::Classes::DataDescription::DataStructure--><a href="../DDICDILibrary/Classes/DataDescription/DataStructure.html#super-class-hierarchy-generalization" target="_top" title=" ― DataStructure:&#10;Data organization based on reusable data structure components." xlink:actuate="onRequest" xlink:href="../DDICDILibrary/Classes/DataDescription/DataStructure.html#super-class-hierarchy-generalization" xlink:show="new" xlink:title=" ― DataStructure:&#10;Data organization based on reusable data structure components." xlink:type="simple"><g id="elem_DDICDIModels::DDICDILibrary::Classes::DataDescription::DataStructure"><rect codeLine="64" fill="#F1F1F1" height="36.1688" id="DDICDIModels::DDICDILibrary::Classes::DataDescription::DataStructure" rx="2.25" ry="2.25" style="stroke:#404040;stroke-width:0.45;" width="135" x="516.15" y="260.9533"/><text fill="#000000" font-family="sans-serif" font-size="9" lengthAdjust="spacing" textLength="72.9" x="547.2" y="274.7961">DataDescription::</text><text fill="#0000FF" font-family="sans-serif" font-size="12.6" lengthAdjust="spacing" textLength="79.2" x="544.05" y="289.8535">DataStructure</text></g></a><!--MD5=[65a51a3beb66455af85c430549e256a7]
class DDICDIModels::DDICDILibrary::Classes::Conceptual::RepresentedVariable--><a href="../DDICDILibrary/Classes/Conceptual/RepresentedVariable.html#super-class-hierarchy-generalization" target="_top" title=" ― RepresentedVariable:&#10;Conceptual variable with a substantive value domain specified." xlink:actuate="onRequest" xlink:href="../DDICDILibrary/Classes/Conceptual/RepresentedVariable.html#super-class-hierarchy-generalization" xlink:show="new" xlink:title=" ― RepresentedVariable:&#10;Conceptual variable with a substantive value domain specified." xlink:type="simple"><g id="elem_DDICDIModels::DDICDILibrary::Classes::Conceptual::RepresentedVariable"><rect codeLine="65" fill="#F1F1F1" height="36.1688" id="DDICDIModels::DDICDILibrary::Classes::Conceptual::RepresentedVariable" rx="2.25" ry="2.25" style="stroke:#404040;stroke-width:0.45;" width="135" x="849.15" y="260.9533"/><text fill="#000000" font-family="sans-serif" font-size="9" lengthAdjust="spacing" textLength="54.9" x="889.2" y="274.7961">Conceptual::</text><text fill="#0000FF" font-family="sans-serif" font-size="12.6" lengthAdjust="spacing" textLength="120.6" x="856.35" y="289.8535">RepresentedVariable</text></g></a><!--MD5=[1fe5a69c56948e803e4ee51554e950d9]
class DDICDIModels::DDICDILibrary::Classes::DataDescription::Components::DataStructureComponent--><a href="../DDICDILibrary/Classes/DataDescription/Components/DataStructureComponent.html#super-class-hierarchy-generalization" target="_top" title=" ― DataStructureComponent:&#10;Role given to a represented variable in the context of a data structure." xlink:actuate="onRequest" xlink:href="../DDICDILibrary/Classes/DataDescription/Components/DataStructureComponent.html#super-class-hierarchy-generalization" xlink:show="new" xlink:title=" ― DataStructureComponent:&#10;Role given to a represented variable in the context of a data structure." xlink:type="simple"><g id="elem_DDICDIModels::DDICDILibrary::Classes::DataDescription::Components::DataStructureComponent"><rect codeLine="99" fill="#FAFAD2" height="90.9141" id="DDICDIModels::DDICDILibrary::Classes::DataDescription::Components::DataStructureComponent" rx="2.25" ry="2.25" style="stroke:#404040;stroke-width:0.45;" width="261" x="191.25" y="233.5033"/><text fill="#000000" font-family="sans-serif" font-size="9" lengthAdjust="spacing" textLength="58.5" x="292.5" y="247.3461">Components::</text><text fill="#0000FF" font-family="sans-serif" font-size="12.6" lengthAdjust="spacing" textLength="144.9" x="249.3" y="262.4035">DataStructureComponent</text><line style="stroke:#404040;stroke-width:0.45;" x1="192.15" x2="451.35" y1="269.6721" y2="269.6721"/><a href="../DDICDILibrary/DataTypes/StructuredDataTypes/Identifier.html#diagram" target="_top" title=" ― Identifier:&#10;Identifier for objects requiring short- or long-lasting referencing and management." xlink:actuate="onRequest" xlink:href="../DDICDILibrary/DataTypes/StructuredDataTypes/Identifier.html#diagram" xlink:show="new" xlink:title=" ― Identifier:&#10;Identifier for objects requiring short- or long-lasting referencing and management." xlink:type="simple"><text fill="#000000" font-family="sans-serif" font-size="12.6" lengthAdjust="spacing" textLength="55.8" x="196.65" y="286.3519">identifier :</text><text fill="#0000FF" font-family="sans-serif" font-size="12.6" lengthAdjust="spacing" textLength="48.6" x="256.05" y="286.3519">Identifier</text></a><a href="../DDICDILibrary/DataTypes/StructuredDataTypes/PairedControlledVocabularyEntry.html#diagram" target="_top" title=" ― PairedControlledVocabularyEntry:&#10;A tightly bound pair of items from an external controlled vocabulary. The extent property describes the extent to which the parent term applies for the specific case." xlink:actuate="onRequest" xlink:href="../DDICDILibrary/DataTypes/StructuredDataTypes/PairedControlledVocabularyEntry.html#diagram" xlink:show="new" xlink:title=" ― PairedControlledVocabularyEntry:&#10;A tightly bound pair of items from an external controlled vocabulary. The extent property describes the extent to which the parent term applies for the specific case." xlink:type="simple"><text fill="#000000" font-family="sans-serif" font-size="12.6" lengthAdjust="spacing" textLength="57.6" x="196.65" y="302.2004">semantic :</text><text fill="#0000FF" font-family="sans-serif" font-size="12.6" lengthAdjust="spacing" textLength="189" x="257.85" y="302.2004">PairedControlledVocabularyEntry</text></a><a href="../DDICDILibrary/DataTypes/StructuredDataTypes/SpecializationRole.html#diagram" target="_top" title=" ― SpecializationRole:&#10;Specific roles played by represented variables in terms of time, geography, and other concepts which are important for the harmonization and integration of data." xlink:actuate="onRequest" xlink:href="../DDICDILibrary/DataTypes/StructuredDataTypes/SpecializationRole.html#diagram" xlink:show="new" xlink:title=" ― SpecializationRole:&#10;Specific roles played by represented variables in terms of time, geography, and other concepts which are important for the harmonization and integration of data." xlink:type="simple"><text fill="#000000" font-family="sans-serif" font-size="12.6" lengthAdjust="spacing" textLength="82.8" x="196.65" y="318.0488">specialization :</text><text fill="#0000FF" font-family="sans-serif" font-size="12.6" lengthAdjust="spacing" textLength="103.5" x="283.05" y="318.0488">SpecializationRole</text></a></g></a><g id="elem_GMN17"><path d="M5.4,259.6033 L5.4,298.0361 A0,0 0 0 0 5.4,298.0361 L159.3,298.0361 A0,0 0 0 0 159.3,298.0361 L159.3,282.5533 L191.187,278.9533 L159.3,275.3533 L159.3,268.6033 L150.3,259.6033 L5.4,259.6033 A0,0 0 0 0 5.4,259.6033 " fill="#FFFFFF" style="stroke:#181818;stroke-width:0.45;"/><path d="M150.3,259.6033 L150.3,268.6033 L159.3,268.6033 L150.3,259.6033 " fill="#FFFFFF" style="stroke:#181818;stroke-width:0.45;"/><text fill="#000000" font-family="sans-serif" font-size="11.7" lengthAdjust="spacing" textLength="135" x="10.8" y="276.2489">Class has 8 associations.</text><text fill="#000000" font-family="sans-serif" font-size="11.7" lengthAdjust="spacing" textLength="120.6" x="10.8" y="290.9653">Only 3 are shown here.</text></g><!--MD5=[c6b6b088e66b204b33822bb9b236f38a]
reverse link DDICDIModels::DDICDILibrary::Classes::DataDescription::Components::IdentifierComponent to DDICDIModels::DDICDILibrary::Classes::DataDescription::Long::LongMainKeyMember--><g id="link_DDICDIModels::DDICDILibrary::Classes::DataDescription::Components::IdentifierComponent_DDICDIModels::DDICDILibrary::Classes::DataDescription::Long::LongMainKeyMember"><a href="" target="_top" title=" ― isBasedOn:&#10;" xlink:actuate="onRequest" xlink:href="" xlink:show="new" xlink:title=" ― isBasedOn:&#10;" xlink:type="simple"><path codeLine="71" d="M344.025,470.5453 C377.118,501.1273 438.651,558.0073 469.539,586.5643 " fill="none" id="DDICDIModels::DDICDILibrary::Classes::DataDescription::Components::IdentifierComponent-backto-DDICDIModels::DDICDILibrary::Classes::DataDescription::Long::LongMainKeyMember" style="stroke:#808080;stroke-width:1.35;"/><polygon fill="#808080" points="340.524,467.3053,344.038,475.443,343.8321,470.356,348.9191,470.15,340.524,467.3053" style="stroke:#808080;stroke-width:1.35;"/><text fill="#000000" font-family="sans-serif" font-size="11.7" lengthAdjust="spacing" textLength="57.6" x="410.85" y="530.4989">isBasedOn</text></a></g><!--MD5=[71d85ce73613ea83b82f69c7c8c67009]
reverse link DDICDIModels::DDICDILibrary::Classes::DataDescription::Components::IdentifierComponent to DDICDIModels::DDICDILibrary::Classes::DataDescription::KeyValue::MainKeyMember--><g id="link_DDICDIModels::DDICDILibrary::Classes::DataDescription::Components::IdentifierComponent_DDICDIModels::DDICDILibrary::Classes::DataDescription::KeyValue::MainKeyMember"><a href="" target="_top" title=" ― isBasedOn:&#10;" xlink:actuate="onRequest" xlink:href="" xlink:show="new" xlink:title=" ― isBasedOn:&#10;" xlink:type="simple"><path codeLine="72" d="M321.75,472.0483 C321.75,502.9633 321.75,558.4753 321.75,586.5643 " fill="none" id="DDICDIModels::DDICDILibrary::Classes::DataDescription::Components::IdentifierComponent-backto-DDICDIModels::DDICDILibrary::Classes::DataDescription::KeyValue::MainKeyMember" style="stroke:#808080;stroke-width:1.35;"/><polygon fill="#808080" points="321.75,467.3053,318.15,475.4053,321.75,471.8053,325.35,475.4053,321.75,467.3053" style="stroke:#808080;stroke-width:1.35;"/><text fill="#000000" font-family="sans-serif" font-size="11.7" lengthAdjust="spacing" textLength="57.6" x="322.65" y="530.4989">isBasedOn</text></a></g><!--MD5=[a56c5c93982c2f2e7533c8e8e1eae2e3]
reverse link DDICDIModels::DDICDILibrary::Classes::DataDescription::Components::IdentifierComponent to DDICDIModels::DDICDILibrary::Classes::DataDescription::Wide::WideKeyMember--><g id="link_DDICDIModels::DDICDILibrary::Classes::DataDescription::Components::IdentifierComponent_DDICDIModels::DDICDILibrary::Classes::DataDescription::Wide::WideKeyMember"><a href="" target="_top" title=" ― isBasedOn:&#10;" xlink:actuate="onRequest" xlink:href="" xlink:show="new" xlink:title=" ― isBasedOn:&#10;" xlink:type="simple"><path codeLine="73" d="M299.475,470.5453 C266.382,501.1273 204.849,558.0073 173.961,586.5643 " fill="none" id="DDICDIModels::DDICDILibrary::Classes::DataDescription::Components::IdentifierComponent-backto-DDICDIModels::DDICDILibrary::Classes::DataDescription::Wide::WideKeyMember" style="stroke:#808080;stroke-width:1.35;"/><polygon fill="#808080" points="302.976,467.3053,294.5809,470.15,299.6679,470.356,299.462,475.443,302.976,467.3053" style="stroke:#808080;stroke-width:1.35;"/><text fill="#000000" font-family="sans-serif" font-size="11.7" lengthAdjust="spacing" textLength="57.6" x="249.75" y="530.4989">isBasedOn</text></a></g><!--MD5=[c63541bbe79c986839a22d272db8c3c1]
link DDICDIModels::DDICDILibrary::Classes::DataDescription::Components::DataStructureComponent to DDICDIModels::DDICDILibrary::Classes::Conceptual::RepresentedVariable--><g id="link_DDICDIModels::DDICDILibrary::Classes::DataDescription::Components::DataStructureComponent_DDICDIModels::DDICDILibrary::Classes::Conceptual::RepresentedVariable"><a href="" target="_top" title=" ― isDefinedBy:&#10;Data structure component is defined by zero to one represented variable." xlink:actuate="onRequest" xlink:href="" xlink:show="new" xlink:title=" ― isDefinedBy:&#10;Data structure component is defined by zero to one represented variable." xlink:type="simple"><path codeLine="87" d="M403.974,233.4493 C494.883,189.2143 645.093,134.1703 770.85,174.5533 C821.628,190.8613 869.733,232.0903 896.013,257.5873 " fill="none" id="DDICDIModels::DDICDILibrary::Classes::DataDescription::Components::DataStructureComponent-to-DDICDIModels::DDICDILibrary::Classes::Conceptual::RepresentedVariable" style="stroke:#808080;stroke-width:1.35;"/><polygon fill="#808080" points="899.415,260.9263,896.1496,252.6857,896.201,257.7766,891.1101,257.8281,899.415,260.9263" style="stroke:#808080;stroke-width:1.35;"/><text fill="#000000" font-family="sans-serif" font-size="11.7" lengthAdjust="spacing" textLength="73.8" x="696.15" y="168.6989"> isDefinedBy</text></a></g><!--MD5=[de733db451d17b880e005c897cb725c2]
reverse link DDICDIModels::DDICDILibrary::Classes::DataDescription::Components::DataStructureComponent to DDICDIModels::DDICDILibrary::Classes::DataDescription::DataPoint--><g id="link_DDICDIModels::DDICDILibrary::Classes::DataDescription::Components::DataStructureComponent_DDICDIModels::DDICDILibrary::Classes::DataDescription::DataPoint"><a href="" target="_top" title=" ― correspondsTo:&#10;" xlink:actuate="onRequest" xlink:href="" xlink:show="new" xlink:title=" ― correspondsTo:&#10;" xlink:type="simple"><path codeLine="92" d="M384.615,230.9113 C443.322,192.1213 533.493,148.0033 612.45,174.5533 C663.354,191.6713 710.388,235.8883 734.085,260.9443 " fill="none" id="DDICDIModels::DDICDILibrary::Classes::DataDescription::Components::DataStructureComponent-backto-DDICDIModels::DDICDILibrary::Classes::DataDescription::DataPoint" style="stroke:#808080;stroke-width:1.35;"/><polygon fill="#808080" points="380.799,233.4583,389.5355,231.9606,384.5432,230.9622,385.5417,225.9699,380.799,233.4583" style="stroke:#808080;stroke-width:1.35;"/><text fill="#000000" font-family="sans-serif" font-size="11.7" lengthAdjust="spacing" textLength="88.2" x="523.35" y="168.6989"> correspondsTo</text></a></g><!--MD5=[686c287475af6761e2c6bf05bcd759ac]
reverse link DDICDIModels::DDICDILibrary::Classes::DataDescription::Components::DataStructureComponent to DDICDIModels::DDICDILibrary::Classes::DataDescription::DataStructure--><g id="link_DDICDIModels::DDICDILibrary::Classes::DataDescription::Components::DataStructureComponent_DDICDIModels::DDICDILibrary::Classes::DataDescription::DataStructure"><a href="" target="_top" title=" ― has:&#10;" xlink:actuate="onRequest" xlink:href="" xlink:show="new" xlink:title=" ― has:&#10;" xlink:type="simple"><path codeLine="97" d="M456.966,278.9533 C477.441,278.9533 497.781,278.9533 515.979,278.9533 " fill="none" id="DDICDIModels::DDICDILibrary::Classes::DataDescription::Components::DataStructureComponent-backto-DDICDIModels::DDICDILibrary::Classes::DataDescription::DataStructure" style="stroke:#808080;stroke-width:1.35;"/><polygon fill="#808080" points="452.313,278.9533,460.413,282.5533,456.813,278.9533,460.413,275.3533,452.313,278.9533" style="stroke:#808080;stroke-width:1.35;"/><text fill="#000000" font-family="sans-serif" font-size="11.7" lengthAdjust="spacing" textLength="30.6" x="468.9" y="273.0989"> has</text></a></g><!--MD5=[366370903a793fc6e8d10e26543f3732]
reverse link DDICDIModels::DDICDILibrary::Classes::DataDescription::Components::DataStructureComponent to DDICDIModels::DDICDILibrary::Classes::DataDescription::Components::IdentifierComponent--><g id="link_DDICDIModels::DDICDILibrary::Classes::DataDescription::Components::DataStructureComponent_DDICDIModels::DDICDILibrary::Classes::DataDescription::Components::IdentifierComponent"><path codeLine="108" d="M321.75,342.9163 C321.75,374.4073 321.75,410.1103 321.75,430.7923 " fill="none" id="DDICDIModels::DDICDILibrary::Classes::DataDescription::Components::DataStructureComponent-backto-DDICDIModels::DDICDILibrary::Classes::DataDescription::Components::IdentifierComponent" style="stroke:#D2691E;stroke-width:1.35;"/><polygon fill="none" points="315.45,342.5113,321.75,324.5113,328.05,342.5113,315.45,342.5113" style="stroke:#D2691E;stroke-width:1.35;"/></g><rect height="33.9609" style="stroke:#00000000;stroke-width:0.9;fill:none;" width="341.1" x="317.925" y="627.4221"/><text fill="#888888" font-family="sans-serif" font-size="9" lengthAdjust="spacing" textLength="2.7" x="487.125" y="636.7648"> </text><text fill="#888888" font-family="sans-serif" font-size="9" lengthAdjust="spacing" textLength="2.7" x="487.125" y="648.0851"> </text><text fill="#888888" font-family="sans-serif" font-size="9" lengthAdjust="spacing" textLength="341.1" x="317.925" y="659.4055">DDI Cross Domain Integration (DDI-CDI)   1.0 - Components::IdentifierComponent</text><!--MD5=[818abf76e06e4ca6e3ec22538ec95fed]
@startuml
!pragma ratio 0.5625
' HD display aspect ratio 16:9
' hyperlinkColor and pathHoverColor do not seem to work with class diagrams
' working approach: colors per item
' default font size for class names is 14

hide circle
hide empty members
scale 0.9

skinparam {
  ArrowThickness 1.5
  MinClassWidth 150
}

skinparam legend {
  BackgroundColor white
  FontSize 10
}

skinparam note {
  BackgroundColor white
}

skinparam class {
  ArrowColor #404040
  BorderColor #404040
}

skinparam package {
  FontColor lightgrey
  BorderColor lightgrey
}

title <size:20>UML Diagram: Class IdentifierComponent in Context\n
footer \n\nDDI Cross Domain Integration (DDI-CDI)   1.0 - Components::IdentifierComponent

legend top left
**Hints**
<color:grey>- Move the mouse cursor over a name to see more information.
<color:grey>- Click on a name to go to the corresponding page.
<color:grey>- The arrows of the inheritance tree are <color:#D2691E>colored<color:grey>.
endlegend

' Core class of diagram
class DDICDIModels::DDICDILibrary::Classes::DataDescription::Components::IdentifierComponent as "<size:10>Components::\n<color:black>IdentifierComponent" #FFD700 {
}

' Class definitions for associated classes without superclass (might have also an association)
' This would be too many constraints for Graphviz. 
together {
  class DDICDIModels::DDICDILibrary::Classes::DataDescription::Wide::WideKeyMember as "<size:10>Wide::\n<color:blue>WideKeyMember" [[../DDICDILibrary/Classes/DataDescription/Wide/WideKeyMember.html#super-class-hierarchy-generalization{ <U+2015> WideKeyMember:\nSingle data instance that is part of a wide key.}]]
  class DDICDIModels::DDICDILibrary::Classes::DataDescription::KeyValue::MainKeyMember as "<size:10>KeyValue::\n<color:blue>MainKeyMember" [[../DDICDILibrary/Classes/DataDescription/KeyValue/MainKeyMember.html#super-class-hierarchy-generalization{ <U+2015> MainKeyMember:\nIdentifies the unit of interest, either a statistical unit or a population, via identifier or dimension components, respectively, plus an optional contextual component. If neither identifier nor dimension components are present, then a synthetic id component is used.}]]
  class DDICDIModels::DDICDILibrary::Classes::DataDescription::Long::LongMainKeyMember as "<size:10>Long::\n<color:blue>LongMainKeyMember" [[../DDICDILibrary/Classes/DataDescription/Long/LongMainKeyMember.html#super-class-hierarchy-generalization{ <U+2015> LongMainKeyMember:\nSingle data instance that is part of a long key.}]]
}

' Class definitions for suppliers of abstractions
together {
}

' Rest of class definitions, without associated classes of core class and abstraction supplier classes
class DDICDIModels::DDICDILibrary::Classes::DataDescription::DataPoint as "<size:10>DataDescription::\n<color:blue>DataPoint" [[../DDICDILibrary/Classes/DataDescription/DataPoint.html#super-class-hierarchy-generalization{ <U+2015> DataPoint:\nContainer for an instance value.}]]
class DDICDIModels::DDICDILibrary::Classes::DataDescription::DataStructure as "<size:10>DataDescription::\n<color:blue>DataStructure" [[../DDICDILibrary/Classes/DataDescription/DataStructure.html#super-class-hierarchy-generalization{ <U+2015> DataStructure:\nData organization based on reusable data structure components.}]]
class DDICDIModels::DDICDILibrary::Classes::Conceptual::RepresentedVariable as "<size:10>Conceptual::\n<color:blue>RepresentedVariable" [[../DDICDILibrary/Classes/Conceptual/RepresentedVariable.html#super-class-hierarchy-generalization{ <U+2015> RepresentedVariable:\nConceptual variable with a substantive value domain specified.}]]
class DDICDIModels::DDICDILibrary::Classes::DataDescription::Components::DataStructureComponent as "<size:10>Components::\n<color:blue>DataStructureComponent" [[../DDICDILibrary/Classes/DataDescription/Components/DataStructureComponent.html#super-class-hierarchy-generalization{ <U+2015> DataStructureComponent:\nRole given to a represented variable in the context of a data structure.}]]



' Associations
DDICDIModels::DDICDILibrary::Classes::DataDescription::Components::IdentifierComponent <-[#grey]- DDICDIModels::DDICDILibrary::Classes::DataDescription::Long::LongMainKeyMember [[{ <U+2015> isBasedOn:\n}]] : isBasedOn
DDICDIModels::DDICDILibrary::Classes::DataDescription::Components::IdentifierComponent <-[#grey]- DDICDIModels::DDICDILibrary::Classes::DataDescription::KeyValue::MainKeyMember [[{ <U+2015> isBasedOn:\n}]] : isBasedOn
DDICDIModels::DDICDILibrary::Classes::DataDescription::Components::IdentifierComponent <-[#grey]- DDICDIModels::DDICDILibrary::Classes::DataDescription::Wide::WideKeyMember [[{ <U+2015> isBasedOn:\n}]] : isBasedOn

' Super classes
' Associations of Super classes
note left of DDICDIModels::DDICDILibrary::Classes::DataDescription::Components::DataStructureComponent : Class has 8 associations.\nOnly 3 are shown here.
' firstAncestor:	org.eclipse.uml2.uml.internal.impl.ClassImpl@46d567cb (name: DataStructureComponent, visibility: <unset>) (isLeaf: false, isAbstract: false, isFinalSpecialization: false) (isActive: false)
' secondAncestor:	org.eclipse.uml2.uml.internal.impl.ClassImpl@46d567cb (name: DataStructureComponent, visibility: <unset>) (isLeaf: false, isAbstract: false, isFinalSpecialization: false) (isActive: false)



' aClass:			IdentifierComponent
' aSuperClass:		DataStructureComponent
' e_ownedEndClass:	DataStructureComponent
' e_otherEndClass:	RepresentedVariable
DDICDIModels::DDICDILibrary::Classes::DataDescription::Components::DataStructureComponent -[#grey]> DDICDIModels::DDICDILibrary::Classes::Conceptual::RepresentedVariable [[{ <U+2015> isDefinedBy:\nData structure component is defined by zero to one represented variable.}]] : <U+2003>isDefinedBy
' aClass:			IdentifierComponent
' aSuperClass:		DataStructureComponent
' e_ownedEndClass:	DataPoint
' e_otherEndClass:	DataStructureComponent
DDICDIModels::DDICDILibrary::Classes::DataDescription::Components::DataStructureComponent <-[#grey] DDICDIModels::DDICDILibrary::Classes::DataDescription::DataPoint [[{ <U+2015> correspondsTo:\n}]] : <U+2003>correspondsTo
' aClass:			IdentifierComponent
' aSuperClass:		DataStructureComponent
' e_ownedEndClass:	DataStructure
' e_otherEndClass:	DataStructureComponent
DDICDIModels::DDICDILibrary::Classes::DataDescription::Components::DataStructureComponent <-[#grey] DDICDIModels::DDICDILibrary::Classes::DataDescription::DataStructure [[{ <U+2015> has:\n}]] : <U+2003>has

class DDICDIModels::DDICDILibrary::Classes::DataDescription::Components::DataStructureComponent as "<size:10> \n<color:blue>DataStructureComponent" [[../DDICDILibrary/Classes/DataDescription/Components/DataStructureComponent.html#super-class-hierarchy-generalization{ <U+2015> DataStructureComponent:\nRole given to a represented variable in the context of a data structure.}]] #FAFAD2 {
  identifier : <color:blue>Identifier   	  [[[../DDICDILibrary/DataTypes/StructuredDataTypes/Identifier.html#diagram{ <U+2015> Identifier:\nIdentifier for objects requiring short- or long-lasting referencing and management.}]]]
  semantic : <color:blue>PairedControlledVocabularyEntry   	  [[[../DDICDILibrary/DataTypes/StructuredDataTypes/PairedControlledVocabularyEntry.html#diagram{ <U+2015> PairedControlledVocabularyEntry:\nA tightly bound pair of items from an external controlled vocabulary. The extent property describes the extent to which the parent term applies for the specific case.}]]]
  specialization : <color:blue>SpecializationRole   	  [[[../DDICDILibrary/DataTypes/StructuredDataTypes/SpecializationRole.html#diagram{ <U+2015> SpecializationRole:\nSpecific roles played by represented variables in terms of time, geography, and other concepts which are important for the harmonization and integration of data.}]]]
}

DDICDIModels::DDICDILibrary::Classes::DataDescription::Components::DataStructureComponent <|-[#D2691E]- DDICDIModels::DDICDILibrary::Classes::DataDescription::Components::IdentifierComponent


' Abstractions
@enduml

@startuml
!pragma ratio 0.5625

hide circle
hide empty members
scale 0.9

skinparam {
  ArrowThickness 1.5
  MinClassWidth 150
}

skinparam legend {
  BackgroundColor white
  FontSize 10
}

skinparam note {
  BackgroundColor white
}

skinparam class {
  ArrowColor #404040
  BorderColor #404040
}

skinparam package {
  FontColor lightgrey
  BorderColor lightgrey
}

title <size:20>UML Diagram: Class IdentifierComponent in Context\n
footer \n\nDDI Cross Domain Integration (DDI-CDI)   1.0 - Components::IdentifierComponent

legend top left
**Hints**
<color:grey>- Move the mouse cursor over a name to see more information.
<color:grey>- Click on a name to go to the corresponding page.
<color:grey>- The arrows of the inheritance tree are <color:#D2691E>colored<color:grey>.
endlegend

class DDICDIModels::DDICDILibrary::Classes::DataDescription::Components::IdentifierComponent as "<size:10>Components::\n<color:black>IdentifierComponent" #FFD700 {
}

together {
  class DDICDIModels::DDICDILibrary::Classes::DataDescription::Wide::WideKeyMember as "<size:10>Wide::\n<color:blue>WideKeyMember" [[../DDICDILibrary/Classes/DataDescription/Wide/WideKeyMember.html#super-class-hierarchy-generalization{ <U+2015> WideKeyMember:\nSingle data instance that is part of a wide key.}]]
  class DDICDIModels::DDICDILibrary::Classes::DataDescription::KeyValue::MainKeyMember as "<size:10>KeyValue::\n<color:blue>MainKeyMember" [[../DDICDILibrary/Classes/DataDescription/KeyValue/MainKeyMember.html#super-class-hierarchy-generalization{ <U+2015> MainKeyMember:\nIdentifies the unit of interest, either a statistical unit or a population, via identifier or dimension components, respectively, plus an optional contextual component. If neither identifier nor dimension components are present, then a synthetic id component is used.}]]
  class DDICDIModels::DDICDILibrary::Classes::DataDescription::Long::LongMainKeyMember as "<size:10>Long::\n<color:blue>LongMainKeyMember" [[../DDICDILibrary/Classes/DataDescription/Long/LongMainKeyMember.html#super-class-hierarchy-generalization{ <U+2015> LongMainKeyMember:\nSingle data instance that is part of a long key.}]]
}

together {
}

class DDICDIModels::DDICDILibrary::Classes::DataDescription::DataPoint as "<size:10>DataDescription::\n<color:blue>DataPoint" [[../DDICDILibrary/Classes/DataDescription/DataPoint.html#super-class-hierarchy-generalization{ <U+2015> DataPoint:\nContainer for an instance value.}]]
class DDICDIModels::DDICDILibrary::Classes::DataDescription::DataStructure as "<size:10>DataDescription::\n<color:blue>DataStructure" [[../DDICDILibrary/Classes/DataDescription/DataStructure.html#super-class-hierarchy-generalization{ <U+2015> DataStructure:\nData organization based on reusable data structure components.}]]
class DDICDIModels::DDICDILibrary::Classes::Conceptual::RepresentedVariable as "<size:10>Conceptual::\n<color:blue>RepresentedVariable" [[../DDICDILibrary/Classes/Conceptual/RepresentedVariable.html#super-class-hierarchy-generalization{ <U+2015> RepresentedVariable:\nConceptual variable with a substantive value domain specified.}]]
class DDICDIModels::DDICDILibrary::Classes::DataDescription::Components::DataStructureComponent as "<size:10>Components::\n<color:blue>DataStructureComponent" [[../DDICDILibrary/Classes/DataDescription/Components/DataStructureComponent.html#super-class-hierarchy-generalization{ <U+2015> DataStructureComponent:\nRole given to a represented variable in the context of a data structure.}]]



DDICDIModels::DDICDILibrary::Classes::DataDescription::Components::IdentifierComponent <-[#grey]- DDICDIModels::DDICDILibrary::Classes::DataDescription::Long::LongMainKeyMember [[{ <U+2015> isBasedOn:\n}]] : isBasedOn
DDICDIModels::DDICDILibrary::Classes::DataDescription::Components::IdentifierComponent <-[#grey]- DDICDIModels::DDICDILibrary::Classes::DataDescription::KeyValue::MainKeyMember [[{ <U+2015> isBasedOn:\n}]] : isBasedOn
DDICDIModels::DDICDILibrary::Classes::DataDescription::Components::IdentifierComponent <-[#grey]- DDICDIModels::DDICDILibrary::Classes::DataDescription::Wide::WideKeyMember [[{ <U+2015> isBasedOn:\n}]] : isBasedOn

note left of DDICDIModels::DDICDILibrary::Classes::DataDescription::Components::DataStructureComponent : Class has 8 associations.\nOnly 3 are shown here.



DDICDIModels::DDICDILibrary::Classes::DataDescription::Components::DataStructureComponent -[#grey]> DDICDIModels::DDICDILibrary::Classes::Conceptual::RepresentedVariable [[{ <U+2015> isDefinedBy:\nData structure component is defined by zero to one represented variable.}]] : <U+2003>isDefinedBy
DDICDIModels::DDICDILibrary::Classes::DataDescription::Components::DataStructureComponent <-[#grey] DDICDIModels::DDICDILibrary::Classes::DataDescription::DataPoint [[{ <U+2015> correspondsTo:\n}]] : <U+2003>correspondsTo
DDICDIModels::DDICDILibrary::Classes::DataDescription::Components::DataStructureComponent <-[#grey] DDICDIModels::DDICDILibrary::Classes::DataDescription::DataStructure [[{ <U+2015> has:\n}]] : <U+2003>has

class DDICDIModels::DDICDILibrary::Classes::DataDescription::Components::DataStructureComponent as "<size:10> \n<color:blue>DataStructureComponent" [[../DDICDILibrary/Classes/DataDescription/Components/DataStructureComponent.html#super-class-hierarchy-generalization{ <U+2015> DataStructureComponent:\nRole given to a represented variable in the context of a data structure.}]] #FAFAD2 {
  identifier : <color:blue>Identifier   	  [[[../DDICDILibrary/DataTypes/StructuredDataTypes/Identifier.html#diagram{ <U+2015> Identifier:\nIdentifier for objects requiring short- or long-lasting referencing and management.}]]]
  semantic : <color:blue>PairedControlledVocabularyEntry   	  [[[../DDICDILibrary/DataTypes/StructuredDataTypes/PairedControlledVocabularyEntry.html#diagram{ <U+2015> PairedControlledVocabularyEntry:\nA tightly bound pair of items from an external controlled vocabulary. The extent property describes the extent to which the parent term applies for the specific case.}]]]
  specialization : <color:blue>SpecializationRole   	  [[[../DDICDILibrary/DataTypes/StructuredDataTypes/SpecializationRole.html#diagram{ <U+2015> SpecializationRole:\nSpecific roles played by represented variables in terms of time, geography, and other concepts which are important for the harmonization and integration of data.}]]]
}

DDICDIModels::DDICDILibrary::Classes::DataDescription::Components::DataStructureComponent <|-[#D2691E]- DDICDIModels::DDICDILibrary::Classes::DataDescription::Components::IdentifierComponent


@enduml

PlantUML version 1.2022.6(Tue Jun 21 19:34:49 CEST 2022)
(GPL source distribution)
Java Runtime: OpenJDK Runtime Environment
JVM: OpenJDK 64-Bit Server VM
Default Encoding: Cp1252
Language: en
Country: US
--></g></svg>