<?xml version="1.0" encoding="UTF-8" standalone="no"?><svg xmlns="http://www.w3.org/2000/svg" xmlns:xlink="http://www.w3.org/1999/xlink" contentStyleType="text/css" height="585.9px" preserveAspectRatio="none" style="width:715px;height:585px;background:#FFFFFF;" version="1.1" viewBox="0 0 715 585" width="715.5px" zoomAndPan="magnify"><defs/><g><rect height="47.4891" style="stroke:#00000000;stroke-width:0.9;fill:none;" width="637.2" x="32.85" y="4.5"/><text fill="#000000" font-family="sans-serif" font-size="18" font-weight="bold" lengthAdjust="spacing" textLength="628.2" x="37.35" y="27.6855">UML Diagram: DataType InternationalRegistrationDataIdentifier in Context</text><text fill="#000000" font-family="sans-serif" font-size="12.6" font-weight="bold" lengthAdjust="spacing" textLength="3.6" x="349.65" y="44.7205"> </text><rect fill="#FFFFFF" height="56.0813" rx="6.75" ry="6.75" style="stroke:#000000;stroke-width:0.9;" width="348.3" x="347.4" y="64.5891"/><text fill="#000000" font-family="sans-serif" font-size="9" font-weight="bold" lengthAdjust="spacing" textLength="22.5" x="352.8" y="79.3318">Hints</text><text fill="#808080" font-family="sans-serif" font-size="9" lengthAdjust="spacing" textLength="265.5" x="352.8" y="90.6521">- Move the mouse cursor over a name to see more information.</text><text fill="#808080" font-family="sans-serif" font-size="9" lengthAdjust="spacing" textLength="216" x="352.8" y="101.9725">- Click on a name to go to the corresponding page.</text><text fill="#808080" font-family="sans-serif" font-size="9" lengthAdjust="spacing" textLength="337.5" x="352.8" y="113.2928">- The use of the data type is represented here by a dotted line (not formal UML).</text><!--MD5=[7639129a7208b5720b5c8dbdaf72c8f5]
entity ##5--><!--MD5=[a598e0069ddc6f15d8d67ebcdc90e466]
entity ##9--><!--MD5=[865bf7e5c4967fb06a129b0210c6fc69]
class DDICDIModels::DDICDILibrary::DataTypes::StructuredDataTypes::InternationalRegistrationDataIdentifier--><g id="elem_DDICDIModels::DDICDILibrary::DataTypes::StructuredDataTypes::InternationalRegistrationDataIdentifier"><rect codeLine="47" fill="#FFD700" height="104.4984" id="DDICDIModels::DDICDILibrary::DataTypes::StructuredDataTypes::InternationalRegistrationDataIdentifier" rx="2.25" ry="2.25" style="stroke:#404040;stroke-width:0.45;" width="219.6" x="489.6" y="254.3203"/><text fill="#000000" font-family="sans-serif" font-size="10.8" font-style="italic" lengthAdjust="spacing" textLength="58.5" x="570.15" y="270.0316">«dataType»</text><text fill="#000000" font-family="sans-serif" font-size="9" lengthAdjust="spacing" textLength="2.7" x="598.05" y="281.7475"> </text><text fill="#000000" font-family="sans-serif" font-size="12.6" lengthAdjust="spacing" textLength="214.2" x="492.3" y="296.8049">InternationalRegistrationDataIdentifier</text><line style="stroke:#404040;stroke-width:0.45;" x1="490.5" x2="708.3" y1="304.0734" y2="304.0734"/><text fill="#000000" font-family="sans-serif" font-size="12.6" lengthAdjust="spacing" textLength="117.9" x="495" y="320.7533">dataIdentifier : String</text><text fill="#000000" font-family="sans-serif" font-size="12.6" lengthAdjust="spacing" textLength="207" x="495" y="336.6018">registrationAuthorityIdentifier : String</text><text fill="#000000" font-family="sans-serif" font-size="12.6" lengthAdjust="spacing" textLength="134.1" x="495" y="352.4502">versionIdentifier : String</text></g><!--MD5=[d2a98c67dc710a836184c58b979536b7]
class DDICDIModels::DDICDILibrary::DataTypes::StructuredDataTypes::Identifier--><a href="../DDICDILibrary/DataTypes/StructuredDataTypes/Identifier.html#super-class-hierarchy-generalization" target="_top" title=" ― Identifier:&#10;Identifier for objects requiring short- or long-lasting referencing and management." xlink:actuate="onRequest" xlink:href="../DDICDILibrary/DataTypes/StructuredDataTypes/Identifier.html#super-class-hierarchy-generalization" xlink:show="new" xlink:title=" ― Identifier:&#10;Identifier for objects requiring short- or long-lasting referencing and management." xlink:type="simple"><g id="elem_DDICDIModels::DDICDILibrary::DataTypes::StructuredDataTypes::Identifier"><rect codeLine="55" fill="#F1F1F1" height="183.7406" id="DDICDIModels::DDICDILibrary::DataTypes::StructuredDataTypes::Identifier" rx="2.25" ry="2.25" style="stroke:#404040;stroke-width:0.45;" width="301.5" x="11.7" y="135.0703"/><text fill="#000000" font-family="sans-serif" font-size="10.8" font-style="italic" lengthAdjust="spacing" textLength="58.5" x="133.2" y="150.7816">«dataType»</text><text fill="#000000" font-family="sans-serif" font-size="9" lengthAdjust="spacing" textLength="2.7" x="161.1" y="162.4975"> </text><text fill="#0000FF" font-family="sans-serif" font-size="12.6" lengthAdjust="spacing" textLength="48.6" x="138.15" y="177.5549">Identifier</text><line style="stroke:#404040;stroke-width:0.45;" x1="12.6" x2="312.3" y1="184.8234" y2="184.8234"/><text fill="#000000" font-family="sans-serif" font-size="12.6" lengthAdjust="spacing" textLength="290.7" x="17.1" y="201.5033">ddiIdentifier : InternationalRegistrationDataIdentifier</text><text fill="#000000" font-family="sans-serif" font-size="12.6" lengthAdjust="spacing" textLength="190.8" x="17.1" y="217.3518">isDdiIdentifierPersistent : Boolean</text><text fill="#000000" font-family="sans-serif" font-size="12.6" lengthAdjust="spacing" textLength="234.9" x="17.1" y="233.2002">isDdiIdentifierUniversallyUnique : Boolean</text><a href="../DDICDILibrary/DataTypes/StructuredDataTypes/NonDdiIdentifier.html#diagram" target="_top" title=" ― NonDdiIdentifier:&#10;A unique set of attributes, not conforming to the DDI identifier structure nor structured as a URI, used to identify some entity." xlink:actuate="onRequest" xlink:href="../DDICDILibrary/DataTypes/StructuredDataTypes/NonDdiIdentifier.html#diagram" xlink:show="new" xlink:title=" ― NonDdiIdentifier:&#10;A unique set of attributes, not conforming to the DDI identifier structure nor structured as a URI, used to identify some entity." xlink:type="simple"><text fill="#000000" font-family="sans-serif" font-size="12.6" lengthAdjust="spacing" textLength="96.3" x="17.1" y="249.0486">nonDdiIdentifier :</text><text fill="#0000FF" font-family="sans-serif" font-size="12.6" lengthAdjust="spacing" textLength="90" x="117" y="249.0486">NonDdiIdentifier</text></a><a href="../DDICDILibrary/DataTypes/XMLSchemaDataTypes/XsdAnyUri.html#diagram" target="_top" title=" ― XsdAnyUri:&#10;Primitive data type &quot;anyURI&quot; of the XML Schema data types. Definition from XML Schema Part 2: Datatypes Second Edition: &quot;anyURI&quot; represents a Uniform Resource Identifier Reference (URI). An &quot;anyURI&quot; value can be absolute or relative, and may have an optional fragment identifier (i.e., it may be a UR ..." xlink:actuate="onRequest" xlink:href="../DDICDILibrary/DataTypes/XMLSchemaDataTypes/XsdAnyUri.html#diagram" xlink:show="new" xlink:title=" ― XsdAnyUri:&#10;Primitive data type &quot;anyURI&quot; of the XML Schema data types. Definition from XML Schema Part 2: Datatypes Second Edition: &quot;anyURI&quot; represents a Uniform Resource Identifier Reference (URI). An &quot;anyURI&quot; value can be absolute or relative, and may have an optional fragment identifier (i.e., it may be a UR ..." xlink:type="simple"><text fill="#000000" font-family="sans-serif" font-size="12.6" lengthAdjust="spacing" textLength="21.6" x="17.1" y="264.8971">uri :</text><text fill="#0000FF" font-family="sans-serif" font-size="12.6" lengthAdjust="spacing" textLength="57.6" x="42.3" y="264.8971">XsdAnyUri</text></a><a href="../DDICDILibrary/DataTypes/XMLSchemaDataTypes/XsdDate.html#diagram" target="_top" title=" ― XsdDate:&#10;Primitive data type &quot;date&quot; of the XML Schema data types. Definition from XML Schema Part 2: Datatypes Second Edition: &quot;The value space of date consists of top-open intervals of exactly one day in length on the timelines of dateTime, beginning on the beginning moment of each day (in each timezone), i ..." xlink:actuate="onRequest" xlink:href="../DDICDILibrary/DataTypes/XMLSchemaDataTypes/XsdDate.html#diagram" xlink:show="new" xlink:title=" ― XsdDate:&#10;Primitive data type &quot;date&quot; of the XML Schema data types. Definition from XML Schema Part 2: Datatypes Second Edition: &quot;The value space of date consists of top-open intervals of exactly one day in length on the timelines of dateTime, beginning on the beginning moment of each day (in each timezone), i ..." xlink:type="simple"><text fill="#000000" font-family="sans-serif" font-size="12.6" lengthAdjust="spacing" textLength="75.6" x="17.1" y="280.7455">versionDate :</text><text fill="#0000FF" font-family="sans-serif" font-size="12.6" lengthAdjust="spacing" textLength="47.7" x="96.3" y="280.7455">XsdDate</text></a><a href="../DDICDILibrary/DataTypes/StructuredDataTypes/RationaleDefinition.html#diagram" target="_top" title=" ― RationaleDefinition:&#10;Textual description of the rationale/purpose for the version change and a coded value to provide an internal processing flag within and organization or system." xlink:actuate="onRequest" xlink:href="../DDICDILibrary/DataTypes/StructuredDataTypes/RationaleDefinition.html#diagram" xlink:show="new" xlink:title=" ― RationaleDefinition:&#10;Textual description of the rationale/purpose for the version change and a coded value to provide an internal processing flag within and organization or system." xlink:type="simple"><text fill="#000000" font-family="sans-serif" font-size="12.6" lengthAdjust="spacing" textLength="102.6" x="17.1" y="296.5939">versionRationale :</text><text fill="#0000FF" font-family="sans-serif" font-size="12.6" lengthAdjust="spacing" textLength="107.1" x="123.3" y="296.5939">RationaleDefinition</text></a><a href="../DDICDILibrary/DataTypes/StructuredDataTypes/AgentInRole.html#diagram" target="_top" title=" ― AgentInRole:&#10;A reference to an agent (organization, individual, or machine) including a role for that agent in the context of this specific reference." xlink:actuate="onRequest" xlink:href="../DDICDILibrary/DataTypes/StructuredDataTypes/AgentInRole.html#diagram" xlink:show="new" xlink:title=" ― AgentInRole:&#10;A reference to an agent (organization, individual, or machine) including a role for that agent in the context of this specific reference." xlink:type="simple"><text fill="#000000" font-family="sans-serif" font-size="12.6" lengthAdjust="spacing" textLength="126.9" x="17.1" y="312.4424">versionResponsibility :</text><text fill="#0000FF" font-family="sans-serif" font-size="12.6" lengthAdjust="spacing" textLength="69.3" x="147.6" y="312.4424">AgentInRole</text></a></g></a><!--MD5=[5c87dfae530e1fd2b2e49e638951e641]
class DDICDIModels::DDICDILibrary::DataTypes::StructuredDataTypes::Reference--><a href="../DDICDILibrary/DataTypes/StructuredDataTypes/Reference.html#super-class-hierarchy-generalization" target="_top" title=" ― Reference:&#10;Provides a way of pointing to resources outside of the information described in the set of DDI-CDI metadata." xlink:actuate="onRequest" xlink:href="../DDICDILibrary/DataTypes/StructuredDataTypes/Reference.html#super-class-hierarchy-generalization" xlink:show="new" xlink:title=" ― Reference:&#10;Provides a way of pointing to resources outside of the information described in the set of DDI-CDI metadata." xlink:type="simple"><g id="elem_DDICDIModels::DDICDILibrary::DataTypes::StructuredDataTypes::Reference"><rect codeLine="70" fill="#F1F1F1" height="183.7406" id="DDICDIModels::DDICDILibrary::DataTypes::StructuredDataTypes::Reference" rx="2.25" ry="2.25" style="stroke:#404040;stroke-width:0.45;" width="312.3" x="6.3" y="356.4703"/><text fill="#000000" font-family="sans-serif" font-size="10.8" font-style="italic" lengthAdjust="spacing" textLength="58.5" x="133.2" y="372.1816">«dataType»</text><text fill="#000000" font-family="sans-serif" font-size="9" lengthAdjust="spacing" textLength="2.7" x="161.1" y="383.8975"> </text><text fill="#0000FF" font-family="sans-serif" font-size="12.6" lengthAdjust="spacing" textLength="59.4" x="132.75" y="398.9549">Reference</text><line style="stroke:#404040;stroke-width:0.45;" x1="7.2" x2="317.7" y1="406.2234" y2="406.2234"/><text fill="#000000" font-family="sans-serif" font-size="12.6" lengthAdjust="spacing" textLength="301.5" x="11.7" y="422.9033">ddiReference : InternationalRegistrationDataIdentifier</text><a href="../DDICDILibrary/DataTypes/StructuredDataTypes/Selector.html#diagram" target="_top" title=" ― Selector:&#10;A resource which describes the segment of interest in a representation of a resource. This class is not used directly, only its subclasses. It is defined accordingly the related selector of the Web Annotation Vocabulary, see https://www.w3.org/TR/annotation-vocab/#selector." xlink:actuate="onRequest" xlink:href="../DDICDILibrary/DataTypes/StructuredDataTypes/Selector.html#diagram" xlink:show="new" xlink:title=" ― Selector:&#10;A resource which describes the segment of interest in a representation of a resource. This class is not used directly, only its subclasses. It is defined accordingly the related selector of the Web Annotation Vocabulary, see https://www.w3.org/TR/annotation-vocab/#selector." xlink:type="simple"><text fill="#000000" font-family="sans-serif" font-size="12.6" lengthAdjust="spacing" textLength="59.4" x="11.7" y="438.7518">deepLink :</text><text fill="#0000FF" font-family="sans-serif" font-size="12.6" lengthAdjust="spacing" textLength="46.8" x="74.7" y="438.7518">Selector</text></a><text fill="#000000" font-family="sans-serif" font-size="12.6" lengthAdjust="spacing" textLength="106.2" x="11.7" y="454.6002">description : String</text><a href="../DDICDILibrary/DataTypes/StructuredDataTypes/InternationalString.html#diagram" target="_top" title=" ― InternationalString:&#10;Packaging structure for multiple language versions of the same string content. Where an element of this type is repeatable, the expectation is that each repetition contains different content, each of which can be expressed in multiple languages. The language designation goes on the individual String ..." xlink:actuate="onRequest" xlink:href="../DDICDILibrary/DataTypes/StructuredDataTypes/InternationalString.html#diagram" xlink:show="new" xlink:title=" ― InternationalString:&#10;Packaging structure for multiple language versions of the same string content. Where an element of this type is repeatable, the expectation is that each repetition contains different content, each of which can be expressed in multiple languages. The language designation goes on the individual String ..." xlink:type="simple"><text fill="#000000" font-family="sans-serif" font-size="12.6" lengthAdjust="spacing" textLength="51.3" x="11.7" y="470.4486">location :</text><text fill="#0000FF" font-family="sans-serif" font-size="12.6" lengthAdjust="spacing" textLength="103.5" x="66.6" y="470.4486">InternationalString</text></a><a href="../DDICDILibrary/DataTypes/StructuredDataTypes/NonDdiIdentifier.html#diagram" target="_top" title=" ― NonDdiIdentifier:&#10;A unique set of attributes, not conforming to the DDI identifier structure nor structured as a URI, used to identify some entity." xlink:actuate="onRequest" xlink:href="../DDICDILibrary/DataTypes/StructuredDataTypes/NonDdiIdentifier.html#diagram" xlink:show="new" xlink:title=" ― NonDdiIdentifier:&#10;A unique set of attributes, not conforming to the DDI identifier structure nor structured as a URI, used to identify some entity." xlink:type="simple"><text fill="#000000" font-family="sans-serif" font-size="12.6" lengthAdjust="spacing" textLength="107.1" x="11.7" y="486.2971">nonDdiReference :</text><text fill="#0000FF" font-family="sans-serif" font-size="12.6" lengthAdjust="spacing" textLength="90" x="122.4" y="486.2971">NonDdiIdentifier</text></a><a href="../DDICDILibrary/DataTypes/StructuredDataTypes/ControlledVocabularyEntry.html#diagram" target="_top" title=" ― ControlledVocabularyEntry:&#10;Allows for unstructured content which may be an entry from an externally maintained controlled vocabulary.If the content is from a controlled vocabulary provide the code value of the entry, as well as a reference to the controlled vocabulary from which the value is taken. Provide as many of the iden ..." xlink:actuate="onRequest" xlink:href="../DDICDILibrary/DataTypes/StructuredDataTypes/ControlledVocabularyEntry.html#diagram" xlink:show="new" xlink:title=" ― ControlledVocabularyEntry:&#10;Allows for unstructured content which may be an entry from an externally maintained controlled vocabulary.If the content is from a controlled vocabulary provide the code value of the entry, as well as a reference to the controlled vocabulary from which the value is taken. Provide as many of the iden ..." xlink:type="simple"><text fill="#000000" font-family="sans-serif" font-size="12.6" lengthAdjust="spacing" textLength="57.6" x="11.7" y="502.1455">semantic :</text><text fill="#0000FF" font-family="sans-serif" font-size="12.6" lengthAdjust="spacing" textLength="152.1" x="72.9" y="502.1455">ControlledVocabularyEntry</text></a><a href="../DDICDILibrary/DataTypes/XMLSchemaDataTypes/XsdAnyUri.html#diagram" target="_top" title=" ― XsdAnyUri:&#10;Primitive data type &quot;anyURI&quot; of the XML Schema data types. Definition from XML Schema Part 2: Datatypes Second Edition: &quot;anyURI&quot; represents a Uniform Resource Identifier Reference (URI). An &quot;anyURI&quot; value can be absolute or relative, and may have an optional fragment identifier (i.e., it may be a UR ..." xlink:actuate="onRequest" xlink:href="../DDICDILibrary/DataTypes/XMLSchemaDataTypes/XsdAnyUri.html#diagram" xlink:show="new" xlink:title=" ― XsdAnyUri:&#10;Primitive data type &quot;anyURI&quot; of the XML Schema data types. Definition from XML Schema Part 2: Datatypes Second Edition: &quot;anyURI&quot; represents a Uniform Resource Identifier Reference (URI). An &quot;anyURI&quot; value can be absolute or relative, and may have an optional fragment identifier (i.e., it may be a UR ..." xlink:type="simple"><text fill="#000000" font-family="sans-serif" font-size="12.6" lengthAdjust="spacing" textLength="21.6" x="11.7" y="517.9939">uri :</text><text fill="#0000FF" font-family="sans-serif" font-size="12.6" lengthAdjust="spacing" textLength="57.6" x="36.9" y="517.9939">XsdAnyUri</text></a><text fill="#000000" font-family="sans-serif" font-size="12.6" lengthAdjust="spacing" textLength="99" x="11.7" y="533.8424">validType : String</text></g></a><!--MD5=[18b1eb169b0164f8a26fbcebf083734a]
link DDICDIModels::DDICDILibrary::DataTypes::StructuredDataTypes::Identifier to DDICDIModels::DDICDILibrary::DataTypes::StructuredDataTypes::InternationalRegistrationDataIdentifier--><g id="link_DDICDIModels::DDICDILibrary::DataTypes::StructuredDataTypes::Identifier_DDICDIModels::DDICDILibrary::DataTypes::StructuredDataTypes::InternationalRegistrationDataIdentifier"><path codeLine="90" d="M314.55,195.8203 C384.786,195.8203 458.532,225.5833 513.27,254.2483 " fill="none" id="DDICDIModels::DDICDILibrary::DataTypes::StructuredDataTypes::Identifier-DDICDIModels::DDICDILibrary::DataTypes::StructuredDataTypes::InternationalRegistrationDataIdentifier" style="stroke:#808080;stroke-width:0.9;stroke-dasharray:1.0,3.0;"/></g><!--MD5=[1dd0e327805fd6d05b39b69785c50abc]
link DDICDIModels::DDICDILibrary::DataTypes::StructuredDataTypes::Reference to DDICDIModels::DDICDILibrary::DataTypes::StructuredDataTypes::InternationalRegistrationDataIdentifier--><g id="link_DDICDIModels::DDICDILibrary::DataTypes::StructuredDataTypes::Reference_DDICDIModels::DDICDILibrary::DataTypes::StructuredDataTypes::InternationalRegistrationDataIdentifier"><path codeLine="91" d="M319.95,417.2203 C389.034,417.2203 461.367,387.4573 515.007,358.7923 " fill="none" id="DDICDIModels::DDICDILibrary::DataTypes::StructuredDataTypes::Reference-DDICDIModels::DDICDILibrary::DataTypes::StructuredDataTypes::InternationalRegistrationDataIdentifier" style="stroke:#808080;stroke-width:0.9;stroke-dasharray:1.0,3.0;"/></g><rect height="33.9609" style="stroke:#00000000;stroke-width:0.9;fill:none;" width="451.8" x="125.55" y="545.6109"/><text fill="#888888" font-family="sans-serif" font-size="9" lengthAdjust="spacing" textLength="2.7" x="350.1" y="554.9537"> </text><text fill="#888888" font-family="sans-serif" font-size="9" lengthAdjust="spacing" textLength="2.7" x="350.1" y="566.274"> </text><text fill="#888888" font-family="sans-serif" font-size="9" lengthAdjust="spacing" textLength="451.8" x="125.55" y="577.5943">DDI Cross Domain Integration (DDI-CDI)   1.0 - StructuredDataTypes::InternationalRegistrationDataIdentifier</text><!--MD5=[f463dd33f436f7db8dcc52c4367db050]
@startuml
left to right direction
' HD display aspect ratio 16:9
' hyperlinkColor and pathHoverColor do not seem to work with class diagrams
' working approach: colors per item
' default font size for class names is 14

hide circle
hide empty members
scale 0.9

skinparam {
  ArrowThickness 1.5
  MinClassWidth 150
}

skinparam legend {
  BackgroundColor white
  FontSize 10
}

skinparam note {
  BackgroundColor white
}

skinparam class {
  ArrowColor #404040
  BorderColor #404040
}

skinparam package {
  FontColor lightgrey
  BorderColor lightgrey
}

title <size:20>UML Diagram: DataType InternationalRegistrationDataIdentifier in Context\n
footer \n\nDDI Cross Domain Integration (DDI-CDI)   1.0 - StructuredDataTypes::InternationalRegistrationDataIdentifier

legend top right
**Hints**
<color:grey>- Move the mouse cursor over a name to see more information.
<color:grey>- Click on a name to go to the corresponding page.
<color:grey>- The use of the data type is represented here by a dotted line (not formal UML).
endlegend

' Core data type of diagram
class DDICDIModels::DDICDILibrary::DataTypes::StructuredDataTypes::InternationalRegistrationDataIdentifier as "<size:10> \n<color:black>InternationalRegistrationDataIdentifier" <<dataType>>   #FFD700 {
  dataIdentifier : String
  registrationAuthorityIdentifier : String
  versionIdentifier : String
}

' Data type definitions in own package
class DDICDIModels::DDICDILibrary::DataTypes::StructuredDataTypes::Identifier as "<size:10> \n<color:blue>Identifier" <<dataType>> [[../DDICDILibrary/DataTypes/StructuredDataTypes/Identifier.html#super-class-hierarchy-generalization{ <U+2015> Identifier:\nIdentifier for objects requiring short- or long-lasting referencing and management.}]] {
  ddiIdentifier : InternationalRegistrationDataIdentifier
  isDdiIdentifierPersistent : Boolean
  isDdiIdentifierUniversallyUnique : Boolean
  nonDdiIdentifier : <color:blue>NonDdiIdentifier   	  [[[../DDICDILibrary/DataTypes/StructuredDataTypes/NonDdiIdentifier.html#diagram{ <U+2015> NonDdiIdentifier:\nA unique set of attributes, not conforming to the DDI identifier structure nor structured as a URI, used to identify some entity.}]]]
  uri : <color:blue>XsdAnyUri   	  [[[../DDICDILibrary/DataTypes/XMLSchemaDataTypes/XsdAnyUri.html#diagram{ <U+2015> XsdAnyUri:\nPrimitive data type "anyURI" of the XML Schema data types. Definition from XML Schema Part 2: Datatypes Second Edition: "anyURI" represents a Uniform Resource Identifier Reference (URI). An "anyURI" value can be absolute or relative, and may have an optional fragment identifier (i.e., it may be a UR ...}]]]
  versionDate : <color:blue>XsdDate   	  [[[../DDICDILibrary/DataTypes/XMLSchemaDataTypes/XsdDate.html#diagram{ <U+2015> XsdDate:\nPrimitive data type "date" of the XML Schema data types. Definition from XML Schema Part 2: Datatypes Second Edition: "The value space of date consists of top-open intervals of exactly one day in length on the timelines of dateTime, beginning on the beginning moment of each day (in each timezone), i ...}]]]
  versionRationale : <color:blue>RationaleDefinition   	  [[[../DDICDILibrary/DataTypes/StructuredDataTypes/RationaleDefinition.html#diagram{ <U+2015> RationaleDefinition:\nTextual description of the rationale/purpose for the version change and a coded value to provide an internal processing flag within and organization or system.}]]]
  versionResponsibility : <color:blue>AgentInRole   	  [[[../DDICDILibrary/DataTypes/StructuredDataTypes/AgentInRole.html#diagram{ <U+2015> AgentInRole:\nA reference to an agent (organization, individual, or machine) including a role for that agent in the context of this specific reference.}]]]
}
class DDICDIModels::DDICDILibrary::DataTypes::StructuredDataTypes::Reference as "<size:10> \n<color:blue>Reference" <<dataType>> [[../DDICDILibrary/DataTypes/StructuredDataTypes/Reference.html#super-class-hierarchy-generalization{ <U+2015> Reference:\nProvides a way of pointing to resources outside of the information described in the set of DDI-CDI metadata.}]] {
  ddiReference : InternationalRegistrationDataIdentifier
  deepLink : <color:blue>Selector   	  [[[../DDICDILibrary/DataTypes/StructuredDataTypes/Selector.html#diagram{ <U+2015> Selector:\nA resource which describes the segment of interest in a representation of a resource. This class is not used directly, only its subclasses. It is defined accordingly the related selector of the Web Annotation Vocabulary, see https://www.w3.org/TR/annotation-vocab/#selector.}]]]
  description : String
  location : <color:blue>InternationalString   	  [[[../DDICDILibrary/DataTypes/StructuredDataTypes/InternationalString.html#diagram{ <U+2015> InternationalString:\nPackaging structure for multiple language versions of the same string content. Where an element of this type is repeatable, the expectation is that each repetition contains different content, each of which can be expressed in multiple languages. The language designation goes on the individual String ...}]]]
  nonDdiReference : <color:blue>NonDdiIdentifier   	  [[[../DDICDILibrary/DataTypes/StructuredDataTypes/NonDdiIdentifier.html#diagram{ <U+2015> NonDdiIdentifier:\nA unique set of attributes, not conforming to the DDI identifier structure nor structured as a URI, used to identify some entity.}]]]
  semantic : <color:blue>ControlledVocabularyEntry   	  [[[../DDICDILibrary/DataTypes/StructuredDataTypes/ControlledVocabularyEntry.html#diagram{ <U+2015> ControlledVocabularyEntry:\nAllows for unstructured content which may be an entry from an externally maintained controlled vocabulary.If the content is from a controlled vocabulary provide the code value of the entry, as well as a reference to the controlled vocabulary from which the value is taken. Provide as many of the iden ...}]]]
  uri : <color:blue>XsdAnyUri   	  [[[../DDICDILibrary/DataTypes/XMLSchemaDataTypes/XsdAnyUri.html#diagram{ <U+2015> XsdAnyUri:\nPrimitive data type "anyURI" of the XML Schema data types. Definition from XML Schema Part 2: Datatypes Second Edition: "anyURI" represents a Uniform Resource Identifier Reference (URI). An "anyURI" value can be absolute or relative, and may have an optional fragment identifier (i.e., it may be a UR ...}]]]
  validType : String
}

' Data type definitions in other packages

' Use of data type
together {
  DDICDIModels::DDICDILibrary::DataTypes::StructuredDataTypes::Identifier::ddiIdentifier - - - - DDICDIModels::DDICDILibrary::DataTypes::StructuredDataTypes::InternationalRegistrationDataIdentifier #grey;line.dotted;
  DDICDIModels::DDICDILibrary::DataTypes::StructuredDataTypes::Reference::ddiReference - - - - DDICDIModels::DDICDILibrary::DataTypes::StructuredDataTypes::InternationalRegistrationDataIdentifier #grey;line.dotted;
}


' Abstractions
together {
}
@enduml

@startuml
left to right direction

hide circle
hide empty members
scale 0.9

skinparam {
  ArrowThickness 1.5
  MinClassWidth 150
}

skinparam legend {
  BackgroundColor white
  FontSize 10
}

skinparam note {
  BackgroundColor white
}

skinparam class {
  ArrowColor #404040
  BorderColor #404040
}

skinparam package {
  FontColor lightgrey
  BorderColor lightgrey
}

title <size:20>UML Diagram: DataType InternationalRegistrationDataIdentifier in Context\n
footer \n\nDDI Cross Domain Integration (DDI-CDI)   1.0 - StructuredDataTypes::InternationalRegistrationDataIdentifier

legend top right
**Hints**
<color:grey>- Move the mouse cursor over a name to see more information.
<color:grey>- Click on a name to go to the corresponding page.
<color:grey>- The use of the data type is represented here by a dotted line (not formal UML).
endlegend

class DDICDIModels::DDICDILibrary::DataTypes::StructuredDataTypes::InternationalRegistrationDataIdentifier as "<size:10> \n<color:black>InternationalRegistrationDataIdentifier" <<dataType>>   #FFD700 {
  dataIdentifier : String
  registrationAuthorityIdentifier : String
  versionIdentifier : String
}

class DDICDIModels::DDICDILibrary::DataTypes::StructuredDataTypes::Identifier as "<size:10> \n<color:blue>Identifier" <<dataType>> [[../DDICDILibrary/DataTypes/StructuredDataTypes/Identifier.html#super-class-hierarchy-generalization{ <U+2015> Identifier:\nIdentifier for objects requiring short- or long-lasting referencing and management.}]] {
  ddiIdentifier : InternationalRegistrationDataIdentifier
  isDdiIdentifierPersistent : Boolean
  isDdiIdentifierUniversallyUnique : Boolean
  nonDdiIdentifier : <color:blue>NonDdiIdentifier   	  [[[../DDICDILibrary/DataTypes/StructuredDataTypes/NonDdiIdentifier.html#diagram{ <U+2015> NonDdiIdentifier:\nA unique set of attributes, not conforming to the DDI identifier structure nor structured as a URI, used to identify some entity.}]]]
  uri : <color:blue>XsdAnyUri   	  [[[../DDICDILibrary/DataTypes/XMLSchemaDataTypes/XsdAnyUri.html#diagram{ <U+2015> XsdAnyUri:\nPrimitive data type "anyURI" of the XML Schema data types. Definition from XML Schema Part 2: Datatypes Second Edition: "anyURI" represents a Uniform Resource Identifier Reference (URI). An "anyURI" value can be absolute or relative, and may have an optional fragment identifier (i.e., it may be a UR ...}]]]
  versionDate : <color:blue>XsdDate   	  [[[../DDICDILibrary/DataTypes/XMLSchemaDataTypes/XsdDate.html#diagram{ <U+2015> XsdDate:\nPrimitive data type "date" of the XML Schema data types. Definition from XML Schema Part 2: Datatypes Second Edition: "The value space of date consists of top-open intervals of exactly one day in length on the timelines of dateTime, beginning on the beginning moment of each day (in each timezone), i ...}]]]
  versionRationale : <color:blue>RationaleDefinition   	  [[[../DDICDILibrary/DataTypes/StructuredDataTypes/RationaleDefinition.html#diagram{ <U+2015> RationaleDefinition:\nTextual description of the rationale/purpose for the version change and a coded value to provide an internal processing flag within and organization or system.}]]]
  versionResponsibility : <color:blue>AgentInRole   	  [[[../DDICDILibrary/DataTypes/StructuredDataTypes/AgentInRole.html#diagram{ <U+2015> AgentInRole:\nA reference to an agent (organization, individual, or machine) including a role for that agent in the context of this specific reference.}]]]
}
class DDICDIModels::DDICDILibrary::DataTypes::StructuredDataTypes::Reference as "<size:10> \n<color:blue>Reference" <<dataType>> [[../DDICDILibrary/DataTypes/StructuredDataTypes/Reference.html#super-class-hierarchy-generalization{ <U+2015> Reference:\nProvides a way of pointing to resources outside of the information described in the set of DDI-CDI metadata.}]] {
  ddiReference : InternationalRegistrationDataIdentifier
  deepLink : <color:blue>Selector   	  [[[../DDICDILibrary/DataTypes/StructuredDataTypes/Selector.html#diagram{ <U+2015> Selector:\nA resource which describes the segment of interest in a representation of a resource. This class is not used directly, only its subclasses. It is defined accordingly the related selector of the Web Annotation Vocabulary, see https://www.w3.org/TR/annotation-vocab/#selector.}]]]
  description : String
  location : <color:blue>InternationalString   	  [[[../DDICDILibrary/DataTypes/StructuredDataTypes/InternationalString.html#diagram{ <U+2015> InternationalString:\nPackaging structure for multiple language versions of the same string content. Where an element of this type is repeatable, the expectation is that each repetition contains different content, each of which can be expressed in multiple languages. The language designation goes on the individual String ...}]]]
  nonDdiReference : <color:blue>NonDdiIdentifier   	  [[[../DDICDILibrary/DataTypes/StructuredDataTypes/NonDdiIdentifier.html#diagram{ <U+2015> NonDdiIdentifier:\nA unique set of attributes, not conforming to the DDI identifier structure nor structured as a URI, used to identify some entity.}]]]
  semantic : <color:blue>ControlledVocabularyEntry   	  [[[../DDICDILibrary/DataTypes/StructuredDataTypes/ControlledVocabularyEntry.html#diagram{ <U+2015> ControlledVocabularyEntry:\nAllows for unstructured content which may be an entry from an externally maintained controlled vocabulary.If the content is from a controlled vocabulary provide the code value of the entry, as well as a reference to the controlled vocabulary from which the value is taken. Provide as many of the iden ...}]]]
  uri : <color:blue>XsdAnyUri   	  [[[../DDICDILibrary/DataTypes/XMLSchemaDataTypes/XsdAnyUri.html#diagram{ <U+2015> XsdAnyUri:\nPrimitive data type "anyURI" of the XML Schema data types. Definition from XML Schema Part 2: Datatypes Second Edition: "anyURI" represents a Uniform Resource Identifier Reference (URI). An "anyURI" value can be absolute or relative, and may have an optional fragment identifier (i.e., it may be a UR ...}]]]
  validType : String
}


together {
  DDICDIModels::DDICDILibrary::DataTypes::StructuredDataTypes::Identifier::ddiIdentifier - - - - DDICDIModels::DDICDILibrary::DataTypes::StructuredDataTypes::InternationalRegistrationDataIdentifier #grey;line.dotted;
  DDICDIModels::DDICDILibrary::DataTypes::StructuredDataTypes::Reference::ddiReference - - - - DDICDIModels::DDICDILibrary::DataTypes::StructuredDataTypes::InternationalRegistrationDataIdentifier #grey;line.dotted;
}


together {
}
@enduml

PlantUML version 1.2022.6(Tue Jun 21 19:34:49 CEST 2022)
(GPL source distribution)
Java Runtime: OpenJDK Runtime Environment
JVM: OpenJDK 64-Bit Server VM
Default Encoding: Cp1252
Language: en
Country: US
--></g></svg>