<?xml version="1.0" encoding="UTF-8" standalone="no"?><svg xmlns="http://www.w3.org/2000/svg" xmlns:xlink="http://www.w3.org/1999/xlink" contentStyleType="text/css" height="309.6px" preserveAspectRatio="none" style="width:693px;height:309px;background:#FFFFFF;" version="1.1" viewBox="0 0 693 309" width="693px" zoomAndPan="magnify"><defs/><g><rect height="47.4891" style="stroke:#00000000;stroke-width:0.9;fill:none;" width="412.2" x="134.1" y="4.5"/><text fill="#000000" font-family="sans-serif" font-size="18" font-weight="bold" lengthAdjust="spacing" textLength="403.2" x="138.6" y="27.6855">UML Diagram: DataType NonIsoDate in Context</text><text fill="#000000" font-family="sans-serif" font-size="12.6" font-weight="bold" lengthAdjust="spacing" textLength="3.6" x="338.4" y="44.7205"> </text><rect fill="#FFFFFF" height="56.0813" rx="6.75" ry="6.75" style="stroke:#000000;stroke-width:0.9;" width="348.3" x="324.9" y="64.5891"/><text fill="#000000" font-family="sans-serif" font-size="9" font-weight="bold" lengthAdjust="spacing" textLength="22.5" x="330.3" y="79.3318">Hints</text><text fill="#808080" font-family="sans-serif" font-size="9" lengthAdjust="spacing" textLength="265.5" x="330.3" y="90.6521">- Move the mouse cursor over a name to see more information.</text><text fill="#808080" font-family="sans-serif" font-size="9" lengthAdjust="spacing" textLength="216" x="330.3" y="101.9725">- Click on a name to go to the corresponding page.</text><text fill="#808080" font-family="sans-serif" font-size="9" lengthAdjust="spacing" textLength="337.5" x="330.3" y="113.2928">- The use of the data type is represented here by a dotted line (not formal UML).</text><!--MD5=[02009956934ec10683a08703356fd7bb]
entity ##4--><!--MD5=[cf2b466143bd797820c9416be252779d]
entity ##7--><!--MD5=[7b5335e5cc15d914e730a3bba7f3831f]
class DDICDIModels::DDICDILibrary::DataTypes::StructuredDataTypes::NonIsoDate--><g id="elem_DDICDIModels::DDICDILibrary::DataTypes::StructuredDataTypes::NonIsoDate"><rect codeLine="47" fill="#FFD700" height="104.4984" id="DDICDIModels::DDICDILibrary::DataTypes::StructuredDataTypes::NonIsoDate" rx="2.25" ry="2.25" style="stroke:#404040;stroke-width:0.45;" width="279" x="407.7" y="159.3703"/><text fill="#000000" font-family="sans-serif" font-size="10.8" font-style="italic" lengthAdjust="spacing" textLength="58.5" x="517.95" y="175.0816">«dataType»</text><text fill="#000000" font-family="sans-serif" font-size="9" lengthAdjust="spacing" textLength="2.7" x="545.85" y="186.7975"> </text><text fill="#000000" font-family="sans-serif" font-size="12.6" lengthAdjust="spacing" textLength="65.7" x="514.35" y="201.8549">NonIsoDate</text><line style="stroke:#404040;stroke-width:0.45;" x1="408.6" x2="685.8" y1="209.1234" y2="209.1234"/><a href="../DDICDILibrary/DataTypes/StructuredDataTypes/ControlledVocabularyEntry.html#diagram" target="_top" title=" ― ControlledVocabularyEntry:&#10;Allows for unstructured content which may be an entry from an externally maintained controlled vocabulary.If the content is from a controlled vocabulary provide the code value of the entry, as well as a reference to the controlled vocabulary from which the value is taken. Provide as many of the iden ..." xlink:actuate="onRequest" xlink:href="../DDICDILibrary/DataTypes/StructuredDataTypes/ControlledVocabularyEntry.html#diagram" xlink:show="new" xlink:title=" ― ControlledVocabularyEntry:&#10;Allows for unstructured content which may be an entry from an externally maintained controlled vocabulary.If the content is from a controlled vocabulary provide the code value of the entry, as well as a reference to the controlled vocabulary from which the value is taken. Provide as many of the iden ..." xlink:type="simple"><text fill="#000000" font-family="sans-serif" font-size="12.6" lengthAdjust="spacing" textLength="56.7" x="413.1" y="225.8033">calendar :</text><text fill="#0000FF" font-family="sans-serif" font-size="12.6" lengthAdjust="spacing" textLength="152.1" x="473.4" y="225.8033">ControlledVocabularyEntry</text></a><text fill="#000000" font-family="sans-serif" font-size="12.6" lengthAdjust="spacing" textLength="114.3" x="413.1" y="241.6518">dateContent : String</text><a href="../DDICDILibrary/DataTypes/StructuredDataTypes/ControlledVocabularyEntry.html#diagram" target="_top" title=" ― ControlledVocabularyEntry:&#10;Allows for unstructured content which may be an entry from an externally maintained controlled vocabulary.If the content is from a controlled vocabulary provide the code value of the entry, as well as a reference to the controlled vocabulary from which the value is taken. Provide as many of the iden ..." xlink:actuate="onRequest" xlink:href="../DDICDILibrary/DataTypes/StructuredDataTypes/ControlledVocabularyEntry.html#diagram" xlink:show="new" xlink:title=" ― ControlledVocabularyEntry:&#10;Allows for unstructured content which may be an entry from an externally maintained controlled vocabulary.If the content is from a controlled vocabulary provide the code value of the entry, as well as a reference to the controlled vocabulary from which the value is taken. Provide as many of the iden ..." xlink:type="simple"><text fill="#000000" font-family="sans-serif" font-size="12.6" lengthAdjust="spacing" textLength="112.5" x="413.1" y="257.5002">nonIsoDateFormat :</text><text fill="#0000FF" font-family="sans-serif" font-size="12.6" lengthAdjust="spacing" textLength="152.1" x="529.2" y="257.5002">ControlledVocabularyEntry</text></a></g><!--MD5=[9ccefaaa76cd6570c07e9f159eb25140]
class DDICDIModels::DDICDILibrary::DataTypes::StructuredDataTypes::CombinedDate--><a href="../DDICDILibrary/DataTypes/StructuredDataTypes/CombinedDate.html#super-class-hierarchy-generalization" target="_top" title=" ― CombinedDate:&#10;Provides the structure of a single Date expressed in an ISO date structure along with equivalent expression in any number of non-ISO formats. While it supports the use of the ISO time interval structure this should only be used when the exact date is unclear (i.e. occurring at some point in time bet ..." xlink:actuate="onRequest" xlink:href="../DDICDILibrary/DataTypes/StructuredDataTypes/CombinedDate.html#super-class-hierarchy-generalization" xlink:show="new" xlink:title=" ― CombinedDate:&#10;Provides the structure of a single Date expressed in an ISO date structure along with equivalent expression in any number of non-ISO formats. While it supports the use of the ISO time interval structure this should only be used when the exact date is unclear (i.e. occurring at some point in time bet ..." xlink:type="simple"><g id="elem_DDICDIModels::DDICDILibrary::DataTypes::StructuredDataTypes::CombinedDate"><rect codeLine="57" fill="#F1F1F1" height="104.4984" id="DDICDIModels::DDICDILibrary::DataTypes::StructuredDataTypes::CombinedDate" rx="2.25" ry="2.25" style="stroke:#404040;stroke-width:0.45;" width="230.4" x="6.3" y="135.0703"/><text fill="#000000" font-family="sans-serif" font-size="10.8" font-style="italic" lengthAdjust="spacing" textLength="58.5" x="92.25" y="150.7816">«dataType»</text><text fill="#000000" font-family="sans-serif" font-size="9" lengthAdjust="spacing" textLength="2.7" x="120.15" y="162.4975"> </text><text fill="#0000FF" font-family="sans-serif" font-size="12.6" lengthAdjust="spacing" textLength="84.6" x="79.2" y="177.5549">CombinedDate</text><line style="stroke:#404040;stroke-width:0.45;" x1="7.2" x2="235.8" y1="184.8234" y2="184.8234"/><a href="../DDICDILibrary/DataTypes/XMLSchemaDataTypes/XsdDate.html#diagram" target="_top" title=" ― XsdDate:&#10;Primitive data type &quot;date&quot; of the XML Schema data types. Definition from XML Schema Part 2: Datatypes Second Edition: &quot;The value space of date consists of top-open intervals of exactly one day in length on the timelines of dateTime, beginning on the beginning moment of each day (in each timezone), i ..." xlink:actuate="onRequest" xlink:href="../DDICDILibrary/DataTypes/XMLSchemaDataTypes/XsdDate.html#diagram" xlink:show="new" xlink:title=" ― XsdDate:&#10;Primitive data type &quot;date&quot; of the XML Schema data types. Definition from XML Schema Part 2: Datatypes Second Edition: &quot;The value space of date consists of top-open intervals of exactly one day in length on the timelines of dateTime, beginning on the beginning moment of each day (in each timezone), i ..." xlink:type="simple"><text fill="#000000" font-family="sans-serif" font-size="12.6" lengthAdjust="spacing" textLength="50.4" x="11.7" y="201.5033">isoDate :</text><text fill="#0000FF" font-family="sans-serif" font-size="12.6" lengthAdjust="spacing" textLength="47.7" x="65.7" y="201.5033">XsdDate</text></a><text fill="#000000" font-family="sans-serif" font-size="12.6" lengthAdjust="spacing" textLength="141.3" x="11.7" y="217.3518">nonIsoDate : NonIsoDate</text><a href="../DDICDILibrary/DataTypes/StructuredDataTypes/ControlledVocabularyEntry.html#diagram" target="_top" title=" ― ControlledVocabularyEntry:&#10;Allows for unstructured content which may be an entry from an externally maintained controlled vocabulary.If the content is from a controlled vocabulary provide the code value of the entry, as well as a reference to the controlled vocabulary from which the value is taken. Provide as many of the iden ..." xlink:actuate="onRequest" xlink:href="../DDICDILibrary/DataTypes/StructuredDataTypes/ControlledVocabularyEntry.html#diagram" xlink:show="new" xlink:title=" ― ControlledVocabularyEntry:&#10;Allows for unstructured content which may be an entry from an externally maintained controlled vocabulary.If the content is from a controlled vocabulary provide the code value of the entry, as well as a reference to the controlled vocabulary from which the value is taken. Provide as many of the iden ..." xlink:type="simple"><text fill="#000000" font-family="sans-serif" font-size="12.6" lengthAdjust="spacing" textLength="63.9" x="11.7" y="233.2002">semantics :</text><text fill="#0000FF" font-family="sans-serif" font-size="12.6" lengthAdjust="spacing" textLength="152.1" x="79.2" y="233.2002">ControlledVocabularyEntry</text></a></g></a><!--MD5=[c1849986ad114834969fe727d3f57006]
link DDICDIModels::DDICDILibrary::DataTypes::StructuredDataTypes::CombinedDate to DDICDIModels::DDICDILibrary::DataTypes::StructuredDataTypes::NonIsoDate--><g id="link_DDICDIModels::DDICDILibrary::DataTypes::StructuredDataTypes::CombinedDate_DDICDIModels::DDICDILibrary::DataTypes::StructuredDataTypes::NonIsoDate"><path codeLine="69" d="M237.6,211.5703 C293.202,211.5703 354.438,211.5703 407.61,211.5703 " fill="none" id="DDICDIModels::DDICDILibrary::DataTypes::StructuredDataTypes::CombinedDate-DDICDIModels::DDICDILibrary::DataTypes::StructuredDataTypes::NonIsoDate" style="stroke:#808080;stroke-width:0.9;stroke-dasharray:1.0,3.0;"/></g><rect height="33.9609" style="stroke:#00000000;stroke-width:0.9;fill:none;" width="338.4" x="171" y="269.2688"/><text fill="#888888" font-family="sans-serif" font-size="9" lengthAdjust="spacing" textLength="2.7" x="338.85" y="278.6115"> </text><text fill="#888888" font-family="sans-serif" font-size="9" lengthAdjust="spacing" textLength="2.7" x="338.85" y="289.9318"> </text><text fill="#888888" font-family="sans-serif" font-size="9" lengthAdjust="spacing" textLength="338.4" x="171" y="301.2521">DDI Cross Domain Integration (DDI-CDI)   1.0 - StructuredDataTypes::NonIsoDate</text><!--MD5=[8375552bde2625da695fafc04b29c4b2]
@startuml
left to right direction
' HD display aspect ratio 16:9
' hyperlinkColor and pathHoverColor do not seem to work with class diagrams
' working approach: colors per item
' default font size for class names is 14

hide circle
hide empty members
scale 0.9

skinparam {
  ArrowThickness 1.5
  MinClassWidth 150
}

skinparam legend {
  BackgroundColor white
  FontSize 10
}

skinparam note {
  BackgroundColor white
}

skinparam class {
  ArrowColor #404040
  BorderColor #404040
}

skinparam package {
  FontColor lightgrey
  BorderColor lightgrey
}

title <size:20>UML Diagram: DataType NonIsoDate in Context\n
footer \n\nDDI Cross Domain Integration (DDI-CDI)   1.0 - StructuredDataTypes::NonIsoDate

legend top right
**Hints**
<color:grey>- Move the mouse cursor over a name to see more information.
<color:grey>- Click on a name to go to the corresponding page.
<color:grey>- The use of the data type is represented here by a dotted line (not formal UML).
endlegend

' Core data type of diagram
class DDICDIModels::DDICDILibrary::DataTypes::StructuredDataTypes::NonIsoDate as "<size:10> \n<color:black>NonIsoDate" <<dataType>>   #FFD700 {
  calendar : <color:blue>ControlledVocabularyEntry   	  [[[../DDICDILibrary/DataTypes/StructuredDataTypes/ControlledVocabularyEntry.html#diagram{ <U+2015> ControlledVocabularyEntry:\nAllows for unstructured content which may be an entry from an externally maintained controlled vocabulary.If the content is from a controlled vocabulary provide the code value of the entry, as well as a reference to the controlled vocabulary from which the value is taken. Provide as many of the iden ...}]]]
  dateContent : String
  nonIsoDateFormat : <color:blue>ControlledVocabularyEntry   	  [[[../DDICDILibrary/DataTypes/StructuredDataTypes/ControlledVocabularyEntry.html#diagram{ <U+2015> ControlledVocabularyEntry:\nAllows for unstructured content which may be an entry from an externally maintained controlled vocabulary.If the content is from a controlled vocabulary provide the code value of the entry, as well as a reference to the controlled vocabulary from which the value is taken. Provide as many of the iden ...}]]]
}

' Data type definitions in own package
class DDICDIModels::DDICDILibrary::DataTypes::StructuredDataTypes::CombinedDate as "<size:10> \n<color:blue>CombinedDate" <<dataType>> [[../DDICDILibrary/DataTypes/StructuredDataTypes/CombinedDate.html#super-class-hierarchy-generalization{ <U+2015> CombinedDate:\nProvides the structure of a single Date expressed in an ISO date structure along with equivalent expression in any number of non-ISO formats. While it supports the use of the ISO time interval structure this should only be used when the exact date is unclear (i.e. occurring at some point in time bet ...}]] {
  isoDate : <color:blue>XsdDate   	  [[[../DDICDILibrary/DataTypes/XMLSchemaDataTypes/XsdDate.html#diagram{ <U+2015> XsdDate:\nPrimitive data type "date" of the XML Schema data types. Definition from XML Schema Part 2: Datatypes Second Edition: "The value space of date consists of top-open intervals of exactly one day in length on the timelines of dateTime, beginning on the beginning moment of each day (in each timezone), i ...}]]]
  nonIsoDate : NonIsoDate
  semantics : <color:blue>ControlledVocabularyEntry   	  [[[../DDICDILibrary/DataTypes/StructuredDataTypes/ControlledVocabularyEntry.html#diagram{ <U+2015> ControlledVocabularyEntry:\nAllows for unstructured content which may be an entry from an externally maintained controlled vocabulary.If the content is from a controlled vocabulary provide the code value of the entry, as well as a reference to the controlled vocabulary from which the value is taken. Provide as many of the iden ...}]]]
}

' Data type definitions in other packages

' Use of data type
together {
  DDICDIModels::DDICDILibrary::DataTypes::StructuredDataTypes::CombinedDate::nonIsoDate - - - - DDICDIModels::DDICDILibrary::DataTypes::StructuredDataTypes::NonIsoDate #grey;line.dotted;
}


' Abstractions
together {
}
@enduml

@startuml
left to right direction

hide circle
hide empty members
scale 0.9

skinparam {
  ArrowThickness 1.5
  MinClassWidth 150
}

skinparam legend {
  BackgroundColor white
  FontSize 10
}

skinparam note {
  BackgroundColor white
}

skinparam class {
  ArrowColor #404040
  BorderColor #404040
}

skinparam package {
  FontColor lightgrey
  BorderColor lightgrey
}

title <size:20>UML Diagram: DataType NonIsoDate in Context\n
footer \n\nDDI Cross Domain Integration (DDI-CDI)   1.0 - StructuredDataTypes::NonIsoDate

legend top right
**Hints**
<color:grey>- Move the mouse cursor over a name to see more information.
<color:grey>- Click on a name to go to the corresponding page.
<color:grey>- The use of the data type is represented here by a dotted line (not formal UML).
endlegend

class DDICDIModels::DDICDILibrary::DataTypes::StructuredDataTypes::NonIsoDate as "<size:10> \n<color:black>NonIsoDate" <<dataType>>   #FFD700 {
  calendar : <color:blue>ControlledVocabularyEntry   	  [[[../DDICDILibrary/DataTypes/StructuredDataTypes/ControlledVocabularyEntry.html#diagram{ <U+2015> ControlledVocabularyEntry:\nAllows for unstructured content which may be an entry from an externally maintained controlled vocabulary.If the content is from a controlled vocabulary provide the code value of the entry, as well as a reference to the controlled vocabulary from which the value is taken. Provide as many of the iden ...}]]]
  dateContent : String
  nonIsoDateFormat : <color:blue>ControlledVocabularyEntry   	  [[[../DDICDILibrary/DataTypes/StructuredDataTypes/ControlledVocabularyEntry.html#diagram{ <U+2015> ControlledVocabularyEntry:\nAllows for unstructured content which may be an entry from an externally maintained controlled vocabulary.If the content is from a controlled vocabulary provide the code value of the entry, as well as a reference to the controlled vocabulary from which the value is taken. Provide as many of the iden ...}]]]
}

class DDICDIModels::DDICDILibrary::DataTypes::StructuredDataTypes::CombinedDate as "<size:10> \n<color:blue>CombinedDate" <<dataType>> [[../DDICDILibrary/DataTypes/StructuredDataTypes/CombinedDate.html#super-class-hierarchy-generalization{ <U+2015> CombinedDate:\nProvides the structure of a single Date expressed in an ISO date structure along with equivalent expression in any number of non-ISO formats. While it supports the use of the ISO time interval structure this should only be used when the exact date is unclear (i.e. occurring at some point in time bet ...}]] {
  isoDate : <color:blue>XsdDate   	  [[[../DDICDILibrary/DataTypes/XMLSchemaDataTypes/XsdDate.html#diagram{ <U+2015> XsdDate:\nPrimitive data type "date" of the XML Schema data types. Definition from XML Schema Part 2: Datatypes Second Edition: "The value space of date consists of top-open intervals of exactly one day in length on the timelines of dateTime, beginning on the beginning moment of each day (in each timezone), i ...}]]]
  nonIsoDate : NonIsoDate
  semantics : <color:blue>ControlledVocabularyEntry   	  [[[../DDICDILibrary/DataTypes/StructuredDataTypes/ControlledVocabularyEntry.html#diagram{ <U+2015> ControlledVocabularyEntry:\nAllows for unstructured content which may be an entry from an externally maintained controlled vocabulary.If the content is from a controlled vocabulary provide the code value of the entry, as well as a reference to the controlled vocabulary from which the value is taken. Provide as many of the iden ...}]]]
}


together {
  DDICDIModels::DDICDILibrary::DataTypes::StructuredDataTypes::CombinedDate::nonIsoDate - - - - DDICDIModels::DDICDILibrary::DataTypes::StructuredDataTypes::NonIsoDate #grey;line.dotted;
}


together {
}
@enduml

PlantUML version 1.2022.6(Tue Jun 21 19:34:49 CEST 2022)
(GPL source distribution)
Java Runtime: OpenJDK Runtime Environment
JVM: OpenJDK 64-Bit Server VM
Default Encoding: Cp1252
Language: en
Country: US
--></g></svg>