<?xml version="1.0" encoding="UTF-8" standalone="no"?><svg xmlns="http://www.w3.org/2000/svg" xmlns:xlink="http://www.w3.org/1999/xlink" contentStyleType="text/css" height="585px" preserveAspectRatio="none" style="width:979px;height:585px;background:#FFFFFF;" version="1.1" viewBox="0 0 979 585" width="979.2px" zoomAndPan="magnify"><defs/><g><rect height="47.4891" style="stroke:#00000000;stroke-width:0.9;fill:none;" width="314.1" x="326.25" y="4.5"/><text fill="#000000" font-family="sans-serif" font-size="18" font-weight="bold" lengthAdjust="spacing" textLength="305.1" x="330.75" y="27.6855">UML Diagram: Class Unit in Context</text><text fill="#000000" font-family="sans-serif" font-size="12.6" font-weight="bold" lengthAdjust="spacing" textLength="3.6" x="481.5" y="44.7205"> </text><rect fill="#FFFFFF" height="44.7609" rx="6.75" ry="6.75" style="stroke:#000000;stroke-width:0.9;" width="276.3" x="7.2" y="64.5891"/><text fill="#000000" font-family="sans-serif" font-size="9" font-weight="bold" lengthAdjust="spacing" textLength="22.5" x="12.6" y="79.3318">Hints</text><text fill="#808080" font-family="sans-serif" font-size="9" lengthAdjust="spacing" textLength="265.5" x="12.6" y="90.6521">- Move the mouse cursor over a name to see more information.</text><text fill="#808080" font-family="sans-serif" font-size="9" lengthAdjust="spacing" textLength="216" x="12.6" y="101.9725">- Click on a name to go to the corresponding page.</text><!--MD5=[e64ca973e69aa3e0982d39384943e6e4]
class DDICDIModels::DDICDILibrary::Classes::DataDescription::KeyValue::InstanceKey--><a href="../DDICDILibrary/Classes/DataDescription/KeyValue/InstanceKey.html#super-class-hierarchy-generalization" target="_top" title=" ― InstanceKey:&#10;Single-valued key representation produced from the merge of the representations of all key members and a descriptor." xlink:actuate="onRequest" xlink:href="../DDICDILibrary/Classes/DataDescription/KeyValue/InstanceKey.html#super-class-hierarchy-generalization" xlink:show="new" xlink:title=" ― InstanceKey:&#10;Single-valued key representation produced from the merge of the representations of all key members and a descriptor." xlink:type="simple"><g id="elem_DDICDIModels::DDICDILibrary::Classes::DataDescription::KeyValue::InstanceKey"><rect codeLine="62" fill="#F1F1F1" height="36.1688" id="DDICDIModels::DDICDILibrary::Classes::DataDescription::KeyValue::InstanceKey" rx="2.25" ry="2.25" style="stroke:#404040;stroke-width:0.45;" width="135" x="6.3" y="503.55"/><text fill="#000000" font-family="sans-serif" font-size="9" lengthAdjust="spacing" textLength="46.8" x="50.4" y="517.3928">KeyValue::</text><text fill="#0000FF" font-family="sans-serif" font-size="12.6" lengthAdjust="spacing" textLength="69.3" x="39.15" y="532.4502">InstanceKey</text></g></a><!--MD5=[d33d9f84e2831d952241abda2be6b36b]
class DDICDIModels::DDICDILibrary::Classes::Conceptual::UnitType--><a href="../DDICDILibrary/Classes/Conceptual/UnitType.html#super-class-hierarchy-generalization" target="_top" title=" ― UnitType:&#10;Unit type is a type or class of objects of interest (units)." xlink:actuate="onRequest" xlink:href="../DDICDILibrary/Classes/Conceptual/UnitType.html#super-class-hierarchy-generalization" xlink:show="new" xlink:title=" ― UnitType:&#10;Unit type is a type or class of objects of interest (units)." xlink:type="simple"><g id="elem_DDICDIModels::DDICDILibrary::Classes::Conceptual::UnitType"><rect codeLine="63" fill="#F1F1F1" height="36.1688" id="DDICDIModels::DDICDILibrary::Classes::Conceptual::UnitType" rx="2.25" ry="2.25" style="stroke:#404040;stroke-width:0.45;" width="135" x="172.8" y="503.55"/><text fill="#000000" font-family="sans-serif" font-size="9" lengthAdjust="spacing" textLength="54.9" x="212.85" y="517.3928">Conceptual::</text><text fill="#0000FF" font-family="sans-serif" font-size="12.6" lengthAdjust="spacing" textLength="50.4" x="215.1" y="532.4502">UnitType</text></g></a><!--MD5=[cdbfe94568ded8ff36c20a0adb40e0eb]
class DDICDIModels::DesignPatterns::DataDescriptionPattern::Key--><a href="../DesignPatterns/DataDescriptionPattern/Key.html#super-class-hierarchy-generalization" target="_top" title=" ― Key:&#10;Collection of data instances that uniquely identify a collection of data points in a dataset." xlink:actuate="onRequest" xlink:href="../DesignPatterns/DataDescriptionPattern/Key.html#super-class-hierarchy-generalization" xlink:show="new" xlink:title=" ― Key:&#10;Collection of data instances that uniquely identify a collection of data points in a dataset." xlink:type="simple"><g id="elem_DDICDIModels::DesignPatterns::DataDescriptionPattern::Key"><rect codeLine="64" fill="#F1F1F1" height="36.1688" id="DDICDIModels::DesignPatterns::DataDescriptionPattern::Key" rx="2.25" ry="2.25" style="stroke:#404040;stroke-width:0.45;" width="135" x="339.3" y="503.55"/><text fill="#000000" font-family="sans-serif" font-size="9" font-style="italic" lengthAdjust="spacing" textLength="103.5" x="355.05" y="517.3928">DataDescriptionPattern::</text><text fill="#0000FF" font-family="sans-serif" font-size="12.6" font-style="italic" lengthAdjust="spacing" textLength="21.6" x="396" y="532.4502">Key</text></g></a><!--MD5=[3cdb87c59fa39d2288f5a772d158d124]
class DDICDIModels::DDICDILibrary::Classes::DataDescription::Long::LongKey--><a href="../DDICDILibrary/Classes/DataDescription/Long/LongKey.html#super-class-hierarchy-generalization" target="_top" title=" ― LongKey:&#10;Collection of data instances that uniquely identify a collection of data points in a long dataset." xlink:actuate="onRequest" xlink:href="../DDICDILibrary/Classes/DataDescription/Long/LongKey.html#super-class-hierarchy-generalization" xlink:show="new" xlink:title=" ― LongKey:&#10;Collection of data instances that uniquely identify a collection of data points in a long dataset." xlink:type="simple"><g id="elem_DDICDIModels::DDICDILibrary::Classes::DataDescription::Long::LongKey"><rect codeLine="65" fill="#F1F1F1" height="36.1688" id="DDICDIModels::DDICDILibrary::Classes::DataDescription::Long::LongKey" rx="2.25" ry="2.25" style="stroke:#404040;stroke-width:0.45;" width="135" x="505.8" y="503.55"/><text fill="#000000" font-family="sans-serif" font-size="9" lengthAdjust="spacing" textLength="27" x="559.8" y="517.3928">Long::</text><text fill="#0000FF" font-family="sans-serif" font-size="12.6" lengthAdjust="spacing" textLength="50.4" x="548.1" y="532.4502">LongKey</text></g></a><!--MD5=[b7b73e3a731090026960bec245dd172c]
class DDICDIModels::DDICDILibrary::Classes::Conceptual::Population--><a href="../DDICDILibrary/Classes/Conceptual/Population.html#super-class-hierarchy-generalization" target="_top" title=" ― Population:&#10;Universe with time and geography specified." xlink:actuate="onRequest" xlink:href="../DDICDILibrary/Classes/Conceptual/Population.html#super-class-hierarchy-generalization" xlink:show="new" xlink:title=" ― Population:&#10;Universe with time and geography specified." xlink:type="simple"><g id="elem_DDICDIModels::DDICDILibrary::Classes::Conceptual::Population"><rect codeLine="66" fill="#F1F1F1" height="36.1688" id="DDICDIModels::DDICDILibrary::Classes::Conceptual::Population" rx="2.25" ry="2.25" style="stroke:#404040;stroke-width:0.45;" width="135" x="672.3" y="503.55"/><text fill="#000000" font-family="sans-serif" font-size="9" lengthAdjust="spacing" textLength="54.9" x="712.35" y="517.3928">Conceptual::</text><text fill="#0000FF" font-family="sans-serif" font-size="12.6" lengthAdjust="spacing" textLength="60.3" x="709.65" y="532.4502">Population</text></g></a><!--MD5=[cf9aa233d5225a4c26a770e3d9542e90]
class DDICDIModels::DDICDILibrary::Classes::DataDescription::Wide::WideKey--><a href="../DDICDILibrary/Classes/DataDescription/Wide/WideKey.html#super-class-hierarchy-generalization" target="_top" title=" ― WideKey:&#10;Collection of data instances that uniquely identify a collection of data points in a wide dataset." xlink:actuate="onRequest" xlink:href="../DDICDILibrary/Classes/DataDescription/Wide/WideKey.html#super-class-hierarchy-generalization" xlink:show="new" xlink:title=" ― WideKey:&#10;Collection of data instances that uniquely identify a collection of data points in a wide dataset." xlink:type="simple"><g id="elem_DDICDIModels::DDICDILibrary::Classes::DataDescription::Wide::WideKey"><rect codeLine="67" fill="#F1F1F1" height="36.1688" id="DDICDIModels::DDICDILibrary::Classes::DataDescription::Wide::WideKey" rx="2.25" ry="2.25" style="stroke:#404040;stroke-width:0.45;" width="135" x="838.8" y="503.55"/><text fill="#000000" font-family="sans-serif" font-size="9" lengthAdjust="spacing" textLength="27" x="892.8" y="517.3928">Wide::</text><text fill="#0000FF" font-family="sans-serif" font-size="12.6" lengthAdjust="spacing" textLength="50.4" x="881.1" y="532.4502">WideKey</text></g></a><!--MD5=[09eeaa9d04f75504147b3a4e484c6d1e]
entity ##11--><!--MD5=[16c6a2b0db7729a3d011e1dc8c3c1fce]
class DDICDIModels::DDICDILibrary::Classes::Conceptual::Unit--><g id="elem_DDICDIModels::DDICDILibrary::Classes::Conceptual::Unit"><rect codeLine="46" fill="#FFD700" height="122.6109" id="DDICDIModels::DDICDILibrary::Classes::Conceptual::Unit" rx="2.25" ry="2.25" style="stroke:#404040;stroke-width:0.45;" width="185.4" x="396.9" y="123.75"/><text fill="#000000" font-family="sans-serif" font-size="9" lengthAdjust="spacing" textLength="54.9" x="462.15" y="137.5928">Conceptual::</text><text fill="#000000" font-family="sans-serif" font-size="12.6" lengthAdjust="spacing" textLength="21.6" x="478.8" y="152.6502">Unit</text><line style="stroke:#404040;stroke-width:0.45;" x1="397.8" x2="581.4" y1="159.9188" y2="159.9188"/><a href="../DDICDILibrary/DataTypes/StructuredDataTypes/CatalogDetails.html#diagram" target="_top" title=" ― CatalogDetails:&#10;A set of information useful for attribution, data discovery, and access." xlink:actuate="onRequest" xlink:href="../DDICDILibrary/DataTypes/StructuredDataTypes/CatalogDetails.html#diagram" xlink:show="new" xlink:title=" ― CatalogDetails:&#10;A set of information useful for attribution, data discovery, and access." xlink:type="simple"><text fill="#000000" font-family="sans-serif" font-size="12.6" lengthAdjust="spacing" textLength="87.3" x="402.3" y="176.5986">catalogDetails :</text><text fill="#0000FF" font-family="sans-serif" font-size="12.6" lengthAdjust="spacing" textLength="82.8" x="493.2" y="176.5986">CatalogDetails</text></a><a href="../DDICDILibrary/DataTypes/StructuredDataTypes/InternationalString.html#diagram" target="_top" title=" ― InternationalString:&#10;Packaging structure for multiple language versions of the same string content. Where an element of this type is repeatable, the expectation is that each repetition contains different content, each of which can be expressed in multiple languages. The language designation goes on the individual String ..." xlink:actuate="onRequest" xlink:href="../DDICDILibrary/DataTypes/StructuredDataTypes/InternationalString.html#diagram" xlink:show="new" xlink:title=" ― InternationalString:&#10;Packaging structure for multiple language versions of the same string content. Where an element of this type is repeatable, the expectation is that each repetition contains different content, each of which can be expressed in multiple languages. The language designation goes on the individual String ..." xlink:type="simple"><text fill="#000000" font-family="sans-serif" font-size="12.6" lengthAdjust="spacing" textLength="58.5" x="402.3" y="192.4471">definition :</text><text fill="#0000FF" font-family="sans-serif" font-size="12.6" lengthAdjust="spacing" textLength="103.5" x="464.4" y="192.4471">InternationalString</text></a><a href="../DDICDILibrary/DataTypes/StructuredDataTypes/LabelForDisplay.html#diagram" target="_top" title=" ― LabelForDisplay:&#10;A structured display label. Label provides display content of a fully human readable display for the identification of the object." xlink:actuate="onRequest" xlink:href="../DDICDILibrary/DataTypes/StructuredDataTypes/LabelForDisplay.html#diagram" xlink:show="new" xlink:title=" ― LabelForDisplay:&#10;A structured display label. Label provides display content of a fully human readable display for the identification of the object." xlink:type="simple"><text fill="#000000" font-family="sans-serif" font-size="12.6" lengthAdjust="spacing" textLength="78.3" x="402.3" y="208.2955">displayLabel :</text><text fill="#0000FF" font-family="sans-serif" font-size="12.6" lengthAdjust="spacing" textLength="92.7" x="484.2" y="208.2955">LabelForDisplay</text></a><a href="../DDICDILibrary/DataTypes/StructuredDataTypes/Identifier.html#diagram" target="_top" title=" ― Identifier:&#10;Identifier for objects requiring short- or long-lasting referencing and management." xlink:actuate="onRequest" xlink:href="../DDICDILibrary/DataTypes/StructuredDataTypes/Identifier.html#diagram" xlink:show="new" xlink:title=" ― Identifier:&#10;Identifier for objects requiring short- or long-lasting referencing and management." xlink:type="simple"><text fill="#000000" font-family="sans-serif" font-size="12.6" lengthAdjust="spacing" textLength="55.8" x="402.3" y="224.1439">identifier :</text><text fill="#0000FF" font-family="sans-serif" font-size="12.6" lengthAdjust="spacing" textLength="48.6" x="461.7" y="224.1439">Identifier</text></a><a href="../DDICDILibrary/DataTypes/StructuredDataTypes/ObjectName.html#diagram" target="_top" title=" ― ObjectName:&#10;A standard means of expressing a name for a class object. A linguistic signifier. Human understandable name (word, phrase, or mnemonic) that reflects the ISO/IEC 11179-5 naming principles." xlink:actuate="onRequest" xlink:href="../DDICDILibrary/DataTypes/StructuredDataTypes/ObjectName.html#diagram" xlink:show="new" xlink:title=" ― ObjectName:&#10;A standard means of expressing a name for a class object. A linguistic signifier. Human understandable name (word, phrase, or mnemonic) that reflects the ISO/IEC 11179-5 naming principles." xlink:type="simple"><text fill="#000000" font-family="sans-serif" font-size="12.6" lengthAdjust="spacing" textLength="38.7" x="402.3" y="239.9924">name :</text><text fill="#0000FF" font-family="sans-serif" font-size="12.6" lengthAdjust="spacing" textLength="69.3" x="444.6" y="239.9924">ObjectName</text></a></g><!--MD5=[41a1e896a012e0f17dcc9b6fbc7796d6]
reverse link DDICDIModels::DDICDILibrary::Classes::Conceptual::Unit to DDICDIModels::DDICDILibrary::Classes::DataDescription::KeyValue::InstanceKey--><g id="link_DDICDIModels::DDICDILibrary::Classes::Conceptual::Unit_DDICDIModels::DDICDILibrary::Classes::DataDescription::KeyValue::InstanceKey"><a href="" target="_top" title=" ― correspondsTo:&#10;Instance key corresponds to zero to one unit." xlink:actuate="onRequest" xlink:href="" xlink:show="new" xlink:title=" ― correspondsTo:&#10;Instance key corresponds to zero to one unit." xlink:type="simple"><path codeLine="79" d="M410.814,249.291 C313.326,327.789 153.153,456.759 95.4,503.262 " fill="none" id="DDICDIModels::DDICDILibrary::Classes::Conceptual::Unit-backto-DDICDIModels::DDICDILibrary::Classes::DataDescription::KeyValue::InstanceKey" style="stroke:#808080;stroke-width:1.35;"/><polygon fill="#808080" points="414.54,246.285,405.9782,248.5798,411.0412,249.1149,410.5061,254.1779,414.54,246.285" style="stroke:#808080;stroke-width:1.35;"/><text fill="#000000" font-family="sans-serif" font-size="11.7" lengthAdjust="spacing" textLength="76.5" x="234" y="404.0956">correspondsTo</text></a></g><!--MD5=[398e28d3e8380be2a92bc84bcb994d9b]
reverse link DDICDIModels::DDICDILibrary::Classes::Conceptual::Unit to DDICDIModels::DesignPatterns::DataDescriptionPattern::Key--><g id="link_DDICDIModels::DDICDILibrary::Classes::Conceptual::Unit_DDICDIModels::DesignPatterns::DataDescriptionPattern::Key"><a href="" target="_top" title=" ― correspondsTo:&#10;" xlink:actuate="onRequest" xlink:href="" xlink:show="new" xlink:title=" ― correspondsTo:&#10;" xlink:type="simple"><path codeLine="80" d="M473.517,250.893 C454.068,329.535 422.514,457.11 411.093,503.28 " fill="none" id="DDICDIModels::DDICDILibrary::Classes::Conceptual::Unit-backto-DDICDIModels::DesignPatterns::DataDescriptionPattern::Key" style="stroke:#808080;stroke-width:1.35;"/><polygon fill="#808080" points="474.606,246.483,469.1683,253.4831,473.5267,250.8516,476.1582,255.21,474.606,246.483" style="stroke:#808080;stroke-width:1.35;"/><text fill="#000000" font-family="sans-serif" font-size="11.7" lengthAdjust="spacing" textLength="76.5" x="440.1" y="404.0956">correspondsTo</text></a></g><!--MD5=[8595e73ef6fdfa18e1d218f364bfdda3]
reverse link DDICDIModels::DDICDILibrary::Classes::Conceptual::Unit to DDICDIModels::DDICDILibrary::Classes::DataDescription::Long::LongKey--><g id="link_DDICDIModels::DDICDILibrary::Classes::Conceptual::Unit_DDICDIModels::DDICDILibrary::Classes::DataDescription::Long::LongKey"><a href="" target="_top" title=" ― correspondsTo:&#10;" xlink:actuate="onRequest" xlink:href="" xlink:show="new" xlink:title=" ― correspondsTo:&#10;" xlink:type="simple"><path codeLine="81" d="M505.863,250.893 C525.519,329.535 557.415,457.11 568.953,503.28 " fill="none" id="DDICDIModels::DDICDILibrary::Classes::Conceptual::Unit-backto-DDICDIModels::DDICDILibrary::Classes::DataDescription::Long::LongKey" style="stroke:#808080;stroke-width:1.35;"/><polygon fill="#808080" points="504.756,246.483,503.2098,255.2111,505.8383,250.8509,510.1985,253.4794,504.756,246.483" style="stroke:#808080;stroke-width:1.35;"/><text fill="#000000" font-family="sans-serif" font-size="11.7" lengthAdjust="spacing" textLength="76.5" x="545.4" y="404.0956">correspondsTo</text></a></g><!--MD5=[6b4352a58b3b6ab016e1e414458eb8ac]
reverse link DDICDIModels::DDICDILibrary::Classes::Conceptual::Unit to DDICDIModels::DDICDILibrary::Classes::Conceptual::Population--><g id="link_DDICDIModels::DDICDILibrary::Classes::Conceptual::Unit_DDICDIModels::DDICDILibrary::Classes::Conceptual::Population"><a href="" target="_top" title=" ― isComposedOf:&#10;A unit in the population." xlink:actuate="onRequest" xlink:href="" xlink:show="new" xlink:title=" ― isComposedOf:&#10;A unit in the population." xlink:type="simple"><path codeLine="82" d="M537.678,250.191 C596.403,328.779 692.217,456.975 726.813,503.28 " fill="none" id="DDICDIModels::DDICDILibrary::Classes::Conceptual::Unit-backto-DDICDIModels::DDICDILibrary::Classes::Conceptual::Population" style="stroke:#808080;stroke-width:1.35;"/><polygon fill="#808080" points="534.906,246.483,536.8662,255.1275,537.5978,250.0892,542.6361,250.8207,534.906,246.483" style="stroke:#808080;stroke-width:1.35;"/><text fill="#000000" font-family="sans-serif" font-size="11.7" lengthAdjust="spacing" textLength="76.5" x="652.5" y="404.0956">isComposedOf</text></a></g><!--MD5=[4645ec402dbc47f7e3a75f9b340038f4]
link DDICDIModels::DDICDILibrary::Classes::Conceptual::Unit to DDICDIModels::DDICDILibrary::Classes::Conceptual::UnitType--><g id="link_DDICDIModels::DDICDILibrary::Classes::Conceptual::Unit_DDICDIModels::DDICDILibrary::Classes::Conceptual::UnitType"><a href="" target="_top" title=" ― has:&#10;The unit type of the unit." xlink:actuate="onRequest" xlink:href="" xlink:show="new" xlink:title=" ― has:&#10;The unit type of the unit." xlink:type="simple"><path codeLine="83" d="M444.456,246.483 C387.702,322.695 293.211,449.595 256.023,499.536 " fill="none" id="DDICDIModels::DDICDILibrary::Classes::Conceptual::Unit-to-DDICDIModels::DDICDILibrary::Classes::Conceptual::UnitType" style="stroke:#808080;stroke-width:1.35;"/><polygon fill="#808080" points="253.233,503.28,260.9631,498.9423,255.9248,499.6738,255.1932,494.6355,253.233,503.28" style="stroke:#808080;stroke-width:1.35;"/><text fill="#000000" font-family="sans-serif" font-size="11.7" lengthAdjust="spacing" textLength="18.9" x="336.6" y="404.0956">has</text></a></g><!--MD5=[35a74cde4de4381e6639015b684ce6e3]
reverse link DDICDIModels::DDICDILibrary::Classes::Conceptual::Unit to DDICDIModels::DDICDILibrary::Classes::DataDescription::Wide::WideKey--><g id="link_DDICDIModels::DDICDILibrary::Classes::Conceptual::Unit_DDICDIModels::DDICDILibrary::Classes::DataDescription::Wide::WideKey"><a href="" target="_top" title=" ― correspondsTo:&#10;Wide key corresponds to zero to one unit." xlink:actuate="onRequest" xlink:href="" xlink:show="new" xlink:title=" ― correspondsTo:&#10;Wide key corresponds to zero to one unit." xlink:type="simple"><path codeLine="84" d="M568.557,249.291 C666.252,327.789 826.776,456.759 884.646,503.262 " fill="none" id="DDICDIModels::DDICDILibrary::Classes::Conceptual::Unit-backto-DDICDIModels::DDICDILibrary::Classes::DataDescription::Wide::WideKey" style="stroke:#808080;stroke-width:1.35;"/><polygon fill="#808080" points="564.822,246.285,568.8876,254.1616,568.3321,249.1008,573.3929,248.5454,564.822,246.285" style="stroke:#808080;stroke-width:1.35;"/><text fill="#000000" font-family="sans-serif" font-size="11.7" lengthAdjust="spacing" textLength="76.5" x="760.5" y="404.0956">correspondsTo</text></a></g><rect height="33.9609" style="stroke:#00000000;stroke-width:0.9;fill:none;" width="267.3" x="349.65" y="544.2188"/><text fill="#888888" font-family="sans-serif" font-size="9" lengthAdjust="spacing" textLength="2.7" x="481.95" y="553.5615"> </text><text fill="#888888" font-family="sans-serif" font-size="9" lengthAdjust="spacing" textLength="2.7" x="481.95" y="564.8818"> </text><text fill="#888888" font-family="sans-serif" font-size="9" lengthAdjust="spacing" textLength="267.3" x="349.65" y="576.2021">DDI Cross Domain Integration (DDI-CDI)   1.0 - Conceptual::Unit</text><!--MD5=[c4c57063f13128a3a56f38760126bad6]
@startuml
!pragma ratio 0.5625
' HD display aspect ratio 16:9
' hyperlinkColor and pathHoverColor do not seem to work with class diagrams
' working approach: colors per item
' default font size for class names is 14

hide circle
hide empty members
scale 0.9

skinparam {
  ArrowThickness 1.5
  MinClassWidth 150
}

skinparam legend {
  BackgroundColor white
  FontSize 10
}

skinparam note {
  BackgroundColor white
}

skinparam class {
  ArrowColor #404040
  BorderColor #404040
}

skinparam package {
  FontColor lightgrey
  BorderColor lightgrey
}

title <size:20>UML Diagram: Class Unit in Context\n
footer \n\nDDI Cross Domain Integration (DDI-CDI)   1.0 - Conceptual::Unit

legend top left
**Hints**
<color:grey>- Move the mouse cursor over a name to see more information.
<color:grey>- Click on a name to go to the corresponding page.
endlegend

' Core class of diagram
class DDICDIModels::DDICDILibrary::Classes::Conceptual::Unit as "<size:10>Conceptual::\n<color:black>Unit" #FFD700 {
  catalogDetails : <color:blue>CatalogDetails   	  [[[../DDICDILibrary/DataTypes/StructuredDataTypes/CatalogDetails.html#diagram{ <U+2015> CatalogDetails:\nA set of information useful for attribution, data discovery, and access.}]]]
  definition : <color:blue>InternationalString   	  [[[../DDICDILibrary/DataTypes/StructuredDataTypes/InternationalString.html#diagram{ <U+2015> InternationalString:\nPackaging structure for multiple language versions of the same string content. Where an element of this type is repeatable, the expectation is that each repetition contains different content, each of which can be expressed in multiple languages. The language designation goes on the individual String ...}]]]
  displayLabel : <color:blue>LabelForDisplay   	  [[[../DDICDILibrary/DataTypes/StructuredDataTypes/LabelForDisplay.html#diagram{ <U+2015> LabelForDisplay:\nA structured display label. Label provides display content of a fully human readable display for the identification of the object.}]]]
  identifier : <color:blue>Identifier   	  [[[../DDICDILibrary/DataTypes/StructuredDataTypes/Identifier.html#diagram{ <U+2015> Identifier:\nIdentifier for objects requiring short- or long-lasting referencing and management.}]]]
  name : <color:blue>ObjectName   	  [[[../DDICDILibrary/DataTypes/StructuredDataTypes/ObjectName.html#diagram{ <U+2015> ObjectName:\nA standard means of expressing a name for a class object. A linguistic signifier. Human understandable name (word, phrase, or mnemonic) that reflects the ISO/IEC 11179-5 naming principles.}]]]
}

' Class definitions for associated classes without superclass (might have also an association)
' This would be too many constraints for Graphviz. 
together {
  class DDICDIModels::DDICDILibrary::Classes::DataDescription::KeyValue::InstanceKey as "<size:10>KeyValue::\n<color:blue>InstanceKey" [[../DDICDILibrary/Classes/DataDescription/KeyValue/InstanceKey.html#super-class-hierarchy-generalization{ <U+2015> InstanceKey:\nSingle-valued key representation produced from the merge of the representations of all key members and a descriptor.}]]
  class DDICDIModels::DDICDILibrary::Classes::Conceptual::UnitType as "<size:10>Conceptual::\n<color:blue>UnitType" [[../DDICDILibrary/Classes/Conceptual/UnitType.html#super-class-hierarchy-generalization{ <U+2015> UnitType:\nUnit type is a type or class of objects of interest (units).}]]
  abstract class DDICDIModels::DesignPatterns::DataDescriptionPattern::Key as "<size:10>DataDescriptionPattern::\n<color:blue>Key" [[../DesignPatterns/DataDescriptionPattern/Key.html#super-class-hierarchy-generalization{ <U+2015> Key:\nCollection of data instances that uniquely identify a collection of data points in a dataset.}]]
  class DDICDIModels::DDICDILibrary::Classes::DataDescription::Long::LongKey as "<size:10>Long::\n<color:blue>LongKey" [[../DDICDILibrary/Classes/DataDescription/Long/LongKey.html#super-class-hierarchy-generalization{ <U+2015> LongKey:\nCollection of data instances that uniquely identify a collection of data points in a long dataset.}]]
  class DDICDIModels::DDICDILibrary::Classes::Conceptual::Population as "<size:10>Conceptual::\n<color:blue>Population" [[../DDICDILibrary/Classes/Conceptual/Population.html#super-class-hierarchy-generalization{ <U+2015> Population:\nUniverse with time and geography specified.}]]
  class DDICDIModels::DDICDILibrary::Classes::DataDescription::Wide::WideKey as "<size:10>Wide::\n<color:blue>WideKey" [[../DDICDILibrary/Classes/DataDescription/Wide/WideKey.html#super-class-hierarchy-generalization{ <U+2015> WideKey:\nCollection of data instances that uniquely identify a collection of data points in a wide dataset.}]]
}

' Class definitions for suppliers of abstractions
together {
}

' Rest of class definitions, without associated classes of core class and abstraction supplier classes



' Associations
DDICDIModels::DDICDILibrary::Classes::Conceptual::Unit <-[#grey]- DDICDIModels::DDICDILibrary::Classes::DataDescription::KeyValue::InstanceKey [[{ <U+2015> correspondsTo:\nInstance key corresponds to zero to one unit.}]] : correspondsTo
DDICDIModels::DDICDILibrary::Classes::Conceptual::Unit <-[#grey]- DDICDIModels::DesignPatterns::DataDescriptionPattern::Key [[{ <U+2015> correspondsTo:\n}]] : correspondsTo
DDICDIModels::DDICDILibrary::Classes::Conceptual::Unit <-[#grey]- DDICDIModels::DDICDILibrary::Classes::DataDescription::Long::LongKey [[{ <U+2015> correspondsTo:\n}]] : correspondsTo
DDICDIModels::DDICDILibrary::Classes::Conceptual::Unit <-[#grey]- DDICDIModels::DDICDILibrary::Classes::Conceptual::Population [[{ <U+2015> isComposedOf:\nA unit in the population.}]] : isComposedOf
DDICDIModels::DDICDILibrary::Classes::Conceptual::Unit -[#grey]-> DDICDIModels::DDICDILibrary::Classes::Conceptual::UnitType [[{ <U+2015> has:\nThe unit type of the unit.}]] : has
DDICDIModels::DDICDILibrary::Classes::Conceptual::Unit <-[#grey]- DDICDIModels::DDICDILibrary::Classes::DataDescription::Wide::WideKey [[{ <U+2015> correspondsTo:\nWide key corresponds to zero to one unit.}]] : correspondsTo


' Abstractions
@enduml

@startuml
!pragma ratio 0.5625

hide circle
hide empty members
scale 0.9

skinparam {
  ArrowThickness 1.5
  MinClassWidth 150
}

skinparam legend {
  BackgroundColor white
  FontSize 10
}

skinparam note {
  BackgroundColor white
}

skinparam class {
  ArrowColor #404040
  BorderColor #404040
}

skinparam package {
  FontColor lightgrey
  BorderColor lightgrey
}

title <size:20>UML Diagram: Class Unit in Context\n
footer \n\nDDI Cross Domain Integration (DDI-CDI)   1.0 - Conceptual::Unit

legend top left
**Hints**
<color:grey>- Move the mouse cursor over a name to see more information.
<color:grey>- Click on a name to go to the corresponding page.
endlegend

class DDICDIModels::DDICDILibrary::Classes::Conceptual::Unit as "<size:10>Conceptual::\n<color:black>Unit" #FFD700 {
  catalogDetails : <color:blue>CatalogDetails   	  [[[../DDICDILibrary/DataTypes/StructuredDataTypes/CatalogDetails.html#diagram{ <U+2015> CatalogDetails:\nA set of information useful for attribution, data discovery, and access.}]]]
  definition : <color:blue>InternationalString   	  [[[../DDICDILibrary/DataTypes/StructuredDataTypes/InternationalString.html#diagram{ <U+2015> InternationalString:\nPackaging structure for multiple language versions of the same string content. Where an element of this type is repeatable, the expectation is that each repetition contains different content, each of which can be expressed in multiple languages. The language designation goes on the individual String ...}]]]
  displayLabel : <color:blue>LabelForDisplay   	  [[[../DDICDILibrary/DataTypes/StructuredDataTypes/LabelForDisplay.html#diagram{ <U+2015> LabelForDisplay:\nA structured display label. Label provides display content of a fully human readable display for the identification of the object.}]]]
  identifier : <color:blue>Identifier   	  [[[../DDICDILibrary/DataTypes/StructuredDataTypes/Identifier.html#diagram{ <U+2015> Identifier:\nIdentifier for objects requiring short- or long-lasting referencing and management.}]]]
  name : <color:blue>ObjectName   	  [[[../DDICDILibrary/DataTypes/StructuredDataTypes/ObjectName.html#diagram{ <U+2015> ObjectName:\nA standard means of expressing a name for a class object. A linguistic signifier. Human understandable name (word, phrase, or mnemonic) that reflects the ISO/IEC 11179-5 naming principles.}]]]
}

together {
  class DDICDIModels::DDICDILibrary::Classes::DataDescription::KeyValue::InstanceKey as "<size:10>KeyValue::\n<color:blue>InstanceKey" [[../DDICDILibrary/Classes/DataDescription/KeyValue/InstanceKey.html#super-class-hierarchy-generalization{ <U+2015> InstanceKey:\nSingle-valued key representation produced from the merge of the representations of all key members and a descriptor.}]]
  class DDICDIModels::DDICDILibrary::Classes::Conceptual::UnitType as "<size:10>Conceptual::\n<color:blue>UnitType" [[../DDICDILibrary/Classes/Conceptual/UnitType.html#super-class-hierarchy-generalization{ <U+2015> UnitType:\nUnit type is a type or class of objects of interest (units).}]]
  abstract class DDICDIModels::DesignPatterns::DataDescriptionPattern::Key as "<size:10>DataDescriptionPattern::\n<color:blue>Key" [[../DesignPatterns/DataDescriptionPattern/Key.html#super-class-hierarchy-generalization{ <U+2015> Key:\nCollection of data instances that uniquely identify a collection of data points in a dataset.}]]
  class DDICDIModels::DDICDILibrary::Classes::DataDescription::Long::LongKey as "<size:10>Long::\n<color:blue>LongKey" [[../DDICDILibrary/Classes/DataDescription/Long/LongKey.html#super-class-hierarchy-generalization{ <U+2015> LongKey:\nCollection of data instances that uniquely identify a collection of data points in a long dataset.}]]
  class DDICDIModels::DDICDILibrary::Classes::Conceptual::Population as "<size:10>Conceptual::\n<color:blue>Population" [[../DDICDILibrary/Classes/Conceptual/Population.html#super-class-hierarchy-generalization{ <U+2015> Population:\nUniverse with time and geography specified.}]]
  class DDICDIModels::DDICDILibrary::Classes::DataDescription::Wide::WideKey as "<size:10>Wide::\n<color:blue>WideKey" [[../DDICDILibrary/Classes/DataDescription/Wide/WideKey.html#super-class-hierarchy-generalization{ <U+2015> WideKey:\nCollection of data instances that uniquely identify a collection of data points in a wide dataset.}]]
}

together {
}




DDICDIModels::DDICDILibrary::Classes::Conceptual::Unit <-[#grey]- DDICDIModels::DDICDILibrary::Classes::DataDescription::KeyValue::InstanceKey [[{ <U+2015> correspondsTo:\nInstance key corresponds to zero to one unit.}]] : correspondsTo
DDICDIModels::DDICDILibrary::Classes::Conceptual::Unit <-[#grey]- DDICDIModels::DesignPatterns::DataDescriptionPattern::Key [[{ <U+2015> correspondsTo:\n}]] : correspondsTo
DDICDIModels::DDICDILibrary::Classes::Conceptual::Unit <-[#grey]- DDICDIModels::DDICDILibrary::Classes::DataDescription::Long::LongKey [[{ <U+2015> correspondsTo:\n}]] : correspondsTo
DDICDIModels::DDICDILibrary::Classes::Conceptual::Unit <-[#grey]- DDICDIModels::DDICDILibrary::Classes::Conceptual::Population [[{ <U+2015> isComposedOf:\nA unit in the population.}]] : isComposedOf
DDICDIModels::DDICDILibrary::Classes::Conceptual::Unit -[#grey]-> DDICDIModels::DDICDILibrary::Classes::Conceptual::UnitType [[{ <U+2015> has:\nThe unit type of the unit.}]] : has
DDICDIModels::DDICDILibrary::Classes::Conceptual::Unit <-[#grey]- DDICDIModels::DDICDILibrary::Classes::DataDescription::Wide::WideKey [[{ <U+2015> correspondsTo:\nWide key corresponds to zero to one unit.}]] : correspondsTo


@enduml

PlantUML version 1.2022.6(Tue Jun 21 19:34:49 CEST 2022)
(GPL source distribution)
Java Runtime: OpenJDK Runtime Environment
JVM: OpenJDK 64-Bit Server VM
Default Encoding: Cp1252
Language: en
Country: US
--></g></svg>