<?xml version="1.0" encoding="UTF-8" standalone="no"?><svg xmlns="http://www.w3.org/2000/svg" xmlns:xlink="http://www.w3.org/1999/xlink" contentStyleType="text/css" height="340.2px" preserveAspectRatio="none" style="width:393px;height:340px;background:#FFFFFF;" version="1.1" viewBox="0 0 393 340" width="393.3px" zoomAndPan="magnify"><defs/><g><rect height="47.4891" style="stroke:#00000000;stroke-width:0.9;fill:none;" width="377.1" x="4.5" y="4.5"/><text fill="#000000" font-family="sans-serif" font-size="18" font-weight="bold" lengthAdjust="spacing" textLength="368.1" x="9" y="27.6855">UML Diagram: Class ForeignKey in Context</text><text fill="#000000" font-family="sans-serif" font-size="12.6" font-weight="bold" lengthAdjust="spacing" textLength="3.6" x="191.25" y="44.7205"> </text><rect fill="#FFFFFF" height="44.7609" rx="6.75" ry="6.75" style="stroke:#000000;stroke-width:0.9;" width="276.3" x="48.6" y="64.5891"/><text fill="#000000" font-family="sans-serif" font-size="9" font-weight="bold" lengthAdjust="spacing" textLength="22.5" x="54" y="79.3318">Hints</text><text fill="#808080" font-family="sans-serif" font-size="9" lengthAdjust="spacing" textLength="265.5" x="54" y="90.6521">- Move the mouse cursor over a name to see more information.</text><text fill="#808080" font-family="sans-serif" font-size="9" lengthAdjust="spacing" textLength="216" x="54" y="101.9725">- Click on a name to go to the corresponding page.</text><!--MD5=[6ad7b2ef38a4f700249d0e2b32d82517]
class DDICDIModels::DDICDILibrary::Classes::DataDescription::DataStructure--><a href="../DDICDILibrary/Classes/DataDescription/DataStructure.html#super-class-hierarchy-generalization" target="_top" title=" ― DataStructure:&#10;Data organization based on reusable data structure components." xlink:actuate="onRequest" xlink:href="../DDICDILibrary/Classes/DataDescription/DataStructure.html#super-class-hierarchy-generalization" xlink:show="new" xlink:title=" ― DataStructure:&#10;Data organization based on reusable data structure components." xlink:type="simple"><g id="elem_DDICDIModels::DDICDILibrary::Classes::DataDescription::DataStructure"><rect codeLine="54" fill="#F1F1F1" height="36.1688" id="DDICDIModels::DDICDILibrary::Classes::DataDescription::DataStructure" rx="2.25" ry="2.25" style="stroke:#404040;stroke-width:0.45;" width="135" x="47.7" y="258.75"/><text fill="#000000" font-family="sans-serif" font-size="9" lengthAdjust="spacing" textLength="72.9" x="78.75" y="272.5928">DataDescription::</text><text fill="#0000FF" font-family="sans-serif" font-size="12.6" lengthAdjust="spacing" textLength="79.2" x="75.6" y="287.6502">DataStructure</text></g></a><!--MD5=[8e7c4ce3477d9b85deb39c8a45d38868]
class DDICDIModels::DDICDILibrary::Classes::DataDescription::Components::ForeignKeyComponent--><a href="../DDICDILibrary/Classes/DataDescription/Components/ForeignKeyComponent.html#super-class-hierarchy-generalization" target="_top" title=" ― ForeignKeyComponent:&#10;Role of a data structure component for content referencing purposes" xlink:actuate="onRequest" xlink:href="../DDICDILibrary/Classes/DataDescription/Components/ForeignKeyComponent.html#super-class-hierarchy-generalization" xlink:show="new" xlink:title=" ― ForeignKeyComponent:&#10;Role of a data structure component for content referencing purposes" xlink:type="simple"><g id="elem_DDICDIModels::DDICDILibrary::Classes::DataDescription::Components::ForeignKeyComponent"><rect codeLine="55" fill="#F1F1F1" height="36.1688" id="DDICDIModels::DDICDILibrary::Classes::DataDescription::Components::ForeignKeyComponent" rx="2.25" ry="2.25" style="stroke:#404040;stroke-width:0.45;" width="136.8" x="214.2" y="258.75"/><text fill="#000000" font-family="sans-serif" font-size="9" lengthAdjust="spacing" textLength="58.5" x="253.35" y="272.5928">Components::</text><text fill="#0000FF" font-family="sans-serif" font-size="12.6" lengthAdjust="spacing" textLength="131.4" x="216.9" y="287.6502">ForeignKeyComponent</text></g></a><!--MD5=[cf2b466143bd797820c9416be252779d]
entity ##7--><!--MD5=[b0d8b834a31de0f9d033a4fef235e477]
class DDICDIModels::DDICDILibrary::Classes::DataDescription::Components::ForeignKey--><g id="elem_DDICDIModels::DDICDILibrary::Classes::DataDescription::Components::ForeignKey"><rect codeLine="46" fill="#FFD700" height="59.2172" id="DDICDIModels::DDICDILibrary::Classes::DataDescription::Components::ForeignKey" rx="2.25" ry="2.25" style="stroke:#404040;stroke-width:0.45;" width="135" x="144.9" y="123.75"/><text fill="#000000" font-family="sans-serif" font-size="9" lengthAdjust="spacing" textLength="58.5" x="183.15" y="137.5928">Components::</text><text fill="#000000" font-family="sans-serif" font-size="12.6" lengthAdjust="spacing" textLength="65.7" x="179.55" y="152.6502">ForeignKey</text><line style="stroke:#404040;stroke-width:0.45;" x1="145.8" x2="279" y1="159.9188" y2="159.9188"/><a href="../DDICDILibrary/DataTypes/StructuredDataTypes/Identifier.html#diagram" target="_top" title=" ― Identifier:&#10;Identifier for objects requiring short- or long-lasting referencing and management." xlink:actuate="onRequest" xlink:href="../DDICDILibrary/DataTypes/StructuredDataTypes/Identifier.html#diagram" xlink:show="new" xlink:title=" ― Identifier:&#10;Identifier for objects requiring short- or long-lasting referencing and management." xlink:type="simple"><text fill="#000000" font-family="sans-serif" font-size="12.6" lengthAdjust="spacing" textLength="55.8" x="150.3" y="176.5986">identifier :</text><text fill="#0000FF" font-family="sans-serif" font-size="12.6" lengthAdjust="spacing" textLength="48.6" x="209.7" y="176.5986">Identifier</text></a></g><!--MD5=[5677cf90db3e3a1cc3345cdee1d7f16c]
reverse link DDICDIModels::DDICDILibrary::Classes::DataDescription::Components::ForeignKey to DDICDIModels::DDICDILibrary::Classes::DataDescription::DataStructure--><g id="link_DDICDIModels::DDICDILibrary::Classes::DataDescription::Components::ForeignKey_DDICDIModels::DDICDILibrary::Classes::DataDescription::DataStructure"><a href="" target="_top" title=" ― has:&#10;" xlink:actuate="onRequest" xlink:href="" xlink:show="new" xlink:title=" ― has:&#10;" xlink:type="simple"><path codeLine="67" d="M186.21,187.092 C167.769,210.141 143.829,240.075 128.988,258.615 " fill="none" id="DDICDIModels::DDICDILibrary::Classes::DataDescription::Components::ForeignKey-backto-DDICDIModels::DDICDILibrary::Classes::DataDescription::DataStructure" style="stroke:#808080;stroke-width:1.35;"/><polygon fill="#808080" points="189.117,183.456,181.2404,187.5216,186.3012,186.9661,186.8566,192.0269,189.117,183.456" style="stroke:#808080;stroke-width:1.35;"/><text fill="#000000" font-family="sans-serif" font-size="11.7" lengthAdjust="spacing" textLength="18.9" x="164.7" y="224.9956">has</text></a></g><!--MD5=[c8ae53c5e0747546f4b14e90f2f3f278]
link DDICDIModels::DDICDILibrary::Classes::DataDescription::Components::ForeignKey to DDICDIModels::DDICDILibrary::Classes::DataDescription::Components::ForeignKeyComponent--><g id="link_DDICDIModels::DDICDILibrary::Classes::DataDescription::Components::ForeignKey_DDICDIModels::DDICDILibrary::Classes::DataDescription::Components::ForeignKeyComponent"><a href="" target="_top" title=" ― isComposedOf:&#10;" xlink:actuate="onRequest" xlink:href="" xlink:show="new" xlink:title=" ― isComposedOf:&#10;" xlink:type="simple"><path codeLine="68" d="M234.6124,192.8088 C234.6124,192.8088 257.364,232.182 266.67,248.274 " fill="none" id="DDICDIModels::DDICDILibrary::Classes::DataDescription::Components::ForeignKey-DDICDIModels::DDICDILibrary::Classes::DataDescription::Components::ForeignKeyComponent" style="stroke:#808080;stroke-width:1.35;"/><polygon fill="#808080" points="272.646,258.615,271.7133,249.8002,270.3958,254.718,265.4781,253.4005,272.646,258.615" style="stroke:#808080;stroke-width:1.35;"/><line style="stroke:#808080;stroke-width:1.35;" x1="270.3958" x2="266.787" y1="254.718" y2="248.4855"/><polygon fill="#808080" points="229.212,183.456,228.7946,189.9326,234.6124,192.8088,235.0298,186.3323,229.212,183.456" style="stroke:#808080;stroke-width:1.35;"/><text fill="#000000" font-family="sans-serif" font-size="11.7" lengthAdjust="spacing" textLength="76.5" x="253.8" y="224.9956">isComposedOf</text></a></g><rect height="33.9609" style="stroke:#00000000;stroke-width:0.9;fill:none;" width="302.4" x="41.85" y="299.4188"/><text fill="#888888" font-family="sans-serif" font-size="9" lengthAdjust="spacing" textLength="2.7" x="191.7" y="308.7615"> </text><text fill="#888888" font-family="sans-serif" font-size="9" lengthAdjust="spacing" textLength="2.7" x="191.7" y="320.0818"> </text><text fill="#888888" font-family="sans-serif" font-size="9" lengthAdjust="spacing" textLength="302.4" x="41.85" y="331.4021">DDI Cross Domain Integration (DDI-CDI)   1.0 - Components::ForeignKey</text><!--MD5=[5f893daea87d00842d9d8a5eedfa5478]
@startuml
!pragma ratio 0.5625
' HD display aspect ratio 16:9
' hyperlinkColor and pathHoverColor do not seem to work with class diagrams
' working approach: colors per item
' default font size for class names is 14

hide circle
hide empty members
scale 0.9

skinparam {
  ArrowThickness 1.5
  MinClassWidth 150
}

skinparam legend {
  BackgroundColor white
  FontSize 10
}

skinparam note {
  BackgroundColor white
}

skinparam class {
  ArrowColor #404040
  BorderColor #404040
}

skinparam package {
  FontColor lightgrey
  BorderColor lightgrey
}

title <size:20>UML Diagram: Class ForeignKey in Context\n
footer \n\nDDI Cross Domain Integration (DDI-CDI)   1.0 - Components::ForeignKey

legend top left
**Hints**
<color:grey>- Move the mouse cursor over a name to see more information.
<color:grey>- Click on a name to go to the corresponding page.
endlegend

' Core class of diagram
class DDICDIModels::DDICDILibrary::Classes::DataDescription::Components::ForeignKey as "<size:10>Components::\n<color:black>ForeignKey" #FFD700 {
  identifier : <color:blue>Identifier   	  [[[../DDICDILibrary/DataTypes/StructuredDataTypes/Identifier.html#diagram{ <U+2015> Identifier:\nIdentifier for objects requiring short- or long-lasting referencing and management.}]]]
}

' Class definitions for associated classes without superclass (might have also an association)
' This would be too many constraints for Graphviz. 
together {
  class DDICDIModels::DDICDILibrary::Classes::DataDescription::DataStructure as "<size:10>DataDescription::\n<color:blue>DataStructure" [[../DDICDILibrary/Classes/DataDescription/DataStructure.html#super-class-hierarchy-generalization{ <U+2015> DataStructure:\nData organization based on reusable data structure components.}]]
  class DDICDIModels::DDICDILibrary::Classes::DataDescription::Components::ForeignKeyComponent as "<size:10>Components::\n<color:blue>ForeignKeyComponent" [[../DDICDILibrary/Classes/DataDescription/Components/ForeignKeyComponent.html#super-class-hierarchy-generalization{ <U+2015> ForeignKeyComponent:\nRole of a data structure component for content referencing purposes}]]
}

' Class definitions for suppliers of abstractions
together {
}

' Rest of class definitions, without associated classes of core class and abstraction supplier classes



' Associations
DDICDIModels::DDICDILibrary::Classes::DataDescription::Components::ForeignKey <-[#grey]- DDICDIModels::DDICDILibrary::Classes::DataDescription::DataStructure [[{ <U+2015> has:\n}]] : has
DDICDIModels::DDICDILibrary::Classes::DataDescription::Components::ForeignKey *-[#grey]-> DDICDIModels::DDICDILibrary::Classes::DataDescription::Components::ForeignKeyComponent [[{ <U+2015> isComposedOf:\n}]] : isComposedOf


' Abstractions
@enduml

@startuml
!pragma ratio 0.5625

hide circle
hide empty members
scale 0.9

skinparam {
  ArrowThickness 1.5
  MinClassWidth 150
}

skinparam legend {
  BackgroundColor white
  FontSize 10
}

skinparam note {
  BackgroundColor white
}

skinparam class {
  ArrowColor #404040
  BorderColor #404040
}

skinparam package {
  FontColor lightgrey
  BorderColor lightgrey
}

title <size:20>UML Diagram: Class ForeignKey in Context\n
footer \n\nDDI Cross Domain Integration (DDI-CDI)   1.0 - Components::ForeignKey

legend top left
**Hints**
<color:grey>- Move the mouse cursor over a name to see more information.
<color:grey>- Click on a name to go to the corresponding page.
endlegend

class DDICDIModels::DDICDILibrary::Classes::DataDescription::Components::ForeignKey as "<size:10>Components::\n<color:black>ForeignKey" #FFD700 {
  identifier : <color:blue>Identifier   	  [[[../DDICDILibrary/DataTypes/StructuredDataTypes/Identifier.html#diagram{ <U+2015> Identifier:\nIdentifier for objects requiring short- or long-lasting referencing and management.}]]]
}

together {
  class DDICDIModels::DDICDILibrary::Classes::DataDescription::DataStructure as "<size:10>DataDescription::\n<color:blue>DataStructure" [[../DDICDILibrary/Classes/DataDescription/DataStructure.html#super-class-hierarchy-generalization{ <U+2015> DataStructure:\nData organization based on reusable data structure components.}]]
  class DDICDIModels::DDICDILibrary::Classes::DataDescription::Components::ForeignKeyComponent as "<size:10>Components::\n<color:blue>ForeignKeyComponent" [[../DDICDILibrary/Classes/DataDescription/Components/ForeignKeyComponent.html#super-class-hierarchy-generalization{ <U+2015> ForeignKeyComponent:\nRole of a data structure component for content referencing purposes}]]
}

together {
}




DDICDIModels::DDICDILibrary::Classes::DataDescription::Components::ForeignKey <-[#grey]- DDICDIModels::DDICDILibrary::Classes::DataDescription::DataStructure [[{ <U+2015> has:\n}]] : has
DDICDIModels::DDICDILibrary::Classes::DataDescription::Components::ForeignKey *-[#grey]-> DDICDIModels::DDICDILibrary::Classes::DataDescription::Components::ForeignKeyComponent [[{ <U+2015> isComposedOf:\n}]] : isComposedOf


@enduml

PlantUML version 1.2022.6(Tue Jun 21 19:34:49 CEST 2022)
(GPL source distribution)
Java Runtime: OpenJDK Runtime Environment
JVM: OpenJDK 64-Bit Server VM
Default Encoding: Cp1252
Language: en
Country: US
--></g></svg>