<?xml version="1.0" encoding="UTF-8" standalone="no"?><svg xmlns="http://www.w3.org/2000/svg" xmlns:xlink="http://www.w3.org/1999/xlink" contentStyleType="text/css" height="287.1px" preserveAspectRatio="none" style="width:649px;height:287px;background:#FFFFFF;" version="1.1" viewBox="0 0 649 287" width="649.8px" zoomAndPan="magnify"><defs/><g><rect height="47.4891" style="stroke:#00000000;stroke-width:0.9;fill:none;" width="399.6" x="118.8" y="4.5"/><text fill="#000000" font-family="sans-serif" font-size="18" font-weight="bold" lengthAdjust="spacing" textLength="390.6" x="123.3" y="27.6855">UML Diagram: DataType Command in Context</text><text fill="#000000" font-family="sans-serif" font-size="12.6" font-weight="bold" lengthAdjust="spacing" textLength="3.6" x="316.8" y="44.7205"> </text><rect fill="#FFFFFF" height="56.0813" rx="6.75" ry="6.75" style="stroke:#000000;stroke-width:0.9;" width="348.3" x="281.7" y="64.5891"/><text fill="#000000" font-family="sans-serif" font-size="9" font-weight="bold" lengthAdjust="spacing" textLength="22.5" x="287.1" y="79.3318">Hints</text><text fill="#808080" font-family="sans-serif" font-size="9" lengthAdjust="spacing" textLength="265.5" x="287.1" y="90.6521">- Move the mouse cursor over a name to see more information.</text><text fill="#808080" font-family="sans-serif" font-size="9" lengthAdjust="spacing" textLength="216" x="287.1" y="101.9725">- Click on a name to go to the corresponding page.</text><text fill="#808080" font-family="sans-serif" font-size="9" lengthAdjust="spacing" textLength="337.5" x="287.1" y="113.2928">- The use of the data type is represented here by a dotted line (not formal UML).</text><!--MD5=[02009956934ec10683a08703356fd7bb]
entity ##4--><!--MD5=[cf2b466143bd797820c9416be252779d]
entity ##7--><!--MD5=[05543a5c7a965b1f9119aa0735400696]
class DDICDIModels::DDICDILibrary::DataTypes::StructuredDataTypes::Command--><g id="elem_DDICDIModels::DDICDILibrary::DataTypes::StructuredDataTypes::Command"><rect codeLine="47" fill="#FFD700" height="88.65" id="DDICDIModels::DDICDILibrary::DataTypes::StructuredDataTypes::Command" rx="2.25" ry="2.25" style="stroke:#404040;stroke-width:0.45;" width="279" x="364.5" y="152.1703"/><text fill="#000000" font-family="sans-serif" font-size="10.8" font-style="italic" lengthAdjust="spacing" textLength="58.5" x="474.75" y="167.8816">«dataType»</text><text fill="#000000" font-family="sans-serif" font-size="9" lengthAdjust="spacing" textLength="2.7" x="502.65" y="179.5975"> </text><text fill="#000000" font-family="sans-serif" font-size="12.6" lengthAdjust="spacing" textLength="57.6" x="475.2" y="194.6549">Command</text><line style="stroke:#404040;stroke-width:0.45;" x1="365.4" x2="642.6" y1="201.9234" y2="201.9234"/><a href="../DDICDILibrary/DataTypes/StructuredDataTypes/TypedString.html#diagram" target="_top" title=" ― TypedString:&#10;TypedString combines a type with content defined as a simple string. May be used wherever a simple string needs to support a type definition to clarify its content." xlink:actuate="onRequest" xlink:href="../DDICDILibrary/DataTypes/StructuredDataTypes/TypedString.html#diagram" xlink:show="new" xlink:title=" ― TypedString:&#10;TypedString combines a type with content defined as a simple string. May be used wherever a simple string needs to support a type definition to clarify its content." xlink:type="simple"><text fill="#000000" font-family="sans-serif" font-size="12.6" lengthAdjust="spacing" textLength="107.1" x="369.9" y="218.6033">commandContent :</text><text fill="#0000FF" font-family="sans-serif" font-size="12.6" lengthAdjust="spacing" textLength="69.3" x="480.6" y="218.6033">TypedString</text></a><a href="../DDICDILibrary/DataTypes/StructuredDataTypes/ControlledVocabularyEntry.html#diagram" target="_top" title=" ― ControlledVocabularyEntry:&#10;Allows for unstructured content which may be an entry from an externally maintained controlled vocabulary.If the content is from a controlled vocabulary provide the code value of the entry, as well as a reference to the controlled vocabulary from which the value is taken. Provide as many of the iden ..." xlink:actuate="onRequest" xlink:href="../DDICDILibrary/DataTypes/StructuredDataTypes/ControlledVocabularyEntry.html#diagram" xlink:show="new" xlink:title=" ― ControlledVocabularyEntry:&#10;Allows for unstructured content which may be an entry from an externally maintained controlled vocabulary.If the content is from a controlled vocabulary provide the code value of the entry, as well as a reference to the controlled vocabulary from which the value is taken. Provide as many of the iden ..." xlink:type="simple"><text fill="#000000" font-family="sans-serif" font-size="12.6" lengthAdjust="spacing" textLength="112.5" x="369.9" y="234.4518">programLanguage :</text><text fill="#0000FF" font-family="sans-serif" font-size="12.6" lengthAdjust="spacing" textLength="152.1" x="486" y="234.4518">ControlledVocabularyEntry</text></a></g><!--MD5=[d9ddffb466f429816aca2ed6009e7eda]
class DDICDIModels::DDICDILibrary::DataTypes::StructuredDataTypes::CommandCode--><a href="../DDICDILibrary/DataTypes/StructuredDataTypes/CommandCode.html#super-class-hierarchy-generalization" target="_top" title=" ― CommandCode:&#10;Contains information on the command used for processing data. Contains a description of the command which should clarify for the user the purpose and process of the command, an in-line provision of the command itself, and a reference to an external version of the command such as a coding script." xlink:actuate="onRequest" xlink:href="../DDICDILibrary/DataTypes/StructuredDataTypes/CommandCode.html#super-class-hierarchy-generalization" xlink:show="new" xlink:title=" ― CommandCode:&#10;Contains information on the command used for processing data. Contains a description of the command which should clarify for the user the purpose and process of the command, an in-line provision of the command itself, and a reference to an external version of the command such as a coding script." xlink:type="simple"><g id="elem_DDICDIModels::DDICDILibrary::DataTypes::StructuredDataTypes::CommandCode"><rect codeLine="56" fill="#F1F1F1" height="104.4984" id="DDICDIModels::DDICDILibrary::DataTypes::StructuredDataTypes::CommandCode" rx="2.25" ry="2.25" style="stroke:#404040;stroke-width:0.45;" width="187.2" x="6.3" y="135.0703"/><text fill="#000000" font-family="sans-serif" font-size="10.8" font-style="italic" lengthAdjust="spacing" textLength="58.5" x="70.65" y="150.7816">«dataType»</text><text fill="#000000" font-family="sans-serif" font-size="9" lengthAdjust="spacing" textLength="2.7" x="98.55" y="162.4975"> </text><text fill="#0000FF" font-family="sans-serif" font-size="12.6" lengthAdjust="spacing" textLength="88.2" x="55.8" y="177.5549">CommandCode</text><line style="stroke:#404040;stroke-width:0.45;" x1="7.2" x2="192.6" y1="184.8234" y2="184.8234"/><text fill="#000000" font-family="sans-serif" font-size="12.6" lengthAdjust="spacing" textLength="123.3" x="11.7" y="201.5033">command : Command</text><a href="../DDICDILibrary/DataTypes/StructuredDataTypes/CommandFile.html#diagram" target="_top" title=" ― CommandFile:&#10;Identifies and provides a link to an external copy of the command, for example, a SAS Command Code script. Designates the programming language of the command file, a description of the location of the file , and a URN or URL for the command file." xlink:actuate="onRequest" xlink:href="../DDICDILibrary/DataTypes/StructuredDataTypes/CommandFile.html#diagram" xlink:show="new" xlink:title=" ― CommandFile:&#10;Identifies and provides a link to an external copy of the command, for example, a SAS Command Code script. Designates the programming language of the command file, a description of the location of the file , and a URN or URL for the command file." xlink:type="simple"><text fill="#000000" font-family="sans-serif" font-size="12.6" lengthAdjust="spacing" textLength="82.8" x="11.7" y="217.3518">commandFile :</text><text fill="#0000FF" font-family="sans-serif" font-size="12.6" lengthAdjust="spacing" textLength="78.3" x="98.1" y="217.3518">CommandFile</text></a><a href="../DDICDILibrary/DataTypes/StructuredDataTypes/InternationalString.html#diagram" target="_top" title=" ― InternationalString:&#10;Packaging structure for multiple language versions of the same string content. Where an element of this type is repeatable, the expectation is that each repetition contains different content, each of which can be expressed in multiple languages. The language designation goes on the individual String ..." xlink:actuate="onRequest" xlink:href="../DDICDILibrary/DataTypes/StructuredDataTypes/InternationalString.html#diagram" xlink:show="new" xlink:title=" ― InternationalString:&#10;Packaging structure for multiple language versions of the same string content. Where an element of this type is repeatable, the expectation is that each repetition contains different content, each of which can be expressed in multiple languages. The language designation goes on the individual String ..." xlink:type="simple"><text fill="#000000" font-family="sans-serif" font-size="12.6" lengthAdjust="spacing" textLength="69.3" x="11.7" y="233.2002">description :</text><text fill="#0000FF" font-family="sans-serif" font-size="12.6" lengthAdjust="spacing" textLength="103.5" x="84.6" y="233.2002">InternationalString</text></a></g></a><!--MD5=[aa558c4dd597634a3dbb893f09b8b92b]
link DDICDIModels::DDICDILibrary::DataTypes::StructuredDataTypes::CommandCode to DDICDIModels::DDICDILibrary::DataTypes::StructuredDataTypes::Command--><g id="link_DDICDIModels::DDICDILibrary::DataTypes::StructuredDataTypes::CommandCode_DDICDIModels::DDICDILibrary::DataTypes::StructuredDataTypes::Command"><path codeLine="68" d="M194.4,196.7203 C250.002,196.7203 311.238,196.7203 364.41,196.7203 " fill="none" id="DDICDIModels::DDICDILibrary::DataTypes::StructuredDataTypes::CommandCode-DDICDIModels::DDICDILibrary::DataTypes::StructuredDataTypes::Command" style="stroke:#808080;stroke-width:0.9;stroke-dasharray:1.0,3.0;"/></g><rect height="33.9609" style="stroke:#00000000;stroke-width:0.9;fill:none;" width="333.9" x="151.65" y="246.2203"/><text fill="#888888" font-family="sans-serif" font-size="9" lengthAdjust="spacing" textLength="2.7" x="317.25" y="255.5631"> </text><text fill="#888888" font-family="sans-serif" font-size="9" lengthAdjust="spacing" textLength="2.7" x="317.25" y="266.8834"> </text><text fill="#888888" font-family="sans-serif" font-size="9" lengthAdjust="spacing" textLength="333.9" x="151.65" y="278.2037">DDI Cross Domain Integration (DDI-CDI)   1.0 - StructuredDataTypes::Command</text><!--MD5=[7fae512b5e5f45108e8f40de83a094e9]
@startuml
left to right direction
' HD display aspect ratio 16:9
' hyperlinkColor and pathHoverColor do not seem to work with class diagrams
' working approach: colors per item
' default font size for class names is 14

hide circle
hide empty members
scale 0.9

skinparam {
  ArrowThickness 1.5
  MinClassWidth 150
}

skinparam legend {
  BackgroundColor white
  FontSize 10
}

skinparam note {
  BackgroundColor white
}

skinparam class {
  ArrowColor #404040
  BorderColor #404040
}

skinparam package {
  FontColor lightgrey
  BorderColor lightgrey
}

title <size:20>UML Diagram: DataType Command in Context\n
footer \n\nDDI Cross Domain Integration (DDI-CDI)   1.0 - StructuredDataTypes::Command

legend top right
**Hints**
<color:grey>- Move the mouse cursor over a name to see more information.
<color:grey>- Click on a name to go to the corresponding page.
<color:grey>- The use of the data type is represented here by a dotted line (not formal UML).
endlegend

' Core data type of diagram
class DDICDIModels::DDICDILibrary::DataTypes::StructuredDataTypes::Command as "<size:10> \n<color:black>Command" <<dataType>>   #FFD700 {
  commandContent : <color:blue>TypedString   	  [[[../DDICDILibrary/DataTypes/StructuredDataTypes/TypedString.html#diagram{ <U+2015> TypedString:\nTypedString combines a type with content defined as a simple string. May be used wherever a simple string needs to support a type definition to clarify its content.}]]]
  programLanguage : <color:blue>ControlledVocabularyEntry   	  [[[../DDICDILibrary/DataTypes/StructuredDataTypes/ControlledVocabularyEntry.html#diagram{ <U+2015> ControlledVocabularyEntry:\nAllows for unstructured content which may be an entry from an externally maintained controlled vocabulary.If the content is from a controlled vocabulary provide the code value of the entry, as well as a reference to the controlled vocabulary from which the value is taken. Provide as many of the iden ...}]]]
}

' Data type definitions in own package
class DDICDIModels::DDICDILibrary::DataTypes::StructuredDataTypes::CommandCode as "<size:10> \n<color:blue>CommandCode" <<dataType>> [[../DDICDILibrary/DataTypes/StructuredDataTypes/CommandCode.html#super-class-hierarchy-generalization{ <U+2015> CommandCode:\nContains information on the command used for processing data. Contains a description of the command which should clarify for the user the purpose and process of the command, an in-line provision of the command itself, and a reference to an external version of the command such as a coding script.}]] {
  command : Command
  commandFile : <color:blue>CommandFile   	  [[[../DDICDILibrary/DataTypes/StructuredDataTypes/CommandFile.html#diagram{ <U+2015> CommandFile:\nIdentifies and provides a link to an external copy of the command, for example, a SAS Command Code script. Designates the programming language of the command file, a description of the location of the file , and a URN or URL for the command file.}]]]
  description : <color:blue>InternationalString   	  [[[../DDICDILibrary/DataTypes/StructuredDataTypes/InternationalString.html#diagram{ <U+2015> InternationalString:\nPackaging structure for multiple language versions of the same string content. Where an element of this type is repeatable, the expectation is that each repetition contains different content, each of which can be expressed in multiple languages. The language designation goes on the individual String ...}]]]
}

' Data type definitions in other packages

' Use of data type
together {
  DDICDIModels::DDICDILibrary::DataTypes::StructuredDataTypes::CommandCode::command - - - - DDICDIModels::DDICDILibrary::DataTypes::StructuredDataTypes::Command #grey;line.dotted;
}


' Abstractions
together {
}
@enduml

@startuml
left to right direction

hide circle
hide empty members
scale 0.9

skinparam {
  ArrowThickness 1.5
  MinClassWidth 150
}

skinparam legend {
  BackgroundColor white
  FontSize 10
}

skinparam note {
  BackgroundColor white
}

skinparam class {
  ArrowColor #404040
  BorderColor #404040
}

skinparam package {
  FontColor lightgrey
  BorderColor lightgrey
}

title <size:20>UML Diagram: DataType Command in Context\n
footer \n\nDDI Cross Domain Integration (DDI-CDI)   1.0 - StructuredDataTypes::Command

legend top right
**Hints**
<color:grey>- Move the mouse cursor over a name to see more information.
<color:grey>- Click on a name to go to the corresponding page.
<color:grey>- The use of the data type is represented here by a dotted line (not formal UML).
endlegend

class DDICDIModels::DDICDILibrary::DataTypes::StructuredDataTypes::Command as "<size:10> \n<color:black>Command" <<dataType>>   #FFD700 {
  commandContent : <color:blue>TypedString   	  [[[../DDICDILibrary/DataTypes/StructuredDataTypes/TypedString.html#diagram{ <U+2015> TypedString:\nTypedString combines a type with content defined as a simple string. May be used wherever a simple string needs to support a type definition to clarify its content.}]]]
  programLanguage : <color:blue>ControlledVocabularyEntry   	  [[[../DDICDILibrary/DataTypes/StructuredDataTypes/ControlledVocabularyEntry.html#diagram{ <U+2015> ControlledVocabularyEntry:\nAllows for unstructured content which may be an entry from an externally maintained controlled vocabulary.If the content is from a controlled vocabulary provide the code value of the entry, as well as a reference to the controlled vocabulary from which the value is taken. Provide as many of the iden ...}]]]
}

class DDICDIModels::DDICDILibrary::DataTypes::StructuredDataTypes::CommandCode as "<size:10> \n<color:blue>CommandCode" <<dataType>> [[../DDICDILibrary/DataTypes/StructuredDataTypes/CommandCode.html#super-class-hierarchy-generalization{ <U+2015> CommandCode:\nContains information on the command used for processing data. Contains a description of the command which should clarify for the user the purpose and process of the command, an in-line provision of the command itself, and a reference to an external version of the command such as a coding script.}]] {
  command : Command
  commandFile : <color:blue>CommandFile   	  [[[../DDICDILibrary/DataTypes/StructuredDataTypes/CommandFile.html#diagram{ <U+2015> CommandFile:\nIdentifies and provides a link to an external copy of the command, for example, a SAS Command Code script. Designates the programming language of the command file, a description of the location of the file , and a URN or URL for the command file.}]]]
  description : <color:blue>InternationalString   	  [[[../DDICDILibrary/DataTypes/StructuredDataTypes/InternationalString.html#diagram{ <U+2015> InternationalString:\nPackaging structure for multiple language versions of the same string content. Where an element of this type is repeatable, the expectation is that each repetition contains different content, each of which can be expressed in multiple languages. The language designation goes on the individual String ...}]]]
}


together {
  DDICDIModels::DDICDILibrary::DataTypes::StructuredDataTypes::CommandCode::command - - - - DDICDIModels::DDICDILibrary::DataTypes::StructuredDataTypes::Command #grey;line.dotted;
}


together {
}
@enduml

PlantUML version 1.2022.6(Tue Jun 21 19:34:49 CEST 2022)
(GPL source distribution)
Java Runtime: OpenJDK Runtime Environment
JVM: OpenJDK 64-Bit Server VM
Default Encoding: Cp1252
Language: en
Country: US
--></g></svg>