<?xml version="1.0" encoding="UTF-8" standalone="no"?><svg xmlns="http://www.w3.org/2000/svg" xmlns:xlink="http://www.w3.org/1999/xlink" contentStyleType="text/css" height="716.4px" preserveAspectRatio="none" style="width:1007px;height:716px;background:#FFFFFF;" version="1.1" viewBox="0 0 1007 716" width="1007.1px" zoomAndPan="magnify"><defs/><g><rect height="47.4891" style="stroke:#00000000;stroke-width:0.9;fill:none;" width="417.6" x="288.45" y="4.5"/><text fill="#000000" font-family="sans-serif" font-size="18" font-weight="bold" lengthAdjust="spacing" textLength="408.6" x="292.95" y="27.6855">UML Diagram: Class PhysicalDataSet in Context</text><text fill="#000000" font-family="sans-serif" font-size="12.6" font-weight="bold" lengthAdjust="spacing" textLength="3.6" x="495.45" y="44.7205"> </text><rect fill="#FFFFFF" height="44.7609" rx="6.75" ry="6.75" style="stroke:#000000;stroke-width:0.9;" width="276.3" x="7.2" y="64.5891"/><text fill="#000000" font-family="sans-serif" font-size="9" font-weight="bold" lengthAdjust="spacing" textLength="22.5" x="12.6" y="79.3318">Hints</text><text fill="#808080" font-family="sans-serif" font-size="9" lengthAdjust="spacing" textLength="265.5" x="12.6" y="90.6521">- Move the mouse cursor over a name to see more information.</text><text fill="#808080" font-family="sans-serif" font-size="9" lengthAdjust="spacing" textLength="216" x="12.6" y="101.9725">- Click on a name to go to the corresponding page.</text><!--MD5=[24a257863b398b5270390d96fe65d257]
class DDICDIModels::DDICDILibrary::Classes::Conceptual::Concept--><a href="../DDICDILibrary/Classes/Conceptual/Concept.html#super-class-hierarchy-generalization" target="_top" title=" ― Concept:&#10;Unit of thought differentiated by characteristics (from the Generic Statistical Information Model version 1.2: https://statswiki.unece.org/display/clickablegsim/Concept)." xlink:actuate="onRequest" xlink:href="../DDICDILibrary/Classes/Conceptual/Concept.html#super-class-hierarchy-generalization" xlink:show="new" xlink:title=" ― Concept:&#10;Unit of thought differentiated by characteristics (from the Generic Statistical Information Model version 1.2: https://statswiki.unece.org/display/clickablegsim/Concept)." xlink:type="simple"><g id="elem_DDICDIModels::DDICDILibrary::Classes::Conceptual::Concept"><rect codeLine="65" fill="#F1F1F1" height="36.1688" id="DDICDIModels::DDICDILibrary::Classes::Conceptual::Concept" rx="2.25" ry="2.25" style="stroke:#404040;stroke-width:0.45;" width="135" x="6.3" y="387"/><text fill="#000000" font-family="sans-serif" font-size="9" lengthAdjust="spacing" textLength="54.9" x="46.35" y="400.8428">Conceptual::</text><text fill="#0000FF" font-family="sans-serif" font-size="12.6" lengthAdjust="spacing" textLength="47.7" x="49.95" y="415.9002">Concept</text></g></a><!--MD5=[85e4a304c245dcd17f9486fe703db1dc]
class DDICDIModels::DDICDILibrary::Classes::FormatDescription::PhysicalDataSetStructure--><a href="../DDICDILibrary/Classes/FormatDescription/PhysicalDataSetStructure.html#super-class-hierarchy-generalization" target="_top" title=" ― PhysicalDataSetStructure:&#10;Ordering for physical record segments, which map to a logical record." xlink:actuate="onRequest" xlink:href="../DDICDILibrary/Classes/FormatDescription/PhysicalDataSetStructure.html#super-class-hierarchy-generalization" xlink:show="new" xlink:title=" ― PhysicalDataSetStructure:&#10;Ordering for physical record segments, which map to a logical record." xlink:type="simple"><g id="elem_DDICDIModels::DDICDILibrary::Classes::FormatDescription::PhysicalDataSetStructure"><rect codeLine="66" fill="#F1F1F1" height="36.1688" id="DDICDIModels::DDICDILibrary::Classes::FormatDescription::PhysicalDataSetStructure" rx="2.25" ry="2.25" style="stroke:#404040;stroke-width:0.45;" width="150.3" x="173.25" y="387"/><text fill="#000000" font-family="sans-serif" font-size="9" lengthAdjust="spacing" textLength="82.8" x="207" y="400.8428">FormatDescription::</text><text fill="#0000FF" font-family="sans-serif" font-size="12.6" lengthAdjust="spacing" textLength="144.9" x="175.95" y="415.9002">PhysicalDataSetStructure</text></g></a><!--MD5=[db5fba43dd73e3574ad74b48cea32d19]
class DDICDIModels::DDICDILibrary::Classes::FormatDescription::DataStore--><a href="../DDICDILibrary/Classes/FormatDescription/DataStore.html#super-class-hierarchy-generalization" target="_top" title=" ― DataStore:&#10;Collection of logical records." xlink:actuate="onRequest" xlink:href="../DDICDILibrary/Classes/FormatDescription/DataStore.html#super-class-hierarchy-generalization" xlink:show="new" xlink:title=" ― DataStore:&#10;Collection of logical records." xlink:type="simple"><g id="elem_DDICDIModels::DDICDILibrary::Classes::FormatDescription::DataStore"><rect codeLine="67" fill="#F1F1F1" height="36.1688" id="DDICDIModels::DDICDILibrary::Classes::FormatDescription::DataStore" rx="2.25" ry="2.25" style="stroke:#404040;stroke-width:0.45;" width="135" x="355.5" y="387"/><text fill="#000000" font-family="sans-serif" font-size="9" lengthAdjust="spacing" textLength="82.8" x="381.6" y="400.8428">FormatDescription::</text><text fill="#0000FF" font-family="sans-serif" font-size="12.6" lengthAdjust="spacing" textLength="57.6" x="394.2" y="415.9002">DataStore</text></g></a><!--MD5=[c5544c6ea738ad32a9ccdaa74f8b358e]
class DDICDIModels::DDICDILibrary::Classes::FormatDescription::PhysicalRecordSegmentPosition--><a href="../DDICDILibrary/Classes/FormatDescription/PhysicalRecordSegmentPosition.html#super-class-hierarchy-generalization" target="_top" title=" ― PhysicalRecordSegmentPosition:&#10;Assigns a position of the physical record segment within the whole physical record. For example in what order does this 80 character segment fall within an 800 character record." xlink:actuate="onRequest" xlink:href="../DDICDILibrary/Classes/FormatDescription/PhysicalRecordSegmentPosition.html#super-class-hierarchy-generalization" xlink:show="new" xlink:title=" ― PhysicalRecordSegmentPosition:&#10;Assigns a position of the physical record segment within the whole physical record. For example in what order does this 80 character segment fall within an 800 character record." xlink:type="simple"><g id="elem_DDICDIModels::DDICDILibrary::Classes::FormatDescription::PhysicalRecordSegmentPosition"><rect codeLine="68" fill="#F1F1F1" height="36.1688" id="DDICDIModels::DDICDILibrary::Classes::FormatDescription::PhysicalRecordSegmentPosition" rx="2.25" ry="2.25" style="stroke:#404040;stroke-width:0.45;" width="189" x="522" y="387"/><text fill="#000000" font-family="sans-serif" font-size="9" lengthAdjust="spacing" textLength="82.8" x="575.1" y="400.8428">FormatDescription::</text><text fill="#0000FF" font-family="sans-serif" font-size="12.6" lengthAdjust="spacing" textLength="183.6" x="524.7" y="415.9002">PhysicalRecordSegmentPosition</text></g></a><!--MD5=[78687ac1e18b9499ac1adbe94a0f57de]
class DDICDIModels::DDICDILibrary::Classes::FormatDescription::PhysicalRecordSegment--><a href="../DDICDILibrary/Classes/FormatDescription/PhysicalRecordSegment.html#super-class-hierarchy-generalization" target="_top" title=" ― PhysicalRecordSegment:&#10;Description of each physical storage segment required to completely cover a physical record representing the logical record." xlink:actuate="onRequest" xlink:href="../DDICDILibrary/Classes/FormatDescription/PhysicalRecordSegment.html#super-class-hierarchy-generalization" xlink:show="new" xlink:title=" ― PhysicalRecordSegment:&#10;Description of each physical storage segment required to completely cover a physical record representing the logical record." xlink:type="simple"><g id="elem_DDICDIModels::DDICDILibrary::Classes::FormatDescription::PhysicalRecordSegment"><rect codeLine="69" fill="#F1F1F1" height="36.1688" id="DDICDIModels::DDICDILibrary::Classes::FormatDescription::PhysicalRecordSegment" rx="2.25" ry="2.25" style="stroke:#404040;stroke-width:0.45;" width="144" x="742.5" y="387"/><text fill="#000000" font-family="sans-serif" font-size="9" lengthAdjust="spacing" textLength="82.8" x="773.1" y="400.8428">FormatDescription::</text><text fill="#0000FF" font-family="sans-serif" font-size="12.6" lengthAdjust="spacing" textLength="138.6" x="745.2" y="415.9002">PhysicalRecordSegment</text></g></a><!--MD5=[f279ca57d6a77c75340ff35451c2ec4f]
class DDICDIModels::DesignPatterns::CollectionsPattern::List--><a href="../DesignPatterns/CollectionsPattern/List.html#super-class-hierarchy-generalization" target="_top" title=" ― List:&#10;Simple ordered Collection defined as a list of Members where the location of each Member in the list is given by the associated Position class." xlink:actuate="onRequest" xlink:href="../DesignPatterns/CollectionsPattern/List.html#super-class-hierarchy-generalization" xlink:show="new" xlink:title=" ― List:&#10;Simple ordered Collection defined as a list of Members where the location of each Member in the list is given by the associated Position class." xlink:type="simple"><g id="elem_DDICDIModels::DesignPatterns::CollectionsPattern::List"><rect codeLine="74" fill="#F1F1F1" height="36.1688" id="DDICDIModels::DesignPatterns::CollectionsPattern::List" rx="2.25" ry="2.25" style="stroke:#404040;stroke-width:0.45;" width="135" x="866.7" y="635.4"/><text fill="#000000" font-family="sans-serif" font-size="9" font-style="italic" lengthAdjust="spacing" textLength="83.7" x="892.35" y="649.2428">CollectionsPattern::</text><text fill="#0000FF" font-family="sans-serif" font-size="12.6" font-style="italic" lengthAdjust="spacing" textLength="19.8" x="924.3" y="664.3002">List</text></g></a><!--MD5=[be5496f57172f0cfd53a695b7309534c]
class DDICDIModels::DDICDILibrary::Classes::FormatDescription::PhysicalDataSet--><g id="elem_DDICDIModels::DDICDILibrary::Classes::FormatDescription::PhysicalDataSet"><rect codeLine="46" fill="#FFD700" height="170.1563" id="DDICDIModels::DDICDILibrary::Classes::FormatDescription::PhysicalDataSet" rx="2.25" ry="2.25" style="stroke:#404040;stroke-width:0.45;" width="184.5" x="451.35" y="123.75"/><text fill="#000000" font-family="sans-serif" font-size="9" lengthAdjust="spacing" textLength="82.8" x="502.2" y="137.5928">FormatDescription::</text><text fill="#000000" font-family="sans-serif" font-size="12.6" lengthAdjust="spacing" textLength="92.7" x="497.25" y="152.6502">PhysicalDataSet</text><line style="stroke:#404040;stroke-width:0.45;" x1="452.25" x2="634.95" y1="159.9188" y2="159.9188"/><text fill="#000000" font-family="sans-serif" font-size="12.6" lengthAdjust="spacing" textLength="151.2" x="456.75" y="176.5986">allowsDuplicates : Boolean</text><a href="../DDICDILibrary/DataTypes/StructuredDataTypes/CatalogDetails.html#diagram" target="_top" title=" ― CatalogDetails:&#10;A set of information useful for attribution, data discovery, and access." xlink:actuate="onRequest" xlink:href="../DDICDILibrary/DataTypes/StructuredDataTypes/CatalogDetails.html#diagram" xlink:show="new" xlink:title=" ― CatalogDetails:&#10;A set of information useful for attribution, data discovery, and access." xlink:type="simple"><text fill="#000000" font-family="sans-serif" font-size="12.6" lengthAdjust="spacing" textLength="87.3" x="456.75" y="192.4471">catalogDetails :</text><text fill="#0000FF" font-family="sans-serif" font-size="12.6" lengthAdjust="spacing" textLength="82.8" x="547.65" y="192.4471">CatalogDetails</text></a><a href="../DDICDILibrary/DataTypes/StructuredDataTypes/Identifier.html#diagram" target="_top" title=" ― Identifier:&#10;Identifier for objects requiring short- or long-lasting referencing and management." xlink:actuate="onRequest" xlink:href="../DDICDILibrary/DataTypes/StructuredDataTypes/Identifier.html#diagram" xlink:show="new" xlink:title=" ― Identifier:&#10;Identifier for objects requiring short- or long-lasting referencing and management." xlink:type="simple"><text fill="#000000" font-family="sans-serif" font-size="12.6" lengthAdjust="spacing" textLength="55.8" x="456.75" y="208.2955">identifier :</text><text fill="#0000FF" font-family="sans-serif" font-size="12.6" lengthAdjust="spacing" textLength="48.6" x="516.15" y="208.2955">Identifier</text></a><a href="../DDICDILibrary/DataTypes/StructuredDataTypes/ObjectName.html#diagram" target="_top" title=" ― ObjectName:&#10;A standard means of expressing a name for a class object. A linguistic signifier. Human understandable name (word, phrase, or mnemonic) that reflects the ISO/IEC 11179-5 naming principles." xlink:actuate="onRequest" xlink:href="../DDICDILibrary/DataTypes/StructuredDataTypes/ObjectName.html#diagram" xlink:show="new" xlink:title=" ― ObjectName:&#10;A standard means of expressing a name for a class object. A linguistic signifier. Human understandable name (word, phrase, or mnemonic) that reflects the ISO/IEC 11179-5 naming principles." xlink:type="simple"><text fill="#000000" font-family="sans-serif" font-size="12.6" lengthAdjust="spacing" textLength="38.7" x="456.75" y="224.1439">name :</text><text fill="#0000FF" font-family="sans-serif" font-size="12.6" lengthAdjust="spacing" textLength="69.3" x="499.05" y="224.1439">ObjectName</text></a><text fill="#000000" font-family="sans-serif" font-size="12.6" lengthAdjust="spacing" textLength="163.8" x="456.75" y="239.9924">numberOfSegments : Integer</text><a href="../DDICDILibrary/DataTypes/StructuredDataTypes/InternationalString.html#diagram" target="_top" title=" ― InternationalString:&#10;Packaging structure for multiple language versions of the same string content. Where an element of this type is repeatable, the expectation is that each repetition contains different content, each of which can be expressed in multiple languages. The language designation goes on the individual String ..." xlink:actuate="onRequest" xlink:href="../DDICDILibrary/DataTypes/StructuredDataTypes/InternationalString.html#diagram" xlink:show="new" xlink:title=" ― InternationalString:&#10;Packaging structure for multiple language versions of the same string content. Where an element of this type is repeatable, the expectation is that each repetition contains different content, each of which can be expressed in multiple languages. The language designation goes on the individual String ..." xlink:type="simple"><text fill="#000000" font-family="sans-serif" font-size="12.6" lengthAdjust="spacing" textLength="56.7" x="456.75" y="255.8408">overview :</text><text fill="#0000FF" font-family="sans-serif" font-size="12.6" lengthAdjust="spacing" textLength="103.5" x="517.05" y="255.8408">InternationalString</text></a><text fill="#000000" font-family="sans-serif" font-size="12.6" lengthAdjust="spacing" textLength="143.1" x="456.75" y="271.6893">physicalFileName : String</text><a href="../DDICDILibrary/DataTypes/StructuredDataTypes/InternationalString.html#diagram" target="_top" title=" ― InternationalString:&#10;Packaging structure for multiple language versions of the same string content. Where an element of this type is repeatable, the expectation is that each repetition contains different content, each of which can be expressed in multiple languages. The language designation goes on the individual String ..." xlink:actuate="onRequest" xlink:href="../DDICDILibrary/DataTypes/StructuredDataTypes/InternationalString.html#diagram" xlink:show="new" xlink:title=" ― InternationalString:&#10;Packaging structure for multiple language versions of the same string content. Where an element of this type is repeatable, the expectation is that each repetition contains different content, each of which can be expressed in multiple languages. The language designation goes on the individual String ..." xlink:type="simple"><text fill="#000000" font-family="sans-serif" font-size="12.6" lengthAdjust="spacing" textLength="54" x="456.75" y="287.5377">purpose :</text><text fill="#0000FF" font-family="sans-serif" font-size="12.6" lengthAdjust="spacing" textLength="103.5" x="514.35" y="287.5377">InternationalString</text></a></g><!--MD5=[3bac6c7ccdf279d1ae3eaa1dd98368c4]
link DDICDIModels::DDICDILibrary::Classes::FormatDescription::PhysicalDataSet to DDICDIModels::DDICDILibrary::Classes::Conceptual::Concept--><g id="link_DDICDIModels::DDICDILibrary::Classes::FormatDescription::PhysicalDataSet_DDICDIModels::DDICDILibrary::Classes::Conceptual::Concept"><a href="" target="_top" title=" ― isDefinedBy:&#10;The conceptual basis for the collection of members." xlink:actuate="onRequest" xlink:href="" xlink:show="new" xlink:title=" ― isDefinedBy:&#10;The conceptual basis for the collection of members." xlink:type="simple"><path codeLine="82" d="M451.008,245.538 C372.465,276.309 257.004,322.362 157.5,365.4 C143.253,371.565 127.791,378.612 114.075,384.984 " fill="none" id="DDICDIModels::DDICDILibrary::Classes::FormatDescription::PhysicalDataSet-to-DDICDIModels::DDICDILibrary::Classes::Conceptual::Concept" style="stroke:#808080;stroke-width:1.35;"/><polygon fill="#808080" points="109.881,386.946,118.7434,386.7814,113.9585,385.0423,115.6975,380.2574,109.881,386.946" style="stroke:#808080;stroke-width:1.35;"/><text fill="#000000" font-family="sans-serif" font-size="11.7" lengthAdjust="spacing" textLength="62.1" x="220.5" y="347.8456">isDefinedBy</text></a></g><!--MD5=[260246376d22826bbc65598e33d96d22]
link DDICDIModels::DDICDILibrary::Classes::FormatDescription::PhysicalDataSet to DDICDIModels::DDICDILibrary::Classes::FormatDescription::DataStore--><g id="link_DDICDIModels::DDICDILibrary::Classes::FormatDescription::PhysicalDataSet_DDICDIModels::DDICDILibrary::Classes::FormatDescription::DataStore"><a href="" target="_top" title=" ― formats:&#10;Data store physically represented by the structure description." xlink:actuate="onRequest" xlink:href="" xlink:show="new" xlink:title=" ― formats:&#10;Data store physically represented by the structure description." xlink:type="simple"><path codeLine="83" d="M491.229,294.12 C470.88,326.916 449.307,361.692 435.996,383.148 " fill="none" id="DDICDIModels::DDICDILibrary::Classes::FormatDescription::PhysicalDataSet-to-DDICDIModels::DDICDILibrary::Classes::FormatDescription::DataStore" style="stroke:#808080;stroke-width:1.35;"/><polygon fill="#808080" points="433.611,387,440.9372,382.0103,435.9809,383.1746,434.8166,378.2184,433.611,387" style="stroke:#808080;stroke-width:1.35;"/><text fill="#000000" font-family="sans-serif" font-size="11.7" lengthAdjust="spacing" textLength="38.7" x="466.2" y="347.8456">formats</text></a></g><!--MD5=[df071b849217f57a409024d7ae6be8c6]
link DDICDIModels::DDICDILibrary::Classes::FormatDescription::PhysicalDataSet to DDICDIModels::DDICDILibrary::Classes::FormatDescription::PhysicalRecordSegment--><g id="link_DDICDIModels::DDICDILibrary::Classes::FormatDescription::PhysicalDataSet_DDICDIModels::DDICDILibrary::Classes::FormatDescription::PhysicalRecordSegment"><a href="" target="_top" title=" ― has:&#10;" xlink:actuate="onRequest" xlink:href="" xlink:show="new" xlink:title=" ― has:&#10;" xlink:type="simple"><path codeLine="84" d="M644.8497,282.3534 C644.8497,282.3534 746.847,355.554 780.579,379.755 " fill="none" id="DDICDIModels::DDICDILibrary::Classes::FormatDescription::PhysicalDataSet-DDICDIModels::DDICDILibrary::Classes::FormatDescription::PhysicalRecordSegment" style="stroke:#808080;stroke-width:1.35;"/><polygon fill="#808080" points="790.389,386.802,785.9117,379.1519,786.7346,384.1761,781.7103,384.999,790.389,386.802" style="stroke:#808080;stroke-width:1.35;"/><line style="stroke:#808080;stroke-width:1.35;" x1="786.7346" x2="780.8805" y1="384.1761" y2="379.9755"/><polygon fill="none" points="636.075,276.057,638.3635,282.1301,644.8497,282.3534,642.5611,276.2803,636.075,276.057" style="stroke:#808080;stroke-width:1.35;"/><text fill="#000000" font-family="sans-serif" font-size="11.7" lengthAdjust="spacing" textLength="18.9" x="735.3" y="347.8456">has</text></a></g><!--MD5=[208d85c627cdf6fbf2897739edffb112]
link DDICDIModels::DDICDILibrary::Classes::FormatDescription::PhysicalDataSet to DDICDIModels::DDICDILibrary::Classes::FormatDescription::PhysicalRecordSegmentPosition--><g id="link_DDICDIModels::DDICDILibrary::Classes::FormatDescription::PhysicalDataSet_DDICDIModels::DDICDILibrary::Classes::FormatDescription::PhysicalRecordSegmentPosition"><a href="" target="_top" title=" ― has:&#10;" xlink:actuate="onRequest" xlink:href="" xlink:show="new" xlink:title=" ― has:&#10;" xlink:type="simple"><path codeLine="85" d="M579.0503,304.2304 C579.0503,304.2304 598.887,357.12 605.952,375.984 " fill="none" id="DDICDIModels::DDICDILibrary::Classes::FormatDescription::PhysicalDataSet-DDICDIModels::DDICDILibrary::Classes::FormatDescription::PhysicalRecordSegmentPosition" style="stroke:#808080;stroke-width:1.35;"/><polygon fill="#808080" points="610.083,387,610.6142,378.152,608.5051,382.7857,603.8714,380.6766,610.083,387" style="stroke:#808080;stroke-width:1.35;"/><line style="stroke:#808080;stroke-width:1.35;" x1="608.5051" x2="605.979" y1="382.7857" y2="376.0425"/><polygon fill="#808080" points="575.253,294.12,573.7815,300.441,579.0503,304.2304,580.5218,297.9094,575.253,294.12" style="stroke:#808080;stroke-width:1.35;"/><text fill="#000000" font-family="sans-serif" font-size="11.7" lengthAdjust="spacing" textLength="18.9" x="595.8" y="347.8456">has</text></a></g><!--MD5=[0c673d29cb25c7200cbce8a289560415]
reverse link DDICDIModels::DDICDILibrary::Classes::FormatDescription::PhysicalDataSet to DDICDIModels::DDICDILibrary::Classes::FormatDescription::PhysicalDataSetStructure--><g id="link_DDICDIModels::DDICDILibrary::Classes::FormatDescription::PhysicalDataSet_DDICDIModels::DDICDILibrary::Classes::FormatDescription::PhysicalDataSetStructure"><a href="" target="_top" title=" ― structures:&#10;" xlink:actuate="onRequest" xlink:href="" xlink:show="new" xlink:title=" ― structures:&#10;" xlink:type="simple"><path codeLine="86" d="M447.039,273.285 C386.55,313.119 313.02,361.548 274.617,386.838 " fill="none" id="DDICDIModels::DDICDILibrary::Classes::FormatDescription::PhysicalDataSet-backto-DDICDIModels::DDICDILibrary::Classes::FormatDescription::PhysicalDataSetStructure" style="stroke:#808080;stroke-width:1.35;"/><polygon fill="#808080" points="451.008,270.675,442.2656,272.1381,447.2539,273.1563,446.2357,278.1446,451.008,270.675" style="stroke:#808080;stroke-width:1.35;"/><text fill="#000000" font-family="sans-serif" font-size="11.7" lengthAdjust="spacing" textLength="52.2" x="352.8" y="347.8456">structures</text></a></g><!--MD5=[ccaead60f27974355c8738f7e286827a]
link DDICDIModels::DDICDILibrary::Classes::FormatDescription::PhysicalDataSet to DDICDIModels::DesignPatterns::CollectionsPattern::List--><g id="link_DDICDIModels::DDICDILibrary::Classes::FormatDescription::PhysicalDataSet_DDICDIModels::DesignPatterns::CollectionsPattern::List"><path codeLine="90" d="M635.922,215.928 C751.41,229.311 934.2,271.449 934.2,404.1 C934.2,404.1 934.2,404.1 934.2,569.25 C934.2,590.121 934.2,613.944 934.2,630.738 " fill="none" id="DDICDIModels::DDICDILibrary::Classes::FormatDescription::PhysicalDataSet-to-DDICDIModels::DesignPatterns::CollectionsPattern::List" style="stroke:#404040;stroke-width:1.35;stroke-dasharray:7.0,7.0;"/><polygon fill="#404040" points="934.2,635.283,937.8,627.183,934.2,630.783,930.6,627.183,934.2,635.283" style="stroke:#404040;stroke-width:1.35;"/><text fill="#000000" font-family="sans-serif" font-size="11.7" lengthAdjust="spacing" textLength="45" x="935.1" y="502.6456">«Refine»</text></g><rect height="33.9609" style="stroke:#00000000;stroke-width:0.9;fill:none;" width="348.3" x="323.1" y="676.0688"/><text fill="#888888" font-family="sans-serif" font-size="9" lengthAdjust="spacing" textLength="2.7" x="495.9" y="685.4115"> </text><text fill="#888888" font-family="sans-serif" font-size="9" lengthAdjust="spacing" textLength="2.7" x="495.9" y="696.7318"> </text><text fill="#888888" font-family="sans-serif" font-size="9" lengthAdjust="spacing" textLength="348.3" x="323.1" y="708.0521">DDI Cross Domain Integration (DDI-CDI)   1.0 - FormatDescription::PhysicalDataSet</text><!--MD5=[b661297aac0f08699d0d1de943200c51]
@startuml
!pragma ratio 0.5625
' HD display aspect ratio 16:9
' hyperlinkColor and pathHoverColor do not seem to work with class diagrams
' working approach: colors per item
' default font size for class names is 14

hide circle
hide empty members
scale 0.9

skinparam {
  ArrowThickness 1.5
  MinClassWidth 150
}

skinparam legend {
  BackgroundColor white
  FontSize 10
}

skinparam note {
  BackgroundColor white
}

skinparam class {
  ArrowColor #404040
  BorderColor #404040
}

skinparam package {
  FontColor lightgrey
  BorderColor lightgrey
}

title <size:20>UML Diagram: Class PhysicalDataSet in Context\n
footer \n\nDDI Cross Domain Integration (DDI-CDI)   1.0 - FormatDescription::PhysicalDataSet

legend top left
**Hints**
<color:grey>- Move the mouse cursor over a name to see more information.
<color:grey>- Click on a name to go to the corresponding page.
endlegend

' Core class of diagram
class DDICDIModels::DDICDILibrary::Classes::FormatDescription::PhysicalDataSet as "<size:10>FormatDescription::\n<color:black>PhysicalDataSet" #FFD700 {
  allowsDuplicates : Boolean
  catalogDetails : <color:blue>CatalogDetails   	  [[[../DDICDILibrary/DataTypes/StructuredDataTypes/CatalogDetails.html#diagram{ <U+2015> CatalogDetails:\nA set of information useful for attribution, data discovery, and access.}]]]
  identifier : <color:blue>Identifier   	  [[[../DDICDILibrary/DataTypes/StructuredDataTypes/Identifier.html#diagram{ <U+2015> Identifier:\nIdentifier for objects requiring short- or long-lasting referencing and management.}]]]
  name : <color:blue>ObjectName   	  [[[../DDICDILibrary/DataTypes/StructuredDataTypes/ObjectName.html#diagram{ <U+2015> ObjectName:\nA standard means of expressing a name for a class object. A linguistic signifier. Human understandable name (word, phrase, or mnemonic) that reflects the ISO/IEC 11179-5 naming principles.}]]]
  numberOfSegments : Integer
  overview : <color:blue>InternationalString   	  [[[../DDICDILibrary/DataTypes/StructuredDataTypes/InternationalString.html#diagram{ <U+2015> InternationalString:\nPackaging structure for multiple language versions of the same string content. Where an element of this type is repeatable, the expectation is that each repetition contains different content, each of which can be expressed in multiple languages. The language designation goes on the individual String ...}]]]
  physicalFileName : String
  purpose : <color:blue>InternationalString   	  [[[../DDICDILibrary/DataTypes/StructuredDataTypes/InternationalString.html#diagram{ <U+2015> InternationalString:\nPackaging structure for multiple language versions of the same string content. Where an element of this type is repeatable, the expectation is that each repetition contains different content, each of which can be expressed in multiple languages. The language designation goes on the individual String ...}]]]
}

' Class definitions for associated classes without superclass (might have also an association)
' This would be too many constraints for Graphviz. 
together {
  class DDICDIModels::DDICDILibrary::Classes::Conceptual::Concept as "<size:10>Conceptual::\n<color:blue>Concept" [[../DDICDILibrary/Classes/Conceptual/Concept.html#super-class-hierarchy-generalization{ <U+2015> Concept:\nUnit of thought differentiated by characteristics (from the Generic Statistical Information Model version 1.2: https://statswiki.unece.org/display/clickablegsim/Concept).}]]
  class DDICDIModels::DDICDILibrary::Classes::FormatDescription::PhysicalDataSetStructure as "<size:10>FormatDescription::\n<color:blue>PhysicalDataSetStructure" [[../DDICDILibrary/Classes/FormatDescription/PhysicalDataSetStructure.html#super-class-hierarchy-generalization{ <U+2015> PhysicalDataSetStructure:\nOrdering for physical record segments, which map to a logical record.}]]
  class DDICDIModels::DDICDILibrary::Classes::FormatDescription::DataStore as "<size:10>FormatDescription::\n<color:blue>DataStore" [[../DDICDILibrary/Classes/FormatDescription/DataStore.html#super-class-hierarchy-generalization{ <U+2015> DataStore:\nCollection of logical records.}]]
  class DDICDIModels::DDICDILibrary::Classes::FormatDescription::PhysicalRecordSegmentPosition as "<size:10>FormatDescription::\n<color:blue>PhysicalRecordSegmentPosition" [[../DDICDILibrary/Classes/FormatDescription/PhysicalRecordSegmentPosition.html#super-class-hierarchy-generalization{ <U+2015> PhysicalRecordSegmentPosition:\nAssigns a position of the physical record segment within the whole physical record. For example in what order does this 80 character segment fall within an 800 character record.}]]
  class DDICDIModels::DDICDILibrary::Classes::FormatDescription::PhysicalRecordSegment as "<size:10>FormatDescription::\n<color:blue>PhysicalRecordSegment" [[../DDICDILibrary/Classes/FormatDescription/PhysicalRecordSegment.html#super-class-hierarchy-generalization{ <U+2015> PhysicalRecordSegment:\nDescription of each physical storage segment required to completely cover a physical record representing the logical record.}]]
}

' Class definitions for suppliers of abstractions
together {
  abstract class DDICDIModels::DesignPatterns::CollectionsPattern::List as "<size:10>CollectionsPattern::\n<color:blue>List" [[../DesignPatterns/CollectionsPattern/List.html#super-class-hierarchy-generalization{ <U+2015> List:\nSimple ordered Collection defined as a list of Members where the location of each Member in the list is given by the associated Position class.}]]
}

' Rest of class definitions, without associated classes of core class and abstraction supplier classes



' Associations
DDICDIModels::DDICDILibrary::Classes::FormatDescription::PhysicalDataSet -[#grey]-> DDICDIModels::DDICDILibrary::Classes::Conceptual::Concept [[{ <U+2015> isDefinedBy:\nThe conceptual basis for the collection of members.}]] : isDefinedBy
DDICDIModels::DDICDILibrary::Classes::FormatDescription::PhysicalDataSet -[#grey]-> DDICDIModels::DDICDILibrary::Classes::FormatDescription::DataStore [[{ <U+2015> formats:\nData store physically represented by the structure description.}]] : formats
DDICDIModels::DDICDILibrary::Classes::FormatDescription::PhysicalDataSet o-[#grey]-> DDICDIModels::DDICDILibrary::Classes::FormatDescription::PhysicalRecordSegment [[{ <U+2015> has:\n}]] : has
DDICDIModels::DDICDILibrary::Classes::FormatDescription::PhysicalDataSet *-[#grey]-> DDICDIModels::DDICDILibrary::Classes::FormatDescription::PhysicalRecordSegmentPosition [[{ <U+2015> has:\n}]] : has
DDICDIModels::DDICDILibrary::Classes::FormatDescription::PhysicalDataSet <-[#grey]- DDICDIModels::DDICDILibrary::Classes::FormatDescription::PhysicalDataSetStructure [[{ <U+2015> structures:\n}]] : structures


' Abstractions
  DDICDIModels::DDICDILibrary::Classes::FormatDescription::PhysicalDataSet .....> DDICDIModels::DesignPatterns::CollectionsPattern::List : <U+00AB>Refine<U+00BB>
   
@enduml

@startuml
!pragma ratio 0.5625

hide circle
hide empty members
scale 0.9

skinparam {
  ArrowThickness 1.5
  MinClassWidth 150
}

skinparam legend {
  BackgroundColor white
  FontSize 10
}

skinparam note {
  BackgroundColor white
}

skinparam class {
  ArrowColor #404040
  BorderColor #404040
}

skinparam package {
  FontColor lightgrey
  BorderColor lightgrey
}

title <size:20>UML Diagram: Class PhysicalDataSet in Context\n
footer \n\nDDI Cross Domain Integration (DDI-CDI)   1.0 - FormatDescription::PhysicalDataSet

legend top left
**Hints**
<color:grey>- Move the mouse cursor over a name to see more information.
<color:grey>- Click on a name to go to the corresponding page.
endlegend

class DDICDIModels::DDICDILibrary::Classes::FormatDescription::PhysicalDataSet as "<size:10>FormatDescription::\n<color:black>PhysicalDataSet" #FFD700 {
  allowsDuplicates : Boolean
  catalogDetails : <color:blue>CatalogDetails   	  [[[../DDICDILibrary/DataTypes/StructuredDataTypes/CatalogDetails.html#diagram{ <U+2015> CatalogDetails:\nA set of information useful for attribution, data discovery, and access.}]]]
  identifier : <color:blue>Identifier   	  [[[../DDICDILibrary/DataTypes/StructuredDataTypes/Identifier.html#diagram{ <U+2015> Identifier:\nIdentifier for objects requiring short- or long-lasting referencing and management.}]]]
  name : <color:blue>ObjectName   	  [[[../DDICDILibrary/DataTypes/StructuredDataTypes/ObjectName.html#diagram{ <U+2015> ObjectName:\nA standard means of expressing a name for a class object. A linguistic signifier. Human understandable name (word, phrase, or mnemonic) that reflects the ISO/IEC 11179-5 naming principles.}]]]
  numberOfSegments : Integer
  overview : <color:blue>InternationalString   	  [[[../DDICDILibrary/DataTypes/StructuredDataTypes/InternationalString.html#diagram{ <U+2015> InternationalString:\nPackaging structure for multiple language versions of the same string content. Where an element of this type is repeatable, the expectation is that each repetition contains different content, each of which can be expressed in multiple languages. The language designation goes on the individual String ...}]]]
  physicalFileName : String
  purpose : <color:blue>InternationalString   	  [[[../DDICDILibrary/DataTypes/StructuredDataTypes/InternationalString.html#diagram{ <U+2015> InternationalString:\nPackaging structure for multiple language versions of the same string content. Where an element of this type is repeatable, the expectation is that each repetition contains different content, each of which can be expressed in multiple languages. The language designation goes on the individual String ...}]]]
}

together {
  class DDICDIModels::DDICDILibrary::Classes::Conceptual::Concept as "<size:10>Conceptual::\n<color:blue>Concept" [[../DDICDILibrary/Classes/Conceptual/Concept.html#super-class-hierarchy-generalization{ <U+2015> Concept:\nUnit of thought differentiated by characteristics (from the Generic Statistical Information Model version 1.2: https://statswiki.unece.org/display/clickablegsim/Concept).}]]
  class DDICDIModels::DDICDILibrary::Classes::FormatDescription::PhysicalDataSetStructure as "<size:10>FormatDescription::\n<color:blue>PhysicalDataSetStructure" [[../DDICDILibrary/Classes/FormatDescription/PhysicalDataSetStructure.html#super-class-hierarchy-generalization{ <U+2015> PhysicalDataSetStructure:\nOrdering for physical record segments, which map to a logical record.}]]
  class DDICDIModels::DDICDILibrary::Classes::FormatDescription::DataStore as "<size:10>FormatDescription::\n<color:blue>DataStore" [[../DDICDILibrary/Classes/FormatDescription/DataStore.html#super-class-hierarchy-generalization{ <U+2015> DataStore:\nCollection of logical records.}]]
  class DDICDIModels::DDICDILibrary::Classes::FormatDescription::PhysicalRecordSegmentPosition as "<size:10>FormatDescription::\n<color:blue>PhysicalRecordSegmentPosition" [[../DDICDILibrary/Classes/FormatDescription/PhysicalRecordSegmentPosition.html#super-class-hierarchy-generalization{ <U+2015> PhysicalRecordSegmentPosition:\nAssigns a position of the physical record segment within the whole physical record. For example in what order does this 80 character segment fall within an 800 character record.}]]
  class DDICDIModels::DDICDILibrary::Classes::FormatDescription::PhysicalRecordSegment as "<size:10>FormatDescription::\n<color:blue>PhysicalRecordSegment" [[../DDICDILibrary/Classes/FormatDescription/PhysicalRecordSegment.html#super-class-hierarchy-generalization{ <U+2015> PhysicalRecordSegment:\nDescription of each physical storage segment required to completely cover a physical record representing the logical record.}]]
}

together {
  abstract class DDICDIModels::DesignPatterns::CollectionsPattern::List as "<size:10>CollectionsPattern::\n<color:blue>List" [[../DesignPatterns/CollectionsPattern/List.html#super-class-hierarchy-generalization{ <U+2015> List:\nSimple ordered Collection defined as a list of Members where the location of each Member in the list is given by the associated Position class.}]]
}




DDICDIModels::DDICDILibrary::Classes::FormatDescription::PhysicalDataSet -[#grey]-> DDICDIModels::DDICDILibrary::Classes::Conceptual::Concept [[{ <U+2015> isDefinedBy:\nThe conceptual basis for the collection of members.}]] : isDefinedBy
DDICDIModels::DDICDILibrary::Classes::FormatDescription::PhysicalDataSet -[#grey]-> DDICDIModels::DDICDILibrary::Classes::FormatDescription::DataStore [[{ <U+2015> formats:\nData store physically represented by the structure description.}]] : formats
DDICDIModels::DDICDILibrary::Classes::FormatDescription::PhysicalDataSet o-[#grey]-> DDICDIModels::DDICDILibrary::Classes::FormatDescription::PhysicalRecordSegment [[{ <U+2015> has:\n}]] : has
DDICDIModels::DDICDILibrary::Classes::FormatDescription::PhysicalDataSet *-[#grey]-> DDICDIModels::DDICDILibrary::Classes::FormatDescription::PhysicalRecordSegmentPosition [[{ <U+2015> has:\n}]] : has
DDICDIModels::DDICDILibrary::Classes::FormatDescription::PhysicalDataSet <-[#grey]- DDICDIModels::DDICDILibrary::Classes::FormatDescription::PhysicalDataSetStructure [[{ <U+2015> structures:\n}]] : structures


  DDICDIModels::DDICDILibrary::Classes::FormatDescription::PhysicalDataSet .....> DDICDIModels::DesignPatterns::CollectionsPattern::List : <U+00AB>Refine<U+00BB>
   
@enduml

PlantUML version 1.2022.6(Tue Jun 21 19:34:49 CEST 2022)
(GPL source distribution)
Java Runtime: OpenJDK Runtime Environment
JVM: OpenJDK 64-Bit Server VM
Default Encoding: Cp1252
Language: en
Country: US
--></g></svg>