<?xml version="1.0" encoding="UTF-8" standalone="no"?><svg xmlns="http://www.w3.org/2000/svg" xmlns:xlink="http://www.w3.org/1999/xlink" contentStyleType="text/css" height="652.5px" preserveAspectRatio="none" style="width:715px;height:652px;background:#FFFFFF;" version="1.1" viewBox="0 0 715 652" width="715.5px" zoomAndPan="magnify"><defs/><g><rect height="47.4891" style="stroke:#00000000;stroke-width:0.9;fill:none;" width="497.7" x="102.6" y="4.5"/><text fill="#000000" font-family="sans-serif" font-size="18" font-weight="bold" lengthAdjust="spacing" textLength="488.7" x="107.1" y="27.6855">UML Diagram: Class PhysicalDataSetStructure in Context</text><text fill="#000000" font-family="sans-serif" font-size="12.6" font-weight="bold" lengthAdjust="spacing" textLength="3.6" x="349.65" y="44.7205"> </text><rect fill="#FFFFFF" height="44.7609" rx="6.75" ry="6.75" style="stroke:#000000;stroke-width:0.9;" width="276.3" x="7.2" y="64.5891"/><text fill="#000000" font-family="sans-serif" font-size="9" font-weight="bold" lengthAdjust="spacing" textLength="22.5" x="12.6" y="79.3318">Hints</text><text fill="#808080" font-family="sans-serif" font-size="9" lengthAdjust="spacing" textLength="265.5" x="12.6" y="90.6521">- Move the mouse cursor over a name to see more information.</text><text fill="#808080" font-family="sans-serif" font-size="9" lengthAdjust="spacing" textLength="216" x="12.6" y="101.9725">- Click on a name to go to the corresponding page.</text><!--MD5=[c8acb9b46bbd90f047a49d89548280bd]
class DDICDIModels::DDICDILibrary::Classes::FormatDescription::PhysicalRecordSegmentRelationship--><a href="../DDICDILibrary/Classes/FormatDescription/PhysicalRecordSegmentRelationship.html#super-class-hierarchy-generalization" target="_top" title=" ― PhysicalRecordSegmentRelationship:&#10;Structured relationship between physical record segments." xlink:actuate="onRequest" xlink:href="../DDICDILibrary/Classes/FormatDescription/PhysicalRecordSegmentRelationship.html#super-class-hierarchy-generalization" xlink:show="new" xlink:title=" ― PhysicalRecordSegmentRelationship:&#10;Structured relationship between physical record segments." xlink:type="simple"><g id="elem_DDICDIModels::DDICDILibrary::Classes::FormatDescription::PhysicalRecordSegmentRelationship"><rect codeLine="66" fill="#F1F1F1" height="36.1688" id="DDICDIModels::DDICDILibrary::Classes::FormatDescription::PhysicalRecordSegmentRelationship" rx="2.25" ry="2.25" style="stroke:#404040;stroke-width:0.45;" width="214.2" x="6.3" y="350.1"/><text fill="#000000" font-family="sans-serif" font-size="9" lengthAdjust="spacing" textLength="82.8" x="72" y="363.9428">FormatDescription::</text><text fill="#0000FF" font-family="sans-serif" font-size="12.6" lengthAdjust="spacing" textLength="208.8" x="9" y="379.0002">PhysicalRecordSegmentRelationship</text></g></a><!--MD5=[be5496f57172f0cfd53a695b7309534c]
class DDICDIModels::DDICDILibrary::Classes::FormatDescription::PhysicalDataSet--><a href="../DDICDILibrary/Classes/FormatDescription/PhysicalDataSet.html#super-class-hierarchy-generalization" target="_top" title=" ― PhysicalDataSet:&#10;Information needed for understanding the physical structure of data coming from a file or other source." xlink:actuate="onRequest" xlink:href="../DDICDILibrary/Classes/FormatDescription/PhysicalDataSet.html#super-class-hierarchy-generalization" xlink:show="new" xlink:title=" ― PhysicalDataSet:&#10;Information needed for understanding the physical structure of data coming from a file or other source." xlink:type="simple"><g id="elem_DDICDIModels::DDICDILibrary::Classes::FormatDescription::PhysicalDataSet"><rect codeLine="67" fill="#F1F1F1" height="36.1688" id="DDICDIModels::DDICDILibrary::Classes::FormatDescription::PhysicalDataSet" rx="2.25" ry="2.25" style="stroke:#404040;stroke-width:0.45;" width="135" x="385.2" y="350.1"/><text fill="#000000" font-family="sans-serif" font-size="9" lengthAdjust="spacing" textLength="82.8" x="411.3" y="363.9428">FormatDescription::</text><text fill="#0000FF" font-family="sans-serif" font-size="12.6" lengthAdjust="spacing" textLength="92.7" x="406.35" y="379.0002">PhysicalDataSet</text></g></a><!--MD5=[e8ea17671d2b816e5709704adf065cd9]
class DDICDIModels::DesignPatterns::CollectionsPattern::Structure--><a href="../DesignPatterns/CollectionsPattern/Structure.html#super-class-hierarchy-generalization" target="_top" title=" ― Structure:&#10;Organized set of relationships between members in a collection. These relationships can be characterized mathematically in terms of reflexivity, symmetry and transitivity, or informally in terms of the collection's topology, e.g. network, tree, etc. In both cases it can also be defined either on all ..." xlink:actuate="onRequest" xlink:href="../DesignPatterns/CollectionsPattern/Structure.html#super-class-hierarchy-generalization" xlink:show="new" xlink:title=" ― Structure:&#10;Organized set of relationships between members in a collection. These relationships can be characterized mathematically in terms of reflexivity, symmetry and transitivity, or informally in terms of the collection's topology, e.g. network, tree, etc. In both cases it can also be defined either on all ..." xlink:type="simple"><g id="elem_DDICDIModels::DesignPatterns::CollectionsPattern::Structure"><rect codeLine="72" fill="#F1F1F1" height="36.1688" id="DDICDIModels::DesignPatterns::CollectionsPattern::Structure" rx="2.25" ry="2.25" style="stroke:#404040;stroke-width:0.45;" width="135" x="575.1" y="571.5"/><text fill="#000000" font-family="sans-serif" font-size="9" font-style="italic" lengthAdjust="spacing" textLength="83.7" x="600.75" y="585.3428">CollectionsPattern::</text><text fill="#0000FF" font-family="sans-serif" font-size="12.6" font-style="italic" lengthAdjust="spacing" textLength="52.2" x="616.5" y="600.4002">Structure</text></g></a><!--MD5=[85e4a304c245dcd17f9486fe703db1dc]
class DDICDIModels::DDICDILibrary::Classes::FormatDescription::PhysicalDataSetStructure--><g id="elem_DDICDIModels::DDICDILibrary::Classes::FormatDescription::PhysicalDataSetStructure"><rect codeLine="46" fill="#FFD700" height="154.3078" id="DDICDIModels::DDICDILibrary::Classes::FormatDescription::PhysicalDataSetStructure" rx="2.25" ry="2.25" style="stroke:#404040;stroke-width:0.45;" width="230.4" x="337.5" y="123.75"/><text fill="#000000" font-family="sans-serif" font-size="9" lengthAdjust="spacing" textLength="82.8" x="411.3" y="137.5928">FormatDescription::</text><text fill="#000000" font-family="sans-serif" font-size="12.6" lengthAdjust="spacing" textLength="144.9" x="380.25" y="152.6502">PhysicalDataSetStructure</text><line style="stroke:#404040;stroke-width:0.45;" x1="338.4" x2="567" y1="159.9188" y2="159.9188"/><a href="../DDICDILibrary/DataTypes/StructuredDataTypes/Identifier.html#diagram" target="_top" title=" ― Identifier:&#10;Identifier for objects requiring short- or long-lasting referencing and management." xlink:actuate="onRequest" xlink:href="../DDICDILibrary/DataTypes/StructuredDataTypes/Identifier.html#diagram" xlink:show="new" xlink:title=" ― Identifier:&#10;Identifier for objects requiring short- or long-lasting referencing and management." xlink:type="simple"><text fill="#000000" font-family="sans-serif" font-size="12.6" lengthAdjust="spacing" textLength="55.8" x="342.9" y="176.5986">identifier :</text><text fill="#0000FF" font-family="sans-serif" font-size="12.6" lengthAdjust="spacing" textLength="48.6" x="402.3" y="176.5986">Identifier</text></a><a href="../DDICDILibrary/DataTypes/StructuredDataTypes/ObjectName.html#diagram" target="_top" title=" ― ObjectName:&#10;A standard means of expressing a name for a class object. A linguistic signifier. Human understandable name (word, phrase, or mnemonic) that reflects the ISO/IEC 11179-5 naming principles." xlink:actuate="onRequest" xlink:href="../DDICDILibrary/DataTypes/StructuredDataTypes/ObjectName.html#diagram" xlink:show="new" xlink:title=" ― ObjectName:&#10;A standard means of expressing a name for a class object. A linguistic signifier. Human understandable name (word, phrase, or mnemonic) that reflects the ISO/IEC 11179-5 naming principles." xlink:type="simple"><text fill="#000000" font-family="sans-serif" font-size="12.6" lengthAdjust="spacing" textLength="38.7" x="342.9" y="192.4471">name :</text><text fill="#0000FF" font-family="sans-serif" font-size="12.6" lengthAdjust="spacing" textLength="69.3" x="385.2" y="192.4471">ObjectName</text></a><a href="../DDICDILibrary/DataTypes/StructuredDataTypes/InternationalString.html#diagram" target="_top" title=" ― InternationalString:&#10;Packaging structure for multiple language versions of the same string content. Where an element of this type is repeatable, the expectation is that each repetition contains different content, each of which can be expressed in multiple languages. The language designation goes on the individual String ..." xlink:actuate="onRequest" xlink:href="../DDICDILibrary/DataTypes/StructuredDataTypes/InternationalString.html#diagram" xlink:show="new" xlink:title=" ― InternationalString:&#10;Packaging structure for multiple language versions of the same string content. Where an element of this type is repeatable, the expectation is that each repetition contains different content, each of which can be expressed in multiple languages. The language designation goes on the individual String ..." xlink:type="simple"><text fill="#000000" font-family="sans-serif" font-size="12.6" lengthAdjust="spacing" textLength="54" x="342.9" y="208.2955">purpose :</text><text fill="#0000FF" font-family="sans-serif" font-size="12.6" lengthAdjust="spacing" textLength="103.5" x="400.5" y="208.2955">InternationalString</text></a><a href="../DDICDILibrary/DataTypes/StructuredDataTypes/ControlledVocabularyEntry.html#diagram" target="_top" title=" ― ControlledVocabularyEntry:&#10;Allows for unstructured content which may be an entry from an externally maintained controlled vocabulary.If the content is from a controlled vocabulary provide the code value of the entry, as well as a reference to the controlled vocabulary from which the value is taken. Provide as many of the iden ..." xlink:actuate="onRequest" xlink:href="../DDICDILibrary/DataTypes/StructuredDataTypes/ControlledVocabularyEntry.html#diagram" xlink:show="new" xlink:title=" ― ControlledVocabularyEntry:&#10;Allows for unstructured content which may be an entry from an externally maintained controlled vocabulary.If the content is from a controlled vocabulary provide the code value of the entry, as well as a reference to the controlled vocabulary from which the value is taken. Provide as many of the iden ..." xlink:type="simple"><text fill="#000000" font-family="sans-serif" font-size="12.6" lengthAdjust="spacing" textLength="63.9" x="342.9" y="224.1439">semantics :</text><text fill="#0000FF" font-family="sans-serif" font-size="12.6" lengthAdjust="spacing" textLength="152.1" x="410.4" y="224.1439">ControlledVocabularyEntry</text></a><a href="../DDICDILibrary/DataTypes/StructuredDataTypes/StructureSpecification.html#diagram" target="_top" title=" ― StructureSpecification:&#10;The mathematical properties of the structure." xlink:actuate="onRequest" xlink:href="../DDICDILibrary/DataTypes/StructuredDataTypes/StructureSpecification.html#diagram" xlink:show="new" xlink:title=" ― StructureSpecification:&#10;The mathematical properties of the structure." xlink:type="simple"><text fill="#000000" font-family="sans-serif" font-size="12.6" lengthAdjust="spacing" textLength="77.4" x="342.9" y="239.9924">specification :</text><text fill="#0000FF" font-family="sans-serif" font-size="12.6" lengthAdjust="spacing" textLength="124.2" x="423.9" y="239.9924">StructureSpecification</text></a><a href="../DDICDILibrary/DataTypes/StructuredDataTypes/ControlledVocabularyEntry.html#diagram" target="_top" title=" ― ControlledVocabularyEntry:&#10;Allows for unstructured content which may be an entry from an externally maintained controlled vocabulary.If the content is from a controlled vocabulary provide the code value of the entry, as well as a reference to the controlled vocabulary from which the value is taken. Provide as many of the iden ..." xlink:actuate="onRequest" xlink:href="../DDICDILibrary/DataTypes/StructuredDataTypes/ControlledVocabularyEntry.html#diagram" xlink:show="new" xlink:title=" ― ControlledVocabularyEntry:&#10;Allows for unstructured content which may be an entry from an externally maintained controlled vocabulary.If the content is from a controlled vocabulary provide the code value of the entry, as well as a reference to the controlled vocabulary from which the value is taken. Provide as many of the iden ..." xlink:type="simple"><text fill="#000000" font-family="sans-serif" font-size="12.6" lengthAdjust="spacing" textLength="55.8" x="342.9" y="255.8408">topology :</text><text fill="#0000FF" font-family="sans-serif" font-size="12.6" lengthAdjust="spacing" textLength="152.1" x="402.3" y="255.8408">ControlledVocabularyEntry</text></a><a href="../DDICDILibrary/DataTypes/Enumerations/StructureExtent.html#diagram" target="_top" title=" ― StructureExtent:&#10;Type of relation in terms of totality with respect to an associated collection. The totality type is given by the controlled vocabulary {total, partial}." xlink:actuate="onRequest" xlink:href="../DDICDILibrary/DataTypes/Enumerations/StructureExtent.html#diagram" xlink:show="new" xlink:title=" ― StructureExtent:&#10;Type of relation in terms of totality with respect to an associated collection. The totality type is given by the controlled vocabulary {total, partial}." xlink:type="simple"><text fill="#000000" font-family="sans-serif" font-size="12.6" lengthAdjust="spacing" textLength="44.1" x="342.9" y="271.6893">totality :</text><text fill="#0000FF" font-family="sans-serif" font-size="12.6" lengthAdjust="spacing" textLength="87.3" x="390.6" y="271.6893">StructureExtent</text></a></g><!--MD5=[922f30ebc2b48c0fa25143b13ae89126]
link DDICDIModels::DDICDILibrary::Classes::FormatDescription::PhysicalDataSetStructure to DDICDIModels::DDICDILibrary::Classes::FormatDescription::PhysicalRecordSegmentRelationship--><g id="link_DDICDIModels::DDICDILibrary::Classes::FormatDescription::PhysicalDataSetStructure_DDICDIModels::DDICDILibrary::Classes::FormatDescription::PhysicalRecordSegmentRelationship"><a href="" target="_top" title=" ― has:&#10;" xlink:actuate="onRequest" xlink:href="" xlink:show="new" xlink:title=" ― has:&#10;" xlink:type="simple"><path codeLine="80" d="M327.6539,262.6393 C327.6539,262.6393 202.113,323.901 159.228,344.835 " fill="none" id="DDICDIModels::DDICDILibrary::Classes::FormatDescription::PhysicalDataSetStructure-DDICDIModels::DDICDILibrary::Classes::FormatDescription::PhysicalRecordSegmentRelationship" style="stroke:#808080;stroke-width:1.35;"/><polygon fill="#808080" points="148.572,350.037,157.4304,349.7215,152.6165,348.0642,154.2739,343.2503,148.572,350.037" style="stroke:#808080;stroke-width:1.35;"/><line style="stroke:#808080;stroke-width:1.35;" x1="152.6165" x2="159.0885" y1="348.0642" y2="344.907"/><polygon fill="#808080" points="337.356,257.895,330.9235,257.0331,327.6539,262.6393,334.0864,263.5012,337.356,257.895" style="stroke:#808080;stroke-width:1.35;"/><text fill="#000000" font-family="sans-serif" font-size="11.7" lengthAdjust="spacing" textLength="18.9" x="234" y="318.1456">has</text></a></g><!--MD5=[e3e7767e77a4ae504791d4e9382c77b0]
link DDICDIModels::DDICDILibrary::Classes::FormatDescription::PhysicalDataSetStructure to DDICDIModels::DDICDILibrary::Classes::FormatDescription::PhysicalDataSet--><g id="link_DDICDIModels::DDICDILibrary::Classes::FormatDescription::PhysicalDataSetStructure_DDICDIModels::DDICDILibrary::Classes::FormatDescription::PhysicalDataSet"><a href="" target="_top" title=" ― structures:&#10;" xlink:actuate="onRequest" xlink:href="" xlink:show="new" xlink:title=" ― structures:&#10;" xlink:type="simple"><path codeLine="81" d="M452.7,277.857 C452.7,302.535 452.7,327.987 452.7,345.384 " fill="none" id="DDICDIModels::DDICDILibrary::Classes::FormatDescription::PhysicalDataSetStructure-to-DDICDIModels::DDICDILibrary::Classes::FormatDescription::PhysicalDataSet" style="stroke:#808080;stroke-width:1.35;"/><polygon fill="#808080" points="452.7,350.064,456.3,341.964,452.7,345.564,449.1,341.964,452.7,350.064" style="stroke:#808080;stroke-width:1.35;"/><text fill="#000000" font-family="sans-serif" font-size="11.7" lengthAdjust="spacing" textLength="52.2" x="453.6" y="318.1456">structures</text></a></g><!--MD5=[8a50a4b4e7c067a86fadd1834136643c]
link DDICDIModels::DDICDILibrary::Classes::FormatDescription::PhysicalDataSetStructure to DDICDIModels::DesignPatterns::CollectionsPattern::Structure--><g id="link_DDICDIModels::DDICDILibrary::Classes::FormatDescription::PhysicalDataSetStructure_DDICDIModels::DesignPatterns::CollectionsPattern::Structure"><path codeLine="85" d="M568.098,255.168 C607.86,282.078 642.6,319.302 642.6,367.2 C642.6,367.2 642.6,367.2 642.6,514.35 C642.6,531.954 642.6,551.907 642.6,566.694 " fill="none" id="DDICDIModels::DDICDILibrary::Classes::FormatDescription::PhysicalDataSetStructure-to-DDICDIModels::DesignPatterns::CollectionsPattern::Structure" style="stroke:#404040;stroke-width:1.35;stroke-dasharray:7.0,7.0;"/><polygon fill="#404040" points="642.6,571.491,646.2,563.391,642.6,566.991,639,563.391,642.6,571.491" style="stroke:#404040;stroke-width:1.35;"/><text fill="#000000" font-family="sans-serif" font-size="11.7" lengthAdjust="spacing" textLength="45" x="643.5" y="455.8456">«Refine»</text></g><rect height="33.9609" style="stroke:#00000000;stroke-width:0.9;fill:none;" width="387" x="157.95" y="612.1688"/><text fill="#888888" font-family="sans-serif" font-size="9" lengthAdjust="spacing" textLength="2.7" x="350.1" y="621.5115"> </text><text fill="#888888" font-family="sans-serif" font-size="9" lengthAdjust="spacing" textLength="2.7" x="350.1" y="632.8318"> </text><text fill="#888888" font-family="sans-serif" font-size="9" lengthAdjust="spacing" textLength="387" x="157.95" y="644.1521">DDI Cross Domain Integration (DDI-CDI)   1.0 - FormatDescription::PhysicalDataSetStructure</text><!--MD5=[bb0f267fd8802240db28bcb96d7a0117]
@startuml
!pragma ratio 0.5625
' HD display aspect ratio 16:9
' hyperlinkColor and pathHoverColor do not seem to work with class diagrams
' working approach: colors per item
' default font size for class names is 14

hide circle
hide empty members
scale 0.9

skinparam {
  ArrowThickness 1.5
  MinClassWidth 150
}

skinparam legend {
  BackgroundColor white
  FontSize 10
}

skinparam note {
  BackgroundColor white
}

skinparam class {
  ArrowColor #404040
  BorderColor #404040
}

skinparam package {
  FontColor lightgrey
  BorderColor lightgrey
}

title <size:20>UML Diagram: Class PhysicalDataSetStructure in Context\n
footer \n\nDDI Cross Domain Integration (DDI-CDI)   1.0 - FormatDescription::PhysicalDataSetStructure

legend top left
**Hints**
<color:grey>- Move the mouse cursor over a name to see more information.
<color:grey>- Click on a name to go to the corresponding page.
endlegend

' Core class of diagram
class DDICDIModels::DDICDILibrary::Classes::FormatDescription::PhysicalDataSetStructure as "<size:10>FormatDescription::\n<color:black>PhysicalDataSetStructure" #FFD700 {
  identifier : <color:blue>Identifier   	  [[[../DDICDILibrary/DataTypes/StructuredDataTypes/Identifier.html#diagram{ <U+2015> Identifier:\nIdentifier for objects requiring short- or long-lasting referencing and management.}]]]
  name : <color:blue>ObjectName   	  [[[../DDICDILibrary/DataTypes/StructuredDataTypes/ObjectName.html#diagram{ <U+2015> ObjectName:\nA standard means of expressing a name for a class object. A linguistic signifier. Human understandable name (word, phrase, or mnemonic) that reflects the ISO/IEC 11179-5 naming principles.}]]]
  purpose : <color:blue>InternationalString   	  [[[../DDICDILibrary/DataTypes/StructuredDataTypes/InternationalString.html#diagram{ <U+2015> InternationalString:\nPackaging structure for multiple language versions of the same string content. Where an element of this type is repeatable, the expectation is that each repetition contains different content, each of which can be expressed in multiple languages. The language designation goes on the individual String ...}]]]
  semantics : <color:blue>ControlledVocabularyEntry   	  [[[../DDICDILibrary/DataTypes/StructuredDataTypes/ControlledVocabularyEntry.html#diagram{ <U+2015> ControlledVocabularyEntry:\nAllows for unstructured content which may be an entry from an externally maintained controlled vocabulary.If the content is from a controlled vocabulary provide the code value of the entry, as well as a reference to the controlled vocabulary from which the value is taken. Provide as many of the iden ...}]]]
  specification : <color:blue>StructureSpecification   	  [[[../DDICDILibrary/DataTypes/StructuredDataTypes/StructureSpecification.html#diagram{ <U+2015> StructureSpecification:\nThe mathematical properties of the structure.}]]]
  topology : <color:blue>ControlledVocabularyEntry   	  [[[../DDICDILibrary/DataTypes/StructuredDataTypes/ControlledVocabularyEntry.html#diagram{ <U+2015> ControlledVocabularyEntry:\nAllows for unstructured content which may be an entry from an externally maintained controlled vocabulary.If the content is from a controlled vocabulary provide the code value of the entry, as well as a reference to the controlled vocabulary from which the value is taken. Provide as many of the iden ...}]]]
  totality : <color:blue>StructureExtent   	  [[[../DDICDILibrary/DataTypes/Enumerations/StructureExtent.html#diagram{ <U+2015> StructureExtent:\nType of relation in terms of totality with respect to an associated collection. The totality type is given by the controlled vocabulary <U+007B>total, partial<U+007D>.}]]]
}

' Class definitions for associated classes without superclass (might have also an association)
' This would be too many constraints for Graphviz. 
together {
  class DDICDIModels::DDICDILibrary::Classes::FormatDescription::PhysicalRecordSegmentRelationship as "<size:10>FormatDescription::\n<color:blue>PhysicalRecordSegmentRelationship" [[../DDICDILibrary/Classes/FormatDescription/PhysicalRecordSegmentRelationship.html#super-class-hierarchy-generalization{ <U+2015> PhysicalRecordSegmentRelationship:\nStructured relationship between physical record segments.}]]
  class DDICDIModels::DDICDILibrary::Classes::FormatDescription::PhysicalDataSet as "<size:10>FormatDescription::\n<color:blue>PhysicalDataSet" [[../DDICDILibrary/Classes/FormatDescription/PhysicalDataSet.html#super-class-hierarchy-generalization{ <U+2015> PhysicalDataSet:\nInformation needed for understanding the physical structure of data coming from a file or other source.}]]
}

' Class definitions for suppliers of abstractions
together {
  abstract class DDICDIModels::DesignPatterns::CollectionsPattern::Structure as "<size:10>CollectionsPattern::\n<color:blue>Structure" [[../DesignPatterns/CollectionsPattern/Structure.html#super-class-hierarchy-generalization{ <U+2015> Structure:\nOrganized set of relationships between members in a collection. These relationships can be characterized mathematically in terms of reflexivity, symmetry and transitivity, or informally in terms of the collection's topology, e.g. network, tree, etc. In both cases it can also be defined either on all ...}]]
}

' Rest of class definitions, without associated classes of core class and abstraction supplier classes



' Associations
DDICDIModels::DDICDILibrary::Classes::FormatDescription::PhysicalDataSetStructure *-[#grey]-> DDICDIModels::DDICDILibrary::Classes::FormatDescription::PhysicalRecordSegmentRelationship [[{ <U+2015> has:\n}]] : has
DDICDIModels::DDICDILibrary::Classes::FormatDescription::PhysicalDataSetStructure -[#grey]-> DDICDIModels::DDICDILibrary::Classes::FormatDescription::PhysicalDataSet [[{ <U+2015> structures:\n}]] : structures


' Abstractions
  DDICDIModels::DDICDILibrary::Classes::FormatDescription::PhysicalDataSetStructure .....> DDICDIModels::DesignPatterns::CollectionsPattern::Structure : <U+00AB>Refine<U+00BB>
   
@enduml

@startuml
!pragma ratio 0.5625

hide circle
hide empty members
scale 0.9

skinparam {
  ArrowThickness 1.5
  MinClassWidth 150
}

skinparam legend {
  BackgroundColor white
  FontSize 10
}

skinparam note {
  BackgroundColor white
}

skinparam class {
  ArrowColor #404040
  BorderColor #404040
}

skinparam package {
  FontColor lightgrey
  BorderColor lightgrey
}

title <size:20>UML Diagram: Class PhysicalDataSetStructure in Context\n
footer \n\nDDI Cross Domain Integration (DDI-CDI)   1.0 - FormatDescription::PhysicalDataSetStructure

legend top left
**Hints**
<color:grey>- Move the mouse cursor over a name to see more information.
<color:grey>- Click on a name to go to the corresponding page.
endlegend

class DDICDIModels::DDICDILibrary::Classes::FormatDescription::PhysicalDataSetStructure as "<size:10>FormatDescription::\n<color:black>PhysicalDataSetStructure" #FFD700 {
  identifier : <color:blue>Identifier   	  [[[../DDICDILibrary/DataTypes/StructuredDataTypes/Identifier.html#diagram{ <U+2015> Identifier:\nIdentifier for objects requiring short- or long-lasting referencing and management.}]]]
  name : <color:blue>ObjectName   	  [[[../DDICDILibrary/DataTypes/StructuredDataTypes/ObjectName.html#diagram{ <U+2015> ObjectName:\nA standard means of expressing a name for a class object. A linguistic signifier. Human understandable name (word, phrase, or mnemonic) that reflects the ISO/IEC 11179-5 naming principles.}]]]
  purpose : <color:blue>InternationalString   	  [[[../DDICDILibrary/DataTypes/StructuredDataTypes/InternationalString.html#diagram{ <U+2015> InternationalString:\nPackaging structure for multiple language versions of the same string content. Where an element of this type is repeatable, the expectation is that each repetition contains different content, each of which can be expressed in multiple languages. The language designation goes on the individual String ...}]]]
  semantics : <color:blue>ControlledVocabularyEntry   	  [[[../DDICDILibrary/DataTypes/StructuredDataTypes/ControlledVocabularyEntry.html#diagram{ <U+2015> ControlledVocabularyEntry:\nAllows for unstructured content which may be an entry from an externally maintained controlled vocabulary.If the content is from a controlled vocabulary provide the code value of the entry, as well as a reference to the controlled vocabulary from which the value is taken. Provide as many of the iden ...}]]]
  specification : <color:blue>StructureSpecification   	  [[[../DDICDILibrary/DataTypes/StructuredDataTypes/StructureSpecification.html#diagram{ <U+2015> StructureSpecification:\nThe mathematical properties of the structure.}]]]
  topology : <color:blue>ControlledVocabularyEntry   	  [[[../DDICDILibrary/DataTypes/StructuredDataTypes/ControlledVocabularyEntry.html#diagram{ <U+2015> ControlledVocabularyEntry:\nAllows for unstructured content which may be an entry from an externally maintained controlled vocabulary.If the content is from a controlled vocabulary provide the code value of the entry, as well as a reference to the controlled vocabulary from which the value is taken. Provide as many of the iden ...}]]]
  totality : <color:blue>StructureExtent   	  [[[../DDICDILibrary/DataTypes/Enumerations/StructureExtent.html#diagram{ <U+2015> StructureExtent:\nType of relation in terms of totality with respect to an associated collection. The totality type is given by the controlled vocabulary <U+007B>total, partial<U+007D>.}]]]
}

together {
  class DDICDIModels::DDICDILibrary::Classes::FormatDescription::PhysicalRecordSegmentRelationship as "<size:10>FormatDescription::\n<color:blue>PhysicalRecordSegmentRelationship" [[../DDICDILibrary/Classes/FormatDescription/PhysicalRecordSegmentRelationship.html#super-class-hierarchy-generalization{ <U+2015> PhysicalRecordSegmentRelationship:\nStructured relationship between physical record segments.}]]
  class DDICDIModels::DDICDILibrary::Classes::FormatDescription::PhysicalDataSet as "<size:10>FormatDescription::\n<color:blue>PhysicalDataSet" [[../DDICDILibrary/Classes/FormatDescription/PhysicalDataSet.html#super-class-hierarchy-generalization{ <U+2015> PhysicalDataSet:\nInformation needed for understanding the physical structure of data coming from a file or other source.}]]
}

together {
  abstract class DDICDIModels::DesignPatterns::CollectionsPattern::Structure as "<size:10>CollectionsPattern::\n<color:blue>Structure" [[../DesignPatterns/CollectionsPattern/Structure.html#super-class-hierarchy-generalization{ <U+2015> Structure:\nOrganized set of relationships between members in a collection. These relationships can be characterized mathematically in terms of reflexivity, symmetry and transitivity, or informally in terms of the collection's topology, e.g. network, tree, etc. In both cases it can also be defined either on all ...}]]
}




DDICDIModels::DDICDILibrary::Classes::FormatDescription::PhysicalDataSetStructure *-[#grey]-> DDICDIModels::DDICDILibrary::Classes::FormatDescription::PhysicalRecordSegmentRelationship [[{ <U+2015> has:\n}]] : has
DDICDIModels::DDICDILibrary::Classes::FormatDescription::PhysicalDataSetStructure -[#grey]-> DDICDIModels::DDICDILibrary::Classes::FormatDescription::PhysicalDataSet [[{ <U+2015> structures:\n}]] : structures


  DDICDIModels::DDICDILibrary::Classes::FormatDescription::PhysicalDataSetStructure .....> DDICDIModels::DesignPatterns::CollectionsPattern::Structure : <U+00AB>Refine<U+00BB>
   
@enduml

PlantUML version 1.2022.6(Tue Jun 21 19:34:49 CEST 2022)
(GPL source distribution)
Java Runtime: OpenJDK Runtime Environment
JVM: OpenJDK 64-Bit Server VM
Default Encoding: Cp1252
Language: en
Country: US
--></g></svg>