<?xml version="1.0" encoding="UTF-8" standalone="no"?><svg xmlns="http://www.w3.org/2000/svg" xmlns:xlink="http://www.w3.org/1999/xlink" contentStyleType="text/css" height="326.7px" preserveAspectRatio="none" style="width:664px;height:326px;background:#FFFFFF;" version="1.1" viewBox="0 0 664 326" width="664.2px" zoomAndPan="magnify"><defs/><g><rect height="47.4891" style="stroke:#00000000;stroke-width:0.9;fill:none;" width="360" x="145.8" y="4.5"/><text fill="#000000" font-family="sans-serif" font-size="18" font-weight="bold" lengthAdjust="spacing" textLength="351" x="150.3" y="27.6855">UML Diagram: DataType Email in Context</text><text fill="#000000" font-family="sans-serif" font-size="12.6" font-weight="bold" lengthAdjust="spacing" textLength="3.6" x="324" y="44.7205"> </text><rect fill="#FFFFFF" height="56.0813" rx="6.75" ry="6.75" style="stroke:#000000;stroke-width:0.9;" width="348.3" x="296.1" y="64.5891"/><text fill="#000000" font-family="sans-serif" font-size="9" font-weight="bold" lengthAdjust="spacing" textLength="22.5" x="301.5" y="79.3318">Hints</text><text fill="#808080" font-family="sans-serif" font-size="9" lengthAdjust="spacing" textLength="265.5" x="301.5" y="90.6521">- Move the mouse cursor over a name to see more information.</text><text fill="#808080" font-family="sans-serif" font-size="9" lengthAdjust="spacing" textLength="216" x="301.5" y="101.9725">- Click on a name to go to the corresponding page.</text><text fill="#808080" font-family="sans-serif" font-size="9" lengthAdjust="spacing" textLength="337.5" x="301.5" y="113.2928">- The use of the data type is represented here by a dotted line (not formal UML).</text><!--MD5=[02009956934ec10683a08703356fd7bb]
entity ##4--><!--MD5=[cf2b466143bd797820c9416be252779d]
entity ##7--><!--MD5=[a408e688da1ec63dc45503216eddc8a2]
class DDICDIModels::DDICDILibrary::DataTypes::StructuredDataTypes::Email--><g id="elem_DDICDIModels::DDICDILibrary::DataTypes::StructuredDataTypes::Email"><rect codeLine="47" fill="#FFD700" height="136.1953" id="DDICDIModels::DDICDILibrary::DataTypes::StructuredDataTypes::Email" rx="2.25" ry="2.25" style="stroke:#404040;stroke-width:0.45;" width="242.1" x="415.8" y="144.0703"/><text fill="#000000" font-family="sans-serif" font-size="10.8" font-style="italic" lengthAdjust="spacing" textLength="58.5" x="507.6" y="159.7816">«dataType»</text><text fill="#000000" font-family="sans-serif" font-size="9" lengthAdjust="spacing" textLength="2.7" x="535.5" y="171.4975"> </text><text fill="#000000" font-family="sans-serif" font-size="12.6" lengthAdjust="spacing" textLength="30.6" x="521.55" y="186.5549">Email</text><line style="stroke:#404040;stroke-width:0.45;" x1="416.7" x2="657" y1="193.8234" y2="193.8234"/><a href="../DDICDILibrary/DataTypes/StructuredDataTypes/DateRange.html#diagram" target="_top" title=" ― DateRange:&#10;Expresses a date/time range using a start date and end date (both with the structure of Date and supporting the use of ISO and non-ISO date structures). Use in all locations where a range of dates is required, i.e. validFor, embargoPeriod, collectionPeriod, etc." xlink:actuate="onRequest" xlink:href="../DDICDILibrary/DataTypes/StructuredDataTypes/DateRange.html#diagram" xlink:show="new" xlink:title=" ― DateRange:&#10;Expresses a date/time range using a start date and end date (both with the structure of Date and supporting the use of ISO and non-ISO date structures). Use in all locations where a range of dates is required, i.e. validFor, embargoPeriod, collectionPeriod, etc." xlink:type="simple"><text fill="#000000" font-family="sans-serif" font-size="12.6" lengthAdjust="spacing" textLength="88.2" x="421.2" y="210.5033">effectiveDates :</text><text fill="#0000FF" font-family="sans-serif" font-size="12.6" lengthAdjust="spacing" textLength="64.8" x="513" y="210.5033">DateRange</text></a><text fill="#000000" font-family="sans-serif" font-size="12.6" lengthAdjust="spacing" textLength="117.9" x="421.2" y="226.3518">internetEmail : String</text><text fill="#000000" font-family="sans-serif" font-size="12.6" lengthAdjust="spacing" textLength="120.6" x="421.2" y="242.2002">isPreferred : Boolean</text><a href="../DDICDILibrary/DataTypes/StructuredDataTypes/ControlledVocabularyEntry.html#diagram" target="_top" title=" ― ControlledVocabularyEntry:&#10;Allows for unstructured content which may be an entry from an externally maintained controlled vocabulary.If the content is from a controlled vocabulary provide the code value of the entry, as well as a reference to the controlled vocabulary from which the value is taken. Provide as many of the iden ..." xlink:actuate="onRequest" xlink:href="../DDICDILibrary/DataTypes/StructuredDataTypes/ControlledVocabularyEntry.html#diagram" xlink:show="new" xlink:title=" ― ControlledVocabularyEntry:&#10;Allows for unstructured content which may be an entry from an externally maintained controlled vocabulary.If the content is from a controlled vocabulary provide the code value of the entry, as well as a reference to the controlled vocabulary from which the value is taken. Provide as many of the iden ..." xlink:type="simple"><text fill="#000000" font-family="sans-serif" font-size="12.6" lengthAdjust="spacing" textLength="47.7" x="421.2" y="258.0486">privacy :</text><text fill="#0000FF" font-family="sans-serif" font-size="12.6" lengthAdjust="spacing" textLength="152.1" x="472.5" y="258.0486">ControlledVocabularyEntry</text></a><a href="../DDICDILibrary/DataTypes/StructuredDataTypes/ControlledVocabularyEntry.html#diagram" target="_top" title=" ― ControlledVocabularyEntry:&#10;Allows for unstructured content which may be an entry from an externally maintained controlled vocabulary.If the content is from a controlled vocabulary provide the code value of the entry, as well as a reference to the controlled vocabulary from which the value is taken. Provide as many of the iden ..." xlink:actuate="onRequest" xlink:href="../DDICDILibrary/DataTypes/StructuredDataTypes/ControlledVocabularyEntry.html#diagram" xlink:show="new" xlink:title=" ― ControlledVocabularyEntry:&#10;Allows for unstructured content which may be an entry from an externally maintained controlled vocabulary.If the content is from a controlled vocabulary provide the code value of the entry, as well as a reference to the controlled vocabulary from which the value is taken. Provide as many of the iden ..." xlink:type="simple"><text fill="#000000" font-family="sans-serif" font-size="12.6" lengthAdjust="spacing" textLength="75.6" x="421.2" y="273.8971">typeOfEmail :</text><text fill="#0000FF" font-family="sans-serif" font-size="12.6" lengthAdjust="spacing" textLength="152.1" x="500.4" y="273.8971">ControlledVocabularyEntry</text></a></g><!--MD5=[5dce8110ccf71a0fd3357b42963cfc56]
class DDICDIModels::DDICDILibrary::DataTypes::StructuredDataTypes::ContactInformation--><a href="../DDICDILibrary/DataTypes/StructuredDataTypes/ContactInformation.html#super-class-hierarchy-generalization" target="_top" title=" ― ContactInformation:&#10;Contact information for the individual or organization including location specification, address, web site, phone numbers, and other means of communication access. Address, location, telephone, and other means of communication can be repeated to express multiple means of a single type or change over ..." xlink:actuate="onRequest" xlink:href="../DDICDILibrary/DataTypes/StructuredDataTypes/ContactInformation.html#super-class-hierarchy-generalization" xlink:show="new" xlink:title=" ― ContactInformation:&#10;Contact information for the individual or organization including location specification, address, web site, phone numbers, and other means of communication access. Address, location, telephone, and other means of communication can be repeated to express multiple means of a single type or change over ..." xlink:type="simple"><g id="elem_DDICDIModels::DDICDILibrary::DataTypes::StructuredDataTypes::ContactInformation"><rect codeLine="60" fill="#F1F1F1" height="136.1953" id="DDICDIModels::DDICDILibrary::DataTypes::StructuredDataTypes::ContactInformation" rx="2.25" ry="2.25" style="stroke:#404040;stroke-width:0.45;" width="238.5" x="6.3" y="135.0703"/><text fill="#000000" font-family="sans-serif" font-size="10.8" font-style="italic" lengthAdjust="spacing" textLength="58.5" x="96.3" y="150.7816">«dataType»</text><text fill="#000000" font-family="sans-serif" font-size="9" lengthAdjust="spacing" textLength="2.7" x="124.2" y="162.4975"> </text><text fill="#0000FF" font-family="sans-serif" font-size="12.6" lengthAdjust="spacing" textLength="107.1" x="72" y="177.5549">ContactInformation</text><line style="stroke:#404040;stroke-width:0.45;" x1="7.2" x2="243.9" y1="184.8234" y2="184.8234"/><a href="../DDICDILibrary/DataTypes/StructuredDataTypes/Address.html#diagram" target="_top" title=" ― Address:&#10;Location address identifying each part of the address as separate elements, identifying the type of address, the level of privacy associated with the release of the address, and a flag to identify the preferred address for contact." xlink:actuate="onRequest" xlink:href="../DDICDILibrary/DataTypes/StructuredDataTypes/Address.html#diagram" xlink:show="new" xlink:title=" ― Address:&#10;Location address identifying each part of the address as separate elements, identifying the type of address, the level of privacy associated with the release of the address, and a flag to identify the preferred address for contact." xlink:type="simple"><text fill="#000000" font-family="sans-serif" font-size="12.6" lengthAdjust="spacing" textLength="53.1" x="11.7" y="201.5033">address :</text><text fill="#0000FF" font-family="sans-serif" font-size="12.6" lengthAdjust="spacing" textLength="46.8" x="68.4" y="201.5033">Address</text></a><text fill="#000000" font-family="sans-serif" font-size="12.6" lengthAdjust="spacing" textLength="71.1" x="11.7" y="217.3518">email : Email</text><a href="../DDICDILibrary/DataTypes/StructuredDataTypes/ElectronicMessageSystem.html#diagram" target="_top" title=" ― ElectronicMessageSystem:&#10;Any non-email means of relaying a message electronically. This would include text messaging, Skype, Twitter, ICQ, or other emerging means of electronic message conveyance." xlink:actuate="onRequest" xlink:href="../DDICDILibrary/DataTypes/StructuredDataTypes/ElectronicMessageSystem.html#diagram" xlink:show="new" xlink:title=" ― ElectronicMessageSystem:&#10;Any non-email means of relaying a message electronically. This would include text messaging, Skype, Twitter, ICQ, or other emerging means of electronic message conveyance." xlink:type="simple"><text fill="#000000" font-family="sans-serif" font-size="12.6" lengthAdjust="spacing" textLength="75.6" x="11.7" y="233.2002">emessaging :</text><text fill="#0000FF" font-family="sans-serif" font-size="12.6" lengthAdjust="spacing" textLength="148.5" x="90.9" y="233.2002">ElectronicMessageSystem</text></a><a href="../DDICDILibrary/DataTypes/StructuredDataTypes/Telephone.html#diagram" target="_top" title=" ― Telephone:&#10;Details of a telephone number including the number, type of telephone number, a privacy setting and an indication of whether this is the preferred contact number." xlink:actuate="onRequest" xlink:href="../DDICDILibrary/DataTypes/StructuredDataTypes/Telephone.html#diagram" xlink:show="new" xlink:title=" ― Telephone:&#10;Details of a telephone number including the number, type of telephone number, a privacy setting and an indication of whether this is the preferred contact number." xlink:type="simple"><text fill="#000000" font-family="sans-serif" font-size="12.6" lengthAdjust="spacing" textLength="63.9" x="11.7" y="249.0486">telephone :</text><text fill="#0000FF" font-family="sans-serif" font-size="12.6" lengthAdjust="spacing" textLength="61.2" x="79.2" y="249.0486">Telephone</text></a><a href="../DDICDILibrary/DataTypes/StructuredDataTypes/WebLink.html#diagram" target="_top" title=" ― WebLink:&#10;A web site (normally a URL) with information on type of site, privacy flag, and effective dates." xlink:actuate="onRequest" xlink:href="../DDICDILibrary/DataTypes/StructuredDataTypes/WebLink.html#diagram" xlink:show="new" xlink:title=" ― WebLink:&#10;A web site (normally a URL) with information on type of site, privacy flag, and effective dates." xlink:type="simple"><text fill="#000000" font-family="sans-serif" font-size="12.6" lengthAdjust="spacing" textLength="49.5" x="11.7" y="264.8971">website :</text><text fill="#0000FF" font-family="sans-serif" font-size="12.6" lengthAdjust="spacing" textLength="49.5" x="64.8" y="264.8971">WebLink</text></a></g></a><!--MD5=[5bb9296c73b5d6fa1331110886d8b8b2]
link DDICDIModels::DDICDILibrary::DataTypes::StructuredDataTypes::ContactInformation to DDICDIModels::DDICDILibrary::DataTypes::StructuredDataTypes::Email--><g id="link_DDICDIModels::DDICDILibrary::DataTypes::StructuredDataTypes::ContactInformation_DDICDIModels::DDICDILibrary::DataTypes::StructuredDataTypes::Email"><path codeLine="76" d="M246.15,212.0203 C301.869,212.0203 363.618,212.0203 415.746,212.0203 " fill="none" id="DDICDIModels::DDICDILibrary::DataTypes::StructuredDataTypes::ContactInformation-DDICDIModels::DDICDILibrary::DataTypes::StructuredDataTypes::Email" style="stroke:#808080;stroke-width:0.9;stroke-dasharray:1.0,3.0;"/></g><rect height="33.9609" style="stroke:#00000000;stroke-width:0.9;fill:none;" width="315" x="168.3" y="285.6656"/><text fill="#888888" font-family="sans-serif" font-size="9" lengthAdjust="spacing" textLength="2.7" x="324.45" y="295.0084"> </text><text fill="#888888" font-family="sans-serif" font-size="9" lengthAdjust="spacing" textLength="2.7" x="324.45" y="306.3287"> </text><text fill="#888888" font-family="sans-serif" font-size="9" lengthAdjust="spacing" textLength="315" x="168.3" y="317.649">DDI Cross Domain Integration (DDI-CDI)   1.0 - StructuredDataTypes::Email</text><!--MD5=[669c78a9a0083305bab36f5de93895c7]
@startuml
left to right direction
' HD display aspect ratio 16:9
' hyperlinkColor and pathHoverColor do not seem to work with class diagrams
' working approach: colors per item
' default font size for class names is 14

hide circle
hide empty members
scale 0.9

skinparam {
  ArrowThickness 1.5
  MinClassWidth 150
}

skinparam legend {
  BackgroundColor white
  FontSize 10
}

skinparam note {
  BackgroundColor white
}

skinparam class {
  ArrowColor #404040
  BorderColor #404040
}

skinparam package {
  FontColor lightgrey
  BorderColor lightgrey
}

title <size:20>UML Diagram: DataType Email in Context\n
footer \n\nDDI Cross Domain Integration (DDI-CDI)   1.0 - StructuredDataTypes::Email

legend top right
**Hints**
<color:grey>- Move the mouse cursor over a name to see more information.
<color:grey>- Click on a name to go to the corresponding page.
<color:grey>- The use of the data type is represented here by a dotted line (not formal UML).
endlegend

' Core data type of diagram
class DDICDIModels::DDICDILibrary::DataTypes::StructuredDataTypes::Email as "<size:10> \n<color:black>Email" <<dataType>>   #FFD700 {
  effectiveDates : <color:blue>DateRange   	  [[[../DDICDILibrary/DataTypes/StructuredDataTypes/DateRange.html#diagram{ <U+2015> DateRange:\nExpresses a date/time range using a start date and end date (both with the structure of Date and supporting the use of ISO and non-ISO date structures). Use in all locations where a range of dates is required, i.e. validFor, embargoPeriod, collectionPeriod, etc.}]]]
  internetEmail : String
  isPreferred : Boolean
  privacy : <color:blue>ControlledVocabularyEntry   	  [[[../DDICDILibrary/DataTypes/StructuredDataTypes/ControlledVocabularyEntry.html#diagram{ <U+2015> ControlledVocabularyEntry:\nAllows for unstructured content which may be an entry from an externally maintained controlled vocabulary.If the content is from a controlled vocabulary provide the code value of the entry, as well as a reference to the controlled vocabulary from which the value is taken. Provide as many of the iden ...}]]]
  typeOfEmail : <color:blue>ControlledVocabularyEntry   	  [[[../DDICDILibrary/DataTypes/StructuredDataTypes/ControlledVocabularyEntry.html#diagram{ <U+2015> ControlledVocabularyEntry:\nAllows for unstructured content which may be an entry from an externally maintained controlled vocabulary.If the content is from a controlled vocabulary provide the code value of the entry, as well as a reference to the controlled vocabulary from which the value is taken. Provide as many of the iden ...}]]]
}

' Data type definitions in own package
class DDICDIModels::DDICDILibrary::DataTypes::StructuredDataTypes::ContactInformation as "<size:10> \n<color:blue>ContactInformation" <<dataType>> [[../DDICDILibrary/DataTypes/StructuredDataTypes/ContactInformation.html#super-class-hierarchy-generalization{ <U+2015> ContactInformation:\nContact information for the individual or organization including location specification, address, web site, phone numbers, and other means of communication access. Address, location, telephone, and other means of communication can be repeated to express multiple means of a single type or change over ...}]] {
  address : <color:blue>Address   	  [[[../DDICDILibrary/DataTypes/StructuredDataTypes/Address.html#diagram{ <U+2015> Address:\nLocation address identifying each part of the address as separate elements, identifying the type of address, the level of privacy associated with the release of the address, and a flag to identify the preferred address for contact.}]]]
  email : Email
  emessaging : <color:blue>ElectronicMessageSystem   	  [[[../DDICDILibrary/DataTypes/StructuredDataTypes/ElectronicMessageSystem.html#diagram{ <U+2015> ElectronicMessageSystem:\nAny non-email means of relaying a message electronically. This would include text messaging, Skype, Twitter, ICQ, or other emerging means of electronic message conveyance.}]]]
  telephone : <color:blue>Telephone   	  [[[../DDICDILibrary/DataTypes/StructuredDataTypes/Telephone.html#diagram{ <U+2015> Telephone:\nDetails of a telephone number including the number, type of telephone number, a privacy setting and an indication of whether this is the preferred contact number.}]]]
  website : <color:blue>WebLink   	  [[[../DDICDILibrary/DataTypes/StructuredDataTypes/WebLink.html#diagram{ <U+2015> WebLink:\nA web site (normally a URL) with information on type of site, privacy flag, and effective dates.}]]]
}

' Data type definitions in other packages

' Use of data type
together {
  DDICDIModels::DDICDILibrary::DataTypes::StructuredDataTypes::ContactInformation::email - - - - DDICDIModels::DDICDILibrary::DataTypes::StructuredDataTypes::Email #grey;line.dotted;
}


' Abstractions
together {
}
@enduml

@startuml
left to right direction

hide circle
hide empty members
scale 0.9

skinparam {
  ArrowThickness 1.5
  MinClassWidth 150
}

skinparam legend {
  BackgroundColor white
  FontSize 10
}

skinparam note {
  BackgroundColor white
}

skinparam class {
  ArrowColor #404040
  BorderColor #404040
}

skinparam package {
  FontColor lightgrey
  BorderColor lightgrey
}

title <size:20>UML Diagram: DataType Email in Context\n
footer \n\nDDI Cross Domain Integration (DDI-CDI)   1.0 - StructuredDataTypes::Email

legend top right
**Hints**
<color:grey>- Move the mouse cursor over a name to see more information.
<color:grey>- Click on a name to go to the corresponding page.
<color:grey>- The use of the data type is represented here by a dotted line (not formal UML).
endlegend

class DDICDIModels::DDICDILibrary::DataTypes::StructuredDataTypes::Email as "<size:10> \n<color:black>Email" <<dataType>>   #FFD700 {
  effectiveDates : <color:blue>DateRange   	  [[[../DDICDILibrary/DataTypes/StructuredDataTypes/DateRange.html#diagram{ <U+2015> DateRange:\nExpresses a date/time range using a start date and end date (both with the structure of Date and supporting the use of ISO and non-ISO date structures). Use in all locations where a range of dates is required, i.e. validFor, embargoPeriod, collectionPeriod, etc.}]]]
  internetEmail : String
  isPreferred : Boolean
  privacy : <color:blue>ControlledVocabularyEntry   	  [[[../DDICDILibrary/DataTypes/StructuredDataTypes/ControlledVocabularyEntry.html#diagram{ <U+2015> ControlledVocabularyEntry:\nAllows for unstructured content which may be an entry from an externally maintained controlled vocabulary.If the content is from a controlled vocabulary provide the code value of the entry, as well as a reference to the controlled vocabulary from which the value is taken. Provide as many of the iden ...}]]]
  typeOfEmail : <color:blue>ControlledVocabularyEntry   	  [[[../DDICDILibrary/DataTypes/StructuredDataTypes/ControlledVocabularyEntry.html#diagram{ <U+2015> ControlledVocabularyEntry:\nAllows for unstructured content which may be an entry from an externally maintained controlled vocabulary.If the content is from a controlled vocabulary provide the code value of the entry, as well as a reference to the controlled vocabulary from which the value is taken. Provide as many of the iden ...}]]]
}

class DDICDIModels::DDICDILibrary::DataTypes::StructuredDataTypes::ContactInformation as "<size:10> \n<color:blue>ContactInformation" <<dataType>> [[../DDICDILibrary/DataTypes/StructuredDataTypes/ContactInformation.html#super-class-hierarchy-generalization{ <U+2015> ContactInformation:\nContact information for the individual or organization including location specification, address, web site, phone numbers, and other means of communication access. Address, location, telephone, and other means of communication can be repeated to express multiple means of a single type or change over ...}]] {
  address : <color:blue>Address   	  [[[../DDICDILibrary/DataTypes/StructuredDataTypes/Address.html#diagram{ <U+2015> Address:\nLocation address identifying each part of the address as separate elements, identifying the type of address, the level of privacy associated with the release of the address, and a flag to identify the preferred address for contact.}]]]
  email : Email
  emessaging : <color:blue>ElectronicMessageSystem   	  [[[../DDICDILibrary/DataTypes/StructuredDataTypes/ElectronicMessageSystem.html#diagram{ <U+2015> ElectronicMessageSystem:\nAny non-email means of relaying a message electronically. This would include text messaging, Skype, Twitter, ICQ, or other emerging means of electronic message conveyance.}]]]
  telephone : <color:blue>Telephone   	  [[[../DDICDILibrary/DataTypes/StructuredDataTypes/Telephone.html#diagram{ <U+2015> Telephone:\nDetails of a telephone number including the number, type of telephone number, a privacy setting and an indication of whether this is the preferred contact number.}]]]
  website : <color:blue>WebLink   	  [[[../DDICDILibrary/DataTypes/StructuredDataTypes/WebLink.html#diagram{ <U+2015> WebLink:\nA web site (normally a URL) with information on type of site, privacy flag, and effective dates.}]]]
}


together {
  DDICDIModels::DDICDILibrary::DataTypes::StructuredDataTypes::ContactInformation::email - - - - DDICDIModels::DDICDILibrary::DataTypes::StructuredDataTypes::Email #grey;line.dotted;
}


together {
}
@enduml

PlantUML version 1.2022.6(Tue Jun 21 19:34:49 CEST 2022)
(GPL source distribution)
Java Runtime: OpenJDK Runtime Environment
JVM: OpenJDK 64-Bit Server VM
Default Encoding: Cp1252
Language: en
Country: US
--></g></svg>