<?xml version="1.0" encoding="UTF-8" standalone="no"?><svg xmlns="http://www.w3.org/2000/svg" xmlns:xlink="http://www.w3.org/1999/xlink" contentStyleType="text/css" height="545.4px" preserveAspectRatio="none" style="width:720px;height:545px;background:#FFFFFF;" version="1.1" viewBox="0 0 720 545" width="720.9px" zoomAndPan="magnify"><defs/><g><rect height="47.4891" style="stroke:#00000000;stroke-width:0.9;fill:none;" width="536.4" x="85.95" y="4.5"/><text fill="#000000" font-family="sans-serif" font-size="18" font-weight="bold" lengthAdjust="spacing" textLength="527.4" x="90.45" y="27.6855">UML Diagram: DataType CorrespondenceDefinition in Context</text><text fill="#000000" font-family="sans-serif" font-size="12.6" font-weight="bold" lengthAdjust="spacing" textLength="3.6" x="352.35" y="44.7205"> </text><rect fill="#FFFFFF" height="56.0813" rx="6.75" ry="6.75" style="stroke:#000000;stroke-width:0.9;" width="348.3" x="352.8" y="64.5891"/><text fill="#000000" font-family="sans-serif" font-size="9" font-weight="bold" lengthAdjust="spacing" textLength="22.5" x="358.2" y="79.3318">Hints</text><text fill="#808080" font-family="sans-serif" font-size="9" lengthAdjust="spacing" textLength="265.5" x="358.2" y="90.6521">- Move the mouse cursor over a name to see more information.</text><text fill="#808080" font-family="sans-serif" font-size="9" lengthAdjust="spacing" textLength="216" x="358.2" y="101.9725">- Click on a name to go to the corresponding page.</text><text fill="#808080" font-family="sans-serif" font-size="9" lengthAdjust="spacing" textLength="337.5" x="358.2" y="113.2928">- The use of the data type is represented here by a dotted line (not formal UML).</text><!--MD5=[fa26dd5b28bd31e0227766c25574e362]
entity ##6--><!--MD5=[09eeaa9d04f75504147b3a4e484c6d1e]
entity ##11--><!--MD5=[e3458f5aaea769fcb4ae2dfc9a6c9da2]
class DDICDIModels::DDICDILibrary::DataTypes::StructuredDataTypes::CorrespondenceDefinition--><g id="elem_DDICDIModels::DDICDILibrary::DataTypes::StructuredDataTypes::CorrespondenceDefinition"><rect codeLine="47" fill="#FFD700" height="120.3469" id="DDICDIModels::DDICDILibrary::DataTypes::StructuredDataTypes::CorrespondenceDefinition" rx="2.25" ry="2.25" style="stroke:#404040;stroke-width:0.45;" width="274.5" x="440.1" y="219.2203"/><text fill="#000000" font-family="sans-serif" font-size="10.8" font-style="italic" lengthAdjust="spacing" textLength="58.5" x="548.1" y="234.9316">«dataType»</text><text fill="#000000" font-family="sans-serif" font-size="9" lengthAdjust="spacing" textLength="2.7" x="576" y="246.6475"> </text><text fill="#000000" font-family="sans-serif" font-size="12.6" lengthAdjust="spacing" textLength="148.5" x="503.1" y="261.7049">CorrespondenceDefinition</text><line style="stroke:#404040;stroke-width:0.45;" x1="441" x2="713.7" y1="268.9734" y2="268.9734"/><a href="../DDICDILibrary/DataTypes/StructuredDataTypes/InternationalString.html#diagram" target="_top" title=" ― InternationalString:&#10;Packaging structure for multiple language versions of the same string content. Where an element of this type is repeatable, the expectation is that each repetition contains different content, each of which can be expressed in multiple languages. The language designation goes on the individual String ..." xlink:actuate="onRequest" xlink:href="../DDICDILibrary/DataTypes/StructuredDataTypes/InternationalString.html#diagram" xlink:show="new" xlink:title=" ― InternationalString:&#10;Packaging structure for multiple language versions of the same string content. Where an element of this type is repeatable, the expectation is that each repetition contains different content, each of which can be expressed in multiple languages. The language designation goes on the individual String ..." xlink:type="simple"><text fill="#000000" font-family="sans-serif" font-size="12.6" lengthAdjust="spacing" textLength="77.4" x="445.5" y="285.6533">commonality :</text><text fill="#0000FF" font-family="sans-serif" font-size="12.6" lengthAdjust="spacing" textLength="103.5" x="526.5" y="285.6533">InternationalString</text></a><a href="../DDICDILibrary/DataTypes/StructuredDataTypes/ControlledVocabularyEntry.html#diagram" target="_top" title=" ― ControlledVocabularyEntry:&#10;Allows for unstructured content which may be an entry from an externally maintained controlled vocabulary.If the content is from a controlled vocabulary provide the code value of the entry, as well as a reference to the controlled vocabulary from which the value is taken. Provide as many of the iden ..." xlink:actuate="onRequest" xlink:href="../DDICDILibrary/DataTypes/StructuredDataTypes/ControlledVocabularyEntry.html#diagram" xlink:show="new" xlink:title=" ― ControlledVocabularyEntry:&#10;Allows for unstructured content which may be an entry from an externally maintained controlled vocabulary.If the content is from a controlled vocabulary provide the code value of the entry, as well as a reference to the controlled vocabulary from which the value is taken. Provide as many of the iden ..." xlink:type="simple"><text fill="#000000" font-family="sans-serif" font-size="12.6" lengthAdjust="spacing" textLength="108" x="445.5" y="301.5018">commonalityCode :</text><text fill="#0000FF" font-family="sans-serif" font-size="12.6" lengthAdjust="spacing" textLength="152.1" x="557.1" y="301.5018">ControlledVocabularyEntry</text></a><a href="../DDICDILibrary/DataTypes/StructuredDataTypes/InternationalString.html#diagram" target="_top" title=" ― InternationalString:&#10;Packaging structure for multiple language versions of the same string content. Where an element of this type is repeatable, the expectation is that each repetition contains different content, each of which can be expressed in multiple languages. The language designation goes on the individual String ..." xlink:actuate="onRequest" xlink:href="../DDICDILibrary/DataTypes/StructuredDataTypes/InternationalString.html#diagram" xlink:show="new" xlink:title=" ― InternationalString:&#10;Packaging structure for multiple language versions of the same string content. Where an element of this type is repeatable, the expectation is that each repetition contains different content, each of which can be expressed in multiple languages. The language designation goes on the individual String ..." xlink:type="simple"><text fill="#000000" font-family="sans-serif" font-size="12.6" lengthAdjust="spacing" textLength="63.9" x="445.5" y="317.3502">difference :</text><text fill="#0000FF" font-family="sans-serif" font-size="12.6" lengthAdjust="spacing" textLength="103.5" x="513" y="317.3502">InternationalString</text></a><a href="../DDICDILibrary/DataTypes/Enumerations/MatchingCriterion.html#diagram" target="_top" title=" ― MatchingCriterion:&#10;Supports mapping comparative relationships by type of match. Not used for causative, sequential, temporal or special relations." xlink:actuate="onRequest" xlink:href="../DDICDILibrary/DataTypes/Enumerations/MatchingCriterion.html#diagram" xlink:show="new" xlink:title=" ― MatchingCriterion:&#10;Supports mapping comparative relationships by type of match. Not used for causative, sequential, temporal or special relations." xlink:type="simple"><text fill="#000000" font-family="sans-serif" font-size="12.6" lengthAdjust="spacing" textLength="58.5" x="445.5" y="333.1986">matching :</text><text fill="#0000FF" font-family="sans-serif" font-size="12.6" lengthAdjust="spacing" textLength="99.9" x="507.6" y="333.1986">MatchingCriterion</text></a></g><!--MD5=[3be6b965db101685ffe285f22e57fccc]
class DDICDIModels::DesignPatterns::CollectionsPattern::Map--><a href="../DesignPatterns/CollectionsPattern/Map.html#super-class-hierarchy-generalization" target="_top" title=" ― Map:&#10;Provides a basic pattern for a comparison map which identifies source and target members and details about their match. Source and target were retained as in describing differences and commonalities the direction of the comparison may be important." xlink:actuate="onRequest" xlink:href="../DesignPatterns/CollectionsPattern/Map.html#super-class-hierarchy-generalization" xlink:show="new" xlink:title=" ― Map:&#10;Provides a basic pattern for a comparison map which identifies source and target members and details about their match. Source and target were retained as in describing differences and commonalities the direction of the comparison may be important." xlink:type="simple"><g id="elem_DDICDIModels::DesignPatterns::CollectionsPattern::Map"><rect codeLine="62" fill="#F1F1F1" height="59.2172" id="DDICDIModels::DesignPatterns::CollectionsPattern::Map" rx="2.25" ry="2.25" style="stroke:#404040;stroke-width:0.45;" width="262.8" x="6.3" y="135.0703"/><text fill="#808080" font-family="sans-serif" font-size="9" font-style="italic" lengthAdjust="spacing" textLength="83.7" x="95.85" y="148.9131">CollectionsPattern::</text><text fill="#0000FF" font-family="sans-serif" font-size="12.6" font-style="italic" lengthAdjust="spacing" textLength="25.2" x="125.1" y="163.9705">Map</text><line style="stroke:#404040;stroke-width:0.45;" x1="7.2" x2="268.2" y1="171.2391" y2="171.2391"/><text fill="#000000" font-family="sans-serif" font-size="12.6" lengthAdjust="spacing" textLength="252" x="11.7" y="187.9189">correspondence : CorrespondenceDefinition</text></g></a><!--MD5=[fb91417aba18c4ada1c79346849991a1]
class DDICDIModels::DDICDILibrary::Classes::Conceptual::ConceptMap--><a href="../DDICDILibrary/Classes/Conceptual/ConceptMap.html#super-class-hierarchy-generalization" target="_top" title=" ― ConceptMap:&#10;Correspondence between concepts in a correspondence table." xlink:actuate="onRequest" xlink:href="../DDICDILibrary/Classes/Conceptual/ConceptMap.html#super-class-hierarchy-generalization" xlink:show="new" xlink:title=" ― ConceptMap:&#10;Correspondence between concepts in a correspondence table." xlink:type="simple"><g id="elem_DDICDIModels::DDICDILibrary::Classes::Conceptual::ConceptMap"><rect codeLine="65" fill="#F1F1F1" height="122.6109" id="DDICDIModels::DDICDILibrary::Classes::Conceptual::ConceptMap" rx="2.25" ry="2.25" style="stroke:#404040;stroke-width:0.45;" width="262.8" x="6.3" y="232.2703"/><text fill="#808080" font-family="sans-serif" font-size="9" lengthAdjust="spacing" textLength="54.9" x="110.25" y="246.1131">Conceptual::</text><text fill="#0000FF" font-family="sans-serif" font-size="12.6" lengthAdjust="spacing" textLength="72" x="101.7" y="261.1705">ConceptMap</text><line style="stroke:#404040;stroke-width:0.45;" x1="7.2" x2="268.2" y1="268.4391" y2="268.4391"/><text fill="#000000" font-family="sans-serif" font-size="12.6" lengthAdjust="spacing" textLength="252" x="11.7" y="285.1189">correspondence : CorrespondenceDefinition</text><a href="../DDICDILibrary/DataTypes/StructuredDataTypes/LabelForDisplay.html#diagram" target="_top" title=" ― LabelForDisplay:&#10;A structured display label. Label provides display content of a fully human readable display for the identification of the object." xlink:actuate="onRequest" xlink:href="../DDICDILibrary/DataTypes/StructuredDataTypes/LabelForDisplay.html#diagram" xlink:show="new" xlink:title=" ― LabelForDisplay:&#10;A structured display label. Label provides display content of a fully human readable display for the identification of the object." xlink:type="simple"><text fill="#000000" font-family="sans-serif" font-size="12.6" lengthAdjust="spacing" textLength="78.3" x="11.7" y="300.9674">displayLabel :</text><text fill="#0000FF" font-family="sans-serif" font-size="12.6" lengthAdjust="spacing" textLength="92.7" x="93.6" y="300.9674">LabelForDisplay</text></a><a href="../DDICDILibrary/DataTypes/StructuredDataTypes/Identifier.html#diagram" target="_top" title=" ― Identifier:&#10;Identifier for objects requiring short- or long-lasting referencing and management." xlink:actuate="onRequest" xlink:href="../DDICDILibrary/DataTypes/StructuredDataTypes/Identifier.html#diagram" xlink:show="new" xlink:title=" ― Identifier:&#10;Identifier for objects requiring short- or long-lasting referencing and management." xlink:type="simple"><text fill="#000000" font-family="sans-serif" font-size="12.6" lengthAdjust="spacing" textLength="55.8" x="11.7" y="316.8158">identifier :</text><text fill="#0000FF" font-family="sans-serif" font-size="12.6" lengthAdjust="spacing" textLength="48.6" x="71.1" y="316.8158">Identifier</text></a><a href="../DDICDILibrary/DataTypes/StructuredDataTypes/InternationalString.html#diagram" target="_top" title=" ― InternationalString:&#10;Packaging structure for multiple language versions of the same string content. Where an element of this type is repeatable, the expectation is that each repetition contains different content, each of which can be expressed in multiple languages. The language designation goes on the individual String ..." xlink:actuate="onRequest" xlink:href="../DDICDILibrary/DataTypes/StructuredDataTypes/InternationalString.html#diagram" xlink:show="new" xlink:title=" ― InternationalString:&#10;Packaging structure for multiple language versions of the same string content. Where an element of this type is repeatable, the expectation is that each repetition contains different content, each of which can be expressed in multiple languages. The language designation goes on the individual String ..." xlink:type="simple"><text fill="#000000" font-family="sans-serif" font-size="12.6" lengthAdjust="spacing" textLength="42.3" x="11.7" y="332.6643">usage :</text><text fill="#0000FF" font-family="sans-serif" font-size="12.6" lengthAdjust="spacing" textLength="103.5" x="57.6" y="332.6643">InternationalString</text></a><a href="../DDICDILibrary/DataTypes/StructuredDataTypes/DateRange.html#diagram" target="_top" title=" ― DateRange:&#10;Expresses a date/time range using a start date and end date (both with the structure of Date and supporting the use of ISO and non-ISO date structures). Use in all locations where a range of dates is required, i.e. validFor, embargoPeriod, collectionPeriod, etc." xlink:actuate="onRequest" xlink:href="../DDICDILibrary/DataTypes/StructuredDataTypes/DateRange.html#diagram" xlink:show="new" xlink:title=" ― DateRange:&#10;Expresses a date/time range using a start date and end date (both with the structure of Date and supporting the use of ISO and non-ISO date structures). Use in all locations where a range of dates is required, i.e. validFor, embargoPeriod, collectionPeriod, etc." xlink:type="simple"><text fill="#000000" font-family="sans-serif" font-size="12.6" lengthAdjust="spacing" textLength="66.6" x="11.7" y="348.5127">validDates :</text><text fill="#0000FF" font-family="sans-serif" font-size="12.6" lengthAdjust="spacing" textLength="64.8" x="81.9" y="348.5127">DateRange</text></a></g></a><!--MD5=[a0bd27d1d4ca8f2e2cb772f0157fc399]
class DDICDIModels::DDICDILibrary::Classes::FormatDescription::InstanceVariableMap--><a href="../DDICDILibrary/Classes/FormatDescription/InstanceVariableMap.html#super-class-hierarchy-generalization" target="_top" title=" ― InstanceVariableMap:&#10;Key value relationship for two or more logical records where the key is one or more equivalent instance variables and the value is a defined relationship or a relationship to a set value." xlink:actuate="onRequest" xlink:href="../DDICDILibrary/Classes/FormatDescription/InstanceVariableMap.html#super-class-hierarchy-generalization" xlink:show="new" xlink:title=" ― InstanceVariableMap:&#10;Key value relationship for two or more logical records where the key is one or more equivalent instance variables and the value is a defined relationship or a relationship to a set value." xlink:type="simple"><g id="elem_DDICDIModels::DDICDILibrary::Classes::FormatDescription::InstanceVariableMap"><rect codeLine="76" fill="#F1F1F1" height="106.7625" id="DDICDIModels::DDICDILibrary::Classes::FormatDescription::InstanceVariableMap" rx="2.25" ry="2.25" style="stroke:#404040;stroke-width:0.45;" width="262.8" x="6.3" y="392.4703"/><text fill="#808080" font-family="sans-serif" font-size="9" lengthAdjust="spacing" textLength="82.8" x="96.3" y="406.3131">FormatDescription::</text><text fill="#0000FF" font-family="sans-serif" font-size="12.6" lengthAdjust="spacing" textLength="118.8" x="78.3" y="421.3705">InstanceVariableMap</text><line style="stroke:#404040;stroke-width:0.45;" x1="7.2" x2="268.2" y1="428.6391" y2="428.6391"/><a href="../DDICDILibrary/DataTypes/Enumerations/ComparisonOperator.html#diagram" target="_top" title=" ― ComparisonOperator:&#10;Defines the relationship between values in key/value pair." xlink:actuate="onRequest" xlink:href="../DDICDILibrary/DataTypes/Enumerations/ComparisonOperator.html#diagram" xlink:show="new" xlink:title=" ― ComparisonOperator:&#10;Defines the relationship between values in key/value pair." xlink:type="simple"><text fill="#000000" font-family="sans-serif" font-size="12.6" lengthAdjust="spacing" textLength="72.9" x="11.7" y="445.3189">comparison :</text><text fill="#0000FF" font-family="sans-serif" font-size="12.6" lengthAdjust="spacing" textLength="119.7" x="88.2" y="445.3189">ComparisonOperator</text></a><text fill="#000000" font-family="sans-serif" font-size="12.6" lengthAdjust="spacing" textLength="252" x="11.7" y="461.1674">correspondence : CorrespondenceDefinition</text><a href="../DDICDILibrary/DataTypes/StructuredDataTypes/Identifier.html#diagram" target="_top" title=" ― Identifier:&#10;Identifier for objects requiring short- or long-lasting referencing and management." xlink:actuate="onRequest" xlink:href="../DDICDILibrary/DataTypes/StructuredDataTypes/Identifier.html#diagram" xlink:show="new" xlink:title=" ― Identifier:&#10;Identifier for objects requiring short- or long-lasting referencing and management." xlink:type="simple"><text fill="#000000" font-family="sans-serif" font-size="12.6" lengthAdjust="spacing" textLength="55.8" x="11.7" y="477.0158">identifier :</text><text fill="#0000FF" font-family="sans-serif" font-size="12.6" lengthAdjust="spacing" textLength="48.6" x="71.1" y="477.0158">Identifier</text></a><text fill="#000000" font-family="sans-serif" font-size="12.6" lengthAdjust="spacing" textLength="93.6" x="11.7" y="492.8643">setValue : String</text></g></a><!--MD5=[0838a6369bfc9f1eb261dafc949fb028]
link DDICDIModels::DDICDILibrary::Classes::Conceptual::ConceptMap to DDICDIModels::DDICDILibrary::DataTypes::StructuredDataTypes::CorrespondenceDefinition--><g id="link_DDICDIModels::DDICDILibrary::Classes::Conceptual::ConceptMap_DDICDIModels::DDICDILibrary::DataTypes::StructuredDataTypes::CorrespondenceDefinition"><path codeLine="87" d="M270,279.5203 C325.593,279.5203 386.865,279.5203 439.92,279.5203 " fill="none" id="DDICDIModels::DDICDILibrary::Classes::Conceptual::ConceptMap-DDICDIModels::DDICDILibrary::DataTypes::StructuredDataTypes::CorrespondenceDefinition" style="stroke:#808080;stroke-width:0.9;stroke-dasharray:1.0,3.0;"/></g><!--MD5=[16f2e7c6993a678aec9f021b087fa43a]
link DDICDIModels::DDICDILibrary::Classes::FormatDescription::InstanceVariableMap to DDICDIModels::DDICDILibrary::DataTypes::StructuredDataTypes::CorrespondenceDefinition--><g id="link_DDICDIModels::DDICDILibrary::Classes::FormatDescription::InstanceVariableMap_DDICDIModels::DDICDILibrary::DataTypes::StructuredDataTypes::CorrespondenceDefinition"><path codeLine="88" d="M270,455.9203 C365.301,455.9203 457.722,391.0483 515.7,339.9823 " fill="none" id="DDICDIModels::DDICDILibrary::Classes::FormatDescription::InstanceVariableMap-DDICDIModels::DDICDILibrary::DataTypes::StructuredDataTypes::CorrespondenceDefinition" style="stroke:#808080;stroke-width:0.9;stroke-dasharray:1.0,3.0;"/></g><!--MD5=[24a42c82b0c91f6b659cfa964166cb8a]
link DDICDIModels::DesignPatterns::CollectionsPattern::Map to DDICDIModels::DDICDILibrary::DataTypes::StructuredDataTypes::CorrespondenceDefinition--><g id="link_DDICDIModels::DesignPatterns::CollectionsPattern::Map_DDICDIModels::DDICDILibrary::DataTypes::StructuredDataTypes::CorrespondenceDefinition"><path codeLine="89" d="M270,183.2203 C329.256,183.2203 392.112,199.8073 445.374,219.2203 " fill="none" id="DDICDIModels::DesignPatterns::CollectionsPattern::Map-DDICDIModels::DDICDILibrary::DataTypes::StructuredDataTypes::CorrespondenceDefinition" style="stroke:#808080;stroke-width:0.9;stroke-dasharray:1.0,3.0;"/></g><rect height="33.9609" style="stroke:#00000000;stroke-width:0.9;fill:none;" width="400.5" x="153.9" y="504.6328"/><text fill="#888888" font-family="sans-serif" font-size="9" lengthAdjust="spacing" textLength="2.7" x="352.8" y="513.9756"> </text><text fill="#888888" font-family="sans-serif" font-size="9" lengthAdjust="spacing" textLength="2.7" x="352.8" y="525.2959"> </text><text fill="#888888" font-family="sans-serif" font-size="9" lengthAdjust="spacing" textLength="400.5" x="153.9" y="536.6162">DDI Cross Domain Integration (DDI-CDI)   1.0 - StructuredDataTypes::CorrespondenceDefinition</text><!--MD5=[51f4574e4566e61bab118ac66ca0f5e7]
@startuml
left to right direction
' HD display aspect ratio 16:9
' hyperlinkColor and pathHoverColor do not seem to work with class diagrams
' working approach: colors per item
' default font size for class names is 14

hide circle
hide empty members
scale 0.9

skinparam {
  ArrowThickness 1.5
  MinClassWidth 150
}

skinparam legend {
  BackgroundColor white
  FontSize 10
}

skinparam note {
  BackgroundColor white
}

skinparam class {
  ArrowColor #404040
  BorderColor #404040
}

skinparam package {
  FontColor lightgrey
  BorderColor lightgrey
}

title <size:20>UML Diagram: DataType CorrespondenceDefinition in Context\n
footer \n\nDDI Cross Domain Integration (DDI-CDI)   1.0 - StructuredDataTypes::CorrespondenceDefinition

legend top right
**Hints**
<color:grey>- Move the mouse cursor over a name to see more information.
<color:grey>- Click on a name to go to the corresponding page.
<color:grey>- The use of the data type is represented here by a dotted line (not formal UML).
endlegend

' Core data type of diagram
class DDICDIModels::DDICDILibrary::DataTypes::StructuredDataTypes::CorrespondenceDefinition as "<size:10> \n<color:black>CorrespondenceDefinition" <<dataType>>   #FFD700 {
  commonality : <color:blue>InternationalString   	  [[[../DDICDILibrary/DataTypes/StructuredDataTypes/InternationalString.html#diagram{ <U+2015> InternationalString:\nPackaging structure for multiple language versions of the same string content. Where an element of this type is repeatable, the expectation is that each repetition contains different content, each of which can be expressed in multiple languages. The language designation goes on the individual String ...}]]]
  commonalityCode : <color:blue>ControlledVocabularyEntry   	  [[[../DDICDILibrary/DataTypes/StructuredDataTypes/ControlledVocabularyEntry.html#diagram{ <U+2015> ControlledVocabularyEntry:\nAllows for unstructured content which may be an entry from an externally maintained controlled vocabulary.If the content is from a controlled vocabulary provide the code value of the entry, as well as a reference to the controlled vocabulary from which the value is taken. Provide as many of the iden ...}]]]
  difference : <color:blue>InternationalString   	  [[[../DDICDILibrary/DataTypes/StructuredDataTypes/InternationalString.html#diagram{ <U+2015> InternationalString:\nPackaging structure for multiple language versions of the same string content. Where an element of this type is repeatable, the expectation is that each repetition contains different content, each of which can be expressed in multiple languages. The language designation goes on the individual String ...}]]]
  matching : <color:blue>MatchingCriterion   	  [[[../DDICDILibrary/DataTypes/Enumerations/MatchingCriterion.html#diagram{ <U+2015> MatchingCriterion:\nSupports mapping comparative relationships by type of match. Not used for causative, sequential, temporal or special relations.}]]]
}

' Data type definitions in own package

' Data type definitions in other packages
  abstract class DDICDIModels::DesignPatterns::CollectionsPattern::Map as "<size:10><color:grey>CollectionsPattern::\n<color:blue>Map" [[../DesignPatterns/CollectionsPattern/Map.html#super-class-hierarchy-generalization{ <U+2015> Map:\nProvides a basic pattern for a comparison map which identifies source and target members and details about their match. Source and target were retained as in describing differences and commonalities the direction of the comparison may be important.}]] {
  correspondence : CorrespondenceDefinition
}
  class DDICDIModels::DDICDILibrary::Classes::Conceptual::ConceptMap as "<size:10><color:grey>Conceptual::\n<color:blue>ConceptMap" [[../DDICDILibrary/Classes/Conceptual/ConceptMap.html#super-class-hierarchy-generalization{ <U+2015> ConceptMap:\nCorrespondence between concepts in a correspondence table.}]] {
  correspondence : CorrespondenceDefinition
  displayLabel : <color:blue>LabelForDisplay   	  [[[../DDICDILibrary/DataTypes/StructuredDataTypes/LabelForDisplay.html#diagram{ <U+2015> LabelForDisplay:\nA structured display label. Label provides display content of a fully human readable display for the identification of the object.}]]]
  identifier : <color:blue>Identifier   	  [[[../DDICDILibrary/DataTypes/StructuredDataTypes/Identifier.html#diagram{ <U+2015> Identifier:\nIdentifier for objects requiring short- or long-lasting referencing and management.}]]]
  usage : <color:blue>InternationalString   	  [[[../DDICDILibrary/DataTypes/StructuredDataTypes/InternationalString.html#diagram{ <U+2015> InternationalString:\nPackaging structure for multiple language versions of the same string content. Where an element of this type is repeatable, the expectation is that each repetition contains different content, each of which can be expressed in multiple languages. The language designation goes on the individual String ...}]]]
  validDates : <color:blue>DateRange   	  [[[../DDICDILibrary/DataTypes/StructuredDataTypes/DateRange.html#diagram{ <U+2015> DateRange:\nExpresses a date/time range using a start date and end date (both with the structure of Date and supporting the use of ISO and non-ISO date structures). Use in all locations where a range of dates is required, i.e. validFor, embargoPeriod, collectionPeriod, etc.}]]]
}
  class DDICDIModels::DDICDILibrary::Classes::FormatDescription::InstanceVariableMap as "<size:10><color:grey>FormatDescription::\n<color:blue>InstanceVariableMap" [[../DDICDILibrary/Classes/FormatDescription/InstanceVariableMap.html#super-class-hierarchy-generalization{ <U+2015> InstanceVariableMap:\nKey value relationship for two or more logical records where the key is one or more equivalent instance variables and the value is a defined relationship or a relationship to a set value.}]] {
  comparison : <color:blue>ComparisonOperator   	  [[[../DDICDILibrary/DataTypes/Enumerations/ComparisonOperator.html#diagram{ <U+2015> ComparisonOperator:\nDefines the relationship between values in key/value pair.}]]]
  correspondence : CorrespondenceDefinition
  identifier : <color:blue>Identifier   	  [[[../DDICDILibrary/DataTypes/StructuredDataTypes/Identifier.html#diagram{ <U+2015> Identifier:\nIdentifier for objects requiring short- or long-lasting referencing and management.}]]]
  setValue : String
}

' Use of data type
together {
  DDICDIModels::DDICDILibrary::Classes::Conceptual::ConceptMap::correspondence - - - - DDICDIModels::DDICDILibrary::DataTypes::StructuredDataTypes::CorrespondenceDefinition #grey;line.dotted;
  DDICDIModels::DDICDILibrary::Classes::FormatDescription::InstanceVariableMap::correspondence - - - - DDICDIModels::DDICDILibrary::DataTypes::StructuredDataTypes::CorrespondenceDefinition #grey;line.dotted;
  DDICDIModels::DesignPatterns::CollectionsPattern::Map::correspondence - - - - DDICDIModels::DDICDILibrary::DataTypes::StructuredDataTypes::CorrespondenceDefinition #grey;line.dotted;
}


' Abstractions
together {
}
@enduml

@startuml
left to right direction

hide circle
hide empty members
scale 0.9

skinparam {
  ArrowThickness 1.5
  MinClassWidth 150
}

skinparam legend {
  BackgroundColor white
  FontSize 10
}

skinparam note {
  BackgroundColor white
}

skinparam class {
  ArrowColor #404040
  BorderColor #404040
}

skinparam package {
  FontColor lightgrey
  BorderColor lightgrey
}

title <size:20>UML Diagram: DataType CorrespondenceDefinition in Context\n
footer \n\nDDI Cross Domain Integration (DDI-CDI)   1.0 - StructuredDataTypes::CorrespondenceDefinition

legend top right
**Hints**
<color:grey>- Move the mouse cursor over a name to see more information.
<color:grey>- Click on a name to go to the corresponding page.
<color:grey>- The use of the data type is represented here by a dotted line (not formal UML).
endlegend

class DDICDIModels::DDICDILibrary::DataTypes::StructuredDataTypes::CorrespondenceDefinition as "<size:10> \n<color:black>CorrespondenceDefinition" <<dataType>>   #FFD700 {
  commonality : <color:blue>InternationalString   	  [[[../DDICDILibrary/DataTypes/StructuredDataTypes/InternationalString.html#diagram{ <U+2015> InternationalString:\nPackaging structure for multiple language versions of the same string content. Where an element of this type is repeatable, the expectation is that each repetition contains different content, each of which can be expressed in multiple languages. The language designation goes on the individual String ...}]]]
  commonalityCode : <color:blue>ControlledVocabularyEntry   	  [[[../DDICDILibrary/DataTypes/StructuredDataTypes/ControlledVocabularyEntry.html#diagram{ <U+2015> ControlledVocabularyEntry:\nAllows for unstructured content which may be an entry from an externally maintained controlled vocabulary.If the content is from a controlled vocabulary provide the code value of the entry, as well as a reference to the controlled vocabulary from which the value is taken. Provide as many of the iden ...}]]]
  difference : <color:blue>InternationalString   	  [[[../DDICDILibrary/DataTypes/StructuredDataTypes/InternationalString.html#diagram{ <U+2015> InternationalString:\nPackaging structure for multiple language versions of the same string content. Where an element of this type is repeatable, the expectation is that each repetition contains different content, each of which can be expressed in multiple languages. The language designation goes on the individual String ...}]]]
  matching : <color:blue>MatchingCriterion   	  [[[../DDICDILibrary/DataTypes/Enumerations/MatchingCriterion.html#diagram{ <U+2015> MatchingCriterion:\nSupports mapping comparative relationships by type of match. Not used for causative, sequential, temporal or special relations.}]]]
}


  abstract class DDICDIModels::DesignPatterns::CollectionsPattern::Map as "<size:10><color:grey>CollectionsPattern::\n<color:blue>Map" [[../DesignPatterns/CollectionsPattern/Map.html#super-class-hierarchy-generalization{ <U+2015> Map:\nProvides a basic pattern for a comparison map which identifies source and target members and details about their match. Source and target were retained as in describing differences and commonalities the direction of the comparison may be important.}]] {
  correspondence : CorrespondenceDefinition
}
  class DDICDIModels::DDICDILibrary::Classes::Conceptual::ConceptMap as "<size:10><color:grey>Conceptual::\n<color:blue>ConceptMap" [[../DDICDILibrary/Classes/Conceptual/ConceptMap.html#super-class-hierarchy-generalization{ <U+2015> ConceptMap:\nCorrespondence between concepts in a correspondence table.}]] {
  correspondence : CorrespondenceDefinition
  displayLabel : <color:blue>LabelForDisplay   	  [[[../DDICDILibrary/DataTypes/StructuredDataTypes/LabelForDisplay.html#diagram{ <U+2015> LabelForDisplay:\nA structured display label. Label provides display content of a fully human readable display for the identification of the object.}]]]
  identifier : <color:blue>Identifier   	  [[[../DDICDILibrary/DataTypes/StructuredDataTypes/Identifier.html#diagram{ <U+2015> Identifier:\nIdentifier for objects requiring short- or long-lasting referencing and management.}]]]
  usage : <color:blue>InternationalString   	  [[[../DDICDILibrary/DataTypes/StructuredDataTypes/InternationalString.html#diagram{ <U+2015> InternationalString:\nPackaging structure for multiple language versions of the same string content. Where an element of this type is repeatable, the expectation is that each repetition contains different content, each of which can be expressed in multiple languages. The language designation goes on the individual String ...}]]]
  validDates : <color:blue>DateRange   	  [[[../DDICDILibrary/DataTypes/StructuredDataTypes/DateRange.html#diagram{ <U+2015> DateRange:\nExpresses a date/time range using a start date and end date (both with the structure of Date and supporting the use of ISO and non-ISO date structures). Use in all locations where a range of dates is required, i.e. validFor, embargoPeriod, collectionPeriod, etc.}]]]
}
  class DDICDIModels::DDICDILibrary::Classes::FormatDescription::InstanceVariableMap as "<size:10><color:grey>FormatDescription::\n<color:blue>InstanceVariableMap" [[../DDICDILibrary/Classes/FormatDescription/InstanceVariableMap.html#super-class-hierarchy-generalization{ <U+2015> InstanceVariableMap:\nKey value relationship for two or more logical records where the key is one or more equivalent instance variables and the value is a defined relationship or a relationship to a set value.}]] {
  comparison : <color:blue>ComparisonOperator   	  [[[../DDICDILibrary/DataTypes/Enumerations/ComparisonOperator.html#diagram{ <U+2015> ComparisonOperator:\nDefines the relationship between values in key/value pair.}]]]
  correspondence : CorrespondenceDefinition
  identifier : <color:blue>Identifier   	  [[[../DDICDILibrary/DataTypes/StructuredDataTypes/Identifier.html#diagram{ <U+2015> Identifier:\nIdentifier for objects requiring short- or long-lasting referencing and management.}]]]
  setValue : String
}

together {
  DDICDIModels::DDICDILibrary::Classes::Conceptual::ConceptMap::correspondence - - - - DDICDIModels::DDICDILibrary::DataTypes::StructuredDataTypes::CorrespondenceDefinition #grey;line.dotted;
  DDICDIModels::DDICDILibrary::Classes::FormatDescription::InstanceVariableMap::correspondence - - - - DDICDIModels::DDICDILibrary::DataTypes::StructuredDataTypes::CorrespondenceDefinition #grey;line.dotted;
  DDICDIModels::DesignPatterns::CollectionsPattern::Map::correspondence - - - - DDICDIModels::DDICDILibrary::DataTypes::StructuredDataTypes::CorrespondenceDefinition #grey;line.dotted;
}


together {
}
@enduml

PlantUML version 1.2022.6(Tue Jun 21 19:34:49 CEST 2022)
(GPL source distribution)
Java Runtime: OpenJDK Runtime Environment
JVM: OpenJDK 64-Bit Server VM
Default Encoding: Cp1252
Language: en
Country: US
--></g></svg>