<?xml version="1.0" encoding="UTF-8" standalone="no"?><svg xmlns="http://www.w3.org/2000/svg" xmlns:xlink="http://www.w3.org/1999/xlink" contentStyleType="text/css" height="783px" preserveAspectRatio="none" style="width:1043px;height:783px;background:#FFFFFF;" version="1.1" viewBox="0 0 1043 783" width="1043.1px" zoomAndPan="magnify"><defs/><g><rect height="47.4891" style="stroke:#00000000;stroke-width:0.9;fill:none;" width="364.5" x="333" y="4.5"/><text fill="#000000" font-family="sans-serif" font-size="18" font-weight="bold" lengthAdjust="spacing" textLength="355.5" x="337.5" y="27.6855">UML Diagram: Class Collection in Context</text><text fill="#000000" font-family="sans-serif" font-size="12.6" font-weight="bold" lengthAdjust="spacing" textLength="3.6" x="513.45" y="44.7205"> </text><rect fill="#FFFFFF" height="56.0813" rx="6.75" ry="6.75" style="stroke:#000000;stroke-width:0.9;" width="276.3" x="7.2" y="64.5891"/><text fill="#000000" font-family="sans-serif" font-size="9" font-weight="bold" lengthAdjust="spacing" textLength="22.5" x="12.6" y="79.3318">Hints</text><text fill="#808080" font-family="sans-serif" font-size="9" lengthAdjust="spacing" textLength="265.5" x="12.6" y="90.6521">- Move the mouse cursor over a name to see more information.</text><text fill="#808080" font-family="sans-serif" font-size="9" lengthAdjust="spacing" textLength="216" x="12.6" y="101.9725">- Click on a name to go to the corresponding page.</text><text fill="#808080" font-family="sans-serif" font-size="9" lengthAdjust="spacing" textLength="164.7" x="12.6" y="113.2928">- The arrows of the inheritance tree are</text><text fill="#D2691E" font-family="sans-serif" font-size="9" lengthAdjust="spacing" textLength="32.4" x="180" y="113.2928">colored</text><text fill="#808080" font-family="sans-serif" font-size="9" lengthAdjust="spacing" textLength="2.7" x="212.4" y="113.2928">.</text><!--MD5=[b6708c477078459dba5bf7d586457a14]
class DDICDIModels::DesignPatterns::CollectionsPattern::Comparison--><a href="../DesignPatterns/CollectionsPattern/Comparison.html#super-class-hierarchy-generalization" target="_top" title=" ― Comparison:&#10;The minimal pattern for a comparison including a mapping between members." xlink:actuate="onRequest" xlink:href="../DesignPatterns/CollectionsPattern/Comparison.html#super-class-hierarchy-generalization" xlink:show="new" xlink:title=" ― Comparison:&#10;The minimal pattern for a comparison including a mapping between members." xlink:type="simple"><g id="elem_DDICDIModels::DesignPatterns::CollectionsPattern::Comparison"><rect codeLine="58" fill="#F1F1F1" height="36.1688" id="DDICDIModels::DesignPatterns::CollectionsPattern::Comparison" rx="2.25" ry="2.25" style="stroke:#404040;stroke-width:0.45;" width="135" x="729" y="462.4993"/><text fill="#000000" font-family="sans-serif" font-size="9" font-style="italic" lengthAdjust="spacing" textLength="83.7" x="754.65" y="476.3421">CollectionsPattern::</text><text fill="#0000FF" font-family="sans-serif" font-size="12.6" font-style="italic" lengthAdjust="spacing" textLength="68.4" x="762.3" y="491.3995">Comparison</text></g></a><!--MD5=[e8ea17671d2b816e5709704adf065cd9]
class DDICDIModels::DesignPatterns::CollectionsPattern::Structure--><a href="../DesignPatterns/CollectionsPattern/Structure.html#super-class-hierarchy-generalization" target="_top" title=" ― Structure:&#10;Organized set of relationships between members in a collection. These relationships can be characterized mathematically in terms of reflexivity, symmetry and transitivity, or informally in terms of the collection's topology, e.g. network, tree, etc. In both cases it can also be defined either on all ..." xlink:actuate="onRequest" xlink:href="../DesignPatterns/CollectionsPattern/Structure.html#super-class-hierarchy-generalization" xlink:show="new" xlink:title=" ― Structure:&#10;Organized set of relationships between members in a collection. These relationships can be characterized mathematically in terms of reflexivity, symmetry and transitivity, or informally in terms of the collection's topology, e.g. network, tree, etc. In both cases it can also be defined either on all ..." xlink:type="simple"><g id="elem_DDICDIModels::DesignPatterns::CollectionsPattern::Structure"><rect codeLine="59" fill="#F1F1F1" height="36.1688" id="DDICDIModels::DesignPatterns::CollectionsPattern::Structure" rx="2.25" ry="2.25" style="stroke:#404040;stroke-width:0.45;" width="135" x="902.7" y="462.4993"/><text fill="#000000" font-family="sans-serif" font-size="9" font-style="italic" lengthAdjust="spacing" textLength="83.7" x="928.35" y="476.3421">CollectionsPattern::</text><text fill="#0000FF" font-family="sans-serif" font-size="12.6" font-style="italic" lengthAdjust="spacing" textLength="52.2" x="944.1" y="491.3995">Structure</text></g></a><!--MD5=[cf2b466143bd797820c9416be252779d]
entity ##7--><!--MD5=[04083fd231ff21c2c61d4f5514fdc050]
class DDICDIModels::DesignPatterns::CollectionsPattern::Collection--><a href="../DesignPatterns/CollectionsPattern/Collection.html#super-class-hierarchy-generalization" target="_top" title=" ― Collection:&#10;Generic container that supports different types of groupings, from unordered sets to all sorts of hierarchies, nesting and ordered sets/bags." xlink:actuate="onRequest" xlink:href="../DesignPatterns/CollectionsPattern/Collection.html#super-class-hierarchy-generalization" xlink:show="new" xlink:title=" ― Collection:&#10;Generic container that supports different types of groupings, from unordered sets to all sorts of hierarchies, nesting and ordered sets/bags." xlink:type="simple"><g id="elem_DDICDIModels::DesignPatterns::CollectionsPattern::Collection"><rect codeLine="67" fill="#F1F1F1" height="90.9141" id="DDICDIModels::DesignPatterns::CollectionsPattern::Collection" rx="2.25" ry="2.25" style="stroke:#404040;stroke-width:0.45;" width="171.9" x="454.95" y="299.1493"/><text fill="#000000" font-family="sans-serif" font-size="9" font-style="italic" lengthAdjust="spacing" textLength="83.7" x="499.05" y="312.9921">CollectionsPattern::</text><text fill="#000000" font-family="sans-serif" font-size="12.6" font-style="italic" lengthAdjust="spacing" textLength="55.8" x="513" y="328.0495">Collection</text><line style="stroke:#404040;stroke-width:0.45;" x1="455.85" x2="625.95" y1="335.3181" y2="335.3181"/><text fill="#000000" font-family="sans-serif" font-size="12.6" lengthAdjust="spacing" textLength="151.2" x="460.35" y="351.9979">allowsDuplicates : Boolean</text><a href="../DDICDILibrary/DataTypes/StructuredDataTypes/ObjectName.html#diagram" target="_top" title=" ― ObjectName:&#10;A standard means of expressing a name for a class object. A linguistic signifier. Human understandable name (word, phrase, or mnemonic) that reflects the ISO/IEC 11179-5 naming principles." xlink:actuate="onRequest" xlink:href="../DDICDILibrary/DataTypes/StructuredDataTypes/ObjectName.html#diagram" xlink:show="new" xlink:title=" ― ObjectName:&#10;A standard means of expressing a name for a class object. A linguistic signifier. Human understandable name (word, phrase, or mnemonic) that reflects the ISO/IEC 11179-5 naming principles." xlink:type="simple"><text fill="#000000" font-family="sans-serif" font-size="12.6" lengthAdjust="spacing" textLength="38.7" x="460.35" y="367.8464">name :</text><text fill="#0000FF" font-family="sans-serif" font-size="12.6" lengthAdjust="spacing" textLength="69.3" x="502.65" y="367.8464">ObjectName</text></a><a href="../DDICDILibrary/DataTypes/StructuredDataTypes/InternationalString.html#diagram" target="_top" title=" ― InternationalString:&#10;Packaging structure for multiple language versions of the same string content. Where an element of this type is repeatable, the expectation is that each repetition contains different content, each of which can be expressed in multiple languages. The language designation goes on the individual String ..." xlink:actuate="onRequest" xlink:href="../DDICDILibrary/DataTypes/StructuredDataTypes/InternationalString.html#diagram" xlink:show="new" xlink:title=" ― InternationalString:&#10;Packaging structure for multiple language versions of the same string content. Where an element of this type is repeatable, the expectation is that each repetition contains different content, each of which can be expressed in multiple languages. The language designation goes on the individual String ..." xlink:type="simple"><text fill="#000000" font-family="sans-serif" font-size="12.6" lengthAdjust="spacing" textLength="54" x="460.35" y="383.6948">purpose :</text><text fill="#0000FF" font-family="sans-serif" font-size="12.6" lengthAdjust="spacing" textLength="103.5" x="517.95" y="383.6948">InternationalString</text></a></g></a><!--MD5=[26ed6b543731beaf3afce7fd6b75ac79]
class DDICDIModels::DesignPatterns::CollectionsPattern::MemberRelationship--><a href="../DesignPatterns/CollectionsPattern/MemberRelationship.html#super-class-hierarchy-generalization" target="_top" title=" ― MemberRelationship:&#10;Relationship between members in a collection with directionality given by source and target." xlink:actuate="onRequest" xlink:href="../DesignPatterns/CollectionsPattern/MemberRelationship.html#super-class-hierarchy-generalization" xlink:show="new" xlink:title=" ― MemberRelationship:&#10;Relationship between members in a collection with directionality given by source and target." xlink:type="simple"><g id="elem_DDICDIModels::DesignPatterns::CollectionsPattern::MemberRelationship"><rect codeLine="71" fill="#F1F1F1" height="36.1688" id="DDICDIModels::DesignPatterns::CollectionsPattern::MemberRelationship" rx="2.25" ry="2.25" style="stroke:#404040;stroke-width:0.45;" width="135" x="719.1" y="191.5993"/><text fill="#000000" font-family="sans-serif" font-size="9" font-style="italic" lengthAdjust="spacing" textLength="83.7" x="744.75" y="205.4421">CollectionsPattern::</text><text fill="#0000FF" font-family="sans-serif" font-size="12.6" font-style="italic" lengthAdjust="spacing" textLength="117" x="728.1" y="220.4995">MemberRelationship</text></g></a><!--MD5=[3be6b965db101685ffe285f22e57fccc]
class DDICDIModels::DesignPatterns::CollectionsPattern::Map--><a href="../DesignPatterns/CollectionsPattern/Map.html#super-class-hierarchy-generalization" target="_top" title=" ― Map:&#10;Provides a basic pattern for a comparison map which identifies source and target members and details about their match. Source and target were retained as in describing differences and commonalities the direction of the comparison may be important." xlink:actuate="onRequest" xlink:href="../DesignPatterns/CollectionsPattern/Map.html#super-class-hierarchy-generalization" xlink:show="new" xlink:title=" ― Map:&#10;Provides a basic pattern for a comparison map which identifies source and target members and details about their match. Source and target were retained as in describing differences and commonalities the direction of the comparison may be important." xlink:type="simple"><g id="elem_DDICDIModels::DesignPatterns::CollectionsPattern::Map"><rect codeLine="72" fill="#F1F1F1" height="36.1688" id="DDICDIModels::DesignPatterns::CollectionsPattern::Map" rx="2.25" ry="2.25" style="stroke:#404040;stroke-width:0.45;" width="135" x="891.9" y="191.5993"/><text fill="#000000" font-family="sans-serif" font-size="9" font-style="italic" lengthAdjust="spacing" textLength="83.7" x="917.55" y="205.4421">CollectionsPattern::</text><text fill="#0000FF" font-family="sans-serif" font-size="12.6" font-style="italic" lengthAdjust="spacing" textLength="25.2" x="946.8" y="220.4995">Map</text></g></a><!--MD5=[f7b5313287eeecd1e588f32fca7c5cff]
class DDICDIModels::DDICDILibrary::Classes::DataDescription::Dimensional::DimensionGroup--><a href="../DDICDILibrary/Classes/DataDescription/Dimensional/DimensionGroup.html#super-class-hierarchy-generalization" target="_top" title=" ― DimensionGroup:&#10;Collection of dimensions that can be reused across multiple dimensional structures." xlink:actuate="onRequest" xlink:href="../DDICDILibrary/Classes/DataDescription/Dimensional/DimensionGroup.html#super-class-hierarchy-generalization" xlink:show="new" xlink:title=" ― DimensionGroup:&#10;Collection of dimensions that can be reused across multiple dimensional structures." xlink:type="simple"><g id="elem_DDICDIModels::DDICDILibrary::Classes::DataDescription::Dimensional::DimensionGroup"><rect codeLine="73" fill="#F1F1F1" height="36.1688" id="DDICDIModels::DDICDILibrary::Classes::DataDescription::Dimensional::DimensionGroup" rx="2.25" ry="2.25" style="stroke:#404040;stroke-width:0.45;" width="135" x="6.3" y="701.8993"/><text fill="#000000" font-family="sans-serif" font-size="9" lengthAdjust="spacing" textLength="58.5" x="44.55" y="715.7421">Dimensional::</text><text fill="#0000FF" font-family="sans-serif" font-size="12.6" lengthAdjust="spacing" textLength="95.4" x="26.1" y="730.7995">DimensionGroup</text></g></a><!--MD5=[6c9ae7212f036fc7dd51e23948498201]
class DDICDIModels::DDICDILibrary::Classes::FormatDescription::LogicalRecord--><a href="../DDICDILibrary/Classes/FormatDescription/LogicalRecord.html#super-class-hierarchy-generalization" target="_top" title=" ― LogicalRecord:&#10;Collection of instance variables." xlink:actuate="onRequest" xlink:href="../DDICDILibrary/Classes/FormatDescription/LogicalRecord.html#super-class-hierarchy-generalization" xlink:show="new" xlink:title=" ― LogicalRecord:&#10;Collection of instance variables." xlink:type="simple"><g id="elem_DDICDIModels::DDICDILibrary::Classes::FormatDescription::LogicalRecord"><rect codeLine="74" fill="#F1F1F1" height="36.1688" id="DDICDIModels::DDICDILibrary::Classes::FormatDescription::LogicalRecord" rx="2.25" ry="2.25" style="stroke:#404040;stroke-width:0.45;" width="135" x="179.1" y="701.8993"/><text fill="#000000" font-family="sans-serif" font-size="9" lengthAdjust="spacing" textLength="82.8" x="205.2" y="715.7421">FormatDescription::</text><text fill="#0000FF" font-family="sans-serif" font-size="12.6" lengthAdjust="spacing" textLength="81.9" x="205.65" y="730.7995">LogicalRecord</text></g></a><!--MD5=[5b1150c1f4d15180aebef2c7c3af2429]
class DDICDIModels::DDICDILibrary::Classes::Conceptual::VariableCollection--><a href="../DDICDILibrary/Classes/Conceptual/VariableCollection.html#super-class-hierarchy-generalization" target="_top" title=" ― VariableCollection:&#10;Group of any type of variable within the variable cascade (conceptual, represented, instance)." xlink:actuate="onRequest" xlink:href="../DDICDILibrary/Classes/Conceptual/VariableCollection.html#super-class-hierarchy-generalization" xlink:show="new" xlink:title=" ― VariableCollection:&#10;Group of any type of variable within the variable cascade (conceptual, represented, instance)." xlink:type="simple"><g id="elem_DDICDIModels::DDICDILibrary::Classes::Conceptual::VariableCollection"><rect codeLine="75" fill="#F1F1F1" height="36.1688" id="DDICDIModels::DDICDILibrary::Classes::Conceptual::VariableCollection" rx="2.25" ry="2.25" style="stroke:#404040;stroke-width:0.45;" width="135" x="351.9" y="701.8993"/><text fill="#000000" font-family="sans-serif" font-size="9" lengthAdjust="spacing" textLength="54.9" x="391.95" y="715.7421">Conceptual::</text><text fill="#0000FF" font-family="sans-serif" font-size="12.6" lengthAdjust="spacing" textLength="102.6" x="368.1" y="730.7995">VariableCollection</text></g></a><!--MD5=[6da04d6064732cd454d57e260d408083]
class DDICDIModels::DesignPatterns::CollectionsPattern::Member--><a href="../DesignPatterns/CollectionsPattern/Member.html#super-class-hierarchy-generalization" target="_top" title=" ― Member:&#10;Element in a collection that can be either atomic (individual member) or composite (collection)." xlink:actuate="onRequest" xlink:href="../DesignPatterns/CollectionsPattern/Member.html#super-class-hierarchy-generalization" xlink:show="new" xlink:title=" ― Member:&#10;Element in a collection that can be either atomic (individual member) or composite (collection)." xlink:type="simple"><g id="elem_DDICDIModels::DesignPatterns::CollectionsPattern::Member"><rect codeLine="111" fill="#FAFAD2" height="36.1688" id="DDICDIModels::DesignPatterns::CollectionsPattern::Member" rx="2.25" ry="2.25" style="stroke:#404040;stroke-width:0.45;" width="135" x="473.4" y="191.5993"/><text fill="#000000" font-family="sans-serif" font-size="9" font-style="italic" lengthAdjust="spacing" textLength="83.7" x="499.05" y="205.4421">CollectionsPattern::</text><text fill="#0000FF" font-family="sans-serif" font-size="12.6" font-style="italic" lengthAdjust="spacing" textLength="46.8" x="517.5" y="220.4995">Member</text></g></a><!--MD5=[f279ca57d6a77c75340ff35451c2ec4f]
class DDICDIModels::DesignPatterns::CollectionsPattern::List--><a href="../DesignPatterns/CollectionsPattern/List.html#super-class-hierarchy-generalization" target="_top" title=" ― List:&#10;Simple ordered Collection defined as a list of Members where the location of each Member in the list is given by the associated Position class." xlink:actuate="onRequest" xlink:href="../DesignPatterns/CollectionsPattern/List.html#super-class-hierarchy-generalization" xlink:show="new" xlink:title=" ― List:&#10;Simple ordered Collection defined as a list of Members where the location of each Member in the list is given by the associated Position class." xlink:type="simple"><g id="elem_DDICDIModels::DesignPatterns::CollectionsPattern::List"><rect codeLine="77" fill="#F1F1F1" height="36.1688" id="DDICDIModels::DesignPatterns::CollectionsPattern::List" rx="2.25" ry="2.25" style="stroke:#404040;stroke-width:0.45;" width="135" x="473.4" y="555.1993"/><text fill="#000000" font-family="sans-serif" font-size="9" font-style="italic" lengthAdjust="spacing" textLength="83.7" x="499.05" y="569.0421">CollectionsPattern::</text><text fill="#0000FF" font-family="sans-serif" font-size="12.6" font-style="italic" lengthAdjust="spacing" textLength="19.8" x="531" y="584.0995">List</text></g></a><!--MD5=[389c0d85ebee7824a7ea11451bba5944]
class DDICDIModels::DDICDILibrary::Classes::Conceptual::ConceptSystem--><a href="../DDICDILibrary/Classes/Conceptual/ConceptSystem.html#super-class-hierarchy-generalization" target="_top" title=" ― ConceptSystem:&#10;Set of concepts structured by the relations among them [GSIM 1.1]." xlink:actuate="onRequest" xlink:href="../DDICDILibrary/Classes/Conceptual/ConceptSystem.html#super-class-hierarchy-generalization" xlink:show="new" xlink:title=" ― ConceptSystem:&#10;Set of concepts structured by the relations among them [GSIM 1.1]." xlink:type="simple"><g id="elem_DDICDIModels::DDICDILibrary::Classes::Conceptual::ConceptSystem"><rect codeLine="78" fill="#F1F1F1" height="36.1688" id="DDICDIModels::DDICDILibrary::Classes::Conceptual::ConceptSystem" rx="2.25" ry="2.25" style="stroke:#404040;stroke-width:0.45;" width="135" x="609.3" y="701.8993"/><text fill="#000000" font-family="sans-serif" font-size="9" lengthAdjust="spacing" textLength="54.9" x="649.35" y="715.7421">Conceptual::</text><text fill="#0000FF" font-family="sans-serif" font-size="12.6" lengthAdjust="spacing" textLength="89.1" x="632.25" y="730.7995">ConceptSystem</text></g></a><g id="elem_GMN20"><path d="M281.25,190.2493 L281.25,228.6821 A0,0 0 0 0 281.25,228.6821 L435.15,228.6821 A0,0 0 0 0 435.15,228.6821 L435.15,213.1993 L473.238,209.5993 L435.15,205.9993 L435.15,199.2493 L426.15,190.2493 L281.25,190.2493 A0,0 0 0 0 281.25,190.2493 " fill="#FFFFFF" style="stroke:#181818;stroke-width:0.45;"/><path d="M426.15,190.2493 L426.15,199.2493 L435.15,199.2493 L426.15,190.2493 " fill="#FFFFFF" style="stroke:#181818;stroke-width:0.45;"/><text fill="#000000" font-family="sans-serif" font-size="11.7" lengthAdjust="spacing" textLength="135" x="286.65" y="206.8949">Class has 6 associations.</text><text fill="#000000" font-family="sans-serif" font-size="11.7" lengthAdjust="spacing" textLength="120.6" x="286.65" y="221.6113">Only 3 are shown here.</text></g><!--MD5=[d49984ec64863f006ef877fa44eedbfc]
link DDICDIModels::DesignPatterns::CollectionsPattern::Collection to DDICDIModels::DesignPatterns::CollectionsPattern::Member--><g id="link_DDICDIModels::DesignPatterns::CollectionsPattern::Collection_DDICDIModels::DesignPatterns::CollectionsPattern::Member"><a href="" target="_top" title=" ― has:&#10;" xlink:actuate="onRequest" xlink:href="" xlink:show="new" xlink:title=" ― has:&#10;" xlink:type="simple"><path codeLine="83" d="M540.9,288.0703 C540.9,288.0703 540.9,253.4923 540.9,239.5333 " fill="none" id="DDICDIModels::DesignPatterns::CollectionsPattern::Collection-DDICDIModels::DesignPatterns::CollectionsPattern::Member" style="stroke:#808080;stroke-width:1.35;"/><polygon fill="#808080" points="540.9,227.6443,537.3,235.7443,540.9,232.1443,544.5,235.7443,540.9,227.6443" style="stroke:#808080;stroke-width:1.35;"/><line style="stroke:#808080;stroke-width:1.35;" x1="540.9" x2="540.9" y1="232.1443" y2="239.3443"/><polygon fill="none" points="540.9,298.8703,544.5,293.4703,540.9,288.0703,537.3,293.4703,540.9,298.8703" style="stroke:#808080;stroke-width:1.35;"/><text fill="#000000" font-family="sans-serif" font-size="11.7" lengthAdjust="spacing" textLength="18.9" x="541.8" y="269.4449">has</text></a></g><!--MD5=[7be11ef459f08e763a96ac0182c14cf0]
reverse link DDICDIModels::DesignPatterns::CollectionsPattern::Member to DDICDIModels::DesignPatterns::CollectionsPattern::Collection--><g id="link_DDICDIModels::DesignPatterns::CollectionsPattern::Member_DDICDIModels::DesignPatterns::CollectionsPattern::Collection"><path codeLine="114" d="M534.807,245.6893 C534.357,249.2983 533.97,252.9163 533.7,256.3993 C532.62,270.1963 533.223,285.2173 534.438,298.8433 " fill="none" id="DDICDIModels::DesignPatterns::CollectionsPattern::Member-backto-DDICDIModels::DesignPatterns::CollectionsPattern::Collection" style="stroke:#D2691E;stroke-width:1.35;"/><polygon fill="none" points="528.588,244.7083,537.525,227.8603,541.044,246.6073,528.588,244.7083" style="stroke:#D2691E;stroke-width:1.35;"/></g><!--MD5=[1dec153d6f3f7883c04e69e74e94dd16]
reverse link DDICDIModels::DesignPatterns::CollectionsPattern::Collection to DDICDIModels::DesignPatterns::CollectionsPattern::Comparison--><g id="link_DDICDIModels::DesignPatterns::CollectionsPattern::Collection_DDICDIModels::DesignPatterns::CollectionsPattern::Comparison"><a href="" target="_top" title=" ― maps:&#10;" xlink:actuate="onRequest" xlink:href="" xlink:show="new" xlink:title=" ― maps:&#10;" xlink:type="simple"><path codeLine="84" d="M631.431,383.6143 C654.201,393.9643 678.366,405.6103 700.2,417.4993 C725.535,431.2963 753.066,449.3863 772.173,462.4813 " fill="none" id="DDICDIModels::DesignPatterns::CollectionsPattern::Collection-backto-DDICDIModels::DesignPatterns::CollectionsPattern::Comparison" style="stroke:#808080;stroke-width:1.35;"/><polygon fill="#808080" points="627.192,381.6973,633.0684,388.3334,631.2864,383.5643,636.0556,381.7823,627.192,381.6973" style="stroke:#808080;stroke-width:1.35;"/><text fill="#000000" font-family="sans-serif" font-size="11.7" lengthAdjust="spacing" textLength="28.8" x="728.1" y="430.5449">maps</text></a></g><!--MD5=[ed6bc51147bb59ac86d4e2c2918ba482]
reverse link DDICDIModels::DesignPatterns::CollectionsPattern::Collection to DDICDIModels::DesignPatterns::CollectionsPattern::Structure--><g id="link_DDICDIModels::DesignPatterns::CollectionsPattern::Collection_DDICDIModels::DesignPatterns::CollectionsPattern::Structure"><a href="" target="_top" title=" ― structures:&#10;" xlink:actuate="onRequest" xlink:href="" xlink:show="new" xlink:title=" ― structures:&#10;" xlink:type="simple"><path codeLine="85" d="M631.431,367.4863 C700.371,385.0543 797.22,411.5413 880.2,440.8993 C897.993,447.1993 917.28,455.3083 933.417,462.4813 " fill="none" id="DDICDIModels::DesignPatterns::CollectionsPattern::Collection-backto-DDICDIModels::DesignPatterns::CollectionsPattern::Structure" style="stroke:#808080;stroke-width:1.35;"/><polygon fill="#808080" points="626.931,366.3343,633.8971,371.8156,631.2928,367.4409,635.6675,364.8366,626.931,366.3343" style="stroke:#808080;stroke-width:1.35;"/><text fill="#000000" font-family="sans-serif" font-size="11.7" lengthAdjust="spacing" textLength="52.2" x="853.2" y="430.5449">structures</text></a></g><!--MD5=[995ad73a0505fab5c23692640ecff6e3]
reverse link DDICDIModels::DesignPatterns::CollectionsPattern::Member to DDICDIModels::DesignPatterns::CollectionsPattern::Map--><g id="link_DDICDIModels::DesignPatterns::CollectionsPattern::Member_DDICDIModels::DesignPatterns::CollectionsPattern::Map"><a href="" target="_top" title=" ― hasSource:&#10;" xlink:actuate="onRequest" xlink:href="" xlink:show="new" xlink:title=" ― hasSource:&#10;" xlink:type="simple"><path codeLine="99" d="M587.979,189.9073 C649.683,166.7593 761.04,134.1703 854.55,156.4993 C882.729,163.2313 911.907,178.8283 932.31,191.3923 " fill="none" id="DDICDIModels::DesignPatterns::CollectionsPattern::Member-backto-DDICDIModels::DesignPatterns::CollectionsPattern::Map" style="stroke:#808080;stroke-width:1.35;"/><polygon fill="#808080" points="583.623,191.5543,592.4727,192.0574,587.8322,189.963,589.9266,185.3226,583.623,191.5543" style="stroke:#808080;stroke-width:1.35;"/><text fill="#000000" font-family="sans-serif" font-size="11.7" lengthAdjust="spacing" textLength="67.5" x="786.15" y="160.5449"> hasSource</text></a></g><!--MD5=[995ad73a0505fab5c23692640ecff6e3]
reverse link DDICDIModels::DesignPatterns::CollectionsPattern::Member to DDICDIModels::DesignPatterns::CollectionsPattern::Map--><g id="link_DDICDIModels::DesignPatterns::CollectionsPattern::Member_DDICDIModels::DesignPatterns::CollectionsPattern::Map"><a href="" target="_top" title=" ― hasTarget:&#10;" xlink:actuate="onRequest" xlink:href="" xlink:show="new" xlink:title=" ― hasTarget:&#10;" xlink:type="simple"><path codeLine="104" d="M587.979,189.9073 C649.683,166.7593 761.04,134.1703 854.55,156.4993 C882.729,163.2313 911.907,178.8283 932.31,191.3923 " fill="none" id="DDICDIModels::DesignPatterns::CollectionsPattern::Member-backto-DDICDIModels::DesignPatterns::CollectionsPattern::Map-1" style="stroke:#808080;stroke-width:1.35;"/><polygon fill="#808080" points="583.623,191.5543,592.4727,192.0574,587.8322,189.963,589.9266,185.3226,583.623,191.5543" style="stroke:#808080;stroke-width:1.35;"/><text fill="#000000" font-family="sans-serif" font-size="11.7" lengthAdjust="spacing" textLength="63" x="788.4" y="160.5449"> hasTarget</text></a></g><!--MD5=[78474f49e222207acd8b1cc7bf683cb3]
reverse link DDICDIModels::DesignPatterns::CollectionsPattern::Member to DDICDIModels::DesignPatterns::CollectionsPattern::MemberRelationship--><g id="link_DDICDIModels::DesignPatterns::CollectionsPattern::Member_DDICDIModels::DesignPatterns::CollectionsPattern::MemberRelationship"><a href="" target="_top" title=" ― hasSource:&#10;" xlink:actuate="onRequest" xlink:href="" xlink:show="new" xlink:title=" ― hasSource:&#10;" xlink:type="simple"><path codeLine="109" d="M613.566,209.5993 C646.947,209.5993 686.295,209.5993 719.028,209.5993 " fill="none" id="DDICDIModels::DesignPatterns::CollectionsPattern::Member-backto-DDICDIModels::DesignPatterns::CollectionsPattern::MemberRelationship" style="stroke:#808080;stroke-width:1.35;"/><polygon fill="#808080" points="608.688,209.5993,616.788,213.1993,613.188,209.5993,616.788,205.9993,608.688,209.5993" style="stroke:#808080;stroke-width:1.35;"/><text fill="#000000" font-family="sans-serif" font-size="11.7" lengthAdjust="spacing" textLength="67.5" x="630" y="203.7449"> hasSource</text></a></g><!--MD5=[92551cdb396273ff0e381551e67acf1f]
reverse link DDICDIModels::DesignPatterns::CollectionsPattern::Collection to DDICDIModels::DesignPatterns::CollectionsPattern::List--><g id="link_DDICDIModels::DesignPatterns::CollectionsPattern::Collection_DDICDIModels::DesignPatterns::CollectionsPattern::List"><path codeLine="117" d="M540.9,408.4723 C540.9,458.2243 540.9,524.2393 540.9,555.0643 " fill="none" id="DDICDIModels::DesignPatterns::CollectionsPattern::Collection-backto-DDICDIModels::DesignPatterns::CollectionsPattern::List" style="stroke:#D2691E;stroke-width:1.35;"/><polygon fill="none" points="534.6,408.3103,540.9,390.3103,547.2,408.3103,534.6,408.3103" style="stroke:#D2691E;stroke-width:1.35;"/></g><!--MD5=[d3d229a3bbf53e960a47a9dfa17802f2]
reverse link DDICDIModels::DesignPatterns::CollectionsPattern::Collection to DDICDIModels::DDICDILibrary::Classes::Conceptual::ConceptSystem--><g id="link_DDICDIModels::DesignPatterns::CollectionsPattern::Collection_DDICDIModels::DDICDILibrary::Classes::Conceptual::ConceptSystem"><path codeLine="120" d="M625.644,393.0373 C653.184,415.0423 676.8,444.2293 676.8,479.5993 C676.8,479.5993 676.8,479.5993 676.8,646.5493 C676.8,665.4133 676.8,687.0493 676.8,701.7283 " fill="none" id="DDICDIModels::DesignPatterns::CollectionsPattern::Collection-backto-DDICDIModels::DDICDILibrary::Classes::Conceptual::ConceptSystem" style="stroke:#404040;stroke-width:1.35;stroke-dasharray:7.0,7.0;"/><polygon fill="#404040" points="621.918,390.1123,626.0957,397.93,625.468,392.8777,630.5203,392.25,621.918,390.1123" style="stroke:#404040;stroke-width:1.35;"/><text fill="#000000" font-family="sans-serif" font-size="11.7" lengthAdjust="spacing" textLength="45" x="677.7" y="578.1449">«Refine»</text></g><!--MD5=[2b7a40e114c46f7d79c51063e942d861]
reverse link DDICDIModels::DesignPatterns::CollectionsPattern::Collection to DDICDIModels::DDICDILibrary::Classes::Conceptual::VariableCollection--><g id="link_DDICDIModels::DesignPatterns::CollectionsPattern::Collection_DDICDIModels::DDICDILibrary::Classes::Conceptual::VariableCollection"><path codeLine="122" d="M450.738,388.0693 C418.365,410.0113 389.7,440.4853 389.7,479.5993 C389.7,479.5993 389.7,479.5993 389.7,646.5493 C389.7,666.5293 399.492,687.4543 407.835,701.6473 " fill="none" id="DDICDIModels::DesignPatterns::CollectionsPattern::Collection-backto-DDICDIModels::DDICDILibrary::Classes::Conceptual::VariableCollection" style="stroke:#404040;stroke-width:1.35;stroke-dasharray:7.0,7.0;"/><polygon fill="#404040" points="454.698,385.4323,445.9591,386.9162,450.9498,387.9225,449.9435,392.9133,454.698,385.4323" style="stroke:#404040;stroke-width:1.35;"/><text fill="#000000" font-family="sans-serif" font-size="11.7" lengthAdjust="spacing" textLength="45" x="390.6" y="578.1449">«Refine»</text></g><!--MD5=[9bc4504f789d5dd4cd4a080dc3a21553]
reverse link DDICDIModels::DesignPatterns::CollectionsPattern::Collection to DDICDIModels::DDICDILibrary::Classes::DataDescription::Dimensional::DimensionGroup--><g id="link_DDICDIModels::DesignPatterns::CollectionsPattern::Collection_DDICDIModels::DDICDILibrary::Classes::DataDescription::Dimensional::DimensionGroup"><path codeLine="124" d="M449.892,353.0323 C313.983,366.8293 73.8,402.1633 73.8,479.5993 C73.8,479.5993 73.8,479.5993 73.8,646.5493 C73.8,665.4133 73.8,687.0493 73.8,701.7283 " fill="none" id="DDICDIModels::DesignPatterns::CollectionsPattern::Collection-backto-DDICDIModels::DDICDILibrary::Classes::DataDescription::Dimensional::DimensionGroup" style="stroke:#404040;stroke-width:1.35;stroke-dasharray:7.0,7.0;"/><polygon fill="#404040" points="454.68,352.5463,446.2612,349.7725,450.2025,352.9953,446.9797,356.9366,454.68,352.5463" style="stroke:#404040;stroke-width:1.35;"/><text fill="#000000" font-family="sans-serif" font-size="11.7" lengthAdjust="spacing" textLength="45" x="74.7" y="578.1449">«Refine»</text></g><!--MD5=[d43026902fea0208a02d15fbe9cecaf2]
reverse link DDICDIModels::DesignPatterns::CollectionsPattern::Collection to DDICDIModels::DDICDILibrary::Classes::FormatDescription::LogicalRecord--><g id="link_DDICDIModels::DesignPatterns::CollectionsPattern::Collection_DDICDIModels::DDICDILibrary::Classes::FormatDescription::LogicalRecord"><path codeLine="126" d="M449.982,349.7833 C363.528,359.3323 246.6,388.9963 246.6,479.5993 C246.6,479.5993 246.6,479.5993 246.6,646.5493 C246.6,665.4133 246.6,687.0493 246.6,701.7283 " fill="none" id="DDICDIModels::DesignPatterns::CollectionsPattern::Collection-backto-DDICDIModels::DDICDILibrary::Classes::FormatDescription::LogicalRecord" style="stroke:#404040;stroke-width:1.35;stroke-dasharray:7.0,7.0;"/><polygon fill="#404040" points="454.59,349.2883,446.1548,346.5649,450.1152,349.7641,446.916,353.7245,454.59,349.2883" style="stroke:#404040;stroke-width:1.35;"/><text fill="#000000" font-family="sans-serif" font-size="11.7" lengthAdjust="spacing" textLength="45" x="247.5" y="578.1449">«Refine»</text></g><rect height="33.9609" style="stroke:#00000000;stroke-width:0.9;fill:none;" width="323.1" x="353.7" y="742.5681"/><text fill="#888888" font-family="sans-serif" font-size="9" lengthAdjust="spacing" textLength="2.7" x="513.9" y="751.9108"> </text><text fill="#888888" font-family="sans-serif" font-size="9" lengthAdjust="spacing" textLength="2.7" x="513.9" y="763.2311"> </text><text fill="#888888" font-family="sans-serif" font-size="9" lengthAdjust="spacing" textLength="323.1" x="353.7" y="774.5515">DDI Cross Domain Integration (DDI-CDI)   1.0 - CollectionsPattern::Collection</text><!--MD5=[dfa736948a7ae5c9b78d14b692364307]
@startuml
!pragma ratio 0.5625
' HD display aspect ratio 16:9
' hyperlinkColor and pathHoverColor do not seem to work with class diagrams
' working approach: colors per item
' default font size for class names is 14

hide circle
hide empty members
scale 0.9

skinparam {
  ArrowThickness 1.5
  MinClassWidth 150
}

skinparam legend {
  BackgroundColor white
  FontSize 10
}

skinparam note {
  BackgroundColor white
}

skinparam class {
  ArrowColor #404040
  BorderColor #404040
}

skinparam package {
  FontColor lightgrey
  BorderColor lightgrey
}

title <size:20>UML Diagram: Class Collection in Context\n
footer \n\nDDI Cross Domain Integration (DDI-CDI)   1.0 - CollectionsPattern::Collection

legend top left
**Hints**
<color:grey>- Move the mouse cursor over a name to see more information.
<color:grey>- Click on a name to go to the corresponding page.
<color:grey>- The arrows of the inheritance tree are <color:#D2691E>colored<color:grey>.
endlegend

' Core class of diagram
abstract class DDICDIModels::DesignPatterns::CollectionsPattern::Collection as "<size:10>CollectionsPattern::\n<color:black>Collection" #FFD700 {
  allowsDuplicates : Boolean
  name : <color:blue>ObjectName   	  [[[../DDICDILibrary/DataTypes/StructuredDataTypes/ObjectName.html#diagram{ <U+2015> ObjectName:\nA standard means of expressing a name for a class object. A linguistic signifier. Human understandable name (word, phrase, or mnemonic) that reflects the ISO/IEC 11179-5 naming principles.}]]]
  purpose : <color:blue>InternationalString   	  [[[../DDICDILibrary/DataTypes/StructuredDataTypes/InternationalString.html#diagram{ <U+2015> InternationalString:\nPackaging structure for multiple language versions of the same string content. Where an element of this type is repeatable, the expectation is that each repetition contains different content, each of which can be expressed in multiple languages. The language designation goes on the individual String ...}]]]
}

' Class definitions for associated classes without superclass (might have also an association)
' This would be too many constraints for Graphviz. 
together {
  abstract class DDICDIModels::DesignPatterns::CollectionsPattern::Comparison as "<size:10>CollectionsPattern::\n<color:blue>Comparison" [[../DesignPatterns/CollectionsPattern/Comparison.html#super-class-hierarchy-generalization{ <U+2015> Comparison:\nThe minimal pattern for a comparison including a mapping between members.}]]
  abstract class DDICDIModels::DesignPatterns::CollectionsPattern::Structure as "<size:10>CollectionsPattern::\n<color:blue>Structure" [[../DesignPatterns/CollectionsPattern/Structure.html#super-class-hierarchy-generalization{ <U+2015> Structure:\nOrganized set of relationships between members in a collection. These relationships can be characterized mathematically in terms of reflexivity, symmetry and transitivity, or informally in terms of the collection's topology, e.g. network, tree, etc. In both cases it can also be defined either on all ...}]]
}

' Class definitions for suppliers of abstractions
together {
  abstract class DDICDIModels::DesignPatterns::CollectionsPattern::Collection as "<size:10>CollectionsPattern::\n<color:blue>Collection" [[../DesignPatterns/CollectionsPattern/Collection.html#super-class-hierarchy-generalization{ <U+2015> Collection:\nGeneric container that supports different types of groupings, from unordered sets to all sorts of hierarchies, nesting and ordered sets/bags.}]]
  abstract class DDICDIModels::DesignPatterns::CollectionsPattern::Collection as "<size:10>CollectionsPattern::\n<color:blue>Collection" [[../DesignPatterns/CollectionsPattern/Collection.html#super-class-hierarchy-generalization{ <U+2015> Collection:\nGeneric container that supports different types of groupings, from unordered sets to all sorts of hierarchies, nesting and ordered sets/bags.}]]
  abstract class DDICDIModels::DesignPatterns::CollectionsPattern::Collection as "<size:10>CollectionsPattern::\n<color:blue>Collection" [[../DesignPatterns/CollectionsPattern/Collection.html#super-class-hierarchy-generalization{ <U+2015> Collection:\nGeneric container that supports different types of groupings, from unordered sets to all sorts of hierarchies, nesting and ordered sets/bags.}]]
  abstract class DDICDIModels::DesignPatterns::CollectionsPattern::Collection as "<size:10>CollectionsPattern::\n<color:blue>Collection" [[../DesignPatterns/CollectionsPattern/Collection.html#super-class-hierarchy-generalization{ <U+2015> Collection:\nGeneric container that supports different types of groupings, from unordered sets to all sorts of hierarchies, nesting and ordered sets/bags.}]]
}

' Rest of class definitions, without associated classes of core class and abstraction supplier classes
abstract class DDICDIModels::DesignPatterns::CollectionsPattern::MemberRelationship as "<size:10>CollectionsPattern::\n<color:blue>MemberRelationship" [[../DesignPatterns/CollectionsPattern/MemberRelationship.html#super-class-hierarchy-generalization{ <U+2015> MemberRelationship:\nRelationship between members in a collection with directionality given by source and target.}]]
abstract class DDICDIModels::DesignPatterns::CollectionsPattern::Map as "<size:10>CollectionsPattern::\n<color:blue>Map" [[../DesignPatterns/CollectionsPattern/Map.html#super-class-hierarchy-generalization{ <U+2015> Map:\nProvides a basic pattern for a comparison map which identifies source and target members and details about their match. Source and target were retained as in describing differences and commonalities the direction of the comparison may be important.}]]
class DDICDIModels::DDICDILibrary::Classes::DataDescription::Dimensional::DimensionGroup as "<size:10>Dimensional::\n<color:blue>DimensionGroup" [[../DDICDILibrary/Classes/DataDescription/Dimensional/DimensionGroup.html#super-class-hierarchy-generalization{ <U+2015> DimensionGroup:\nCollection of dimensions that can be reused across multiple dimensional structures.}]]
class DDICDIModels::DDICDILibrary::Classes::FormatDescription::LogicalRecord as "<size:10>FormatDescription::\n<color:blue>LogicalRecord" [[../DDICDILibrary/Classes/FormatDescription/LogicalRecord.html#super-class-hierarchy-generalization{ <U+2015> LogicalRecord:\nCollection of instance variables.}]]
class DDICDIModels::DDICDILibrary::Classes::Conceptual::VariableCollection as "<size:10>Conceptual::\n<color:blue>VariableCollection" [[../DDICDILibrary/Classes/Conceptual/VariableCollection.html#super-class-hierarchy-generalization{ <U+2015> VariableCollection:\nGroup of any type of variable within the variable cascade (conceptual, represented, instance).}]]
abstract class DDICDIModels::DesignPatterns::CollectionsPattern::Member as "<size:10>CollectionsPattern::\n<color:blue>Member" [[../DesignPatterns/CollectionsPattern/Member.html#super-class-hierarchy-generalization{ <U+2015> Member:\nElement in a collection that can be either atomic (individual member) or composite (collection).}]]
abstract class DDICDIModels::DesignPatterns::CollectionsPattern::List as "<size:10>CollectionsPattern::\n<color:blue>List" [[../DesignPatterns/CollectionsPattern/List.html#super-class-hierarchy-generalization{ <U+2015> List:\nSimple ordered Collection defined as a list of Members where the location of each Member in the list is given by the associated Position class.}]]
class DDICDIModels::DDICDILibrary::Classes::Conceptual::ConceptSystem as "<size:10>Conceptual::\n<color:blue>ConceptSystem" [[../DDICDILibrary/Classes/Conceptual/ConceptSystem.html#super-class-hierarchy-generalization{ <U+2015> ConceptSystem:\nSet of concepts structured by the relations among them [GSIM 1.1].}]]



' Associations
DDICDIModels::DesignPatterns::CollectionsPattern::Collection o-[#grey]-> DDICDIModels::DesignPatterns::CollectionsPattern::Member [[{ <U+2015> has:\n}]] : has
DDICDIModels::DesignPatterns::CollectionsPattern::Collection <-[#grey]- DDICDIModels::DesignPatterns::CollectionsPattern::Comparison [[{ <U+2015> maps:\n}]] : maps
DDICDIModels::DesignPatterns::CollectionsPattern::Collection <-[#grey]- DDICDIModels::DesignPatterns::CollectionsPattern::Structure [[{ <U+2015> structures:\n}]] : structures

' Super classes
' Associations of Super classes
note left of DDICDIModels::DesignPatterns::CollectionsPattern::Member : Class has 6 associations.\nOnly 3 are shown here.
' firstAncestor:	org.eclipse.uml2.uml.internal.impl.ClassImpl@712ac7e6 (name: Member, visibility: <unset>) (isLeaf: false, isAbstract: true, isFinalSpecialization: false) (isActive: false)
' secondAncestor:	org.eclipse.uml2.uml.internal.impl.ClassImpl@712ac7e6 (name: Member, visibility: <unset>) (isLeaf: false, isAbstract: true, isFinalSpecialization: false) (isActive: false)



' aClass:			Collection
' aSuperClass:		Member
' e_ownedEndClass:	Map
' e_otherEndClass:	Member
DDICDIModels::DesignPatterns::CollectionsPattern::Member <-[#grey] DDICDIModels::DesignPatterns::CollectionsPattern::Map [[{ <U+2015> hasSource:\n}]] : <U+2003>hasSource
' aClass:			Collection
' aSuperClass:		Member
' e_ownedEndClass:	Map
' e_otherEndClass:	Member
DDICDIModels::DesignPatterns::CollectionsPattern::Member <-[#grey] DDICDIModels::DesignPatterns::CollectionsPattern::Map [[{ <U+2015> hasTarget:\n}]] : <U+2003>hasTarget
' aClass:			Collection
' aSuperClass:		Member
' e_ownedEndClass:	MemberRelationship
' e_otherEndClass:	Member
DDICDIModels::DesignPatterns::CollectionsPattern::Member <-[#grey] DDICDIModels::DesignPatterns::CollectionsPattern::MemberRelationship [[{ <U+2015> hasSource:\n}]] : <U+2003>hasSource

abstract class DDICDIModels::DesignPatterns::CollectionsPattern::Member as "<size:10> \n<color:blue>Member" [[../DesignPatterns/CollectionsPattern/Member.html#super-class-hierarchy-generalization{ <U+2015> Member:\nElement in a collection that can be either atomic (individual member) or composite (collection).}]] #FAFAD2 {
}

DDICDIModels::DesignPatterns::CollectionsPattern::Member <|-[#D2691E]- DDICDIModels::DesignPatterns::CollectionsPattern::Collection

' Sub classes
  DDICDIModels::DesignPatterns::CollectionsPattern::Collection <|- -[#D2691E]- DDICDIModels::DesignPatterns::CollectionsPattern::List 

' Abstractions
  DDICDIModels::DesignPatterns::CollectionsPattern::Collection <..... DDICDIModels::DDICDILibrary::Classes::Conceptual::ConceptSystem : <U+00AB>Refine<U+00BB>
   
  DDICDIModels::DesignPatterns::CollectionsPattern::Collection <..... DDICDIModels::DDICDILibrary::Classes::Conceptual::VariableCollection : <U+00AB>Refine<U+00BB>
   
  DDICDIModels::DesignPatterns::CollectionsPattern::Collection <..... DDICDIModels::DDICDILibrary::Classes::DataDescription::Dimensional::DimensionGroup : <U+00AB>Refine<U+00BB>
   
  DDICDIModels::DesignPatterns::CollectionsPattern::Collection <..... DDICDIModels::DDICDILibrary::Classes::FormatDescription::LogicalRecord : <U+00AB>Refine<U+00BB>
   
@enduml

@startuml
!pragma ratio 0.5625

hide circle
hide empty members
scale 0.9

skinparam {
  ArrowThickness 1.5
  MinClassWidth 150
}

skinparam legend {
  BackgroundColor white
  FontSize 10
}

skinparam note {
  BackgroundColor white
}

skinparam class {
  ArrowColor #404040
  BorderColor #404040
}

skinparam package {
  FontColor lightgrey
  BorderColor lightgrey
}

title <size:20>UML Diagram: Class Collection in Context\n
footer \n\nDDI Cross Domain Integration (DDI-CDI)   1.0 - CollectionsPattern::Collection

legend top left
**Hints**
<color:grey>- Move the mouse cursor over a name to see more information.
<color:grey>- Click on a name to go to the corresponding page.
<color:grey>- The arrows of the inheritance tree are <color:#D2691E>colored<color:grey>.
endlegend

abstract class DDICDIModels::DesignPatterns::CollectionsPattern::Collection as "<size:10>CollectionsPattern::\n<color:black>Collection" #FFD700 {
  allowsDuplicates : Boolean
  name : <color:blue>ObjectName   	  [[[../DDICDILibrary/DataTypes/StructuredDataTypes/ObjectName.html#diagram{ <U+2015> ObjectName:\nA standard means of expressing a name for a class object. A linguistic signifier. Human understandable name (word, phrase, or mnemonic) that reflects the ISO/IEC 11179-5 naming principles.}]]]
  purpose : <color:blue>InternationalString   	  [[[../DDICDILibrary/DataTypes/StructuredDataTypes/InternationalString.html#diagram{ <U+2015> InternationalString:\nPackaging structure for multiple language versions of the same string content. Where an element of this type is repeatable, the expectation is that each repetition contains different content, each of which can be expressed in multiple languages. The language designation goes on the individual String ...}]]]
}

together {
  abstract class DDICDIModels::DesignPatterns::CollectionsPattern::Comparison as "<size:10>CollectionsPattern::\n<color:blue>Comparison" [[../DesignPatterns/CollectionsPattern/Comparison.html#super-class-hierarchy-generalization{ <U+2015> Comparison:\nThe minimal pattern for a comparison including a mapping between members.}]]
  abstract class DDICDIModels::DesignPatterns::CollectionsPattern::Structure as "<size:10>CollectionsPattern::\n<color:blue>Structure" [[../DesignPatterns/CollectionsPattern/Structure.html#super-class-hierarchy-generalization{ <U+2015> Structure:\nOrganized set of relationships between members in a collection. These relationships can be characterized mathematically in terms of reflexivity, symmetry and transitivity, or informally in terms of the collection's topology, e.g. network, tree, etc. In both cases it can also be defined either on all ...}]]
}

together {
  abstract class DDICDIModels::DesignPatterns::CollectionsPattern::Collection as "<size:10>CollectionsPattern::\n<color:blue>Collection" [[../DesignPatterns/CollectionsPattern/Collection.html#super-class-hierarchy-generalization{ <U+2015> Collection:\nGeneric container that supports different types of groupings, from unordered sets to all sorts of hierarchies, nesting and ordered sets/bags.}]]
  abstract class DDICDIModels::DesignPatterns::CollectionsPattern::Collection as "<size:10>CollectionsPattern::\n<color:blue>Collection" [[../DesignPatterns/CollectionsPattern/Collection.html#super-class-hierarchy-generalization{ <U+2015> Collection:\nGeneric container that supports different types of groupings, from unordered sets to all sorts of hierarchies, nesting and ordered sets/bags.}]]
  abstract class DDICDIModels::DesignPatterns::CollectionsPattern::Collection as "<size:10>CollectionsPattern::\n<color:blue>Collection" [[../DesignPatterns/CollectionsPattern/Collection.html#super-class-hierarchy-generalization{ <U+2015> Collection:\nGeneric container that supports different types of groupings, from unordered sets to all sorts of hierarchies, nesting and ordered sets/bags.}]]
  abstract class DDICDIModels::DesignPatterns::CollectionsPattern::Collection as "<size:10>CollectionsPattern::\n<color:blue>Collection" [[../DesignPatterns/CollectionsPattern/Collection.html#super-class-hierarchy-generalization{ <U+2015> Collection:\nGeneric container that supports different types of groupings, from unordered sets to all sorts of hierarchies, nesting and ordered sets/bags.}]]
}

abstract class DDICDIModels::DesignPatterns::CollectionsPattern::MemberRelationship as "<size:10>CollectionsPattern::\n<color:blue>MemberRelationship" [[../DesignPatterns/CollectionsPattern/MemberRelationship.html#super-class-hierarchy-generalization{ <U+2015> MemberRelationship:\nRelationship between members in a collection with directionality given by source and target.}]]
abstract class DDICDIModels::DesignPatterns::CollectionsPattern::Map as "<size:10>CollectionsPattern::\n<color:blue>Map" [[../DesignPatterns/CollectionsPattern/Map.html#super-class-hierarchy-generalization{ <U+2015> Map:\nProvides a basic pattern for a comparison map which identifies source and target members and details about their match. Source and target were retained as in describing differences and commonalities the direction of the comparison may be important.}]]
class DDICDIModels::DDICDILibrary::Classes::DataDescription::Dimensional::DimensionGroup as "<size:10>Dimensional::\n<color:blue>DimensionGroup" [[../DDICDILibrary/Classes/DataDescription/Dimensional/DimensionGroup.html#super-class-hierarchy-generalization{ <U+2015> DimensionGroup:\nCollection of dimensions that can be reused across multiple dimensional structures.}]]
class DDICDIModels::DDICDILibrary::Classes::FormatDescription::LogicalRecord as "<size:10>FormatDescription::\n<color:blue>LogicalRecord" [[../DDICDILibrary/Classes/FormatDescription/LogicalRecord.html#super-class-hierarchy-generalization{ <U+2015> LogicalRecord:\nCollection of instance variables.}]]
class DDICDIModels::DDICDILibrary::Classes::Conceptual::VariableCollection as "<size:10>Conceptual::\n<color:blue>VariableCollection" [[../DDICDILibrary/Classes/Conceptual/VariableCollection.html#super-class-hierarchy-generalization{ <U+2015> VariableCollection:\nGroup of any type of variable within the variable cascade (conceptual, represented, instance).}]]
abstract class DDICDIModels::DesignPatterns::CollectionsPattern::Member as "<size:10>CollectionsPattern::\n<color:blue>Member" [[../DesignPatterns/CollectionsPattern/Member.html#super-class-hierarchy-generalization{ <U+2015> Member:\nElement in a collection that can be either atomic (individual member) or composite (collection).}]]
abstract class DDICDIModels::DesignPatterns::CollectionsPattern::List as "<size:10>CollectionsPattern::\n<color:blue>List" [[../DesignPatterns/CollectionsPattern/List.html#super-class-hierarchy-generalization{ <U+2015> List:\nSimple ordered Collection defined as a list of Members where the location of each Member in the list is given by the associated Position class.}]]
class DDICDIModels::DDICDILibrary::Classes::Conceptual::ConceptSystem as "<size:10>Conceptual::\n<color:blue>ConceptSystem" [[../DDICDILibrary/Classes/Conceptual/ConceptSystem.html#super-class-hierarchy-generalization{ <U+2015> ConceptSystem:\nSet of concepts structured by the relations among them [GSIM 1.1].}]]



DDICDIModels::DesignPatterns::CollectionsPattern::Collection o-[#grey]-> DDICDIModels::DesignPatterns::CollectionsPattern::Member [[{ <U+2015> has:\n}]] : has
DDICDIModels::DesignPatterns::CollectionsPattern::Collection <-[#grey]- DDICDIModels::DesignPatterns::CollectionsPattern::Comparison [[{ <U+2015> maps:\n}]] : maps
DDICDIModels::DesignPatterns::CollectionsPattern::Collection <-[#grey]- DDICDIModels::DesignPatterns::CollectionsPattern::Structure [[{ <U+2015> structures:\n}]] : structures

note left of DDICDIModels::DesignPatterns::CollectionsPattern::Member : Class has 6 associations.\nOnly 3 are shown here.



DDICDIModels::DesignPatterns::CollectionsPattern::Member <-[#grey] DDICDIModels::DesignPatterns::CollectionsPattern::Map [[{ <U+2015> hasSource:\n}]] : <U+2003>hasSource
DDICDIModels::DesignPatterns::CollectionsPattern::Member <-[#grey] DDICDIModels::DesignPatterns::CollectionsPattern::Map [[{ <U+2015> hasTarget:\n}]] : <U+2003>hasTarget
DDICDIModels::DesignPatterns::CollectionsPattern::Member <-[#grey] DDICDIModels::DesignPatterns::CollectionsPattern::MemberRelationship [[{ <U+2015> hasSource:\n}]] : <U+2003>hasSource

abstract class DDICDIModels::DesignPatterns::CollectionsPattern::Member as "<size:10> \n<color:blue>Member" [[../DesignPatterns/CollectionsPattern/Member.html#super-class-hierarchy-generalization{ <U+2015> Member:\nElement in a collection that can be either atomic (individual member) or composite (collection).}]] #FAFAD2 {
}

DDICDIModels::DesignPatterns::CollectionsPattern::Member <|-[#D2691E]- DDICDIModels::DesignPatterns::CollectionsPattern::Collection

  DDICDIModels::DesignPatterns::CollectionsPattern::Collection <|- -[#D2691E]- DDICDIModels::DesignPatterns::CollectionsPattern::List 

  DDICDIModels::DesignPatterns::CollectionsPattern::Collection <..... DDICDIModels::DDICDILibrary::Classes::Conceptual::ConceptSystem : <U+00AB>Refine<U+00BB>
   
  DDICDIModels::DesignPatterns::CollectionsPattern::Collection <..... DDICDIModels::DDICDILibrary::Classes::Conceptual::VariableCollection : <U+00AB>Refine<U+00BB>
   
  DDICDIModels::DesignPatterns::CollectionsPattern::Collection <..... DDICDIModels::DDICDILibrary::Classes::DataDescription::Dimensional::DimensionGroup : <U+00AB>Refine<U+00BB>
   
  DDICDIModels::DesignPatterns::CollectionsPattern::Collection <..... DDICDIModels::DDICDILibrary::Classes::FormatDescription::LogicalRecord : <U+00AB>Refine<U+00BB>
   
@enduml

PlantUML version 1.2022.6(Tue Jun 21 19:34:49 CEST 2022)
(GPL source distribution)
Java Runtime: OpenJDK Runtime Environment
JVM: OpenJDK 64-Bit Server VM
Default Encoding: Cp1252
Language: en
Country: US
--></g></svg>