<?xml version="1.0" encoding="UTF-8" standalone="no"?><svg xmlns="http://www.w3.org/2000/svg" xmlns:xlink="http://www.w3.org/1999/xlink" contentStyleType="text/css" height="720.9px" preserveAspectRatio="none" style="width:981px;height:720px;background:#FFFFFF;" version="1.1" viewBox="0 0 981 720" width="981px" zoomAndPan="magnify"><defs/><g><rect height="47.4891" style="stroke:#00000000;stroke-width:0.9;fill:none;" width="479.7" x="244.575" y="4.5"/><text fill="#000000" font-family="sans-serif" font-size="18" font-weight="bold" lengthAdjust="spacing" textLength="470.7" x="249.075" y="27.6855">UML Diagram: Class DeterministicImperative in Context</text><text fill="#000000" font-family="sans-serif" font-size="12.6" font-weight="bold" lengthAdjust="spacing" textLength="3.6" x="482.625" y="44.7205"> </text><rect fill="#FFFFFF" height="56.0813" rx="6.75" ry="6.75" style="stroke:#000000;stroke-width:0.9;" width="276.3" x="7.2" y="64.5891"/><text fill="#000000" font-family="sans-serif" font-size="9" font-weight="bold" lengthAdjust="spacing" textLength="22.5" x="12.6" y="79.3318">Hints</text><text fill="#808080" font-family="sans-serif" font-size="9" lengthAdjust="spacing" textLength="265.5" x="12.6" y="90.6521">- Move the mouse cursor over a name to see more information.</text><text fill="#808080" font-family="sans-serif" font-size="9" lengthAdjust="spacing" textLength="216" x="12.6" y="101.9725">- Click on a name to go to the corresponding page.</text><text fill="#808080" font-family="sans-serif" font-size="9" lengthAdjust="spacing" textLength="164.7" x="12.6" y="113.2928">- The arrows of the inheritance tree are</text><text fill="#D2691E" font-family="sans-serif" font-size="9" lengthAdjust="spacing" textLength="32.4" x="180" y="113.2928">colored</text><text fill="#808080" font-family="sans-serif" font-size="9" lengthAdjust="spacing" textLength="2.7" x="212.4" y="113.2928">.</text><!--MD5=[a0438961881a4fc606840d398cef942c]
entity ##3--><!--MD5=[7639129a7208b5720b5c8dbdaf72c8f5]
entity ##5--><!--MD5=[1a1a8561956ca8d977a1ae18d2ec3187]
class DDICDIModels::DDICDILibrary::Classes::Process::DeterministicImperative--><g id="elem_DDICDIModels::DDICDILibrary::Classes::Process::DeterministicImperative"><rect codeLine="47" fill="#FFD700" height="36.1688" id="DDICDIModels::DDICDILibrary::Classes::Process::DeterministicImperative" rx="2.25" ry="2.25" style="stroke:#404040;stroke-width:0.45;" width="136.8" x="233.55" y="426.7603"/><text fill="#000000" font-family="sans-serif" font-size="9" lengthAdjust="spacing" textLength="37.8" x="283.05" y="440.6031">Process::</text><text fill="#000000" font-family="sans-serif" font-size="12.6" lengthAdjust="spacing" textLength="131.4" x="236.25" y="455.6605">DeterministicImperative</text></g><!--MD5=[52638b0770114f5e4336b936e2b81262]
class DDICDIModels::DDICDILibrary::Classes::Process::InformationFlowDefinition--><a href="../DDICDILibrary/Classes/Process/InformationFlowDefinition.html#super-class-hierarchy-generalization" target="_top" title=" ― InformationFlowDefinition:&#10;The relationships between parameters across steps is described by the information flow definition. Each relationship creates a pathway for an information object to follow." xlink:actuate="onRequest" xlink:href="../DDICDILibrary/Classes/Process/InformationFlowDefinition.html#super-class-hierarchy-generalization" xlink:show="new" xlink:title=" ― InformationFlowDefinition:&#10;The relationships between parameters across steps is described by the information flow definition. Each relationship creates a pathway for an information object to follow." xlink:type="simple"><g id="elem_DDICDIModels::DDICDILibrary::Classes::Process::InformationFlowDefinition"><rect codeLine="60" fill="#F1F1F1" height="36.1688" id="DDICDIModels::DDICDILibrary::Classes::Process::InformationFlowDefinition" rx="2.25" ry="2.25" style="stroke:#404040;stroke-width:0.45;" width="147.6" x="661.95" y="255.7603"/><text fill="#000000" font-family="sans-serif" font-size="9" lengthAdjust="spacing" textLength="37.8" x="716.85" y="269.6031">Process::</text><text fill="#0000FF" font-family="sans-serif" font-size="12.6" lengthAdjust="spacing" textLength="142.2" x="664.65" y="284.6605">InformationFlowDefinition</text></g></a><!--MD5=[250dc3f1cdf1ef2cc74ebd3b8cfec0b1]
class DDICDIModels::DDICDILibrary::Classes::Process::Activity--><a href="../DDICDILibrary/Classes/Process/Activity.html#super-class-hierarchy-generalization" target="_top" title=" ― Activity:&#10;An activity is a task described at a conceptual level. It is not parameterized and as such is less reusable. For more logical/physical, fine-grained, reusable description there is a sub-type called step." xlink:actuate="onRequest" xlink:href="../DDICDILibrary/Classes/Process/Activity.html#super-class-hierarchy-generalization" xlink:show="new" xlink:title=" ― Activity:&#10;An activity is a task described at a conceptual level. It is not parameterized and as such is less reusable. For more logical/physical, fine-grained, reusable description there is a sub-type called step." xlink:type="simple"><g id="elem_DDICDIModels::DDICDILibrary::Classes::Process::Activity"><rect codeLine="61" fill="#F1F1F1" height="36.1688" id="DDICDIModels::DDICDILibrary::Classes::Process::Activity" rx="2.25" ry="2.25" style="stroke:#404040;stroke-width:0.45;" width="135" x="841.05" y="255.7603"/><text fill="#000000" font-family="sans-serif" font-size="9" lengthAdjust="spacing" textLength="37.8" x="889.65" y="269.6031">Process::</text><text fill="#0000FF" font-family="sans-serif" font-size="12.6" lengthAdjust="spacing" textLength="39.6" x="888.75" y="284.6605">Activity</text></g></a><!--MD5=[86778c92e97b374d9d16badd6f2c91e1]
class DDICDIModels::DDICDILibrary::Classes::Process::ControlLogic--><a href="../DDICDILibrary/Classes/Process/ControlLogic.html#super-class-hierarchy-generalization" target="_top" title=" ― ControlLogic:&#10;Control logic is a program in which the order of statements is explicit. Control logic is either deterministic (imperative) or non-deterministic (declarative). Deterministic control logic consists of control constructs. Declarative control logic is constraint- and/or rule-based. Control logic may co ..." xlink:actuate="onRequest" xlink:href="../DDICDILibrary/Classes/Process/ControlLogic.html#super-class-hierarchy-generalization" xlink:show="new" xlink:title=" ― ControlLogic:&#10;Control logic is a program in which the order of statements is explicit. Control logic is either deterministic (imperative) or non-deterministic (declarative). Deterministic control logic consists of control constructs. Declarative control logic is constraint- and/or rule-based. Control logic may co ..." xlink:type="simple"><g id="elem_DDICDIModels::DDICDILibrary::Classes::Process::ControlLogic"><rect codeLine="95" fill="#FAFAD2" height="90.9141" id="DDICDIModels::DDICDILibrary::Classes::Process::ControlLogic" rx="2.25" ry="2.25" style="stroke:#404040;stroke-width:0.45;" width="221.4" x="191.25" y="228.3103"/><text fill="#000000" font-family="sans-serif" font-size="9" lengthAdjust="spacing" textLength="37.8" x="283.05" y="242.1531">Process::</text><text fill="#0000FF" font-family="sans-serif" font-size="12.6" lengthAdjust="spacing" textLength="72" x="265.95" y="257.2105">ControlLogic</text><line style="stroke:#404040;stroke-width:0.45;" x1="192.15" x2="411.75" y1="264.4791" y2="264.4791"/><text fill="#000000" font-family="sans-serif" font-size="12.6" lengthAdjust="spacing" textLength="106.2" x="196.65" y="281.1589">description : String</text><a href="../DDICDILibrary/DataTypes/StructuredDataTypes/Identifier.html#diagram" target="_top" title=" ― Identifier:&#10;Identifier for objects requiring short- or long-lasting referencing and management." xlink:actuate="onRequest" xlink:href="../DDICDILibrary/DataTypes/StructuredDataTypes/Identifier.html#diagram" xlink:show="new" xlink:title=" ― Identifier:&#10;Identifier for objects requiring short- or long-lasting referencing and management." xlink:type="simple"><text fill="#000000" font-family="sans-serif" font-size="12.6" lengthAdjust="spacing" textLength="55.8" x="196.65" y="297.0074">identifier :</text><text fill="#0000FF" font-family="sans-serif" font-size="12.6" lengthAdjust="spacing" textLength="48.6" x="256.05" y="297.0074">Identifier</text></a><a href="../DDICDILibrary/DataTypes/StructuredDataTypes/ControlledVocabularyEntry.html#diagram" target="_top" title=" ― ControlledVocabularyEntry:&#10;Allows for unstructured content which may be an entry from an externally maintained controlled vocabulary.If the content is from a controlled vocabulary provide the code value of the entry, as well as a reference to the controlled vocabulary from which the value is taken. Provide as many of the iden ..." xlink:actuate="onRequest" xlink:href="../DDICDILibrary/DataTypes/StructuredDataTypes/ControlledVocabularyEntry.html#diagram" xlink:show="new" xlink:title=" ― ControlledVocabularyEntry:&#10;Allows for unstructured content which may be an entry from an externally maintained controlled vocabulary.If the content is from a controlled vocabulary provide the code value of the entry, as well as a reference to the controlled vocabulary from which the value is taken. Provide as many of the iden ..." xlink:type="simple"><text fill="#000000" font-family="sans-serif" font-size="12.6" lengthAdjust="spacing" textLength="54.9" x="196.65" y="312.8558">workflow :</text><text fill="#0000FF" font-family="sans-serif" font-size="12.6" lengthAdjust="spacing" textLength="152.1" x="255.15" y="312.8558">ControlledVocabularyEntry</text></a></g></a><!--MD5=[3078b484125a0460bfac2d32d1854149]
class DDICDIModels::DDICDILibrary::Classes::Process::ProcessingAgent--><a href="../DDICDILibrary/Classes/Process/ProcessingAgent.html#super-class-hierarchy-generalization" target="_top" title=" ― ProcessingAgent:&#10;A processing agent orchestrates the production of information objects in a production environment. There are processing agents which perform data capture, data editing/processing, and data analysis (etc.), each in the appropriate production environments. The processing agent performs an activity bas ..." xlink:actuate="onRequest" xlink:href="../DDICDILibrary/Classes/Process/ProcessingAgent.html#super-class-hierarchy-generalization" xlink:show="new" xlink:title=" ― ProcessingAgent:&#10;A processing agent orchestrates the production of information objects in a production environment. There are processing agents which perform data capture, data editing/processing, and data analysis (etc.), each in the appropriate production environments. The processing agent performs an activity bas ..." xlink:type="simple"><g id="elem_DDICDIModels::DDICDILibrary::Classes::Process::ProcessingAgent"><rect codeLine="63" fill="#F1F1F1" height="36.1688" id="DDICDIModels::DDICDILibrary::Classes::Process::ProcessingAgent" rx="2.25" ry="2.25" style="stroke:#404040;stroke-width:0.45;" width="135" x="495.45" y="255.7603"/><text fill="#000000" font-family="sans-serif" font-size="9" lengthAdjust="spacing" textLength="37.8" x="544.05" y="269.6031">Process::</text><text fill="#0000FF" font-family="sans-serif" font-size="12.6" lengthAdjust="spacing" textLength="96.3" x="514.8" y="284.6605">ProcessingAgent</text></g></a><!--MD5=[aeb310b8222cbee6a8a391ebc0bc3b5e]
class DDICDIModels::DDICDILibrary::Classes::Process::ConditionalControlLogic--><a href="../DDICDILibrary/Classes/Process/ConditionalControlLogic.html#super-class-hierarchy-generalization" target="_top" title=" ― ConditionalControlLogic:&#10;A set of decision points which determine the flow between the steps used to perform an activity." xlink:actuate="onRequest" xlink:href="../DDICDILibrary/Classes/Process/ConditionalControlLogic.html#super-class-hierarchy-generalization" xlink:show="new" xlink:title=" ― ConditionalControlLogic:&#10;A set of decision points which determine the flow between the steps used to perform an activity." xlink:type="simple"><g id="elem_DDICDIModels::DDICDILibrary::Classes::Process::ConditionalControlLogic"><rect codeLine="64" fill="#F1F1F1" height="36.1688" id="DDICDIModels::DDICDILibrary::Classes::Process::ConditionalControlLogic" rx="2.25" ry="2.25" style="stroke:#404040;stroke-width:0.45;" width="141.3" x="146.7" y="639.1603"/><text fill="#000000" font-family="sans-serif" font-size="9" lengthAdjust="spacing" textLength="37.8" x="198.45" y="653.0031">Process::</text><text fill="#0000FF" font-family="sans-serif" font-size="12.6" lengthAdjust="spacing" textLength="135.9" x="149.4" y="668.0605">ConditionalControlLogic</text></g></a><!--MD5=[8bc1edeb4199750592a575c53fada897]
class DDICDIModels::DDICDILibrary::Classes::Process::Sequence--><a href="../DDICDILibrary/Classes/Process/Sequence.html#super-class-hierarchy-generalization" target="_top" title=" ― Sequence:&#10;A sequence controls the order of activities or steps by defining a simple sequence." xlink:actuate="onRequest" xlink:href="../DDICDILibrary/Classes/Process/Sequence.html#super-class-hierarchy-generalization" xlink:show="new" xlink:title=" ― Sequence:&#10;A sequence controls the order of activities or steps by defining a simple sequence." xlink:type="simple"><g id="elem_DDICDIModels::DDICDILibrary::Classes::Process::Sequence"><rect codeLine="65" fill="#F1F1F1" height="36.1688" id="DDICDIModels::DDICDILibrary::Classes::Process::Sequence" rx="2.25" ry="2.25" style="stroke:#404040;stroke-width:0.45;" width="135" x="319.95" y="639.1603"/><text fill="#000000" font-family="sans-serif" font-size="9" lengthAdjust="spacing" textLength="37.8" x="368.55" y="653.0031">Process::</text><text fill="#0000FF" font-family="sans-serif" font-size="12.6" lengthAdjust="spacing" textLength="57.6" x="358.65" y="668.0605">Sequence</text></g></a><g id="elem_GMN13"><path d="M5.4,254.4103 L5.4,292.8431 A0,0 0 0 0 5.4,292.8431 L159.3,292.8431 A0,0 0 0 0 159.3,292.8431 L159.3,277.3603 L190.98,273.7603 L159.3,270.1603 L159.3,263.4103 L150.3,254.4103 L5.4,254.4103 A0,0 0 0 0 5.4,254.4103 " fill="#FFFFFF" style="stroke:#181818;stroke-width:0.45;"/><path d="M150.3,254.4103 L150.3,263.4103 L159.3,263.4103 L150.3,254.4103 " fill="#FFFFFF" style="stroke:#181818;stroke-width:0.45;"/><text fill="#000000" font-family="sans-serif" font-size="11.7" lengthAdjust="spacing" textLength="135" x="10.8" y="271.0559">Class has 5 associations.</text><text fill="#000000" font-family="sans-serif" font-size="11.7" lengthAdjust="spacing" textLength="120.6" x="10.8" y="285.7723">Only 3 are shown here.</text></g><!--MD5=[905e6468026295fccf09de81c28ac784]
reverse link DDICDIModels::DDICDILibrary::Classes::Process::ControlLogic to DDICDIModels::DDICDILibrary::Classes::Process::Activity--><g id="link_DDICDIModels::DDICDILibrary::Classes::Process::ControlLogic_DDICDIModels::DDICDILibrary::Classes::Process::Activity"><a href="" target="_top" title=" ― hasInternal:&#10;An activity is embedded in the control construct which launches it." xlink:actuate="onRequest" xlink:href="" xlink:show="new" xlink:title=" ― hasInternal:&#10;An activity is embedded in the control construct which launches it." xlink:type="simple"><path codeLine="83" d="M388.098,226.2493 C475.596,184.1653 614.808,134.1703 733.95,167.5603 C795.276,184.7413 856.44,230.0473 887.526,255.5803 " fill="none" id="DDICDIModels::DDICDILibrary::Classes::Process::ControlLogic-backto-DDICDIModels::DDICDILibrary::Classes::Process::Activity" style="stroke:#808080;stroke-width:1.35;"/><polygon fill="#808080" points="383.976,228.2473,392.8349,227.9466,388.0238,226.2812,389.6892,221.4702,383.976,228.2473" style="stroke:#808080;stroke-width:1.35;"/><text fill="#000000" font-family="sans-serif" font-size="11.7" lengthAdjust="spacing" textLength="68.4" x="664.65" y="161.7059"> hasInternal</text></a></g><!--MD5=[7f3215c825603254f2cfd6e18ef191f0]
link DDICDIModels::DDICDILibrary::Classes::Process::ControlLogic to DDICDIModels::DDICDILibrary::Classes::Process::InformationFlowDefinition--><g id="link_DDICDIModels::DDICDILibrary::Classes::Process::ControlLogic_DDICDIModels::DDICDILibrary::Classes::Process::InformationFlowDefinition"><a href="" target="_top" title=" ― has:&#10;A control construct has zero or more information flow definitions each of which provides the control construct with zero or more input and output parameters used or produced in the step/sub-step with which it is associated." xlink:actuate="onRequest" xlink:href="" xlink:show="new" xlink:title=" ― has:&#10;A control construct has zero or more information flow definitions each of which provides the control construct with zero or more input and output parameters used or produced in the step/sub-step with which it is associated." xlink:type="simple"><path codeLine="88" d="M364.0393,221.969 C364.0393,221.969 486.639,149.6593 553.05,167.5603 C610.92,183.1573 669.339,222.1003 704.034,248.2363 " fill="none" id="DDICDIModels::DDICDILibrary::Classes::Process::ControlLogic-DDICDIModels::DDICDILibrary::Classes::Process::InformationFlowDefinition" style="stroke:#808080;stroke-width:1.35;"/><polygon fill="#808080" points="713.592,255.5713,709.3573,247.7843,710.0219,252.8319,704.9743,253.4965,713.592,255.5713" style="stroke:#808080;stroke-width:1.35;"/><line style="stroke:#808080;stroke-width:1.35;" x1="710.0219" x2="704.304" y1="252.8319" y2="248.4523"/><polygon fill="none" points="355.284,228.2923,361.7694,228.0491,364.0393,221.969,357.5539,222.2122,355.284,228.2923" style="stroke:#808080;stroke-width:1.35;"/><text fill="#000000" font-family="sans-serif" font-size="11.7" lengthAdjust="spacing" textLength="30.6" x="521.55" y="161.7059"> has</text></a></g><!--MD5=[dcad773e65a355ef72878f788d9544ba]
link DDICDIModels::DDICDILibrary::Classes::Process::ControlLogic to DDICDIModels::DDICDILibrary::Classes::Process::ProcessingAgent--><g id="link_DDICDIModels::DDICDILibrary::Classes::Process::ControlLogic_DDICDIModels::DDICDILibrary::Classes::Process::ProcessingAgent"><a href="" target="_top" title=" ― informs:&#10;Control logic informs a processing agent. The information may be deterministic or non-deterministic." xlink:actuate="onRequest" xlink:href="" xlink:show="new" xlink:title=" ― informs:&#10;Control logic informs a processing agent. The information may be deterministic or non-deterministic." xlink:type="simple"><path codeLine="93" d="M413.019,273.7603 C439.29,273.7603 466.641,273.7603 490.68,273.7603 " fill="none" id="DDICDIModels::DDICDILibrary::Classes::Process::ControlLogic-to-DDICDIModels::DDICDILibrary::Classes::Process::ProcessingAgent" style="stroke:#808080;stroke-width:1.35;"/><polygon fill="#808080" points="495.441,273.7603,487.341,270.1603,490.941,273.7603,487.341,277.3603,495.441,273.7603" style="stroke:#808080;stroke-width:1.35;"/><text fill="#000000" font-family="sans-serif" font-size="11.7" lengthAdjust="spacing" textLength="49.5" x="429.3" y="267.9059"> informs</text></a></g><!--MD5=[55887e32996690c03f97de33909f544c]
reverse link DDICDIModels::DDICDILibrary::Classes::Process::ControlLogic to DDICDIModels::DDICDILibrary::Classes::Process::DeterministicImperative--><g id="link_DDICDIModels::DDICDILibrary::Classes::Process::ControlLogic_DDICDIModels::DDICDILibrary::Classes::Process::DeterministicImperative"><path codeLine="103" d="M301.95,337.6063 C301.95,369.3763 301.95,405.5113 301.95,426.4003 " fill="none" id="DDICDIModels::DDICDILibrary::Classes::Process::ControlLogic-backto-DDICDIModels::DDICDILibrary::Classes::Process::DeterministicImperative" style="stroke:#D2691E;stroke-width:1.35;"/><polygon fill="none" points="295.65,337.5613,301.95,319.5613,308.25,337.5613,295.65,337.5613" style="stroke:#D2691E;stroke-width:1.35;"/></g><!--MD5=[06da0ddd9a7fa480e991ab04536ea3b2]
reverse link DDICDIModels::DDICDILibrary::Classes::Process::DeterministicImperative to DDICDIModels::DDICDILibrary::Classes::Process::ConditionalControlLogic--><g id="link_DDICDIModels::DDICDILibrary::Classes::Process::DeterministicImperative_DDICDIModels::DDICDILibrary::Classes::Process::ConditionalControlLogic"><path codeLine="106" d="M288.315,479.5993 C270.018,525.1483 238.212,604.3393 224.253,639.0793 " fill="none" id="DDICDIModels::DDICDILibrary::Classes::Process::DeterministicImperative-backto-DDICDIModels::DDICDILibrary::Classes::Process::ConditionalControlLogic" style="stroke:#D2691E;stroke-width:1.35;"/><polygon fill="none" points="282.474,477.2503,295.029,462.8953,294.165,481.9483,282.474,477.2503" style="stroke:#D2691E;stroke-width:1.35;"/></g><!--MD5=[3ebdb2bd1c4563186d82182f64e1afb3]
reverse link DDICDIModels::DDICDILibrary::Classes::Process::DeterministicImperative to DDICDIModels::DDICDILibrary::Classes::Process::Sequence--><g id="link_DDICDIModels::DDICDILibrary::Classes::Process::DeterministicImperative_DDICDIModels::DDICDILibrary::Classes::Process::Sequence"><path codeLine="107" d="M315.729,479.5993 C334.224,525.1483 366.372,604.3393 380.475,639.0793 " fill="none" id="DDICDIModels::DDICDILibrary::Classes::Process::DeterministicImperative-backto-DDICDIModels::DDICDILibrary::Classes::Process::Sequence" style="stroke:#D2691E;stroke-width:1.35;"/><polygon fill="none" points="309.879,481.9393,308.943,462.8953,321.552,477.2053,309.879,481.9393" style="stroke:#D2691E;stroke-width:1.35;"/></g><rect height="33.9609" style="stroke:#00000000;stroke-width:0.9;fill:none;" width="333.9" x="317.475" y="679.8291"/><text fill="#888888" font-family="sans-serif" font-size="9" lengthAdjust="spacing" textLength="2.7" x="483.075" y="689.1718"> </text><text fill="#888888" font-family="sans-serif" font-size="9" lengthAdjust="spacing" textLength="2.7" x="483.075" y="700.4921"> </text><text fill="#888888" font-family="sans-serif" font-size="9" lengthAdjust="spacing" textLength="333.9" x="317.475" y="711.8125">DDI Cross Domain Integration (DDI-CDI)   1.0 - Process::DeterministicImperative</text><!--MD5=[fb5dfa9e68bca5988f7e384414fa1a46]
@startuml
!pragma ratio 0.5625
' HD display aspect ratio 16:9
' hyperlinkColor and pathHoverColor do not seem to work with class diagrams
' working approach: colors per item
' default font size for class names is 14

hide circle
hide empty members
scale 0.9

skinparam {
  ArrowThickness 1.5
  MinClassWidth 150
}

skinparam legend {
  BackgroundColor white
  FontSize 10
}

skinparam note {
  BackgroundColor white
}

skinparam class {
  ArrowColor #404040
  BorderColor #404040
}

skinparam package {
  FontColor lightgrey
  BorderColor lightgrey
}

title <size:20>UML Diagram: Class DeterministicImperative in Context\n
footer \n\nDDI Cross Domain Integration (DDI-CDI)   1.0 - Process::DeterministicImperative

legend top left
**Hints**
<color:grey>- Move the mouse cursor over a name to see more information.
<color:grey>- Click on a name to go to the corresponding page.
<color:grey>- The arrows of the inheritance tree are <color:#D2691E>colored<color:grey>.
endlegend

' Core class of diagram
class DDICDIModels::DDICDILibrary::Classes::Process::DeterministicImperative as "<size:10>Process::\n<color:black>DeterministicImperative" #FFD700 {
}

' Class definitions for associated classes without superclass (might have also an association)
' This would be too many constraints for Graphviz. 
together {
}

' Class definitions for suppliers of abstractions
together {
}

' Rest of class definitions, without associated classes of core class and abstraction supplier classes
class DDICDIModels::DDICDILibrary::Classes::Process::InformationFlowDefinition as "<size:10>Process::\n<color:blue>InformationFlowDefinition" [[../DDICDILibrary/Classes/Process/InformationFlowDefinition.html#super-class-hierarchy-generalization{ <U+2015> InformationFlowDefinition:\nThe relationships between parameters across steps is described by the information flow definition. Each relationship creates a pathway for an information object to follow.}]]
class DDICDIModels::DDICDILibrary::Classes::Process::Activity as "<size:10>Process::\n<color:blue>Activity" [[../DDICDILibrary/Classes/Process/Activity.html#super-class-hierarchy-generalization{ <U+2015> Activity:\nAn activity is a task described at a conceptual level. It is not parameterized and as such is less reusable. For more logical/physical, fine-grained, reusable description there is a sub-type called step.}]]
class DDICDIModels::DDICDILibrary::Classes::Process::ControlLogic as "<size:10>Process::\n<color:blue>ControlLogic" [[../DDICDILibrary/Classes/Process/ControlLogic.html#super-class-hierarchy-generalization{ <U+2015> ControlLogic:\nControl logic is a program in which the order of statements is explicit. Control logic is either deterministic (imperative) or non-deterministic (declarative). Deterministic control logic consists of control constructs. Declarative control logic is constraint- and/or rule-based. Control logic may co ...}]]
class DDICDIModels::DDICDILibrary::Classes::Process::ProcessingAgent as "<size:10>Process::\n<color:blue>ProcessingAgent" [[../DDICDILibrary/Classes/Process/ProcessingAgent.html#super-class-hierarchy-generalization{ <U+2015> ProcessingAgent:\nA processing agent orchestrates the production of information objects in a production environment. There are processing agents which perform data capture, data editing/processing, and data analysis (etc.), each in the appropriate production environments. The processing agent performs an activity bas ...}]]
class DDICDIModels::DDICDILibrary::Classes::Process::ConditionalControlLogic as "<size:10>Process::\n<color:blue>ConditionalControlLogic" [[../DDICDILibrary/Classes/Process/ConditionalControlLogic.html#super-class-hierarchy-generalization{ <U+2015> ConditionalControlLogic:\nA set of decision points which determine the flow between the steps used to perform an activity.}]]
class DDICDIModels::DDICDILibrary::Classes::Process::Sequence as "<size:10>Process::\n<color:blue>Sequence" [[../DDICDILibrary/Classes/Process/Sequence.html#super-class-hierarchy-generalization{ <U+2015> Sequence:\nA sequence controls the order of activities or steps by defining a simple sequence.}]]



' Associations

' Super classes
' Associations of Super classes
note left of DDICDIModels::DDICDILibrary::Classes::Process::ControlLogic : Class has 5 associations.\nOnly 3 are shown here.
' firstAncestor:	org.eclipse.uml2.uml.internal.impl.ClassImpl@3f0d6038 (name: ControlLogic, visibility: <unset>) (isLeaf: false, isAbstract: false, isFinalSpecialization: false) (isActive: false)
' secondAncestor:	org.eclipse.uml2.uml.internal.impl.ClassImpl@3f0d6038 (name: ControlLogic, visibility: <unset>) (isLeaf: false, isAbstract: false, isFinalSpecialization: false) (isActive: false)



' aClass:			DeterministicImperative
' aSuperClass:		ControlLogic
' e_ownedEndClass:	Activity
' e_otherEndClass:	ControlLogic
DDICDIModels::DDICDILibrary::Classes::Process::ControlLogic <-[#grey] DDICDIModels::DDICDILibrary::Classes::Process::Activity [[{ <U+2015> hasInternal:\nAn activity is embedded in the control construct which launches it.}]] : <U+2003>hasInternal
' aClass:			DeterministicImperative
' aSuperClass:		ControlLogic
' e_ownedEndClass:	ControlLogic
' e_otherEndClass:	InformationFlowDefinition
DDICDIModels::DDICDILibrary::Classes::Process::ControlLogic o-[#grey]> DDICDIModels::DDICDILibrary::Classes::Process::InformationFlowDefinition [[{ <U+2015> has:\nA control construct has zero or more information flow definitions each of which provides the control construct with zero or more input and output parameters used or produced in the step/sub-step with which it is associated.}]] : <U+2003>has
' aClass:			DeterministicImperative
' aSuperClass:		ControlLogic
' e_ownedEndClass:	ControlLogic
' e_otherEndClass:	ProcessingAgent
DDICDIModels::DDICDILibrary::Classes::Process::ControlLogic -[#grey]> DDICDIModels::DDICDILibrary::Classes::Process::ProcessingAgent [[{ <U+2015> informs:\nControl logic informs a processing agent. The information may be deterministic or non-deterministic.}]] : <U+2003>informs

class DDICDIModels::DDICDILibrary::Classes::Process::ControlLogic as "<size:10> \n<color:blue>ControlLogic" [[../DDICDILibrary/Classes/Process/ControlLogic.html#super-class-hierarchy-generalization{ <U+2015> ControlLogic:\nControl logic is a program in which the order of statements is explicit. Control logic is either deterministic (imperative) or non-deterministic (declarative). Deterministic control logic consists of control constructs. Declarative control logic is constraint- and/or rule-based. Control logic may co ...}]] #FAFAD2 {
  description : String
  identifier : <color:blue>Identifier   	  [[[../DDICDILibrary/DataTypes/StructuredDataTypes/Identifier.html#diagram{ <U+2015> Identifier:\nIdentifier for objects requiring short- or long-lasting referencing and management.}]]]
  workflow : <color:blue>ControlledVocabularyEntry   	  [[[../DDICDILibrary/DataTypes/StructuredDataTypes/ControlledVocabularyEntry.html#diagram{ <U+2015> ControlledVocabularyEntry:\nAllows for unstructured content which may be an entry from an externally maintained controlled vocabulary.If the content is from a controlled vocabulary provide the code value of the entry, as well as a reference to the controlled vocabulary from which the value is taken. Provide as many of the iden ...}]]]
}

DDICDIModels::DDICDILibrary::Classes::Process::ControlLogic <|-[#D2691E]- DDICDIModels::DDICDILibrary::Classes::Process::DeterministicImperative

' Sub classes
  DDICDIModels::DDICDILibrary::Classes::Process::DeterministicImperative <|- -[#D2691E]- DDICDIModels::DDICDILibrary::Classes::Process::ConditionalControlLogic 
  DDICDIModels::DDICDILibrary::Classes::Process::DeterministicImperative <|- -[#D2691E]- DDICDIModels::DDICDILibrary::Classes::Process::Sequence 

' Abstractions
@enduml

@startuml
!pragma ratio 0.5625

hide circle
hide empty members
scale 0.9

skinparam {
  ArrowThickness 1.5
  MinClassWidth 150
}

skinparam legend {
  BackgroundColor white
  FontSize 10
}

skinparam note {
  BackgroundColor white
}

skinparam class {
  ArrowColor #404040
  BorderColor #404040
}

skinparam package {
  FontColor lightgrey
  BorderColor lightgrey
}

title <size:20>UML Diagram: Class DeterministicImperative in Context\n
footer \n\nDDI Cross Domain Integration (DDI-CDI)   1.0 - Process::DeterministicImperative

legend top left
**Hints**
<color:grey>- Move the mouse cursor over a name to see more information.
<color:grey>- Click on a name to go to the corresponding page.
<color:grey>- The arrows of the inheritance tree are <color:#D2691E>colored<color:grey>.
endlegend

class DDICDIModels::DDICDILibrary::Classes::Process::DeterministicImperative as "<size:10>Process::\n<color:black>DeterministicImperative" #FFD700 {
}

together {
}

together {
}

class DDICDIModels::DDICDILibrary::Classes::Process::InformationFlowDefinition as "<size:10>Process::\n<color:blue>InformationFlowDefinition" [[../DDICDILibrary/Classes/Process/InformationFlowDefinition.html#super-class-hierarchy-generalization{ <U+2015> InformationFlowDefinition:\nThe relationships between parameters across steps is described by the information flow definition. Each relationship creates a pathway for an information object to follow.}]]
class DDICDIModels::DDICDILibrary::Classes::Process::Activity as "<size:10>Process::\n<color:blue>Activity" [[../DDICDILibrary/Classes/Process/Activity.html#super-class-hierarchy-generalization{ <U+2015> Activity:\nAn activity is a task described at a conceptual level. It is not parameterized and as such is less reusable. For more logical/physical, fine-grained, reusable description there is a sub-type called step.}]]
class DDICDIModels::DDICDILibrary::Classes::Process::ControlLogic as "<size:10>Process::\n<color:blue>ControlLogic" [[../DDICDILibrary/Classes/Process/ControlLogic.html#super-class-hierarchy-generalization{ <U+2015> ControlLogic:\nControl logic is a program in which the order of statements is explicit. Control logic is either deterministic (imperative) or non-deterministic (declarative). Deterministic control logic consists of control constructs. Declarative control logic is constraint- and/or rule-based. Control logic may co ...}]]
class DDICDIModels::DDICDILibrary::Classes::Process::ProcessingAgent as "<size:10>Process::\n<color:blue>ProcessingAgent" [[../DDICDILibrary/Classes/Process/ProcessingAgent.html#super-class-hierarchy-generalization{ <U+2015> ProcessingAgent:\nA processing agent orchestrates the production of information objects in a production environment. There are processing agents which perform data capture, data editing/processing, and data analysis (etc.), each in the appropriate production environments. The processing agent performs an activity bas ...}]]
class DDICDIModels::DDICDILibrary::Classes::Process::ConditionalControlLogic as "<size:10>Process::\n<color:blue>ConditionalControlLogic" [[../DDICDILibrary/Classes/Process/ConditionalControlLogic.html#super-class-hierarchy-generalization{ <U+2015> ConditionalControlLogic:\nA set of decision points which determine the flow between the steps used to perform an activity.}]]
class DDICDIModels::DDICDILibrary::Classes::Process::Sequence as "<size:10>Process::\n<color:blue>Sequence" [[../DDICDILibrary/Classes/Process/Sequence.html#super-class-hierarchy-generalization{ <U+2015> Sequence:\nA sequence controls the order of activities or steps by defining a simple sequence.}]]




note left of DDICDIModels::DDICDILibrary::Classes::Process::ControlLogic : Class has 5 associations.\nOnly 3 are shown here.



DDICDIModels::DDICDILibrary::Classes::Process::ControlLogic <-[#grey] DDICDIModels::DDICDILibrary::Classes::Process::Activity [[{ <U+2015> hasInternal:\nAn activity is embedded in the control construct which launches it.}]] : <U+2003>hasInternal
DDICDIModels::DDICDILibrary::Classes::Process::ControlLogic o-[#grey]> DDICDIModels::DDICDILibrary::Classes::Process::InformationFlowDefinition [[{ <U+2015> has:\nA control construct has zero or more information flow definitions each of which provides the control construct with zero or more input and output parameters used or produced in the step/sub-step with which it is associated.}]] : <U+2003>has
DDICDIModels::DDICDILibrary::Classes::Process::ControlLogic -[#grey]> DDICDIModels::DDICDILibrary::Classes::Process::ProcessingAgent [[{ <U+2015> informs:\nControl logic informs a processing agent. The information may be deterministic or non-deterministic.}]] : <U+2003>informs

class DDICDIModels::DDICDILibrary::Classes::Process::ControlLogic as "<size:10> \n<color:blue>ControlLogic" [[../DDICDILibrary/Classes/Process/ControlLogic.html#super-class-hierarchy-generalization{ <U+2015> ControlLogic:\nControl logic is a program in which the order of statements is explicit. Control logic is either deterministic (imperative) or non-deterministic (declarative). Deterministic control logic consists of control constructs. Declarative control logic is constraint- and/or rule-based. Control logic may co ...}]] #FAFAD2 {
  description : String
  identifier : <color:blue>Identifier   	  [[[../DDICDILibrary/DataTypes/StructuredDataTypes/Identifier.html#diagram{ <U+2015> Identifier:\nIdentifier for objects requiring short- or long-lasting referencing and management.}]]]
  workflow : <color:blue>ControlledVocabularyEntry   	  [[[../DDICDILibrary/DataTypes/StructuredDataTypes/ControlledVocabularyEntry.html#diagram{ <U+2015> ControlledVocabularyEntry:\nAllows for unstructured content which may be an entry from an externally maintained controlled vocabulary.If the content is from a controlled vocabulary provide the code value of the entry, as well as a reference to the controlled vocabulary from which the value is taken. Provide as many of the iden ...}]]]
}

DDICDIModels::DDICDILibrary::Classes::Process::ControlLogic <|-[#D2691E]- DDICDIModels::DDICDILibrary::Classes::Process::DeterministicImperative

  DDICDIModels::DDICDILibrary::Classes::Process::DeterministicImperative <|- -[#D2691E]- DDICDIModels::DDICDILibrary::Classes::Process::ConditionalControlLogic 
  DDICDIModels::DDICDILibrary::Classes::Process::DeterministicImperative <|- -[#D2691E]- DDICDIModels::DDICDILibrary::Classes::Process::Sequence 

@enduml

PlantUML version 1.2022.6(Tue Jun 21 19:34:49 CEST 2022)
(GPL source distribution)
Java Runtime: OpenJDK Runtime Environment
JVM: OpenJDK 64-Bit Server VM
Default Encoding: Cp1252
Language: en
Country: US
--></g></svg>