<?xml version="1.0" encoding="UTF-8" standalone="no"?><svg xmlns="http://www.w3.org/2000/svg" xmlns:xlink="http://www.w3.org/1999/xlink" contentStyleType="text/css" height="805.5px" preserveAspectRatio="none" style="width:1263px;height:805px;background:#FFFFFF;" version="1.1" viewBox="0 0 1263 805" width="1263.6px" zoomAndPan="magnify"><defs/><g><rect height="47.4891" style="stroke:#00000000;stroke-width:0.9;fill:none;" width="423" x="414" y="4.5"/><text fill="#000000" font-family="sans-serif" font-size="18" font-weight="bold" lengthAdjust="spacing" textLength="414" x="418.5" y="27.6855">UML Diagram: Class ConceptualValue in Context</text><text fill="#000000" font-family="sans-serif" font-size="12.6" font-weight="bold" lengthAdjust="spacing" textLength="3.6" x="623.7" y="44.7205"> </text><rect fill="#FFFFFF" height="56.0813" rx="6.75" ry="6.75" style="stroke:#000000;stroke-width:0.9;" width="276.3" x="7.2" y="64.5891"/><text fill="#000000" font-family="sans-serif" font-size="9" font-weight="bold" lengthAdjust="spacing" textLength="22.5" x="12.6" y="79.3318">Hints</text><text fill="#808080" font-family="sans-serif" font-size="9" lengthAdjust="spacing" textLength="265.5" x="12.6" y="90.6521">- Move the mouse cursor over a name to see more information.</text><text fill="#808080" font-family="sans-serif" font-size="9" lengthAdjust="spacing" textLength="216" x="12.6" y="101.9725">- Click on a name to go to the corresponding page.</text><text fill="#808080" font-family="sans-serif" font-size="9" lengthAdjust="spacing" textLength="164.7" x="12.6" y="113.2928">- The arrows of the inheritance tree are</text><text fill="#D2691E" font-family="sans-serif" font-size="9" lengthAdjust="spacing" textLength="32.4" x="180" y="113.2928">colored</text><text fill="#808080" font-family="sans-serif" font-size="9" lengthAdjust="spacing" textLength="2.7" x="212.4" y="113.2928">.</text><!--MD5=[9995a2dceb5f31a5260ac52ed8e35176]
class DDICDIModels::DDICDILibrary::Classes::DataDescription::InstanceValue--><a href="../DDICDILibrary/Classes/DataDescription/InstanceValue.html#super-class-hierarchy-generalization" target="_top" title=" ― InstanceValue:&#10;Single data instance corresponding to a concept (with a notion of equality defined) being observed, captured, or derived." xlink:actuate="onRequest" xlink:href="../DDICDILibrary/Classes/DataDescription/InstanceValue.html#super-class-hierarchy-generalization" xlink:show="new" xlink:title=" ― InstanceValue:&#10;Single data instance corresponding to a concept (with a notion of equality defined) being observed, captured, or derived." xlink:type="simple"><g id="elem_DDICDIModels::DDICDILibrary::Classes::DataDescription::InstanceValue"><rect codeLine="53" fill="#F1F1F1" height="36.1688" id="DDICDIModels::DDICDILibrary::Classes::DataDescription::InstanceValue" rx="2.25" ry="2.25" style="stroke:#404040;stroke-width:0.45;" width="135" x="350.1" y="482.7493"/><text fill="#000000" font-family="sans-serif" font-size="9" lengthAdjust="spacing" textLength="72.9" x="381.15" y="496.5921">DataDescription::</text><text fill="#0000FF" font-family="sans-serif" font-size="12.6" lengthAdjust="spacing" textLength="80.1" x="377.55" y="511.6495">InstanceValue</text></g></a><!--MD5=[cc1a93bbed18b03827399842bad0aaf4]
class DDICDIModels::DDICDILibrary::Classes::Conceptual::ConceptualDomain--><a href="../DDICDILibrary/Classes/Conceptual/ConceptualDomain.html#super-class-hierarchy-generalization" target="_top" title=" ― ConceptualDomain:&#10;Set of concepts, where each concept is intended to be used as the meaning (signified) for a datum." xlink:actuate="onRequest" xlink:href="../DDICDILibrary/Classes/Conceptual/ConceptualDomain.html#super-class-hierarchy-generalization" xlink:show="new" xlink:title=" ― ConceptualDomain:&#10;Set of concepts, where each concept is intended to be used as the meaning (signified) for a datum." xlink:type="simple"><g id="elem_DDICDIModels::DDICDILibrary::Classes::Conceptual::ConceptualDomain"><rect codeLine="54" fill="#F1F1F1" height="36.1688" id="DDICDIModels::DDICDILibrary::Classes::Conceptual::ConceptualDomain" rx="2.25" ry="2.25" style="stroke:#404040;stroke-width:0.45;" width="135" x="533.7" y="482.7493"/><text fill="#000000" font-family="sans-serif" font-size="9" lengthAdjust="spacing" textLength="54.9" x="573.75" y="496.5921">Conceptual::</text><text fill="#0000FF" font-family="sans-serif" font-size="12.6" lengthAdjust="spacing" textLength="108" x="547.2" y="511.6495">ConceptualDomain</text></g></a><!--MD5=[2191ebb08fe12324867390356ee2c7aa]
class DDICDIModels::DDICDILibrary::Classes::DataDescription::Datum--><a href="../DDICDILibrary/Classes/DataDescription/Datum.html#super-class-hierarchy-generalization" target="_top" title=" ― Datum:&#10;Correspondence of a data instance to the concept it represents." xlink:actuate="onRequest" xlink:href="../DDICDILibrary/Classes/DataDescription/Datum.html#super-class-hierarchy-generalization" xlink:show="new" xlink:title=" ― Datum:&#10;Correspondence of a data instance to the concept it represents." xlink:type="simple"><g id="elem_DDICDIModels::DDICDILibrary::Classes::DataDescription::Datum"><rect codeLine="55" fill="#F1F1F1" height="36.1688" id="DDICDIModels::DDICDILibrary::Classes::DataDescription::Datum" rx="2.25" ry="2.25" style="stroke:#404040;stroke-width:0.45;" width="135" x="717.3" y="482.7493"/><text fill="#000000" font-family="sans-serif" font-size="9" lengthAdjust="spacing" textLength="72.9" x="748.35" y="496.5921">DataDescription::</text><text fill="#0000FF" font-family="sans-serif" font-size="12.6" lengthAdjust="spacing" textLength="36.9" x="766.35" y="511.6495">Datum</text></g></a><!--MD5=[71a7a2ce0662d4c24c6bea8e66a5b8df]
class DDICDIModels::DesignPatterns::SignificationPattern::Signified--><a href="../DesignPatterns/SignificationPattern/Signified.html#super-class-hierarchy-generalization" target="_top" title=" ― Signified:&#10;Concept or object denoted by the signifier associated to a sign." xlink:actuate="onRequest" xlink:href="../DesignPatterns/SignificationPattern/Signified.html#super-class-hierarchy-generalization" xlink:show="new" xlink:title=" ― Signified:&#10;Concept or object denoted by the signifier associated to a sign." xlink:type="simple"><g id="elem_DDICDIModels::DesignPatterns::SignificationPattern::Signified"><rect codeLine="60" fill="#F1F1F1" height="36.1688" id="DDICDIModels::DesignPatterns::SignificationPattern::Signified" rx="2.25" ry="2.25" style="stroke:#404040;stroke-width:0.45;" width="135" x="844.2" y="723.9493"/><text fill="#000000" font-family="sans-serif" font-size="9" font-style="italic" lengthAdjust="spacing" textLength="90" x="866.7" y="737.7921">SignificationPattern::</text><text fill="#0000FF" font-family="sans-serif" font-size="12.6" font-style="italic" lengthAdjust="spacing" textLength="48.6" x="887.4" y="752.8495">Signified</text></g></a><!--MD5=[dcbe118f13496bfa82f9b0557ee64903]
class DDICDIModels::DDICDILibrary::Classes::DataDescription::ConceptualValue--><g id="elem_DDICDIModels::DDICDILibrary::Classes::DataDescription::ConceptualValue"><rect codeLine="47" fill="#FFD700" height="36.1688" id="DDICDIModels::DDICDILibrary::Classes::DataDescription::ConceptualValue" rx="2.25" ry="2.25" style="stroke:#404040;stroke-width:0.45;" width="135" x="461.7" y="374.7493"/><text fill="#000000" font-family="sans-serif" font-size="9" lengthAdjust="spacing" textLength="72.9" x="492.75" y="388.5921">DataDescription::</text><text fill="#000000" font-family="sans-serif" font-size="12.6" lengthAdjust="spacing" textLength="97.2" x="480.6" y="403.6495">ConceptualValue</text></g><!--MD5=[24a257863b398b5270390d96fe65d257]
class DDICDIModels::DDICDILibrary::Classes::Conceptual::Concept--><a href="../DDICDILibrary/Classes/Conceptual/Concept.html#super-class-hierarchy-generalization" target="_top" title=" ― Concept:&#10;Unit of thought differentiated by characteristics (from the Generic Statistical Information Model version 1.2: https://statswiki.unece.org/display/clickablegsim/Concept)." xlink:actuate="onRequest" xlink:href="../DDICDILibrary/Classes/Conceptual/Concept.html#super-class-hierarchy-generalization" xlink:show="new" xlink:title=" ― Concept:&#10;Unit of thought differentiated by characteristics (from the Generic Statistical Information Model version 1.2: https://statswiki.unece.org/display/clickablegsim/Concept)." xlink:type="simple"><g id="elem_DDICDIModels::DDICDILibrary::Classes::Conceptual::Concept"><rect codeLine="102" fill="#FAFAD2" height="138.4594" id="DDICDIModels::DDICDILibrary::Classes::Conceptual::Concept" rx="2.25" ry="2.25" style="stroke:#404040;stroke-width:0.45;" width="185.4" x="436.5" y="181.2493"/><text fill="#000000" font-family="sans-serif" font-size="9" lengthAdjust="spacing" textLength="54.9" x="501.75" y="195.0921">Conceptual::</text><text fill="#0000FF" font-family="sans-serif" font-size="12.6" lengthAdjust="spacing" textLength="47.7" x="505.35" y="210.1495">Concept</text><line style="stroke:#404040;stroke-width:0.45;" x1="437.4" x2="621" y1="217.4181" y2="217.4181"/><a href="../DDICDILibrary/DataTypes/StructuredDataTypes/CatalogDetails.html#diagram" target="_top" title=" ― CatalogDetails:&#10;A set of information useful for attribution, data discovery, and access." xlink:actuate="onRequest" xlink:href="../DDICDILibrary/DataTypes/StructuredDataTypes/CatalogDetails.html#diagram" xlink:show="new" xlink:title=" ― CatalogDetails:&#10;A set of information useful for attribution, data discovery, and access." xlink:type="simple"><text fill="#000000" font-family="sans-serif" font-size="12.6" lengthAdjust="spacing" textLength="87.3" x="441.9" y="234.0979">catalogDetails :</text><text fill="#0000FF" font-family="sans-serif" font-size="12.6" lengthAdjust="spacing" textLength="82.8" x="532.8" y="234.0979">CatalogDetails</text></a><a href="../DDICDILibrary/DataTypes/StructuredDataTypes/InternationalString.html#diagram" target="_top" title=" ― InternationalString:&#10;Packaging structure for multiple language versions of the same string content. Where an element of this type is repeatable, the expectation is that each repetition contains different content, each of which can be expressed in multiple languages. The language designation goes on the individual String ..." xlink:actuate="onRequest" xlink:href="../DDICDILibrary/DataTypes/StructuredDataTypes/InternationalString.html#diagram" xlink:show="new" xlink:title=" ― InternationalString:&#10;Packaging structure for multiple language versions of the same string content. Where an element of this type is repeatable, the expectation is that each repetition contains different content, each of which can be expressed in multiple languages. The language designation goes on the individual String ..." xlink:type="simple"><text fill="#000000" font-family="sans-serif" font-size="12.6" lengthAdjust="spacing" textLength="58.5" x="441.9" y="249.9464">definition :</text><text fill="#0000FF" font-family="sans-serif" font-size="12.6" lengthAdjust="spacing" textLength="103.5" x="504" y="249.9464">InternationalString</text></a><a href="../DDICDILibrary/DataTypes/StructuredDataTypes/LabelForDisplay.html#diagram" target="_top" title=" ― LabelForDisplay:&#10;A structured display label. Label provides display content of a fully human readable display for the identification of the object." xlink:actuate="onRequest" xlink:href="../DDICDILibrary/DataTypes/StructuredDataTypes/LabelForDisplay.html#diagram" xlink:show="new" xlink:title=" ― LabelForDisplay:&#10;A structured display label. Label provides display content of a fully human readable display for the identification of the object." xlink:type="simple"><text fill="#000000" font-family="sans-serif" font-size="12.6" lengthAdjust="spacing" textLength="78.3" x="441.9" y="265.7948">displayLabel :</text><text fill="#0000FF" font-family="sans-serif" font-size="12.6" lengthAdjust="spacing" textLength="92.7" x="523.8" y="265.7948">LabelForDisplay</text></a><a href="../DDICDILibrary/DataTypes/StructuredDataTypes/Reference.html#diagram" target="_top" title=" ― Reference:&#10;Provides a way of pointing to resources outside of the information described in the set of DDI-CDI metadata." xlink:actuate="onRequest" xlink:href="../DDICDILibrary/DataTypes/StructuredDataTypes/Reference.html#diagram" xlink:show="new" xlink:title=" ― Reference:&#10;Provides a way of pointing to resources outside of the information described in the set of DDI-CDI metadata." xlink:type="simple"><text fill="#000000" font-family="sans-serif" font-size="12.6" lengthAdjust="spacing" textLength="105.3" x="441.9" y="281.6433">externalDefinition :</text><text fill="#0000FF" font-family="sans-serif" font-size="12.6" lengthAdjust="spacing" textLength="59.4" x="550.8" y="281.6433">Reference</text></a><a href="../DDICDILibrary/DataTypes/StructuredDataTypes/Identifier.html#diagram" target="_top" title=" ― Identifier:&#10;Identifier for objects requiring short- or long-lasting referencing and management." xlink:actuate="onRequest" xlink:href="../DDICDILibrary/DataTypes/StructuredDataTypes/Identifier.html#diagram" xlink:show="new" xlink:title=" ― Identifier:&#10;Identifier for objects requiring short- or long-lasting referencing and management." xlink:type="simple"><text fill="#000000" font-family="sans-serif" font-size="12.6" lengthAdjust="spacing" textLength="55.8" x="441.9" y="297.4917">identifier :</text><text fill="#0000FF" font-family="sans-serif" font-size="12.6" lengthAdjust="spacing" textLength="48.6" x="501.3" y="297.4917">Identifier</text></a><a href="../DDICDILibrary/DataTypes/StructuredDataTypes/ObjectName.html#diagram" target="_top" title=" ― ObjectName:&#10;A standard means of expressing a name for a class object. A linguistic signifier. Human understandable name (word, phrase, or mnemonic) that reflects the ISO/IEC 11179-5 naming principles." xlink:actuate="onRequest" xlink:href="../DDICDILibrary/DataTypes/StructuredDataTypes/ObjectName.html#diagram" xlink:show="new" xlink:title=" ― ObjectName:&#10;A standard means of expressing a name for a class object. A linguistic signifier. Human understandable name (word, phrase, or mnemonic) that reflects the ISO/IEC 11179-5 naming principles." xlink:type="simple"><text fill="#000000" font-family="sans-serif" font-size="12.6" lengthAdjust="spacing" textLength="38.7" x="441.9" y="313.3401">name :</text><text fill="#0000FF" font-family="sans-serif" font-size="12.6" lengthAdjust="spacing" textLength="69.3" x="484.2" y="313.3401">ObjectName</text></a></g></a><!--MD5=[9d01b2fafb6d5b609b15167d81554375]
class DDICDIModels::DesignPatterns::DataDescriptionPattern::KeyDefinitionMember--><a href="../DesignPatterns/DataDescriptionPattern/KeyDefinitionMember.html#super-class-hierarchy-generalization" target="_top" title=" ― KeyDefinitionMember:&#10;Single concept that is part of the structure of a key definition." xlink:actuate="onRequest" xlink:href="../DesignPatterns/DataDescriptionPattern/KeyDefinitionMember.html#super-class-hierarchy-generalization" xlink:show="new" xlink:title=" ― KeyDefinitionMember:&#10;Single concept that is part of the structure of a key definition." xlink:type="simple"><g id="elem_DDICDIModels::DesignPatterns::DataDescriptionPattern::KeyDefinitionMember"><rect codeLine="65" fill="#F1F1F1" height="36.1688" id="DDICDIModels::DesignPatterns::DataDescriptionPattern::KeyDefinitionMember" rx="2.25" ry="2.25" style="stroke:#404040;stroke-width:0.45;" width="135" x="6.3" y="575.4493"/><text fill="#000000" font-family="sans-serif" font-size="9" font-style="italic" lengthAdjust="spacing" textLength="103.5" x="22.05" y="589.2921">DataDescriptionPattern::</text><text fill="#0000FF" font-family="sans-serif" font-size="12.6" font-style="italic" lengthAdjust="spacing" textLength="121.5" x="13.05" y="604.3495">KeyDefinitionMember</text></g></a><!--MD5=[fb888e6dc6054b81ee1c71b5b7db0a6f]
class DDICDIModels::DDICDILibrary::Classes::Representations::ClassificationIndex--><a href="../DDICDILibrary/Classes/Representations/ClassificationIndex.html#super-class-hierarchy-generalization" target="_top" title=" ― ClassificationIndex:&#10;Ordered list of classification index entries." xlink:actuate="onRequest" xlink:href="../DDICDILibrary/Classes/Representations/ClassificationIndex.html#super-class-hierarchy-generalization" xlink:show="new" xlink:title=" ― ClassificationIndex:&#10;Ordered list of classification index entries." xlink:type="simple"><g id="elem_DDICDIModels::DDICDILibrary::Classes::Representations::ClassificationIndex"><rect codeLine="66" fill="#F1F1F1" height="36.1688" id="DDICDIModels::DDICDILibrary::Classes::Representations::ClassificationIndex" rx="2.25" ry="2.25" style="stroke:#404040;stroke-width:0.45;" width="135" x="756" y="232.5493"/><text fill="#000000" font-family="sans-serif" font-size="9" lengthAdjust="spacing" textLength="72.9" x="787.05" y="246.3921">Representations::</text><text fill="#0000FF" font-family="sans-serif" font-size="12.6" lengthAdjust="spacing" textLength="104.4" x="771.3" y="261.4495">ClassificationIndex</text></g></a><!--MD5=[a5073d06afbf8b59d890c7beb27e9292]
class DDICDIModels::DDICDILibrary::Classes::DataDescription::Dimensional::DimensionalKeyDefinitionMember--><a href="../DDICDILibrary/Classes/DataDescription/Dimensional/DimensionalKeyDefinitionMember.html#super-class-hierarchy-generalization" target="_top" title=" ― DimensionalKeyDefinitionMember:&#10;Single concept that is part of a dimensional key definition." xlink:actuate="onRequest" xlink:href="../DDICDILibrary/Classes/DataDescription/Dimensional/DimensionalKeyDefinitionMember.html#super-class-hierarchy-generalization" xlink:show="new" xlink:title=" ― DimensionalKeyDefinitionMember:&#10;Single concept that is part of a dimensional key definition." xlink:type="simple"><g id="elem_DDICDIModels::DDICDILibrary::Classes::DataDescription::Dimensional::DimensionalKeyDefinitionMember"><rect codeLine="67" fill="#F1F1F1" height="36.1688" id="DDICDIModels::DDICDILibrary::Classes::DataDescription::Dimensional::DimensionalKeyDefinitionMember" rx="2.25" ry="2.25" style="stroke:#404040;stroke-width:0.45;" width="195.3" x="193.05" y="575.4493"/><text fill="#000000" font-family="sans-serif" font-size="9" lengthAdjust="spacing" textLength="58.5" x="261.45" y="589.2921">Dimensional::</text><text fill="#0000FF" font-family="sans-serif" font-size="12.6" lengthAdjust="spacing" textLength="189.9" x="195.75" y="604.3495">DimensionalKeyDefinitionMember</text></g></a><!--MD5=[2e0e69502bb67ecc0266f8464f7fab86]
class DDICDIModels::DDICDILibrary::Classes::Representations::ClassificationFamily--><a href="../DDICDILibrary/Classes/Representations/ClassificationFamily.html#super-class-hierarchy-generalization" target="_top" title=" ― ClassificationFamily:&#10;Collection of classification series related by being based on a common concept" xlink:actuate="onRequest" xlink:href="../DDICDILibrary/Classes/Representations/ClassificationFamily.html#super-class-hierarchy-generalization" xlink:show="new" xlink:title=" ― ClassificationFamily:&#10;Collection of classification series related by being based on a common concept" xlink:type="simple"><g id="elem_DDICDIModels::DDICDILibrary::Classes::Representations::ClassificationFamily"><rect codeLine="68" fill="#F1F1F1" height="36.1688" id="DDICDIModels::DDICDILibrary::Classes::Representations::ClassificationFamily" rx="2.25" ry="2.25" style="stroke:#404040;stroke-width:0.45;" width="135" x="939.6" y="232.5493"/><text fill="#000000" font-family="sans-serif" font-size="9" lengthAdjust="spacing" textLength="72.9" x="970.65" y="246.3921">Representations::</text><text fill="#0000FF" font-family="sans-serif" font-size="12.6" lengthAdjust="spacing" textLength="111.6" x="951.3" y="261.4495">ClassificationFamily</text></g></a><!--MD5=[ed0afb77b436c4c4d8225e6d9c795979]
class DDICDIModels::DDICDILibrary::Classes::Agents::AgentListing--><a href="../DDICDILibrary/Classes/Agents/AgentListing.html#super-class-hierarchy-generalization" target="_top" title=" ― AgentListing:&#10;Listing of agents of any type who may be organized to describe relationships between agents." xlink:actuate="onRequest" xlink:href="../DDICDILibrary/Classes/Agents/AgentListing.html#super-class-hierarchy-generalization" xlink:show="new" xlink:title=" ― AgentListing:&#10;Listing of agents of any type who may be organized to describe relationships between agents." xlink:type="simple"><g id="elem_DDICDIModels::DDICDILibrary::Classes::Agents::AgentListing"><rect codeLine="69" fill="#F1F1F1" height="36.1688" id="DDICDIModels::DDICDILibrary::Classes::Agents::AgentListing" rx="2.25" ry="2.25" style="stroke:#404040;stroke-width:0.45;" width="135" x="1123.2" y="232.5493"/><text fill="#000000" font-family="sans-serif" font-size="9" lengthAdjust="spacing" textLength="34.2" x="1173.6" y="246.3921">Agents::</text><text fill="#0000FF" font-family="sans-serif" font-size="12.6" lengthAdjust="spacing" textLength="70.2" x="1155.6" y="261.4495">AgentListing</text></g></a><g id="elem_GMN20"><path d="M223.2,231.1993 L223.2,269.6321 A0,0 0 0 0 223.2,269.6321 L383.4,269.6321 A0,0 0 0 0 383.4,269.6321 L383.4,254.1493 L436.5,250.5493 L383.4,246.9493 L383.4,240.1993 L374.4,231.1993 L223.2,231.1993 A0,0 0 0 0 223.2,231.1993 " fill="#FFFFFF" style="stroke:#181818;stroke-width:0.45;"/><path d="M374.4,231.1993 L374.4,240.1993 L383.4,240.1993 L374.4,231.1993 " fill="#FFFFFF" style="stroke:#181818;stroke-width:0.45;"/><text fill="#000000" font-family="sans-serif" font-size="11.7" lengthAdjust="spacing" textLength="141.3" x="228.6" y="247.8449">Class has 21 associations.</text><text fill="#000000" font-family="sans-serif" font-size="11.7" lengthAdjust="spacing" textLength="120.6" x="228.6" y="262.5613">Only 3 are shown here.</text></g><!--MD5=[26a72a06cae00d6a203ce057bd1f3a7d]
link DDICDIModels::DDICDILibrary::Classes::DataDescription::ConceptualValue to DDICDIModels::DDICDILibrary::Classes::Conceptual::ConceptualDomain--><g id="link_DDICDIModels::DDICDILibrary::Classes::DataDescription::ConceptualValue_DDICDIModels::DDICDILibrary::Classes::Conceptual::ConceptualDomain"><a href="" target="_top" title=" ― hasConceptFrom:&#10;Conceptual value has concept from one conceptual domain." xlink:actuate="onRequest" xlink:href="" xlink:show="new" xlink:title=" ― hasConceptFrom:&#10;Conceptual value has concept from one conceptual domain." xlink:type="simple"><path codeLine="74" d="M540.936,410.9473 C553.482,429.4603 573.408,458.8453 586.872,478.7173 " fill="none" id="DDICDIModels::DDICDILibrary::Classes::DataDescription::ConceptualValue-to-DDICDIModels::DDICDILibrary::Classes::Conceptual::ConceptualDomain" style="stroke:#808080;stroke-width:1.35;"/><polygon fill="#808080" points="589.482,482.5603,587.929,473.8335,586.9622,478.832,581.9636,477.8652,589.482,482.5603" style="stroke:#808080;stroke-width:1.35;"/><text fill="#000000" font-family="sans-serif" font-size="11.7" lengthAdjust="spacing" textLength="89.1" x="569.7" y="450.7949">hasConceptFrom</text></a></g><!--MD5=[2153220322b93a56e13ed02789b318b1]
reverse link DDICDIModels::DDICDILibrary::Classes::DataDescription::ConceptualValue to DDICDIModels::DDICDILibrary::Classes::DataDescription::Datum--><g id="link_DDICDIModels::DDICDILibrary::Classes::DataDescription::ConceptualValue_DDICDIModels::DDICDILibrary::Classes::DataDescription::Datum"><a href="" target="_top" title=" ― denotes:&#10;" xlink:actuate="onRequest" xlink:href="" xlink:show="new" xlink:title=" ― denotes:&#10;" xlink:type="simple"><path codeLine="75" d="M595.26,412.2343 C618.255,419.3713 644.013,428.1373 666.9,437.7493 C698.157,450.8623 732.249,469.3033 755.694,482.6863 " fill="none" id="DDICDIModels::DDICDILibrary::Classes::DataDescription::ConceptualValue-backto-DDICDIModels::DDICDILibrary::Classes::DataDescription::Datum" style="stroke:#808080;stroke-width:1.35;"/><polygon fill="#808080" points="590.697,410.8303,597.3764,416.6574,594.9972,412.1564,599.4982,409.7772,590.697,410.8303" style="stroke:#808080;stroke-width:1.35;"/><text fill="#000000" font-family="sans-serif" font-size="11.7" lengthAdjust="spacing" textLength="41.4" x="700.2" y="450.7949">denotes</text></a></g><!--MD5=[bcda8233e24b8fa99e91ff9ad0b19b5f]
reverse link DDICDIModels::DDICDILibrary::Classes::DataDescription::ConceptualValue to DDICDIModels::DDICDILibrary::Classes::DataDescription::InstanceValue--><g id="link_DDICDIModels::DDICDILibrary::Classes::DataDescription::ConceptualValue_DDICDIModels::DDICDILibrary::Classes::DataDescription::InstanceValue"><a href="" target="_top" title=" ― represents:&#10;" xlink:actuate="onRequest" xlink:href="" xlink:show="new" xlink:title=" ― represents:&#10;" xlink:type="simple"><path codeLine="76" d="M507.51,414.2953 C486.621,434.1763 455.391,463.8943 435.771,482.5603 " fill="none" id="DDICDIModels::DDICDILibrary::Classes::DataDescription::ConceptualValue-backto-DDICDIModels::DDICDILibrary::Classes::DataDescription::InstanceValue" style="stroke:#808080;stroke-width:1.35;"/><polygon fill="#808080" points="511.029,410.9473,502.6752,413.911,507.7646,414.0447,507.6309,419.1341,511.029,410.9473" style="stroke:#808080;stroke-width:1.35;"/><text fill="#000000" font-family="sans-serif" font-size="11.7" lengthAdjust="spacing" textLength="54.9" x="480.6" y="450.7949">represents</text></a></g><!--MD5=[8bfee3c11f5171cfeed7309b7e2bb543]
reverse link DDICDIModels::DDICDILibrary::Classes::Conceptual::Concept to DDICDIModels::DDICDILibrary::Classes::Agents::AgentListing--><g id="link_DDICDIModels::DDICDILibrary::Classes::Conceptual::Concept_DDICDIModels::DDICDILibrary::Classes::Agents::AgentListing"><a href="" target="_top" title=" ― isDefinedBy:&#10;The conceptual basis for the collection of members." xlink:actuate="onRequest" xlink:href="" xlink:show="new" xlink:title=" ― isDefinedBy:&#10;The conceptual basis for the collection of members." xlink:type="simple"><path codeLine="90" d="M626.571,210.7243 C723.366,175.9843 876.285,134.1703 1009.8,155.1493 C1047.168,161.0173 1056.897,164.4913 1090.8,181.2493 C1119.375,195.3703 1149.003,216.9433 1168.488,232.2703 " fill="none" id="DDICDIModels::DDICDILibrary::Classes::Conceptual::Concept-backto-DDICDIModels::DDICDILibrary::Classes::Agents::AgentListing" style="stroke:#808080;stroke-width:1.35;"/><polygon fill="#808080" points="622.287,212.2633,631.1285,212.8936,626.5187,210.7327,628.6796,206.1229,622.287,212.2633" style="stroke:#808080;stroke-width:1.35;"/><text fill="#000000" font-family="sans-serif" font-size="11.7" lengthAdjust="spacing" textLength="73.8" x="935.1" y="151.0949"> isDefinedBy</text></a></g><!--MD5=[0e5a01393ceea7820a4e600cabd63db1]
reverse link DDICDIModels::DDICDILibrary::Classes::Conceptual::Concept to DDICDIModels::DDICDILibrary::Classes::Representations::ClassificationFamily--><g id="link_DDICDIModels::DDICDILibrary::Classes::Conceptual::Concept_DDICDIModels::DDICDILibrary::Classes::Representations::ClassificationFamily"><a href="" target="_top" title=" ― isDefinedBy:&#10;The conceptual basis for the collection of members." xlink:actuate="onRequest" xlink:href="" xlink:show="new" xlink:title=" ― isDefinedBy:&#10;The conceptual basis for the collection of members." xlink:type="simple"><path codeLine="95" d="M626.508,197.0893 C662.427,180.1603 704.169,163.6453 744.3,155.1493 C777.177,148.1833 786.654,150.2893 819.9,155.1493 C859.977,161.0083 870.714,163.6903 907.2,181.2493 C936.117,195.1633 965.916,216.9883 985.356,232.4143 " fill="none" id="DDICDIModels::DDICDILibrary::Classes::Conceptual::Concept-backto-DDICDIModels::DDICDILibrary::Classes::Representations::ClassificationFamily" style="stroke:#808080;stroke-width:1.35;"/><polygon fill="#808080" points="622.161,199.1593,631.0216,198.9152,626.2213,197.2191,627.9173,192.4188,622.161,199.1593" style="stroke:#808080;stroke-width:1.35;"/><text fill="#000000" font-family="sans-serif" font-size="11.7" lengthAdjust="spacing" textLength="73.8" x="745.2" y="151.0949"> isDefinedBy</text></a></g><!--MD5=[d5163b2644e79755e86d48deb554973d]
reverse link DDICDIModels::DDICDILibrary::Classes::Conceptual::Concept to DDICDIModels::DDICDILibrary::Classes::Representations::ClassificationIndex--><g id="link_DDICDIModels::DDICDILibrary::Classes::Conceptual::Concept_DDICDIModels::DDICDILibrary::Classes::Representations::ClassificationIndex"><a href="" target="_top" title=" ― isDefinedBy:&#10;The conceptual basis for the collection of members." xlink:actuate="onRequest" xlink:href="" xlink:show="new" xlink:title=" ― isDefinedBy:&#10;The conceptual basis for the collection of members." xlink:type="simple"><path codeLine="100" d="M626.526,250.5493 C668.952,250.5493 717.633,250.5493 755.991,250.5493 " fill="none" id="DDICDIModels::DDICDILibrary::Classes::Conceptual::Concept-backto-DDICDIModels::DDICDILibrary::Classes::Representations::ClassificationIndex" style="stroke:#808080;stroke-width:1.35;"/><polygon fill="#808080" points="621.918,250.5493,630.018,254.1493,626.418,250.5493,630.018,246.9493,621.918,250.5493" style="stroke:#808080;stroke-width:1.35;"/><text fill="#000000" font-family="sans-serif" font-size="11.7" lengthAdjust="spacing" textLength="73.8" x="652.05" y="244.6949"> isDefinedBy</text></a></g><!--MD5=[c36bb896c40fa1fc8e59b3ae2f1ae025]
reverse link DDICDIModels::DDICDILibrary::Classes::Conceptual::Concept to DDICDIModels::DDICDILibrary::Classes::DataDescription::ConceptualValue--><g id="link_DDICDIModels::DDICDILibrary::Classes::Conceptual::Concept_DDICDIModels::DDICDILibrary::Classes::DataDescription::ConceptualValue"><path codeLine="117" d="M529.2,338.2093 C529.2,352.0693 529.2,365.0113 529.2,374.7133 " fill="none" id="DDICDIModels::DDICDILibrary::Classes::Conceptual::Concept-backto-DDICDIModels::DDICDILibrary::Classes::DataDescription::ConceptualValue" style="stroke:#D2691E;stroke-width:1.35;"/><polygon fill="none" points="522.9,338.0023,529.2,320.0023,535.5,338.0023,522.9,338.0023" style="stroke:#D2691E;stroke-width:1.35;"/></g><!--MD5=[8a1ad346c15e9ddc3c6b1f1f0e4001ee]
reverse link DDICDIModels::DDICDILibrary::Classes::DataDescription::ConceptualValue to DDICDIModels::DDICDILibrary::Classes::DataDescription::Dimensional::DimensionalKeyDefinitionMember--><g id="link_DDICDIModels::DDICDILibrary::Classes::DataDescription::ConceptualValue_DDICDIModels::DDICDILibrary::Classes::DataDescription::Dimensional::DimensionalKeyDefinitionMember"><path codeLine="120" d="M443.637,403.9363 C403.758,412.9093 358.587,429.7033 328.5,461.1493 C298.143,492.8833 291.924,547.3693 290.808,575.1523 " fill="none" id="DDICDIModels::DDICDILibrary::Classes::DataDescription::ConceptualValue-backto-DDICDIModels::DDICDILibrary::Classes::DataDescription::Dimensional::DimensionalKeyDefinitionMember" style="stroke:#D2691E;stroke-width:1.35;"/><polygon fill="none" points="442.62,397.7173,461.511,400.3363,445.104,410.0653,442.62,397.7173" style="stroke:#D2691E;stroke-width:1.35;"/></g><!--MD5=[0b2dc4cec08cb2cd0b8ede47369dc38e]
reverse link DDICDIModels::DDICDILibrary::Classes::DataDescription::ConceptualValue to DDICDIModels::DesignPatterns::DataDescriptionPattern::KeyDefinitionMember--><g id="link_DDICDIModels::DDICDILibrary::Classes::DataDescription::ConceptualValue_DDICDIModels::DesignPatterns::DataDescriptionPattern::KeyDefinitionMember"><path codeLine="121" d="M443.907,406.6903 C407.862,413.6743 365.868,423.7813 329.4,437.7493 C236.142,473.4793 138.618,543.0043 95.967,575.2963 " fill="none" id="DDICDIModels::DDICDILibrary::Classes::DataDescription::ConceptualValue-backto-DDICDIModels::DesignPatterns::DataDescriptionPattern::KeyDefinitionMember" style="stroke:#D2691E;stroke-width:1.35;"/><polygon fill="none" points="442.764,400.4983,461.61,403.4143,445.059,412.8913,442.764,400.4983" style="stroke:#D2691E;stroke-width:1.35;"/></g><!--MD5=[a0d943cde9b308c99bee86835476bc3c]
link DDICDIModels::DDICDILibrary::Classes::DataDescription::ConceptualValue to DDICDIModels::DesignPatterns::SignificationPattern::Signified--><g id="link_DDICDIModels::DDICDILibrary::Classes::DataDescription::ConceptualValue_DDICDIModels::DesignPatterns::SignificationPattern::Signified"><path codeLine="124" d="M596.709,398.5093 C706.518,408.3013 911.7,435.2383 911.7,499.8493 C911.7,499.8493 911.7,499.8493 911.7,666.7993 C911.7,684.4033 911.7,704.3563 911.7,719.1433 " fill="none" id="DDICDIModels::DDICDILibrary::Classes::DataDescription::ConceptualValue-to-DDICDIModels::DesignPatterns::SignificationPattern::Signified" style="stroke:#404040;stroke-width:1.35;stroke-dasharray:7.0,7.0;"/><polygon fill="#404040" points="911.7,723.9403,915.3,715.8403,911.7,719.4403,908.1,715.8403,911.7,723.9403" style="stroke:#404040;stroke-width:1.35;"/><text fill="#000000" font-family="sans-serif" font-size="11.7" lengthAdjust="spacing" textLength="45" x="912.6" y="598.3949">«Refine»</text></g><rect height="33.9609" style="stroke:#00000000;stroke-width:0.9;fill:none;" width="342.9" x="454.05" y="764.6181"/><text fill="#888888" font-family="sans-serif" font-size="9" lengthAdjust="spacing" textLength="2.7" x="624.15" y="773.9608"> </text><text fill="#888888" font-family="sans-serif" font-size="9" lengthAdjust="spacing" textLength="2.7" x="624.15" y="785.2811"> </text><text fill="#888888" font-family="sans-serif" font-size="9" lengthAdjust="spacing" textLength="342.9" x="454.05" y="796.6015">DDI Cross Domain Integration (DDI-CDI)   1.0 - DataDescription::ConceptualValue</text><!--MD5=[2e69bfdf470de6a5f12a0f1daf1033f6]
@startuml
!pragma ratio 0.5625
' HD display aspect ratio 16:9
' hyperlinkColor and pathHoverColor do not seem to work with class diagrams
' working approach: colors per item
' default font size for class names is 14

hide circle
hide empty members
scale 0.9

skinparam {
  ArrowThickness 1.5
  MinClassWidth 150
}

skinparam legend {
  BackgroundColor white
  FontSize 10
}

skinparam note {
  BackgroundColor white
}

skinparam class {
  ArrowColor #404040
  BorderColor #404040
}

skinparam package {
  FontColor lightgrey
  BorderColor lightgrey
}

title <size:20>UML Diagram: Class ConceptualValue in Context\n
footer \n\nDDI Cross Domain Integration (DDI-CDI)   1.0 - DataDescription::ConceptualValue

legend top left
**Hints**
<color:grey>- Move the mouse cursor over a name to see more information.
<color:grey>- Click on a name to go to the corresponding page.
<color:grey>- The arrows of the inheritance tree are <color:#D2691E>colored<color:grey>.
endlegend

' Core class of diagram
class DDICDIModels::DDICDILibrary::Classes::DataDescription::ConceptualValue as "<size:10>DataDescription::\n<color:black>ConceptualValue" #FFD700 {
}

' Class definitions for associated classes without superclass (might have also an association)
' This would be too many constraints for Graphviz. 
together {
  class DDICDIModels::DDICDILibrary::Classes::DataDescription::InstanceValue as "<size:10>DataDescription::\n<color:blue>InstanceValue" [[../DDICDILibrary/Classes/DataDescription/InstanceValue.html#super-class-hierarchy-generalization{ <U+2015> InstanceValue:\nSingle data instance corresponding to a concept (with a notion of equality defined) being observed, captured, or derived.}]]
  class DDICDIModels::DDICDILibrary::Classes::Conceptual::ConceptualDomain as "<size:10>Conceptual::\n<color:blue>ConceptualDomain" [[../DDICDILibrary/Classes/Conceptual/ConceptualDomain.html#super-class-hierarchy-generalization{ <U+2015> ConceptualDomain:\nSet of concepts, where each concept is intended to be used as the meaning (signified) for a datum.}]]
  class DDICDIModels::DDICDILibrary::Classes::DataDescription::Datum as "<size:10>DataDescription::\n<color:blue>Datum" [[../DDICDILibrary/Classes/DataDescription/Datum.html#super-class-hierarchy-generalization{ <U+2015> Datum:\nCorrespondence of a data instance to the concept it represents.}]]
}

' Class definitions for suppliers of abstractions
together {
  abstract class DDICDIModels::DesignPatterns::SignificationPattern::Signified as "<size:10>SignificationPattern::\n<color:blue>Signified" [[../DesignPatterns/SignificationPattern/Signified.html#super-class-hierarchy-generalization{ <U+2015> Signified:\nConcept or object denoted by the signifier associated to a sign.}]]
}

' Rest of class definitions, without associated classes of core class and abstraction supplier classes
class DDICDIModels::DDICDILibrary::Classes::Conceptual::Concept as "<size:10>Conceptual::\n<color:blue>Concept" [[../DDICDILibrary/Classes/Conceptual/Concept.html#super-class-hierarchy-generalization{ <U+2015> Concept:\nUnit of thought differentiated by characteristics (from the Generic Statistical Information Model version 1.2: https://statswiki.unece.org/display/clickablegsim/Concept).}]]
abstract class DDICDIModels::DesignPatterns::DataDescriptionPattern::KeyDefinitionMember as "<size:10>DataDescriptionPattern::\n<color:blue>KeyDefinitionMember" [[../DesignPatterns/DataDescriptionPattern/KeyDefinitionMember.html#super-class-hierarchy-generalization{ <U+2015> KeyDefinitionMember:\nSingle concept that is part of the structure of a key definition.}]]
class DDICDIModels::DDICDILibrary::Classes::Representations::ClassificationIndex as "<size:10>Representations::\n<color:blue>ClassificationIndex" [[../DDICDILibrary/Classes/Representations/ClassificationIndex.html#super-class-hierarchy-generalization{ <U+2015> ClassificationIndex:\nOrdered list of classification index entries.}]]
class DDICDIModels::DDICDILibrary::Classes::DataDescription::Dimensional::DimensionalKeyDefinitionMember as "<size:10>Dimensional::\n<color:blue>DimensionalKeyDefinitionMember" [[../DDICDILibrary/Classes/DataDescription/Dimensional/DimensionalKeyDefinitionMember.html#super-class-hierarchy-generalization{ <U+2015> DimensionalKeyDefinitionMember:\nSingle concept that is part of a dimensional key definition.}]]
class DDICDIModels::DDICDILibrary::Classes::Representations::ClassificationFamily as "<size:10>Representations::\n<color:blue>ClassificationFamily" [[../DDICDILibrary/Classes/Representations/ClassificationFamily.html#super-class-hierarchy-generalization{ <U+2015> ClassificationFamily:\nCollection of classification series related by being based on a common concept}]]
class DDICDIModels::DDICDILibrary::Classes::Agents::AgentListing as "<size:10>Agents::\n<color:blue>AgentListing" [[../DDICDILibrary/Classes/Agents/AgentListing.html#super-class-hierarchy-generalization{ <U+2015> AgentListing:\nListing of agents of any type who may be organized to describe relationships between agents.}]]



' Associations
DDICDIModels::DDICDILibrary::Classes::DataDescription::ConceptualValue -[#grey]-> DDICDIModels::DDICDILibrary::Classes::Conceptual::ConceptualDomain [[{ <U+2015> hasConceptFrom:\nConceptual value has concept from one conceptual domain.}]] : hasConceptFrom
DDICDIModels::DDICDILibrary::Classes::DataDescription::ConceptualValue <-[#grey]- DDICDIModels::DDICDILibrary::Classes::DataDescription::Datum [[{ <U+2015> denotes:\n}]] : denotes
DDICDIModels::DDICDILibrary::Classes::DataDescription::ConceptualValue <-[#grey]- DDICDIModels::DDICDILibrary::Classes::DataDescription::InstanceValue [[{ <U+2015> represents:\n}]] : represents

' Super classes
' Associations of Super classes
note left of DDICDIModels::DDICDILibrary::Classes::Conceptual::Concept : Class has 21 associations.\nOnly 3 are shown here.
' firstAncestor:	org.eclipse.uml2.uml.internal.impl.ClassImpl@258ee7de (name: Concept, visibility: <unset>) (isLeaf: false, isAbstract: false, isFinalSpecialization: false) (isActive: false)
' secondAncestor:	org.eclipse.uml2.uml.internal.impl.ClassImpl@258ee7de (name: Concept, visibility: <unset>) (isLeaf: false, isAbstract: false, isFinalSpecialization: false) (isActive: false)



' aClass:			ConceptualValue
' aSuperClass:		Concept
' e_ownedEndClass:	AgentListing
' e_otherEndClass:	Concept
DDICDIModels::DDICDILibrary::Classes::Conceptual::Concept <-[#grey] DDICDIModels::DDICDILibrary::Classes::Agents::AgentListing [[{ <U+2015> isDefinedBy:\nThe conceptual basis for the collection of members.}]] : <U+2003>isDefinedBy
' aClass:			ConceptualValue
' aSuperClass:		Concept
' e_ownedEndClass:	ClassificationFamily
' e_otherEndClass:	Concept
DDICDIModels::DDICDILibrary::Classes::Conceptual::Concept <-[#grey] DDICDIModels::DDICDILibrary::Classes::Representations::ClassificationFamily [[{ <U+2015> isDefinedBy:\nThe conceptual basis for the collection of members.}]] : <U+2003>isDefinedBy
' aClass:			ConceptualValue
' aSuperClass:		Concept
' e_ownedEndClass:	ClassificationIndex
' e_otherEndClass:	Concept
DDICDIModels::DDICDILibrary::Classes::Conceptual::Concept <-[#grey] DDICDIModels::DDICDILibrary::Classes::Representations::ClassificationIndex [[{ <U+2015> isDefinedBy:\nThe conceptual basis for the collection of members.}]] : <U+2003>isDefinedBy

class DDICDIModels::DDICDILibrary::Classes::Conceptual::Concept as "<size:10> \n<color:blue>Concept" [[../DDICDILibrary/Classes/Conceptual/Concept.html#super-class-hierarchy-generalization{ <U+2015> Concept:\nUnit of thought differentiated by characteristics (from the Generic Statistical Information Model version 1.2: https://statswiki.unece.org/display/clickablegsim/Concept).}]] #FAFAD2 {
  catalogDetails : <color:blue>CatalogDetails   	  [[[../DDICDILibrary/DataTypes/StructuredDataTypes/CatalogDetails.html#diagram{ <U+2015> CatalogDetails:\nA set of information useful for attribution, data discovery, and access.}]]]
  definition : <color:blue>InternationalString   	  [[[../DDICDILibrary/DataTypes/StructuredDataTypes/InternationalString.html#diagram{ <U+2015> InternationalString:\nPackaging structure for multiple language versions of the same string content. Where an element of this type is repeatable, the expectation is that each repetition contains different content, each of which can be expressed in multiple languages. The language designation goes on the individual String ...}]]]
  displayLabel : <color:blue>LabelForDisplay   	  [[[../DDICDILibrary/DataTypes/StructuredDataTypes/LabelForDisplay.html#diagram{ <U+2015> LabelForDisplay:\nA structured display label. Label provides display content of a fully human readable display for the identification of the object.}]]]
  externalDefinition : <color:blue>Reference   	  [[[../DDICDILibrary/DataTypes/StructuredDataTypes/Reference.html#diagram{ <U+2015> Reference:\nProvides a way of pointing to resources outside of the information described in the set of DDI-CDI metadata.}]]]
  identifier : <color:blue>Identifier   	  [[[../DDICDILibrary/DataTypes/StructuredDataTypes/Identifier.html#diagram{ <U+2015> Identifier:\nIdentifier for objects requiring short- or long-lasting referencing and management.}]]]
  name : <color:blue>ObjectName   	  [[[../DDICDILibrary/DataTypes/StructuredDataTypes/ObjectName.html#diagram{ <U+2015> ObjectName:\nA standard means of expressing a name for a class object. A linguistic signifier. Human understandable name (word, phrase, or mnemonic) that reflects the ISO/IEC 11179-5 naming principles.}]]]
}

DDICDIModels::DDICDILibrary::Classes::Conceptual::Concept <|-[#D2691E]- DDICDIModels::DDICDILibrary::Classes::DataDescription::ConceptualValue

' Sub classes
  DDICDIModels::DDICDILibrary::Classes::DataDescription::ConceptualValue <|- -[#D2691E]- DDICDIModels::DDICDILibrary::Classes::DataDescription::Dimensional::DimensionalKeyDefinitionMember 
  DDICDIModels::DDICDILibrary::Classes::DataDescription::ConceptualValue <|- -[#D2691E]- DDICDIModels::DesignPatterns::DataDescriptionPattern::KeyDefinitionMember 

' Abstractions
  DDICDIModels::DDICDILibrary::Classes::DataDescription::ConceptualValue .....> DDICDIModels::DesignPatterns::SignificationPattern::Signified : <U+00AB>Refine<U+00BB>
   
@enduml

@startuml
!pragma ratio 0.5625

hide circle
hide empty members
scale 0.9

skinparam {
  ArrowThickness 1.5
  MinClassWidth 150
}

skinparam legend {
  BackgroundColor white
  FontSize 10
}

skinparam note {
  BackgroundColor white
}

skinparam class {
  ArrowColor #404040
  BorderColor #404040
}

skinparam package {
  FontColor lightgrey
  BorderColor lightgrey
}

title <size:20>UML Diagram: Class ConceptualValue in Context\n
footer \n\nDDI Cross Domain Integration (DDI-CDI)   1.0 - DataDescription::ConceptualValue

legend top left
**Hints**
<color:grey>- Move the mouse cursor over a name to see more information.
<color:grey>- Click on a name to go to the corresponding page.
<color:grey>- The arrows of the inheritance tree are <color:#D2691E>colored<color:grey>.
endlegend

class DDICDIModels::DDICDILibrary::Classes::DataDescription::ConceptualValue as "<size:10>DataDescription::\n<color:black>ConceptualValue" #FFD700 {
}

together {
  class DDICDIModels::DDICDILibrary::Classes::DataDescription::InstanceValue as "<size:10>DataDescription::\n<color:blue>InstanceValue" [[../DDICDILibrary/Classes/DataDescription/InstanceValue.html#super-class-hierarchy-generalization{ <U+2015> InstanceValue:\nSingle data instance corresponding to a concept (with a notion of equality defined) being observed, captured, or derived.}]]
  class DDICDIModels::DDICDILibrary::Classes::Conceptual::ConceptualDomain as "<size:10>Conceptual::\n<color:blue>ConceptualDomain" [[../DDICDILibrary/Classes/Conceptual/ConceptualDomain.html#super-class-hierarchy-generalization{ <U+2015> ConceptualDomain:\nSet of concepts, where each concept is intended to be used as the meaning (signified) for a datum.}]]
  class DDICDIModels::DDICDILibrary::Classes::DataDescription::Datum as "<size:10>DataDescription::\n<color:blue>Datum" [[../DDICDILibrary/Classes/DataDescription/Datum.html#super-class-hierarchy-generalization{ <U+2015> Datum:\nCorrespondence of a data instance to the concept it represents.}]]
}

together {
  abstract class DDICDIModels::DesignPatterns::SignificationPattern::Signified as "<size:10>SignificationPattern::\n<color:blue>Signified" [[../DesignPatterns/SignificationPattern/Signified.html#super-class-hierarchy-generalization{ <U+2015> Signified:\nConcept or object denoted by the signifier associated to a sign.}]]
}

class DDICDIModels::DDICDILibrary::Classes::Conceptual::Concept as "<size:10>Conceptual::\n<color:blue>Concept" [[../DDICDILibrary/Classes/Conceptual/Concept.html#super-class-hierarchy-generalization{ <U+2015> Concept:\nUnit of thought differentiated by characteristics (from the Generic Statistical Information Model version 1.2: https://statswiki.unece.org/display/clickablegsim/Concept).}]]
abstract class DDICDIModels::DesignPatterns::DataDescriptionPattern::KeyDefinitionMember as "<size:10>DataDescriptionPattern::\n<color:blue>KeyDefinitionMember" [[../DesignPatterns/DataDescriptionPattern/KeyDefinitionMember.html#super-class-hierarchy-generalization{ <U+2015> KeyDefinitionMember:\nSingle concept that is part of the structure of a key definition.}]]
class DDICDIModels::DDICDILibrary::Classes::Representations::ClassificationIndex as "<size:10>Representations::\n<color:blue>ClassificationIndex" [[../DDICDILibrary/Classes/Representations/ClassificationIndex.html#super-class-hierarchy-generalization{ <U+2015> ClassificationIndex:\nOrdered list of classification index entries.}]]
class DDICDIModels::DDICDILibrary::Classes::DataDescription::Dimensional::DimensionalKeyDefinitionMember as "<size:10>Dimensional::\n<color:blue>DimensionalKeyDefinitionMember" [[../DDICDILibrary/Classes/DataDescription/Dimensional/DimensionalKeyDefinitionMember.html#super-class-hierarchy-generalization{ <U+2015> DimensionalKeyDefinitionMember:\nSingle concept that is part of a dimensional key definition.}]]
class DDICDIModels::DDICDILibrary::Classes::Representations::ClassificationFamily as "<size:10>Representations::\n<color:blue>ClassificationFamily" [[../DDICDILibrary/Classes/Representations/ClassificationFamily.html#super-class-hierarchy-generalization{ <U+2015> ClassificationFamily:\nCollection of classification series related by being based on a common concept}]]
class DDICDIModels::DDICDILibrary::Classes::Agents::AgentListing as "<size:10>Agents::\n<color:blue>AgentListing" [[../DDICDILibrary/Classes/Agents/AgentListing.html#super-class-hierarchy-generalization{ <U+2015> AgentListing:\nListing of agents of any type who may be organized to describe relationships between agents.}]]



DDICDIModels::DDICDILibrary::Classes::DataDescription::ConceptualValue -[#grey]-> DDICDIModels::DDICDILibrary::Classes::Conceptual::ConceptualDomain [[{ <U+2015> hasConceptFrom:\nConceptual value has concept from one conceptual domain.}]] : hasConceptFrom
DDICDIModels::DDICDILibrary::Classes::DataDescription::ConceptualValue <-[#grey]- DDICDIModels::DDICDILibrary::Classes::DataDescription::Datum [[{ <U+2015> denotes:\n}]] : denotes
DDICDIModels::DDICDILibrary::Classes::DataDescription::ConceptualValue <-[#grey]- DDICDIModels::DDICDILibrary::Classes::DataDescription::InstanceValue [[{ <U+2015> represents:\n}]] : represents

note left of DDICDIModels::DDICDILibrary::Classes::Conceptual::Concept : Class has 21 associations.\nOnly 3 are shown here.



DDICDIModels::DDICDILibrary::Classes::Conceptual::Concept <-[#grey] DDICDIModels::DDICDILibrary::Classes::Agents::AgentListing [[{ <U+2015> isDefinedBy:\nThe conceptual basis for the collection of members.}]] : <U+2003>isDefinedBy
DDICDIModels::DDICDILibrary::Classes::Conceptual::Concept <-[#grey] DDICDIModels::DDICDILibrary::Classes::Representations::ClassificationFamily [[{ <U+2015> isDefinedBy:\nThe conceptual basis for the collection of members.}]] : <U+2003>isDefinedBy
DDICDIModels::DDICDILibrary::Classes::Conceptual::Concept <-[#grey] DDICDIModels::DDICDILibrary::Classes::Representations::ClassificationIndex [[{ <U+2015> isDefinedBy:\nThe conceptual basis for the collection of members.}]] : <U+2003>isDefinedBy

class DDICDIModels::DDICDILibrary::Classes::Conceptual::Concept as "<size:10> \n<color:blue>Concept" [[../DDICDILibrary/Classes/Conceptual/Concept.html#super-class-hierarchy-generalization{ <U+2015> Concept:\nUnit of thought differentiated by characteristics (from the Generic Statistical Information Model version 1.2: https://statswiki.unece.org/display/clickablegsim/Concept).}]] #FAFAD2 {
  catalogDetails : <color:blue>CatalogDetails   	  [[[../DDICDILibrary/DataTypes/StructuredDataTypes/CatalogDetails.html#diagram{ <U+2015> CatalogDetails:\nA set of information useful for attribution, data discovery, and access.}]]]
  definition : <color:blue>InternationalString   	  [[[../DDICDILibrary/DataTypes/StructuredDataTypes/InternationalString.html#diagram{ <U+2015> InternationalString:\nPackaging structure for multiple language versions of the same string content. Where an element of this type is repeatable, the expectation is that each repetition contains different content, each of which can be expressed in multiple languages. The language designation goes on the individual String ...}]]]
  displayLabel : <color:blue>LabelForDisplay   	  [[[../DDICDILibrary/DataTypes/StructuredDataTypes/LabelForDisplay.html#diagram{ <U+2015> LabelForDisplay:\nA structured display label. Label provides display content of a fully human readable display for the identification of the object.}]]]
  externalDefinition : <color:blue>Reference   	  [[[../DDICDILibrary/DataTypes/StructuredDataTypes/Reference.html#diagram{ <U+2015> Reference:\nProvides a way of pointing to resources outside of the information described in the set of DDI-CDI metadata.}]]]
  identifier : <color:blue>Identifier   	  [[[../DDICDILibrary/DataTypes/StructuredDataTypes/Identifier.html#diagram{ <U+2015> Identifier:\nIdentifier for objects requiring short- or long-lasting referencing and management.}]]]
  name : <color:blue>ObjectName   	  [[[../DDICDILibrary/DataTypes/StructuredDataTypes/ObjectName.html#diagram{ <U+2015> ObjectName:\nA standard means of expressing a name for a class object. A linguistic signifier. Human understandable name (word, phrase, or mnemonic) that reflects the ISO/IEC 11179-5 naming principles.}]]]
}

DDICDIModels::DDICDILibrary::Classes::Conceptual::Concept <|-[#D2691E]- DDICDIModels::DDICDILibrary::Classes::DataDescription::ConceptualValue

  DDICDIModels::DDICDILibrary::Classes::DataDescription::ConceptualValue <|- -[#D2691E]- DDICDIModels::DDICDILibrary::Classes::DataDescription::Dimensional::DimensionalKeyDefinitionMember 
  DDICDIModels::DDICDILibrary::Classes::DataDescription::ConceptualValue <|- -[#D2691E]- DDICDIModels::DesignPatterns::DataDescriptionPattern::KeyDefinitionMember 

  DDICDIModels::DDICDILibrary::Classes::DataDescription::ConceptualValue .....> DDICDIModels::DesignPatterns::SignificationPattern::Signified : <U+00AB>Refine<U+00BB>
   
@enduml

PlantUML version 1.2022.6(Tue Jun 21 19:34:49 CEST 2022)
(GPL source distribution)
Java Runtime: OpenJDK Runtime Environment
JVM: OpenJDK 64-Bit Server VM
Default Encoding: Cp1252
Language: en
Country: US
--></g></svg>