<?xml version="1.0" encoding="UTF-8" standalone="no"?><svg xmlns="http://www.w3.org/2000/svg" xmlns:xlink="http://www.w3.org/1999/xlink" contentStyleType="text/css" height="573.3px" preserveAspectRatio="none" style="width:603px;height:573px;background:#FFFFFF;" version="1.1" viewBox="0 0 603 573" width="603.9px" zoomAndPan="magnify"><defs/><g><rect height="47.4891" style="stroke:#00000000;stroke-width:0.9;fill:none;" width="456.3" x="67.5" y="4.5"/><text fill="#000000" font-family="sans-serif" font-size="18" font-weight="bold" lengthAdjust="spacing" textLength="447.3" x="72" y="27.6855">UML Diagram: Class ConceptRelationship in Context</text><text fill="#000000" font-family="sans-serif" font-size="12.6" font-weight="bold" lengthAdjust="spacing" textLength="3.6" x="293.85" y="44.7205"> </text><rect fill="#FFFFFF" height="44.7609" rx="6.75" ry="6.75" style="stroke:#000000;stroke-width:0.9;" width="276.3" x="7.2" y="64.5891"/><text fill="#000000" font-family="sans-serif" font-size="9" font-weight="bold" lengthAdjust="spacing" textLength="22.5" x="12.6" y="79.3318">Hints</text><text fill="#808080" font-family="sans-serif" font-size="9" lengthAdjust="spacing" textLength="265.5" x="12.6" y="90.6521">- Move the mouse cursor over a name to see more information.</text><text fill="#808080" font-family="sans-serif" font-size="9" lengthAdjust="spacing" textLength="216" x="12.6" y="101.9725">- Click on a name to go to the corresponding page.</text><!--MD5=[24a257863b398b5270390d96fe65d257]
class DDICDIModels::DDICDILibrary::Classes::Conceptual::Concept--><a href="../DDICDILibrary/Classes/Conceptual/Concept.html#super-class-hierarchy-generalization" target="_top" title=" ― Concept:&#10;Unit of thought differentiated by characteristics (from the Generic Statistical Information Model version 1.2: https://statswiki.unece.org/display/clickablegsim/Concept)." xlink:actuate="onRequest" xlink:href="../DDICDILibrary/Classes/Conceptual/Concept.html#super-class-hierarchy-generalization" xlink:show="new" xlink:title=" ― Concept:&#10;Unit of thought differentiated by characteristics (from the Generic Statistical Information Model version 1.2: https://statswiki.unece.org/display/clickablegsim/Concept)." xlink:type="simple"><g id="elem_DDICDIModels::DDICDILibrary::Classes::Conceptual::Concept"><rect codeLine="56" fill="#F1F1F1" height="36.1688" id="DDICDIModels::DDICDILibrary::Classes::Conceptual::Concept" rx="2.25" ry="2.25" style="stroke:#404040;stroke-width:0.45;" width="135" x="6.3" y="270.9"/><text fill="#000000" font-family="sans-serif" font-size="9" lengthAdjust="spacing" textLength="54.9" x="46.35" y="284.7428">Conceptual::</text><text fill="#0000FF" font-family="sans-serif" font-size="12.6" lengthAdjust="spacing" textLength="47.7" x="49.95" y="299.8002">Concept</text></g></a><!--MD5=[2768a7d8a32c6e8b498f15b33ef8888a]
class DDICDIModels::DDICDILibrary::Classes::Conceptual::ConceptStructure--><a href="../DDICDILibrary/Classes/Conceptual/ConceptStructure.html#super-class-hierarchy-generalization" target="_top" title=" ― ConceptStructure:&#10;Relations of concepts within a collection." xlink:actuate="onRequest" xlink:href="../DDICDILibrary/Classes/Conceptual/ConceptStructure.html#super-class-hierarchy-generalization" xlink:show="new" xlink:title=" ― ConceptStructure:&#10;Relations of concepts within a collection." xlink:type="simple"><g id="elem_DDICDIModels::DDICDILibrary::Classes::Conceptual::ConceptStructure"><rect codeLine="57" fill="#F1F1F1" height="36.1688" id="DDICDIModels::DDICDILibrary::Classes::Conceptual::ConceptStructure" rx="2.25" ry="2.25" style="stroke:#404040;stroke-width:0.45;" width="135" x="276.3" y="270.9"/><text fill="#000000" font-family="sans-serif" font-size="9" lengthAdjust="spacing" textLength="54.9" x="316.35" y="284.7428">Conceptual::</text><text fill="#0000FF" font-family="sans-serif" font-size="12.6" lengthAdjust="spacing" textLength="99.9" x="293.85" y="299.8002">ConceptStructure</text></g></a><!--MD5=[26ed6b543731beaf3afce7fd6b75ac79]
class DDICDIModels::DesignPatterns::CollectionsPattern::MemberRelationship--><a href="../DesignPatterns/CollectionsPattern/MemberRelationship.html#super-class-hierarchy-generalization" target="_top" title=" ― MemberRelationship:&#10;Relationship between members in a collection with directionality given by source and target." xlink:actuate="onRequest" xlink:href="../DesignPatterns/CollectionsPattern/MemberRelationship.html#super-class-hierarchy-generalization" xlink:show="new" xlink:title=" ― MemberRelationship:&#10;Relationship between members in a collection with directionality given by source and target." xlink:type="simple"><g id="elem_DDICDIModels::DesignPatterns::CollectionsPattern::MemberRelationship"><rect codeLine="62" fill="#F1F1F1" height="36.1688" id="DDICDIModels::DesignPatterns::CollectionsPattern::MemberRelationship" rx="2.25" ry="2.25" style="stroke:#404040;stroke-width:0.45;" width="135" x="463.5" y="492.3"/><text fill="#000000" font-family="sans-serif" font-size="9" font-style="italic" lengthAdjust="spacing" textLength="83.7" x="489.15" y="506.1428">CollectionsPattern::</text><text fill="#0000FF" font-family="sans-serif" font-size="12.6" font-style="italic" lengthAdjust="spacing" textLength="117" x="472.5" y="521.2002">MemberRelationship</text></g></a><!--MD5=[dbb9714e688a8859a4ae24219d53a233]
class DDICDIModels::DDICDILibrary::Classes::Conceptual::ConceptRelationship--><g id="elem_DDICDIModels::DDICDILibrary::Classes::Conceptual::ConceptRelationship"><rect codeLine="46" fill="#FFD700" height="75.0656" id="DDICDIModels::DDICDILibrary::Classes::Conceptual::ConceptRelationship" rx="2.25" ry="2.25" style="stroke:#404040;stroke-width:0.45;" width="230.4" x="169.2" y="123.75"/><text fill="#000000" font-family="sans-serif" font-size="9" lengthAdjust="spacing" textLength="54.9" x="256.95" y="137.5928">Conceptual::</text><text fill="#000000" font-family="sans-serif" font-size="12.6" lengthAdjust="spacing" textLength="117.9" x="225.45" y="152.6502">ConceptRelationship</text><line style="stroke:#404040;stroke-width:0.45;" x1="170.1" x2="398.7" y1="159.9188" y2="159.9188"/><a href="../DDICDILibrary/DataTypes/StructuredDataTypes/Identifier.html#diagram" target="_top" title=" ― Identifier:&#10;Identifier for objects requiring short- or long-lasting referencing and management." xlink:actuate="onRequest" xlink:href="../DDICDILibrary/DataTypes/StructuredDataTypes/Identifier.html#diagram" xlink:show="new" xlink:title=" ― Identifier:&#10;Identifier for objects requiring short- or long-lasting referencing and management." xlink:type="simple"><text fill="#000000" font-family="sans-serif" font-size="12.6" lengthAdjust="spacing" textLength="55.8" x="174.6" y="176.5986">identifier :</text><text fill="#0000FF" font-family="sans-serif" font-size="12.6" lengthAdjust="spacing" textLength="48.6" x="234" y="176.5986">Identifier</text></a><a href="../DDICDILibrary/DataTypes/StructuredDataTypes/ControlledVocabularyEntry.html#diagram" target="_top" title=" ― ControlledVocabularyEntry:&#10;Allows for unstructured content which may be an entry from an externally maintained controlled vocabulary.If the content is from a controlled vocabulary provide the code value of the entry, as well as a reference to the controlled vocabulary from which the value is taken. Provide as many of the iden ..." xlink:actuate="onRequest" xlink:href="../DDICDILibrary/DataTypes/StructuredDataTypes/ControlledVocabularyEntry.html#diagram" xlink:show="new" xlink:title=" ― ControlledVocabularyEntry:&#10;Allows for unstructured content which may be an entry from an externally maintained controlled vocabulary.If the content is from a controlled vocabulary provide the code value of the entry, as well as a reference to the controlled vocabulary from which the value is taken. Provide as many of the iden ..." xlink:type="simple"><text fill="#000000" font-family="sans-serif" font-size="12.6" lengthAdjust="spacing" textLength="63.9" x="174.6" y="192.4471">semantics :</text><text fill="#0000FF" font-family="sans-serif" font-size="12.6" lengthAdjust="spacing" textLength="152.1" x="242.1" y="192.4471">ControlledVocabularyEntry</text></a></g><!--MD5=[8dd7df258477c84a3513cc68dc290632]
link DDICDIModels::DDICDILibrary::Classes::Conceptual::ConceptRelationship to DDICDIModels::DDICDILibrary::Classes::Conceptual::Concept--><g id="link_DDICDIModels::DDICDILibrary::Classes::Conceptual::ConceptRelationship_DDICDIModels::DDICDILibrary::Classes::Conceptual::Concept"><a href="" target="_top" title=" ― hasSource:&#10;Restricts source object to concept for the relationship." xlink:actuate="onRequest" xlink:href="" xlink:show="new" xlink:title=" ― hasSource:&#10;Restricts source object to concept for the relationship." xlink:type="simple"><path codeLine="70" d="M168.894,195.012 C150.174,203.328 131.805,213.516 116.1,225.9 C102.267,236.808 91.26,253.485 83.943,266.814 " fill="none" id="DDICDIModels::DDICDILibrary::Classes::Conceptual::ConceptRelationship-to-DDICDIModels::DDICDILibrary::Classes::Conceptual::Concept" style="stroke:#808080;stroke-width:1.35;"/><polygon fill="#808080" points="81.792,270.828,88.7903,265.388,83.917,266.8613,82.4437,261.988,81.792,270.828" style="stroke:#808080;stroke-width:1.35;"/><text fill="#000000" font-family="sans-serif" font-size="11.7" lengthAdjust="spacing" textLength="55.8" x="117" y="238.9456">hasSource</text></a></g><!--MD5=[8dd7df258477c84a3513cc68dc290632]
link DDICDIModels::DDICDILibrary::Classes::Conceptual::ConceptRelationship to DDICDIModels::DDICDILibrary::Classes::Conceptual::Concept--><g id="link_DDICDIModels::DDICDILibrary::Classes::Conceptual::ConceptRelationship_DDICDIModels::DDICDILibrary::Classes::Conceptual::Concept"><a href="" target="_top" title=" ― hasTarget:&#10;Restricts target object to concept for the relationship." xlink:actuate="onRequest" xlink:href="" xlink:show="new" xlink:title=" ― hasTarget:&#10;Restricts target object to concept for the relationship." xlink:type="simple"><path codeLine="71" d="M240.354,198.45 C221.589,213.039 199.035,229.365 177.3,242.1 C160.173,252.126 140.463,261.387 122.868,268.92 " fill="none" id="DDICDIModels::DDICDILibrary::Classes::Conceptual::ConceptRelationship-to-DDICDIModels::DDICDILibrary::Classes::Conceptual::Concept-1" style="stroke:#808080;stroke-width:1.35;"/><polygon fill="#808080" points="118.44,270.792,127.3028,270.9335,122.5808,269.0302,124.484,264.3082,118.44,270.792" style="stroke:#808080;stroke-width:1.35;"/><text fill="#000000" font-family="sans-serif" font-size="11.7" lengthAdjust="spacing" textLength="51.3" x="203.4" y="238.9456">hasTarget</text></a></g><!--MD5=[d7940e7d7c333668fd286c1fd249b219]
reverse link DDICDIModels::DDICDILibrary::Classes::Conceptual::ConceptRelationship to DDICDIModels::DDICDILibrary::Classes::Conceptual::ConceptStructure--><g id="link_DDICDIModels::DDICDILibrary::Classes::Conceptual::ConceptRelationship_DDICDIModels::DDICDILibrary::Classes::Conceptual::ConceptStructure"><a href="" target="_top" title=" ― has:&#10;Concept structure has zero to many concept relationships." xlink:actuate="onRequest" xlink:href="" xlink:show="new" xlink:title=" ― has:&#10;Concept structure has zero to many concept relationships." xlink:type="simple"><path codeLine="72" d="M303.732,203.004 C314.523,225.9 327.411,253.242 335.601,270.603 " fill="none" id="DDICDIModels::DDICDILibrary::Classes::Conceptual::ConceptRelationship-backto-DDICDIModels::DDICDILibrary::Classes::Conceptual::ConceptStructure" style="stroke:#808080;stroke-width:1.35;"/><polygon fill="#808080" points="301.743,198.783,301.9414,207.6448,303.6622,202.8532,308.4537,204.5741,301.743,198.783" style="stroke:#808080;stroke-width:1.35;"/><text fill="#000000" font-family="sans-serif" font-size="11.7" lengthAdjust="spacing" textLength="18.9" x="321.3" y="238.9456">has</text></a></g><!--MD5=[06c35b076f228f4c0072ac8c77775494]
link DDICDIModels::DDICDILibrary::Classes::Conceptual::ConceptRelationship to DDICDIModels::DesignPatterns::CollectionsPattern::MemberRelationship--><g id="link_DDICDIModels::DDICDILibrary::Classes::Conceptual::ConceptRelationship_DDICDIModels::DesignPatterns::CollectionsPattern::MemberRelationship"><path codeLine="76" d="M399.753,176.85 C463.941,192.312 531,223.821 531,288 C531,288 531,288 531,435.15 C531,452.754 531,472.707 531,487.494 " fill="none" id="DDICDIModels::DDICDILibrary::Classes::Conceptual::ConceptRelationship-to-DDICDIModels::DesignPatterns::CollectionsPattern::MemberRelationship" style="stroke:#404040;stroke-width:1.35;stroke-dasharray:7.0,7.0;"/><polygon fill="#404040" points="531,492.291,534.6,484.191,531,487.791,527.4,484.191,531,492.291" style="stroke:#404040;stroke-width:1.35;"/><text fill="#000000" font-family="sans-serif" font-size="11.7" lengthAdjust="spacing" textLength="45" x="531.9" y="376.6456">«Refine»</text></g><rect height="33.9609" style="stroke:#00000000;stroke-width:0.9;fill:none;" width="339.3" x="126" y="532.9688"/><text fill="#888888" font-family="sans-serif" font-size="9" lengthAdjust="spacing" textLength="2.7" x="294.3" y="542.3115"> </text><text fill="#888888" font-family="sans-serif" font-size="9" lengthAdjust="spacing" textLength="2.7" x="294.3" y="553.6318"> </text><text fill="#888888" font-family="sans-serif" font-size="9" lengthAdjust="spacing" textLength="339.3" x="126" y="564.9521">DDI Cross Domain Integration (DDI-CDI)   1.0 - Conceptual::ConceptRelationship</text><!--MD5=[e7be6df9e543e16c3ca198bf1004da94]
@startuml
!pragma ratio 0.5625
' HD display aspect ratio 16:9
' hyperlinkColor and pathHoverColor do not seem to work with class diagrams
' working approach: colors per item
' default font size for class names is 14

hide circle
hide empty members
scale 0.9

skinparam {
  ArrowThickness 1.5
  MinClassWidth 150
}

skinparam legend {
  BackgroundColor white
  FontSize 10
}

skinparam note {
  BackgroundColor white
}

skinparam class {
  ArrowColor #404040
  BorderColor #404040
}

skinparam package {
  FontColor lightgrey
  BorderColor lightgrey
}

title <size:20>UML Diagram: Class ConceptRelationship in Context\n
footer \n\nDDI Cross Domain Integration (DDI-CDI)   1.0 - Conceptual::ConceptRelationship

legend top left
**Hints**
<color:grey>- Move the mouse cursor over a name to see more information.
<color:grey>- Click on a name to go to the corresponding page.
endlegend

' Core class of diagram
class DDICDIModels::DDICDILibrary::Classes::Conceptual::ConceptRelationship as "<size:10>Conceptual::\n<color:black>ConceptRelationship" #FFD700 {
  identifier : <color:blue>Identifier   	  [[[../DDICDILibrary/DataTypes/StructuredDataTypes/Identifier.html#diagram{ <U+2015> Identifier:\nIdentifier for objects requiring short- or long-lasting referencing and management.}]]]
  semantics : <color:blue>ControlledVocabularyEntry   	  [[[../DDICDILibrary/DataTypes/StructuredDataTypes/ControlledVocabularyEntry.html#diagram{ <U+2015> ControlledVocabularyEntry:\nAllows for unstructured content which may be an entry from an externally maintained controlled vocabulary.If the content is from a controlled vocabulary provide the code value of the entry, as well as a reference to the controlled vocabulary from which the value is taken. Provide as many of the iden ...}]]]
}

' Class definitions for associated classes without superclass (might have also an association)
' This would be too many constraints for Graphviz. 
together {
  class DDICDIModels::DDICDILibrary::Classes::Conceptual::Concept as "<size:10>Conceptual::\n<color:blue>Concept" [[../DDICDILibrary/Classes/Conceptual/Concept.html#super-class-hierarchy-generalization{ <U+2015> Concept:\nUnit of thought differentiated by characteristics (from the Generic Statistical Information Model version 1.2: https://statswiki.unece.org/display/clickablegsim/Concept).}]]
  class DDICDIModels::DDICDILibrary::Classes::Conceptual::ConceptStructure as "<size:10>Conceptual::\n<color:blue>ConceptStructure" [[../DDICDILibrary/Classes/Conceptual/ConceptStructure.html#super-class-hierarchy-generalization{ <U+2015> ConceptStructure:\nRelations of concepts within a collection.}]]
}

' Class definitions for suppliers of abstractions
together {
  abstract class DDICDIModels::DesignPatterns::CollectionsPattern::MemberRelationship as "<size:10>CollectionsPattern::\n<color:blue>MemberRelationship" [[../DesignPatterns/CollectionsPattern/MemberRelationship.html#super-class-hierarchy-generalization{ <U+2015> MemberRelationship:\nRelationship between members in a collection with directionality given by source and target.}]]
}

' Rest of class definitions, without associated classes of core class and abstraction supplier classes



' Associations
DDICDIModels::DDICDILibrary::Classes::Conceptual::ConceptRelationship -[#grey]-> DDICDIModels::DDICDILibrary::Classes::Conceptual::Concept [[{ <U+2015> hasSource:\nRestricts source object to concept for the relationship.}]] : hasSource
DDICDIModels::DDICDILibrary::Classes::Conceptual::ConceptRelationship -[#grey]-> DDICDIModels::DDICDILibrary::Classes::Conceptual::Concept [[{ <U+2015> hasTarget:\nRestricts target object to concept for the relationship.}]] : hasTarget
DDICDIModels::DDICDILibrary::Classes::Conceptual::ConceptRelationship <-[#grey]- DDICDIModels::DDICDILibrary::Classes::Conceptual::ConceptStructure [[{ <U+2015> has:\nConcept structure has zero to many concept relationships.}]] : has


' Abstractions
  DDICDIModels::DDICDILibrary::Classes::Conceptual::ConceptRelationship .....> DDICDIModels::DesignPatterns::CollectionsPattern::MemberRelationship : <U+00AB>Refine<U+00BB>
   
@enduml

@startuml
!pragma ratio 0.5625

hide circle
hide empty members
scale 0.9

skinparam {
  ArrowThickness 1.5
  MinClassWidth 150
}

skinparam legend {
  BackgroundColor white
  FontSize 10
}

skinparam note {
  BackgroundColor white
}

skinparam class {
  ArrowColor #404040
  BorderColor #404040
}

skinparam package {
  FontColor lightgrey
  BorderColor lightgrey
}

title <size:20>UML Diagram: Class ConceptRelationship in Context\n
footer \n\nDDI Cross Domain Integration (DDI-CDI)   1.0 - Conceptual::ConceptRelationship

legend top left
**Hints**
<color:grey>- Move the mouse cursor over a name to see more information.
<color:grey>- Click on a name to go to the corresponding page.
endlegend

class DDICDIModels::DDICDILibrary::Classes::Conceptual::ConceptRelationship as "<size:10>Conceptual::\n<color:black>ConceptRelationship" #FFD700 {
  identifier : <color:blue>Identifier   	  [[[../DDICDILibrary/DataTypes/StructuredDataTypes/Identifier.html#diagram{ <U+2015> Identifier:\nIdentifier for objects requiring short- or long-lasting referencing and management.}]]]
  semantics : <color:blue>ControlledVocabularyEntry   	  [[[../DDICDILibrary/DataTypes/StructuredDataTypes/ControlledVocabularyEntry.html#diagram{ <U+2015> ControlledVocabularyEntry:\nAllows for unstructured content which may be an entry from an externally maintained controlled vocabulary.If the content is from a controlled vocabulary provide the code value of the entry, as well as a reference to the controlled vocabulary from which the value is taken. Provide as many of the iden ...}]]]
}

together {
  class DDICDIModels::DDICDILibrary::Classes::Conceptual::Concept as "<size:10>Conceptual::\n<color:blue>Concept" [[../DDICDILibrary/Classes/Conceptual/Concept.html#super-class-hierarchy-generalization{ <U+2015> Concept:\nUnit of thought differentiated by characteristics (from the Generic Statistical Information Model version 1.2: https://statswiki.unece.org/display/clickablegsim/Concept).}]]
  class DDICDIModels::DDICDILibrary::Classes::Conceptual::ConceptStructure as "<size:10>Conceptual::\n<color:blue>ConceptStructure" [[../DDICDILibrary/Classes/Conceptual/ConceptStructure.html#super-class-hierarchy-generalization{ <U+2015> ConceptStructure:\nRelations of concepts within a collection.}]]
}

together {
  abstract class DDICDIModels::DesignPatterns::CollectionsPattern::MemberRelationship as "<size:10>CollectionsPattern::\n<color:blue>MemberRelationship" [[../DesignPatterns/CollectionsPattern/MemberRelationship.html#super-class-hierarchy-generalization{ <U+2015> MemberRelationship:\nRelationship between members in a collection with directionality given by source and target.}]]
}




DDICDIModels::DDICDILibrary::Classes::Conceptual::ConceptRelationship -[#grey]-> DDICDIModels::DDICDILibrary::Classes::Conceptual::Concept [[{ <U+2015> hasSource:\nRestricts source object to concept for the relationship.}]] : hasSource
DDICDIModels::DDICDILibrary::Classes::Conceptual::ConceptRelationship -[#grey]-> DDICDIModels::DDICDILibrary::Classes::Conceptual::Concept [[{ <U+2015> hasTarget:\nRestricts target object to concept for the relationship.}]] : hasTarget
DDICDIModels::DDICDILibrary::Classes::Conceptual::ConceptRelationship <-[#grey]- DDICDIModels::DDICDILibrary::Classes::Conceptual::ConceptStructure [[{ <U+2015> has:\nConcept structure has zero to many concept relationships.}]] : has


  DDICDIModels::DDICDILibrary::Classes::Conceptual::ConceptRelationship .....> DDICDIModels::DesignPatterns::CollectionsPattern::MemberRelationship : <U+00AB>Refine<U+00BB>
   
@enduml

PlantUML version 1.2022.6(Tue Jun 21 19:34:49 CEST 2022)
(GPL source distribution)
Java Runtime: OpenJDK Runtime Environment
JVM: OpenJDK 64-Bit Server VM
Default Encoding: Cp1252
Language: en
Country: US
--></g></svg>