<?xml version="1.0" encoding="UTF-8" standalone="no"?><svg xmlns="http://www.w3.org/2000/svg" xmlns:xlink="http://www.w3.org/1999/xlink" contentStyleType="text/css" height="429.3px" preserveAspectRatio="none" style="width:702px;height:429px;background:#FFFFFF;" version="1.1" viewBox="0 0 702 429" width="702.9px" zoomAndPan="magnify"><defs/><g><rect height="47.4891" style="stroke:#00000000;stroke-width:0.9;fill:none;" width="513.9" x="88.2" y="4.5"/><text fill="#000000" font-family="sans-serif" font-size="18" font-weight="bold" lengthAdjust="spacing" textLength="504.9" x="92.7" y="27.6855">UML Diagram: DataType ObjectAttributeSelector in Context</text><text fill="#000000" font-family="sans-serif" font-size="12.6" font-weight="bold" lengthAdjust="spacing" textLength="3.6" x="343.35" y="44.7205"> </text><rect fill="#FFFFFF" height="67.4016" rx="6.75" ry="6.75" style="stroke:#000000;stroke-width:0.9;" width="348.3" x="334.8" y="64.5891"/><text fill="#000000" font-family="sans-serif" font-size="9" font-weight="bold" lengthAdjust="spacing" textLength="22.5" x="340.2" y="79.3318">Hints</text><text fill="#808080" font-family="sans-serif" font-size="9" lengthAdjust="spacing" textLength="265.5" x="340.2" y="90.6521">- Move the mouse cursor over a name to see more information.</text><text fill="#808080" font-family="sans-serif" font-size="9" lengthAdjust="spacing" textLength="216" x="340.2" y="101.9725">- Click on a name to go to the corresponding page.</text><text fill="#808080" font-family="sans-serif" font-size="9" lengthAdjust="spacing" textLength="337.5" x="340.2" y="113.2928">- The use of the data type is represented here by a dotted line (not formal UML).</text><text fill="#808080" font-family="sans-serif" font-size="9" lengthAdjust="spacing" textLength="164.7" x="340.2" y="124.6131">- The arrows of the inheritance tree are</text><text fill="#D2691E" font-family="sans-serif" font-size="9" lengthAdjust="spacing" textLength="32.4" x="507.6" y="124.6131">colored</text><text fill="#808080" font-family="sans-serif" font-size="9" lengthAdjust="spacing" textLength="2.7" x="540" y="124.6131">.</text><!--MD5=[7639129a7208b5720b5c8dbdaf72c8f5]
entity ##5--><!--MD5=[c09f5ef791110389cd3fbb684c42cc6c]
entity ##10--><!--MD5=[faec3d08bc99cfd189d2b917bde365e6]
class DDICDIModels::DDICDILibrary::DataTypes::StructuredDataTypes::ObjectAttributeSelector--><g id="elem_DDICDIModels::DDICDILibrary::DataTypes::StructuredDataTypes::ObjectAttributeSelector"><rect codeLine="48" fill="#FFD700" height="104.4984" id="DDICDIModels::DDICDILibrary::DataTypes::StructuredDataTypes::ObjectAttributeSelector" rx="2.25" ry="2.25" style="stroke:#404040;stroke-width:0.45;" width="207" x="489.6" y="278.6906"/><text fill="#000000" font-family="sans-serif" font-size="10.8" font-style="italic" lengthAdjust="spacing" textLength="58.5" x="563.85" y="294.402">«dataType»</text><text fill="#000000" font-family="sans-serif" font-size="9" lengthAdjust="spacing" textLength="2.7" x="591.75" y="306.1178"> </text><text fill="#000000" font-family="sans-serif" font-size="12.6" lengthAdjust="spacing" textLength="131.4" x="527.4" y="321.1752">ObjectAttributeSelector</text><line style="stroke:#404040;stroke-width:0.45;" x1="490.5" x2="695.7" y1="328.4438" y2="328.4438"/><a href="../DDICDILibrary/DataTypes/StructuredDataTypes/ObjectAttributeSelector.html#diagram" target="_top" title=" ― ObjectAttributeSelector:&#10;A resource which describes a specific attribute of an object. It is defined in the style of selectors of the Web Annotation Vocabulary, see https://www.w3.org/TR/annotation-vocab/. The selector can be nested dependent on the structure of the referenced object." xlink:actuate="onRequest" xlink:href="../DDICDILibrary/DataTypes/StructuredDataTypes/ObjectAttributeSelector.html#diagram" xlink:show="new" xlink:title=" ― ObjectAttributeSelector:&#10;A resource which describes a specific attribute of an object. It is defined in the style of selectors of the Web Annotation Vocabulary, see https://www.w3.org/TR/annotation-vocab/. The selector can be nested dependent on the structure of the referenced object." xlink:type="simple"><text fill="#000000" font-family="sans-serif" font-size="12.6" lengthAdjust="spacing" textLength="61.2" x="495" y="345.1236">refinedBy :</text><text fill="#0000FF" font-family="sans-serif" font-size="12.6" lengthAdjust="spacing" textLength="131.4" x="559.8" y="345.1236">ObjectAttributeSelector</text></a><text fill="#000000" font-family="sans-serif" font-size="12.6" lengthAdjust="spacing" textLength="181.8" x="495" y="360.9721">refinedByOrderNumber : Integer</text><text fill="#000000" font-family="sans-serif" font-size="12.6" lengthAdjust="spacing" textLength="74.7" x="495" y="376.8205">value : String</text></g><!--MD5=[5c87dfae530e1fd2b2e49e638951e641]
class DDICDIModels::DDICDILibrary::DataTypes::StructuredDataTypes::Reference--><a href="../DDICDILibrary/DataTypes/StructuredDataTypes/Reference.html#super-class-hierarchy-generalization" target="_top" title=" ― Reference:&#10;Provides a way of pointing to resources outside of the information described in the set of DDI-CDI metadata." xlink:actuate="onRequest" xlink:href="../DDICDILibrary/DataTypes/StructuredDataTypes/Reference.html#super-class-hierarchy-generalization" xlink:show="new" xlink:title=" ― Reference:&#10;Provides a way of pointing to resources outside of the information described in the set of DDI-CDI metadata." xlink:type="simple"><g id="elem_DDICDIModels::DDICDILibrary::DataTypes::StructuredDataTypes::Reference"><rect codeLine="57" fill="#F1F1F1" height="183.7406" id="DDICDIModels::DDICDILibrary::DataTypes::StructuredDataTypes::Reference" rx="2.25" ry="2.25" style="stroke:#404040;stroke-width:0.45;" width="312.3" x="6.3" y="146.3906"/><text fill="#000000" font-family="sans-serif" font-size="10.8" font-style="italic" lengthAdjust="spacing" textLength="58.5" x="133.2" y="162.102">«dataType»</text><text fill="#000000" font-family="sans-serif" font-size="9" lengthAdjust="spacing" textLength="2.7" x="161.1" y="173.8178"> </text><text fill="#0000FF" font-family="sans-serif" font-size="12.6" lengthAdjust="spacing" textLength="59.4" x="132.75" y="188.8752">Reference</text><line style="stroke:#404040;stroke-width:0.45;" x1="7.2" x2="317.7" y1="196.1438" y2="196.1438"/><a href="../DDICDILibrary/DataTypes/StructuredDataTypes/InternationalRegistrationDataIdentifier.html#diagram" target="_top" title=" ― InternationalRegistrationDataIdentifier:&#10;Persistent, globally unique object identifier aligned with ISO/IEC 11179-6:2015, Information technology - Metadata registries (MDR) - Part 6: Registration, Annex A, Identifiers based on ISO/IEC 6523, http://standards.iso.org/ittf/PubliclyAvailableStandards/c060342_ISO_IEC_11179-6_2015.zip. The uniqu ..." xlink:actuate="onRequest" xlink:href="../DDICDILibrary/DataTypes/StructuredDataTypes/InternationalRegistrationDataIdentifier.html#diagram" xlink:show="new" xlink:title=" ― InternationalRegistrationDataIdentifier:&#10;Persistent, globally unique object identifier aligned with ISO/IEC 11179-6:2015, Information technology - Metadata registries (MDR) - Part 6: Registration, Annex A, Identifiers based on ISO/IEC 6523, http://standards.iso.org/ittf/PubliclyAvailableStandards/c060342_ISO_IEC_11179-6_2015.zip. The uniqu ..." xlink:type="simple"><text fill="#000000" font-family="sans-serif" font-size="12.6" lengthAdjust="spacing" textLength="83.7" x="11.7" y="212.8236">ddiReference :</text><text fill="#0000FF" font-family="sans-serif" font-size="12.6" lengthAdjust="spacing" textLength="214.2" x="99" y="212.8236">InternationalRegistrationDataIdentifier</text></a><a href="../DDICDILibrary/DataTypes/StructuredDataTypes/Selector.html#diagram" target="_top" title=" ― Selector:&#10;A resource which describes the segment of interest in a representation of a resource. This class is not used directly, only its subclasses. It is defined accordingly the related selector of the Web Annotation Vocabulary, see https://www.w3.org/TR/annotation-vocab/#selector." xlink:actuate="onRequest" xlink:href="../DDICDILibrary/DataTypes/StructuredDataTypes/Selector.html#diagram" xlink:show="new" xlink:title=" ― Selector:&#10;A resource which describes the segment of interest in a representation of a resource. This class is not used directly, only its subclasses. It is defined accordingly the related selector of the Web Annotation Vocabulary, see https://www.w3.org/TR/annotation-vocab/#selector." xlink:type="simple"><text fill="#000000" font-family="sans-serif" font-size="12.6" lengthAdjust="spacing" textLength="59.4" x="11.7" y="228.6721">deepLink :</text><text fill="#0000FF" font-family="sans-serif" font-size="12.6" lengthAdjust="spacing" textLength="46.8" x="74.7" y="228.6721">Selector</text></a><text fill="#000000" font-family="sans-serif" font-size="12.6" lengthAdjust="spacing" textLength="106.2" x="11.7" y="244.5205">description : String</text><a href="../DDICDILibrary/DataTypes/StructuredDataTypes/InternationalString.html#diagram" target="_top" title=" ― InternationalString:&#10;Packaging structure for multiple language versions of the same string content. Where an element of this type is repeatable, the expectation is that each repetition contains different content, each of which can be expressed in multiple languages. The language designation goes on the individual String ..." xlink:actuate="onRequest" xlink:href="../DDICDILibrary/DataTypes/StructuredDataTypes/InternationalString.html#diagram" xlink:show="new" xlink:title=" ― InternationalString:&#10;Packaging structure for multiple language versions of the same string content. Where an element of this type is repeatable, the expectation is that each repetition contains different content, each of which can be expressed in multiple languages. The language designation goes on the individual String ..." xlink:type="simple"><text fill="#000000" font-family="sans-serif" font-size="12.6" lengthAdjust="spacing" textLength="51.3" x="11.7" y="260.3689">location :</text><text fill="#0000FF" font-family="sans-serif" font-size="12.6" lengthAdjust="spacing" textLength="103.5" x="66.6" y="260.3689">InternationalString</text></a><a href="../DDICDILibrary/DataTypes/StructuredDataTypes/NonDdiIdentifier.html#diagram" target="_top" title=" ― NonDdiIdentifier:&#10;A unique set of attributes, not conforming to the DDI identifier structure nor structured as a URI, used to identify some entity." xlink:actuate="onRequest" xlink:href="../DDICDILibrary/DataTypes/StructuredDataTypes/NonDdiIdentifier.html#diagram" xlink:show="new" xlink:title=" ― NonDdiIdentifier:&#10;A unique set of attributes, not conforming to the DDI identifier structure nor structured as a URI, used to identify some entity." xlink:type="simple"><text fill="#000000" font-family="sans-serif" font-size="12.6" lengthAdjust="spacing" textLength="107.1" x="11.7" y="276.2174">nonDdiReference :</text><text fill="#0000FF" font-family="sans-serif" font-size="12.6" lengthAdjust="spacing" textLength="90" x="122.4" y="276.2174">NonDdiIdentifier</text></a><a href="../DDICDILibrary/DataTypes/StructuredDataTypes/ControlledVocabularyEntry.html#diagram" target="_top" title=" ― ControlledVocabularyEntry:&#10;Allows for unstructured content which may be an entry from an externally maintained controlled vocabulary.If the content is from a controlled vocabulary provide the code value of the entry, as well as a reference to the controlled vocabulary from which the value is taken. Provide as many of the iden ..." xlink:actuate="onRequest" xlink:href="../DDICDILibrary/DataTypes/StructuredDataTypes/ControlledVocabularyEntry.html#diagram" xlink:show="new" xlink:title=" ― ControlledVocabularyEntry:&#10;Allows for unstructured content which may be an entry from an externally maintained controlled vocabulary.If the content is from a controlled vocabulary provide the code value of the entry, as well as a reference to the controlled vocabulary from which the value is taken. Provide as many of the iden ..." xlink:type="simple"><text fill="#000000" font-family="sans-serif" font-size="12.6" lengthAdjust="spacing" textLength="57.6" x="11.7" y="292.0658">semantic :</text><text fill="#0000FF" font-family="sans-serif" font-size="12.6" lengthAdjust="spacing" textLength="152.1" x="72.9" y="292.0658">ControlledVocabularyEntry</text></a><a href="../DDICDILibrary/DataTypes/XMLSchemaDataTypes/XsdAnyUri.html#diagram" target="_top" title=" ― XsdAnyUri:&#10;Primitive data type &quot;anyURI&quot; of the XML Schema data types. Definition from XML Schema Part 2: Datatypes Second Edition: &quot;anyURI&quot; represents a Uniform Resource Identifier Reference (URI). An &quot;anyURI&quot; value can be absolute or relative, and may have an optional fragment identifier (i.e., it may be a UR ..." xlink:actuate="onRequest" xlink:href="../DDICDILibrary/DataTypes/XMLSchemaDataTypes/XsdAnyUri.html#diagram" xlink:show="new" xlink:title=" ― XsdAnyUri:&#10;Primitive data type &quot;anyURI&quot; of the XML Schema data types. Definition from XML Schema Part 2: Datatypes Second Edition: &quot;anyURI&quot; represents a Uniform Resource Identifier Reference (URI). An &quot;anyURI&quot; value can be absolute or relative, and may have an optional fragment identifier (i.e., it may be a UR ..." xlink:type="simple"><text fill="#000000" font-family="sans-serif" font-size="12.6" lengthAdjust="spacing" textLength="21.6" x="11.7" y="307.9143">uri :</text><text fill="#0000FF" font-family="sans-serif" font-size="12.6" lengthAdjust="spacing" textLength="57.6" x="36.9" y="307.9143">XsdAnyUri</text></a><text fill="#000000" font-family="sans-serif" font-size="12.6" lengthAdjust="spacing" textLength="99" x="11.7" y="323.7627">validType : String</text></g></a><!--MD5=[e68c8cc4f84dc16059e5b0f79a02b5ac]
class DDICDIModels::DDICDILibrary::DataTypes::StructuredDataTypes::Selector--><a href="../DDICDILibrary/DataTypes/StructuredDataTypes/Selector.html#super-class-hierarchy-generalization" target="_top" title=" ― Selector:&#10;A resource which describes the segment of interest in a representation of a resource. This class is not used directly, only its subclasses. It is defined accordingly the related selector of the Web Annotation Vocabulary, see https://www.w3.org/TR/annotation-vocab/#selector." xlink:actuate="onRequest" xlink:href="../DDICDILibrary/DataTypes/StructuredDataTypes/Selector.html#super-class-hierarchy-generalization" xlink:show="new" xlink:title=" ― Selector:&#10;A resource which describes the segment of interest in a representation of a resource. This class is not used directly, only its subclasses. It is defined accordingly the related selector of the Web Annotation Vocabulary, see https://www.w3.org/TR/annotation-vocab/#selector." xlink:type="simple"><g id="elem_DDICDIModels::DDICDILibrary::DataTypes::StructuredDataTypes::Selector"><rect codeLine="73" fill="#F1F1F1" height="49.7531" id="DDICDIModels::DDICDILibrary::DataTypes::StructuredDataTypes::Selector" rx="2.25" ry="2.25" style="stroke:#404040;stroke-width:0.45;" width="135" x="525.6" y="197.2406"/><text fill="#000000" font-family="sans-serif" font-size="10.8" font-style="italic" lengthAdjust="spacing" textLength="58.5" x="563.85" y="212.952">«dataType»</text><text fill="#000000" font-family="sans-serif" font-size="9" lengthAdjust="spacing" textLength="2.7" x="591.75" y="224.6678"> </text><text fill="#0000FF" font-family="sans-serif" font-size="12.6" lengthAdjust="spacing" textLength="46.8" x="569.7" y="239.7252">Selector</text></g></a><!--MD5=[b661d29f55bb6202e8036047d5d831d3]
link DDICDIModels::DDICDILibrary::DataTypes::StructuredDataTypes::Reference to DDICDIModels::DDICDILibrary::DataTypes::StructuredDataTypes::Selector--><g id="link_DDICDIModels::DDICDILibrary::DataTypes::StructuredDataTypes::Reference_DDICDIModels::DDICDILibrary::DataTypes::StructuredDataTypes::Selector"><path codeLine="85" d="M319.95,221.9906 C390.024,221.9906 470.241,221.9906 525.348,221.9906 " fill="none" id="DDICDIModels::DDICDILibrary::DataTypes::StructuredDataTypes::Reference-DDICDIModels::DDICDILibrary::DataTypes::StructuredDataTypes::Selector" style="stroke:#808080;stroke-width:0.9;stroke-dasharray:1.0,3.0;"/></g><!--MD5=[444e5185642c2c29fda8c33adf89ef98]
reverse link DDICDIModels::DDICDILibrary::DataTypes::StructuredDataTypes::Selector to DDICDIModels::DDICDILibrary::DataTypes::StructuredDataTypes::ObjectAttributeSelector--><g id="link_DDICDIModels::DDICDILibrary::DataTypes::StructuredDataTypes::Selector_DDICDIModels::DDICDILibrary::DataTypes::StructuredDataTypes::ObjectAttributeSelector"><path codeLine="90" d="M593.1,264.8936 C593.1,269.4476 593.1,274.0106 593.1,278.5646 " fill="none" id="DDICDIModels::DDICDILibrary::DataTypes::StructuredDataTypes::Selector-backto-DDICDIModels::DDICDILibrary::DataTypes::StructuredDataTypes::ObjectAttributeSelector" style="stroke:#D2691E;stroke-width:1.35;"/><polygon fill="none" points="586.8,264.7406,593.1,246.7406,599.4,264.7406,586.8,264.7406" style="stroke:#D2691E;stroke-width:1.35;"/></g><rect height="33.9609" style="stroke:#00000000;stroke-width:0.9;fill:none;" width="390.6" x="149.85" y="388.5891"/><text fill="#888888" font-family="sans-serif" font-size="9" lengthAdjust="spacing" textLength="2.7" x="343.8" y="397.9318"> </text><text fill="#888888" font-family="sans-serif" font-size="9" lengthAdjust="spacing" textLength="2.7" x="343.8" y="409.2521"> </text><text fill="#888888" font-family="sans-serif" font-size="9" lengthAdjust="spacing" textLength="390.6" x="149.85" y="420.5725">DDI Cross Domain Integration (DDI-CDI)   1.0 - StructuredDataTypes::ObjectAttributeSelector</text><!--MD5=[037dfda07a6a9ae2ca2024615602369d]
@startuml
left to right direction
' HD display aspect ratio 16:9
' hyperlinkColor and pathHoverColor do not seem to work with class diagrams
' working approach: colors per item
' default font size for class names is 14

hide circle
hide empty members
scale 0.9

skinparam {
  ArrowThickness 1.5
  MinClassWidth 150
}

skinparam legend {
  BackgroundColor white
  FontSize 10
}

skinparam note {
  BackgroundColor white
}

skinparam class {
  ArrowColor #404040
  BorderColor #404040
}

skinparam package {
  FontColor lightgrey
  BorderColor lightgrey
}

title <size:20>UML Diagram: DataType ObjectAttributeSelector in Context\n
footer \n\nDDI Cross Domain Integration (DDI-CDI)   1.0 - StructuredDataTypes::ObjectAttributeSelector

legend top right
**Hints**
<color:grey>- Move the mouse cursor over a name to see more information.
<color:grey>- Click on a name to go to the corresponding page.
<color:grey>- The use of the data type is represented here by a dotted line (not formal UML).
<color:grey>- The arrows of the inheritance tree are <color:#D2691E>colored<color:grey>.
endlegend

' Core data type of diagram
class DDICDIModels::DDICDILibrary::DataTypes::StructuredDataTypes::ObjectAttributeSelector as "<size:10> \n<color:black>ObjectAttributeSelector" <<dataType>>   #FFD700 {
  refinedBy : <color:blue>ObjectAttributeSelector   	  [[[../DDICDILibrary/DataTypes/StructuredDataTypes/ObjectAttributeSelector.html#diagram{ <U+2015> ObjectAttributeSelector:\nA resource which describes a specific attribute of an object. It is defined in the style of selectors of the Web Annotation Vocabulary, see https://www.w3.org/TR/annotation-vocab/. The selector can be nested dependent on the structure of the referenced object.}]]]
  refinedByOrderNumber : Integer
  value : String
}

' Data type definitions in own package
class DDICDIModels::DDICDILibrary::DataTypes::StructuredDataTypes::Reference as "<size:10> \n<color:blue>Reference" <<dataType>> [[../DDICDILibrary/DataTypes/StructuredDataTypes/Reference.html#super-class-hierarchy-generalization{ <U+2015> Reference:\nProvides a way of pointing to resources outside of the information described in the set of DDI-CDI metadata.}]] {
  ddiReference : <color:blue>InternationalRegistrationDataIdentifier   	  [[[../DDICDILibrary/DataTypes/StructuredDataTypes/InternationalRegistrationDataIdentifier.html#diagram{ <U+2015> InternationalRegistrationDataIdentifier:\nPersistent, globally unique object identifier aligned with ISO/IEC 11179-6:2015, Information technology - Metadata registries (MDR) - Part 6: Registration, Annex A, Identifiers based on ISO/IEC 6523, http://standards.iso.org/ittf/PubliclyAvailableStandards/c060342_ISO_IEC_11179-6_2015.zip. The uniqu ...}]]]
  deepLink : <color:blue>Selector   	  [[[../DDICDILibrary/DataTypes/StructuredDataTypes/Selector.html#diagram{ <U+2015> Selector:\nA resource which describes the segment of interest in a representation of a resource. This class is not used directly, only its subclasses. It is defined accordingly the related selector of the Web Annotation Vocabulary, see https://www.w3.org/TR/annotation-vocab/#selector.}]]]
  description : String
  location : <color:blue>InternationalString   	  [[[../DDICDILibrary/DataTypes/StructuredDataTypes/InternationalString.html#diagram{ <U+2015> InternationalString:\nPackaging structure for multiple language versions of the same string content. Where an element of this type is repeatable, the expectation is that each repetition contains different content, each of which can be expressed in multiple languages. The language designation goes on the individual String ...}]]]
  nonDdiReference : <color:blue>NonDdiIdentifier   	  [[[../DDICDILibrary/DataTypes/StructuredDataTypes/NonDdiIdentifier.html#diagram{ <U+2015> NonDdiIdentifier:\nA unique set of attributes, not conforming to the DDI identifier structure nor structured as a URI, used to identify some entity.}]]]
  semantic : <color:blue>ControlledVocabularyEntry   	  [[[../DDICDILibrary/DataTypes/StructuredDataTypes/ControlledVocabularyEntry.html#diagram{ <U+2015> ControlledVocabularyEntry:\nAllows for unstructured content which may be an entry from an externally maintained controlled vocabulary.If the content is from a controlled vocabulary provide the code value of the entry, as well as a reference to the controlled vocabulary from which the value is taken. Provide as many of the iden ...}]]]
  uri : <color:blue>XsdAnyUri   	  [[[../DDICDILibrary/DataTypes/XMLSchemaDataTypes/XsdAnyUri.html#diagram{ <U+2015> XsdAnyUri:\nPrimitive data type "anyURI" of the XML Schema data types. Definition from XML Schema Part 2: Datatypes Second Edition: "anyURI" represents a Uniform Resource Identifier Reference (URI). An "anyURI" value can be absolute or relative, and may have an optional fragment identifier (i.e., it may be a UR ...}]]]
  validType : String
}
class DDICDIModels::DDICDILibrary::DataTypes::StructuredDataTypes::Selector as "<size:10> \n<color:blue>Selector" <<dataType>> [[../DDICDILibrary/DataTypes/StructuredDataTypes/Selector.html#super-class-hierarchy-generalization{ <U+2015> Selector:\nA resource which describes the segment of interest in a representation of a resource. This class is not used directly, only its subclasses. It is defined accordingly the related selector of the Web Annotation Vocabulary, see https://www.w3.org/TR/annotation-vocab/#selector.}]] {
}

' Data type definitions in other packages

' Use of data type
together {
}

' Super classes
' Use of super data types

DDICDIModels::DDICDILibrary::DataTypes::StructuredDataTypes::Selector - -up- - DDICDIModels::DDICDILibrary::DataTypes::StructuredDataTypes::Reference::deepLink #grey;line.dotted;




DDICDIModels::DDICDILibrary::DataTypes::StructuredDataTypes::Selector <|- -r- - DDICDIModels::DDICDILibrary::DataTypes::StructuredDataTypes::ObjectAttributeSelector #D2691E


' Abstractions
together {
}
@enduml

@startuml
left to right direction

hide circle
hide empty members
scale 0.9

skinparam {
  ArrowThickness 1.5
  MinClassWidth 150
}

skinparam legend {
  BackgroundColor white
  FontSize 10
}

skinparam note {
  BackgroundColor white
}

skinparam class {
  ArrowColor #404040
  BorderColor #404040
}

skinparam package {
  FontColor lightgrey
  BorderColor lightgrey
}

title <size:20>UML Diagram: DataType ObjectAttributeSelector in Context\n
footer \n\nDDI Cross Domain Integration (DDI-CDI)   1.0 - StructuredDataTypes::ObjectAttributeSelector

legend top right
**Hints**
<color:grey>- Move the mouse cursor over a name to see more information.
<color:grey>- Click on a name to go to the corresponding page.
<color:grey>- The use of the data type is represented here by a dotted line (not formal UML).
<color:grey>- The arrows of the inheritance tree are <color:#D2691E>colored<color:grey>.
endlegend

class DDICDIModels::DDICDILibrary::DataTypes::StructuredDataTypes::ObjectAttributeSelector as "<size:10> \n<color:black>ObjectAttributeSelector" <<dataType>>   #FFD700 {
  refinedBy : <color:blue>ObjectAttributeSelector   	  [[[../DDICDILibrary/DataTypes/StructuredDataTypes/ObjectAttributeSelector.html#diagram{ <U+2015> ObjectAttributeSelector:\nA resource which describes a specific attribute of an object. It is defined in the style of selectors of the Web Annotation Vocabulary, see https://www.w3.org/TR/annotation-vocab/. The selector can be nested dependent on the structure of the referenced object.}]]]
  refinedByOrderNumber : Integer
  value : String
}

class DDICDIModels::DDICDILibrary::DataTypes::StructuredDataTypes::Reference as "<size:10> \n<color:blue>Reference" <<dataType>> [[../DDICDILibrary/DataTypes/StructuredDataTypes/Reference.html#super-class-hierarchy-generalization{ <U+2015> Reference:\nProvides a way of pointing to resources outside of the information described in the set of DDI-CDI metadata.}]] {
  ddiReference : <color:blue>InternationalRegistrationDataIdentifier   	  [[[../DDICDILibrary/DataTypes/StructuredDataTypes/InternationalRegistrationDataIdentifier.html#diagram{ <U+2015> InternationalRegistrationDataIdentifier:\nPersistent, globally unique object identifier aligned with ISO/IEC 11179-6:2015, Information technology - Metadata registries (MDR) - Part 6: Registration, Annex A, Identifiers based on ISO/IEC 6523, http://standards.iso.org/ittf/PubliclyAvailableStandards/c060342_ISO_IEC_11179-6_2015.zip. The uniqu ...}]]]
  deepLink : <color:blue>Selector   	  [[[../DDICDILibrary/DataTypes/StructuredDataTypes/Selector.html#diagram{ <U+2015> Selector:\nA resource which describes the segment of interest in a representation of a resource. This class is not used directly, only its subclasses. It is defined accordingly the related selector of the Web Annotation Vocabulary, see https://www.w3.org/TR/annotation-vocab/#selector.}]]]
  description : String
  location : <color:blue>InternationalString   	  [[[../DDICDILibrary/DataTypes/StructuredDataTypes/InternationalString.html#diagram{ <U+2015> InternationalString:\nPackaging structure for multiple language versions of the same string content. Where an element of this type is repeatable, the expectation is that each repetition contains different content, each of which can be expressed in multiple languages. The language designation goes on the individual String ...}]]]
  nonDdiReference : <color:blue>NonDdiIdentifier   	  [[[../DDICDILibrary/DataTypes/StructuredDataTypes/NonDdiIdentifier.html#diagram{ <U+2015> NonDdiIdentifier:\nA unique set of attributes, not conforming to the DDI identifier structure nor structured as a URI, used to identify some entity.}]]]
  semantic : <color:blue>ControlledVocabularyEntry   	  [[[../DDICDILibrary/DataTypes/StructuredDataTypes/ControlledVocabularyEntry.html#diagram{ <U+2015> ControlledVocabularyEntry:\nAllows for unstructured content which may be an entry from an externally maintained controlled vocabulary.If the content is from a controlled vocabulary provide the code value of the entry, as well as a reference to the controlled vocabulary from which the value is taken. Provide as many of the iden ...}]]]
  uri : <color:blue>XsdAnyUri   	  [[[../DDICDILibrary/DataTypes/XMLSchemaDataTypes/XsdAnyUri.html#diagram{ <U+2015> XsdAnyUri:\nPrimitive data type "anyURI" of the XML Schema data types. Definition from XML Schema Part 2: Datatypes Second Edition: "anyURI" represents a Uniform Resource Identifier Reference (URI). An "anyURI" value can be absolute or relative, and may have an optional fragment identifier (i.e., it may be a UR ...}]]]
  validType : String
}
class DDICDIModels::DDICDILibrary::DataTypes::StructuredDataTypes::Selector as "<size:10> \n<color:blue>Selector" <<dataType>> [[../DDICDILibrary/DataTypes/StructuredDataTypes/Selector.html#super-class-hierarchy-generalization{ <U+2015> Selector:\nA resource which describes the segment of interest in a representation of a resource. This class is not used directly, only its subclasses. It is defined accordingly the related selector of the Web Annotation Vocabulary, see https://www.w3.org/TR/annotation-vocab/#selector.}]] {
}


together {
}


DDICDIModels::DDICDILibrary::DataTypes::StructuredDataTypes::Selector - -up- - DDICDIModels::DDICDILibrary::DataTypes::StructuredDataTypes::Reference::deepLink #grey;line.dotted;




DDICDIModels::DDICDILibrary::DataTypes::StructuredDataTypes::Selector <|- -r- - DDICDIModels::DDICDILibrary::DataTypes::StructuredDataTypes::ObjectAttributeSelector #D2691E


together {
}
@enduml

PlantUML version 1.2022.6(Tue Jun 21 19:34:49 CEST 2022)
(GPL source distribution)
Java Runtime: OpenJDK Runtime Environment
JVM: OpenJDK 64-Bit Server VM
Default Encoding: Cp1252
Language: en
Country: US
--></g></svg>