<?xml version="1.0" encoding="UTF-8" standalone="no"?><svg xmlns="http://www.w3.org/2000/svg" xmlns:xlink="http://www.w3.org/1999/xlink" contentStyleType="text/css" height="753.3px" preserveAspectRatio="none" style="width:649px;height:753px;background:#FFFFFF;" version="1.1" viewBox="0 0 649 753" width="649.8px" zoomAndPan="magnify"><defs/><g><rect height="47.4891" style="stroke:#00000000;stroke-width:0.9;fill:none;" width="443.7" x="96.75" y="4.5"/><text fill="#000000" font-family="sans-serif" font-size="18" font-weight="bold" lengthAdjust="spacing" textLength="434.7" x="101.25" y="27.6855">UML Diagram: DataType CommandCode in Context</text><text fill="#000000" font-family="sans-serif" font-size="12.6" font-weight="bold" lengthAdjust="spacing" textLength="3.6" x="316.8" y="44.7205"> </text><rect fill="#FFFFFF" height="56.0813" rx="6.75" ry="6.75" style="stroke:#000000;stroke-width:0.9;" width="348.3" x="281.7" y="64.5891"/><text fill="#000000" font-family="sans-serif" font-size="9" font-weight="bold" lengthAdjust="spacing" textLength="22.5" x="287.1" y="79.3318">Hints</text><text fill="#808080" font-family="sans-serif" font-size="9" lengthAdjust="spacing" textLength="265.5" x="287.1" y="90.6521">- Move the mouse cursor over a name to see more information.</text><text fill="#808080" font-family="sans-serif" font-size="9" lengthAdjust="spacing" textLength="216" x="287.1" y="101.9725">- Click on a name to go to the corresponding page.</text><text fill="#808080" font-family="sans-serif" font-size="9" lengthAdjust="spacing" textLength="337.5" x="287.1" y="113.2928">- The use of the data type is represented here by a dotted line (not formal UML).</text><!--MD5=[cf2b466143bd797820c9416be252779d]
entity ##7--><!--MD5=[ba20e1e29fc049e46e05d10119de3e0c]
entity ##13--><!--MD5=[d9ddffb466f429816aca2ed6009e7eda]
class DDICDIModels::DDICDILibrary::DataTypes::StructuredDataTypes::CommandCode--><g id="elem_DDICDIModels::DDICDILibrary::DataTypes::StructuredDataTypes::CommandCode"><rect codeLine="47" fill="#FFD700" height="104.4984" id="DDICDIModels::DDICDILibrary::DataTypes::StructuredDataTypes::CommandCode" rx="2.25" ry="2.25" style="stroke:#404040;stroke-width:0.45;" width="187.2" x="456.3" y="323.1703"/><text fill="#000000" font-family="sans-serif" font-size="10.8" font-style="italic" lengthAdjust="spacing" textLength="58.5" x="520.65" y="338.8816">«dataType»</text><text fill="#000000" font-family="sans-serif" font-size="9" lengthAdjust="spacing" textLength="2.7" x="548.55" y="350.5975"> </text><text fill="#000000" font-family="sans-serif" font-size="12.6" lengthAdjust="spacing" textLength="88.2" x="505.8" y="365.6549">CommandCode</text><line style="stroke:#404040;stroke-width:0.45;" x1="457.2" x2="642.6" y1="372.9234" y2="372.9234"/><a href="../DDICDILibrary/DataTypes/StructuredDataTypes/Command.html#diagram" target="_top" title=" ― Command:&#10;Provides the following information on the command: The content of the command and the programming language used." xlink:actuate="onRequest" xlink:href="../DDICDILibrary/DataTypes/StructuredDataTypes/Command.html#diagram" xlink:show="new" xlink:title=" ― Command:&#10;Provides the following information on the command: The content of the command and the programming language used." xlink:type="simple"><text fill="#000000" font-family="sans-serif" font-size="12.6" lengthAdjust="spacing" textLength="62.1" x="461.7" y="389.6033">command :</text><text fill="#0000FF" font-family="sans-serif" font-size="12.6" lengthAdjust="spacing" textLength="57.6" x="527.4" y="389.6033">Command</text></a><a href="../DDICDILibrary/DataTypes/StructuredDataTypes/CommandFile.html#diagram" target="_top" title=" ― CommandFile:&#10;Identifies and provides a link to an external copy of the command, for example, a SAS Command Code script. Designates the programming language of the command file, a description of the location of the file , and a URN or URL for the command file." xlink:actuate="onRequest" xlink:href="../DDICDILibrary/DataTypes/StructuredDataTypes/CommandFile.html#diagram" xlink:show="new" xlink:title=" ― CommandFile:&#10;Identifies and provides a link to an external copy of the command, for example, a SAS Command Code script. Designates the programming language of the command file, a description of the location of the file , and a URN or URL for the command file." xlink:type="simple"><text fill="#000000" font-family="sans-serif" font-size="12.6" lengthAdjust="spacing" textLength="82.8" x="461.7" y="405.4518">commandFile :</text><text fill="#0000FF" font-family="sans-serif" font-size="12.6" lengthAdjust="spacing" textLength="78.3" x="548.1" y="405.4518">CommandFile</text></a><a href="../DDICDILibrary/DataTypes/StructuredDataTypes/InternationalString.html#diagram" target="_top" title=" ― InternationalString:&#10;Packaging structure for multiple language versions of the same string content. Where an element of this type is repeatable, the expectation is that each repetition contains different content, each of which can be expressed in multiple languages. The language designation goes on the individual String ..." xlink:actuate="onRequest" xlink:href="../DDICDILibrary/DataTypes/StructuredDataTypes/InternationalString.html#diagram" xlink:show="new" xlink:title=" ― InternationalString:&#10;Packaging structure for multiple language versions of the same string content. Where an element of this type is repeatable, the expectation is that each repetition contains different content, each of which can be expressed in multiple languages. The language designation goes on the individual String ..." xlink:type="simple"><text fill="#000000" font-family="sans-serif" font-size="12.6" lengthAdjust="spacing" textLength="69.3" x="461.7" y="421.3002">description :</text><text fill="#0000FF" font-family="sans-serif" font-size="12.6" lengthAdjust="spacing" textLength="103.5" x="534.6" y="421.3002">InternationalString</text></a></g><!--MD5=[aeb310b8222cbee6a8a391ebc0bc3b5e]
class DDICDIModels::DDICDILibrary::Classes::Process::ConditionalControlLogic--><a href="../DDICDILibrary/Classes/Process/ConditionalControlLogic.html#super-class-hierarchy-generalization" target="_top" title=" ― ConditionalControlLogic:&#10;A set of decision points which determine the flow between the steps used to perform an activity." xlink:actuate="onRequest" xlink:href="../DDICDILibrary/Classes/Process/ConditionalControlLogic.html#super-class-hierarchy-generalization" xlink:show="new" xlink:title=" ― ConditionalControlLogic:&#10;A set of decision points which determine the flow between the steps used to perform an activity." xlink:type="simple"><g id="elem_DDICDIModels::DDICDILibrary::Classes::Process::ConditionalControlLogic"><rect codeLine="60" fill="#F1F1F1" height="75.0656" id="DDICDIModels::DDICDILibrary::Classes::Process::ConditionalControlLogic" rx="2.25" ry="2.25" style="stroke:#404040;stroke-width:0.45;" width="170.1" x="60.75" y="135.0703"/><text fill="#808080" font-family="sans-serif" font-size="9" lengthAdjust="spacing" textLength="37.8" x="126.9" y="148.9131">Process::</text><text fill="#0000FF" font-family="sans-serif" font-size="12.6" lengthAdjust="spacing" textLength="135.9" x="77.85" y="163.9705">ConditionalControlLogic</text><line style="stroke:#404040;stroke-width:0.45;" x1="61.65" x2="229.95" y1="171.2391" y2="171.2391"/><text fill="#000000" font-family="sans-serif" font-size="12.6" lengthAdjust="spacing" textLength="150.3" x="66.15" y="187.9189">condition : CommandCode</text><a href="../DDICDILibrary/DataTypes/Enumerations/ControlConstruct.html#diagram" target="_top" title=" ― ControlConstruct:&#10;Type of control construct used by the conditional control logic related to an activity." xlink:actuate="onRequest" xlink:href="../DDICDILibrary/DataTypes/Enumerations/ControlConstruct.html#diagram" xlink:show="new" xlink:title=" ― ControlConstruct:&#10;Type of control construct used by the conditional control logic related to an activity." xlink:type="simple"><text fill="#000000" font-family="sans-serif" font-size="12.6" lengthAdjust="spacing" textLength="59.4" x="66.15" y="203.7674">construct :</text><text fill="#0000FF" font-family="sans-serif" font-size="12.6" lengthAdjust="spacing" textLength="96.3" x="129.15" y="203.7674">ControlConstruct</text></a></g></a><!--MD5=[2c37921695407d096dd2c82a03bab8f7]
class DDICDIModels::DDICDILibrary::Classes::Process::Step--><a href="../DDICDILibrary/Classes/Process/Step.html#super-class-hierarchy-generalization" target="_top" title=" ― Step:&#10;Step is a reusable, parameterized activity associated to information flows. One or more steps perform an sctivity." xlink:actuate="onRequest" xlink:href="../DDICDILibrary/Classes/Process/Step.html#super-class-hierarchy-generalization" xlink:show="new" xlink:title=" ― Step:&#10;Step is a reusable, parameterized activity associated to information flows. One or more steps perform an sctivity." xlink:type="simple"><g id="elem_DDICDIModels::DDICDILibrary::Classes::Process::Step"><rect codeLine="65" fill="#F1F1F1" height="75.0656" id="DDICDIModels::DDICDILibrary::Classes::Process::Step" rx="2.25" ry="2.25" style="stroke:#404040;stroke-width:0.45;" width="279" x="6.3" y="247.5703"/><text fill="#808080" font-family="sans-serif" font-size="9" lengthAdjust="spacing" textLength="37.8" x="126.9" y="261.4131">Process::</text><text fill="#0000FF" font-family="sans-serif" font-size="12.6" lengthAdjust="spacing" textLength="26.1" x="132.75" y="276.4705">Step</text><line style="stroke:#404040;stroke-width:0.45;" x1="7.2" x2="284.4" y1="283.7391" y2="283.7391"/><text fill="#000000" font-family="sans-serif" font-size="12.6" lengthAdjust="spacing" textLength="129.6" x="11.7" y="300.4189">script : CommandCode</text><a href="../DDICDILibrary/DataTypes/StructuredDataTypes/ControlledVocabularyEntry.html#diagram" target="_top" title=" ― ControlledVocabularyEntry:&#10;Allows for unstructured content which may be an entry from an externally maintained controlled vocabulary.If the content is from a controlled vocabulary provide the code value of the entry, as well as a reference to the controlled vocabulary from which the value is taken. Provide as many of the iden ..." xlink:actuate="onRequest" xlink:href="../DDICDILibrary/DataTypes/StructuredDataTypes/ControlledVocabularyEntry.html#diagram" xlink:show="new" xlink:title=" ― ControlledVocabularyEntry:&#10;Allows for unstructured content which may be an entry from an externally maintained controlled vocabulary.If the content is from a controlled vocabulary provide the code value of the entry, as well as a reference to the controlled vocabulary from which the value is taken. Provide as many of the iden ..." xlink:type="simple"><text fill="#000000" font-family="sans-serif" font-size="12.6" lengthAdjust="spacing" textLength="112.5" x="11.7" y="316.2674">scriptingLanguage :</text><text fill="#0000FF" font-family="sans-serif" font-size="12.6" lengthAdjust="spacing" textLength="152.1" x="127.8" y="316.2674">ControlledVocabularyEntry</text></a></g></a><!--MD5=[fb888e6dc6054b81ee1c71b5b7db0a6f]
class DDICDIModels::DDICDILibrary::Classes::Representations::ClassificationIndex--><a href="../DDICDILibrary/Classes/Representations/ClassificationIndex.html#super-class-hierarchy-generalization" target="_top" title=" ― ClassificationIndex:&#10;Ordered list of classification index entries." xlink:actuate="onRequest" xlink:href="../DDICDILibrary/Classes/Representations/ClassificationIndex.html#super-class-hierarchy-generalization" xlink:show="new" xlink:title=" ― ClassificationIndex:&#10;Ordered list of classification index entries." xlink:type="simple"><g id="elem_DDICDIModels::DDICDILibrary::Classes::Representations::ClassificationIndex"><rect codeLine="70" fill="#F1F1F1" height="186.0047" id="DDICDIModels::DDICDILibrary::Classes::Representations::ClassificationIndex" rx="2.25" ry="2.25" style="stroke:#404040;stroke-width:0.45;" width="207.9" x="41.85" y="360.0703"/><text fill="#808080" font-family="sans-serif" font-size="9" lengthAdjust="spacing" textLength="72.9" x="109.35" y="373.9131">Representations::</text><text fill="#0000FF" font-family="sans-serif" font-size="12.6" lengthAdjust="spacing" textLength="104.4" x="93.6" y="388.9705">ClassificationIndex</text><line style="stroke:#404040;stroke-width:0.45;" x1="42.75" x2="248.85" y1="396.2391" y2="396.2391"/><text fill="#000000" font-family="sans-serif" font-size="12.6" lengthAdjust="spacing" textLength="151.2" x="47.25" y="412.9189">allowsDuplicates : Boolean</text><a href="../DDICDILibrary/DataTypes/XMLSchemaDataTypes/XsdLanguage.html#diagram" target="_top" title=" ― XsdLanguage:&#10;Derived data type &quot;language&quot; of the XML Schema data types. Definition from XML Schema Part 2: Datatypes Second Edition: &quot;language&quot; represents natural language identifiers as defined by by [RFC 3066]. The value space of &quot;language&quot; is the set of all strings that are valid language identifiers as defin ..." xlink:actuate="onRequest" xlink:href="../DDICDILibrary/DataTypes/XMLSchemaDataTypes/XsdLanguage.html#diagram" xlink:show="new" xlink:title=" ― XsdLanguage:&#10;Derived data type &quot;language&quot; of the XML Schema data types. Definition from XML Schema Part 2: Datatypes Second Edition: &quot;language&quot; represents natural language identifiers as defined by by [RFC 3066]. The value space of &quot;language&quot; is the set of all strings that are valid language identifiers as defin ..." xlink:type="simple"><text fill="#000000" font-family="sans-serif" font-size="12.6" lengthAdjust="spacing" textLength="115.2" x="47.25" y="428.7674">availableLanguage :</text><text fill="#0000FF" font-family="sans-serif" font-size="12.6" lengthAdjust="spacing" textLength="78.3" x="166.05" y="428.7674">XsdLanguage</text></a><a href="../DDICDILibrary/DataTypes/StructuredDataTypes/CatalogDetails.html#diagram" target="_top" title=" ― CatalogDetails:&#10;A set of information useful for attribution, data discovery, and access." xlink:actuate="onRequest" xlink:href="../DDICDILibrary/DataTypes/StructuredDataTypes/CatalogDetails.html#diagram" xlink:show="new" xlink:title=" ― CatalogDetails:&#10;A set of information useful for attribution, data discovery, and access." xlink:type="simple"><text fill="#000000" font-family="sans-serif" font-size="12.6" lengthAdjust="spacing" textLength="87.3" x="47.25" y="444.6158">catalogDetails :</text><text fill="#0000FF" font-family="sans-serif" font-size="12.6" lengthAdjust="spacing" textLength="82.8" x="138.15" y="444.6158">CatalogDetails</text></a><text fill="#000000" font-family="sans-serif" font-size="12.6" lengthAdjust="spacing" textLength="195.3" x="47.25" y="460.4643">codingInstruction : CommandCode</text><a href="../DDICDILibrary/DataTypes/StructuredDataTypes/InternationalString.html#diagram" target="_top" title=" ― InternationalString:&#10;Packaging structure for multiple language versions of the same string content. Where an element of this type is repeatable, the expectation is that each repetition contains different content, each of which can be expressed in multiple languages. The language designation goes on the individual String ..." xlink:actuate="onRequest" xlink:href="../DDICDILibrary/DataTypes/StructuredDataTypes/InternationalString.html#diagram" xlink:show="new" xlink:title=" ― InternationalString:&#10;Packaging structure for multiple language versions of the same string content. Where an element of this type is repeatable, the expectation is that each repetition contains different content, each of which can be expressed in multiple languages. The language designation goes on the individual String ..." xlink:type="simple"><text fill="#000000" font-family="sans-serif" font-size="12.6" lengthAdjust="spacing" textLength="70.2" x="47.25" y="476.3127">corrections :</text><text fill="#0000FF" font-family="sans-serif" font-size="12.6" lengthAdjust="spacing" textLength="103.5" x="121.05" y="476.3127">InternationalString</text></a><a href="../DDICDILibrary/DataTypes/StructuredDataTypes/Identifier.html#diagram" target="_top" title=" ― Identifier:&#10;Identifier for objects requiring short- or long-lasting referencing and management." xlink:actuate="onRequest" xlink:href="../DDICDILibrary/DataTypes/StructuredDataTypes/Identifier.html#diagram" xlink:show="new" xlink:title=" ― Identifier:&#10;Identifier for objects requiring short- or long-lasting referencing and management." xlink:type="simple"><text fill="#000000" font-family="sans-serif" font-size="12.6" lengthAdjust="spacing" textLength="55.8" x="47.25" y="492.1611">identifier :</text><text fill="#0000FF" font-family="sans-serif" font-size="12.6" lengthAdjust="spacing" textLength="48.6" x="106.65" y="492.1611">Identifier</text></a><a href="../DDICDILibrary/DataTypes/StructuredDataTypes/ObjectName.html#diagram" target="_top" title=" ― ObjectName:&#10;A standard means of expressing a name for a class object. A linguistic signifier. Human understandable name (word, phrase, or mnemonic) that reflects the ISO/IEC 11179-5 naming principles." xlink:actuate="onRequest" xlink:href="../DDICDILibrary/DataTypes/StructuredDataTypes/ObjectName.html#diagram" xlink:show="new" xlink:title=" ― ObjectName:&#10;A standard means of expressing a name for a class object. A linguistic signifier. Human understandable name (word, phrase, or mnemonic) that reflects the ISO/IEC 11179-5 naming principles." xlink:type="simple"><text fill="#000000" font-family="sans-serif" font-size="12.6" lengthAdjust="spacing" textLength="38.7" x="47.25" y="508.0096">name :</text><text fill="#0000FF" font-family="sans-serif" font-size="12.6" lengthAdjust="spacing" textLength="69.3" x="89.55" y="508.0096">ObjectName</text></a><a href="../DDICDILibrary/DataTypes/StructuredDataTypes/InternationalString.html#diagram" target="_top" title=" ― InternationalString:&#10;Packaging structure for multiple language versions of the same string content. Where an element of this type is repeatable, the expectation is that each repetition contains different content, each of which can be expressed in multiple languages. The language designation goes on the individual String ..." xlink:actuate="onRequest" xlink:href="../DDICDILibrary/DataTypes/StructuredDataTypes/InternationalString.html#diagram" xlink:show="new" xlink:title=" ― InternationalString:&#10;Packaging structure for multiple language versions of the same string content. Where an element of this type is repeatable, the expectation is that each repetition contains different content, each of which can be expressed in multiple languages. The language designation goes on the individual String ..." xlink:type="simple"><text fill="#000000" font-family="sans-serif" font-size="12.6" lengthAdjust="spacing" textLength="54" x="47.25" y="523.858">purpose :</text><text fill="#0000FF" font-family="sans-serif" font-size="12.6" lengthAdjust="spacing" textLength="103.5" x="104.85" y="523.858">InternationalString</text></a><a href="../DDICDILibrary/DataTypes/StructuredDataTypes/CombinedDate.html#diagram" target="_top" title=" ― CombinedDate:&#10;Provides the structure of a single Date expressed in an ISO date structure along with equivalent expression in any number of non-ISO formats. While it supports the use of the ISO time interval structure this should only be used when the exact date is unclear (i.e. occurring at some point in time bet ..." xlink:actuate="onRequest" xlink:href="../DDICDILibrary/DataTypes/StructuredDataTypes/CombinedDate.html#diagram" xlink:show="new" xlink:title=" ― CombinedDate:&#10;Provides the structure of a single Date expressed in an ISO date structure along with equivalent expression in any number of non-ISO formats. While it supports the use of the ISO time interval structure this should only be used when the exact date is unclear (i.e. occurring at some point in time bet ..." xlink:type="simple"><text fill="#000000" font-family="sans-serif" font-size="12.6" lengthAdjust="spacing" textLength="76.5" x="47.25" y="539.7064">releaseDate :</text><text fill="#0000FF" font-family="sans-serif" font-size="12.6" lengthAdjust="spacing" textLength="84.6" x="127.35" y="539.7064">CombinedDate</text></a></g></a><!--MD5=[9505406ba13c6e33054b9b5309253ac6]
class DDICDIModels::DDICDILibrary::Classes::Representations::ClassificationIndexEntry--><a href="../DDICDILibrary/Classes/Representations/ClassificationIndexEntry.html#super-class-hierarchy-generalization" target="_top" title=" ― ClassificationIndexEntry:&#10;Word or a short phrase corresponding to a classification item in a statistical classification, together with the code of the corresponding classification item." xlink:actuate="onRequest" xlink:href="../DDICDILibrary/Classes/Representations/ClassificationIndexEntry.html#super-class-hierarchy-generalization" xlink:show="new" xlink:title=" ― ClassificationIndexEntry:&#10;Word or a short phrase corresponding to a classification item in a statistical classification, together with the code of the corresponding classification item." xlink:type="simple"><g id="elem_DDICDIModels::DDICDILibrary::Classes::Representations::ClassificationIndexEntry"><rect codeLine="88" fill="#F1F1F1" height="122.6109" id="DDICDIModels::DDICDILibrary::Classes::Representations::ClassificationIndexEntry" rx="2.25" ry="2.25" style="stroke:#404040;stroke-width:0.45;" width="206.1" x="42.75" y="584.1703"/><text fill="#808080" font-family="sans-serif" font-size="9" lengthAdjust="spacing" textLength="72.9" x="109.35" y="598.0131">Representations::</text><text fill="#0000FF" font-family="sans-serif" font-size="12.6" lengthAdjust="spacing" textLength="134.1" x="78.75" y="613.0705">ClassificationIndexEntry</text><line style="stroke:#404040;stroke-width:0.45;" x1="43.65" x2="247.95" y1="620.3391" y2="620.3391"/><a href="../DDICDILibrary/DataTypes/StructuredDataTypes/CatalogDetails.html#diagram" target="_top" title=" ― CatalogDetails:&#10;A set of information useful for attribution, data discovery, and access." xlink:actuate="onRequest" xlink:href="../DDICDILibrary/DataTypes/StructuredDataTypes/CatalogDetails.html#diagram" xlink:show="new" xlink:title=" ― CatalogDetails:&#10;A set of information useful for attribution, data discovery, and access." xlink:type="simple"><text fill="#000000" font-family="sans-serif" font-size="12.6" lengthAdjust="spacing" textLength="87.3" x="48.15" y="637.0189">catalogDetails :</text><text fill="#0000FF" font-family="sans-serif" font-size="12.6" lengthAdjust="spacing" textLength="82.8" x="139.05" y="637.0189">CatalogDetails</text></a><text fill="#000000" font-family="sans-serif" font-size="12.6" lengthAdjust="spacing" textLength="195.3" x="48.15" y="652.8674">codingInstruction : CommandCode</text><a href="../DDICDILibrary/DataTypes/StructuredDataTypes/InternationalString.html#diagram" target="_top" title=" ― InternationalString:&#10;Packaging structure for multiple language versions of the same string content. Where an element of this type is repeatable, the expectation is that each repetition contains different content, each of which can be expressed in multiple languages. The language designation goes on the individual String ..." xlink:actuate="onRequest" xlink:href="../DDICDILibrary/DataTypes/StructuredDataTypes/InternationalString.html#diagram" xlink:show="new" xlink:title=" ― InternationalString:&#10;Packaging structure for multiple language versions of the same string content. Where an element of this type is repeatable, the expectation is that each repetition contains different content, each of which can be expressed in multiple languages. The language designation goes on the individual String ..." xlink:type="simple"><text fill="#000000" font-family="sans-serif" font-size="12.6" lengthAdjust="spacing" textLength="36" x="48.15" y="668.7158">entry :</text><text fill="#0000FF" font-family="sans-serif" font-size="12.6" lengthAdjust="spacing" textLength="103.5" x="87.75" y="668.7158">InternationalString</text></a><a href="../DDICDILibrary/DataTypes/StructuredDataTypes/Identifier.html#diagram" target="_top" title=" ― Identifier:&#10;Identifier for objects requiring short- or long-lasting referencing and management." xlink:actuate="onRequest" xlink:href="../DDICDILibrary/DataTypes/StructuredDataTypes/Identifier.html#diagram" xlink:show="new" xlink:title=" ― Identifier:&#10;Identifier for objects requiring short- or long-lasting referencing and management." xlink:type="simple"><text fill="#000000" font-family="sans-serif" font-size="12.6" lengthAdjust="spacing" textLength="55.8" x="48.15" y="684.5643">identifier :</text><text fill="#0000FF" font-family="sans-serif" font-size="12.6" lengthAdjust="spacing" textLength="48.6" x="107.55" y="684.5643">Identifier</text></a><a href="../DDICDILibrary/DataTypes/StructuredDataTypes/DateRange.html#diagram" target="_top" title=" ― DateRange:&#10;Expresses a date/time range using a start date and end date (both with the structure of Date and supporting the use of ISO and non-ISO date structures). Use in all locations where a range of dates is required, i.e. validFor, embargoPeriod, collectionPeriod, etc." xlink:actuate="onRequest" xlink:href="../DDICDILibrary/DataTypes/StructuredDataTypes/DateRange.html#diagram" xlink:show="new" xlink:title=" ― DateRange:&#10;Expresses a date/time range using a start date and end date (both with the structure of Date and supporting the use of ISO and non-ISO date structures). Use in all locations where a range of dates is required, i.e. validFor, embargoPeriod, collectionPeriod, etc." xlink:type="simple"><text fill="#000000" font-family="sans-serif" font-size="12.6" lengthAdjust="spacing" textLength="66.6" x="48.15" y="700.4127">validDates :</text><text fill="#0000FF" font-family="sans-serif" font-size="12.6" lengthAdjust="spacing" textLength="64.8" x="118.35" y="700.4127">DateRange</text></a></g></a><!--MD5=[90b1868e8e71300642342602c42628df]
link DDICDIModels::DDICDILibrary::Classes::Process::ConditionalControlLogic to DDICDIModels::DDICDILibrary::DataTypes::StructuredDataTypes::CommandCode--><g id="link_DDICDIModels::DDICDILibrary::Classes::Process::ConditionalControlLogic_DDICDIModels::DDICDILibrary::DataTypes::StructuredDataTypes::CommandCode"><path codeLine="102" d="M232.2,182.7703 C340.497,182.7703 443.286,265.9663 501.021,322.9993 " fill="none" id="DDICDIModels::DDICDILibrary::Classes::Process::ConditionalControlLogic-DDICDIModels::DDICDILibrary::DataTypes::StructuredDataTypes::CommandCode" style="stroke:#808080;stroke-width:0.9;stroke-dasharray:1.0,3.0;"/></g><!--MD5=[d2ed340d9eafa6bdfa7b910d0179f5e9]
link DDICDIModels::DDICDILibrary::Classes::Process::Step to DDICDIModels::DDICDILibrary::DataTypes::StructuredDataTypes::CommandCode--><g id="link_DDICDIModels::DDICDILibrary::Classes::Process::Step_DDICDIModels::DDICDILibrary::DataTypes::StructuredDataTypes::CommandCode"><path codeLine="103" d="M286.2,295.2703 C344.394,295.2703 406.8,313.4593 456.201,332.5033 " fill="none" id="DDICDIModels::DDICDILibrary::Classes::Process::Step-DDICDIModels::DDICDILibrary::DataTypes::StructuredDataTypes::CommandCode" style="stroke:#808080;stroke-width:0.9;stroke-dasharray:1.0,3.0;"/></g><!--MD5=[f10a99f4c0f9f927a1ccb8104898b548]
link DDICDIModels::DDICDILibrary::Classes::Representations::ClassificationIndex to DDICDIModels::DDICDILibrary::DataTypes::StructuredDataTypes::CommandCode--><g id="link_DDICDIModels::DDICDILibrary::Classes::Representations::ClassificationIndex_DDICDIModels::DDICDILibrary::DataTypes::StructuredDataTypes::CommandCode"><path codeLine="104" d="M251.1,455.4703 C321.525,455.4703 398.205,434.3383 456.129,413.7823 " fill="none" id="DDICDIModels::DDICDILibrary::Classes::Representations::ClassificationIndex-DDICDIModels::DDICDILibrary::DataTypes::StructuredDataTypes::CommandCode" style="stroke:#808080;stroke-width:0.9;stroke-dasharray:1.0,3.0;"/></g><!--MD5=[383ef887ebdebaa3f58c918df9cb02d3]
link DDICDIModels::DDICDILibrary::Classes::Representations::ClassificationIndexEntry to DDICDIModels::DDICDILibrary::DataTypes::StructuredDataTypes::CommandCode--><g id="link_DDICDIModels::DDICDILibrary::Classes::Representations::ClassificationIndexEntry_DDICDIModels::DDICDILibrary::DataTypes::StructuredDataTypes::CommandCode"><path codeLine="105" d="M250.2,647.1703 C379.233,647.1703 477.144,506.7613 522.009,427.7773 " fill="none" id="DDICDIModels::DDICDILibrary::Classes::Representations::ClassificationIndexEntry-DDICDIModels::DDICDILibrary::DataTypes::StructuredDataTypes::CommandCode" style="stroke:#808080;stroke-width:0.9;stroke-dasharray:1.0,3.0;"/></g><rect height="33.9609" style="stroke:#00000000;stroke-width:0.9;fill:none;" width="356.4" x="140.4" y="712.1813"/><text fill="#888888" font-family="sans-serif" font-size="9" lengthAdjust="spacing" textLength="2.7" x="317.25" y="721.524"> </text><text fill="#888888" font-family="sans-serif" font-size="9" lengthAdjust="spacing" textLength="2.7" x="317.25" y="732.8443"> </text><text fill="#888888" font-family="sans-serif" font-size="9" lengthAdjust="spacing" textLength="356.4" x="140.4" y="744.1646">DDI Cross Domain Integration (DDI-CDI)   1.0 - StructuredDataTypes::CommandCode</text><!--MD5=[cee668ee2dea8936cfdf30566a68e07e]
@startuml
left to right direction
' HD display aspect ratio 16:9
' hyperlinkColor and pathHoverColor do not seem to work with class diagrams
' working approach: colors per item
' default font size for class names is 14

hide circle
hide empty members
scale 0.9

skinparam {
  ArrowThickness 1.5
  MinClassWidth 150
}

skinparam legend {
  BackgroundColor white
  FontSize 10
}

skinparam note {
  BackgroundColor white
}

skinparam class {
  ArrowColor #404040
  BorderColor #404040
}

skinparam package {
  FontColor lightgrey
  BorderColor lightgrey
}

title <size:20>UML Diagram: DataType CommandCode in Context\n
footer \n\nDDI Cross Domain Integration (DDI-CDI)   1.0 - StructuredDataTypes::CommandCode

legend top right
**Hints**
<color:grey>- Move the mouse cursor over a name to see more information.
<color:grey>- Click on a name to go to the corresponding page.
<color:grey>- The use of the data type is represented here by a dotted line (not formal UML).
endlegend

' Core data type of diagram
class DDICDIModels::DDICDILibrary::DataTypes::StructuredDataTypes::CommandCode as "<size:10> \n<color:black>CommandCode" <<dataType>>   #FFD700 {
  command : <color:blue>Command   	  [[[../DDICDILibrary/DataTypes/StructuredDataTypes/Command.html#diagram{ <U+2015> Command:\nProvides the following information on the command: The content of the command and the programming language used.}]]]
  commandFile : <color:blue>CommandFile   	  [[[../DDICDILibrary/DataTypes/StructuredDataTypes/CommandFile.html#diagram{ <U+2015> CommandFile:\nIdentifies and provides a link to an external copy of the command, for example, a SAS Command Code script. Designates the programming language of the command file, a description of the location of the file , and a URN or URL for the command file.}]]]
  description : <color:blue>InternationalString   	  [[[../DDICDILibrary/DataTypes/StructuredDataTypes/InternationalString.html#diagram{ <U+2015> InternationalString:\nPackaging structure for multiple language versions of the same string content. Where an element of this type is repeatable, the expectation is that each repetition contains different content, each of which can be expressed in multiple languages. The language designation goes on the individual String ...}]]]
}

' Data type definitions in own package

' Data type definitions in other packages
  class DDICDIModels::DDICDILibrary::Classes::Process::ConditionalControlLogic as "<size:10><color:grey>Process::\n<color:blue>ConditionalControlLogic" [[../DDICDILibrary/Classes/Process/ConditionalControlLogic.html#super-class-hierarchy-generalization{ <U+2015> ConditionalControlLogic:\nA set of decision points which determine the flow between the steps used to perform an activity.}]] {
  condition : CommandCode
  construct : <color:blue>ControlConstruct   	  [[[../DDICDILibrary/DataTypes/Enumerations/ControlConstruct.html#diagram{ <U+2015> ControlConstruct:\nType of control construct used by the conditional control logic related to an activity.}]]]
}
  class DDICDIModels::DDICDILibrary::Classes::Process::Step as "<size:10><color:grey>Process::\n<color:blue>Step" [[../DDICDILibrary/Classes/Process/Step.html#super-class-hierarchy-generalization{ <U+2015> Step:\nStep is a reusable, parameterized activity associated to information flows. One or more steps perform an sctivity.}]] {
  script : CommandCode
  scriptingLanguage : <color:blue>ControlledVocabularyEntry   	  [[[../DDICDILibrary/DataTypes/StructuredDataTypes/ControlledVocabularyEntry.html#diagram{ <U+2015> ControlledVocabularyEntry:\nAllows for unstructured content which may be an entry from an externally maintained controlled vocabulary.If the content is from a controlled vocabulary provide the code value of the entry, as well as a reference to the controlled vocabulary from which the value is taken. Provide as many of the iden ...}]]]
}
  class DDICDIModels::DDICDILibrary::Classes::Representations::ClassificationIndex as "<size:10><color:grey>Representations::\n<color:blue>ClassificationIndex" [[../DDICDILibrary/Classes/Representations/ClassificationIndex.html#super-class-hierarchy-generalization{ <U+2015> ClassificationIndex:\nOrdered list of classification index entries.}]] {
  allowsDuplicates : Boolean
  availableLanguage : <color:blue>XsdLanguage   	  [[[../DDICDILibrary/DataTypes/XMLSchemaDataTypes/XsdLanguage.html#diagram{ <U+2015> XsdLanguage:\nDerived data type "language" of the XML Schema data types. Definition from XML Schema Part 2: Datatypes Second Edition: "language" represents natural language identifiers as defined by by [RFC 3066]. The value space of "language" is the set of all strings that are valid language identifiers as defin ...}]]]
  catalogDetails : <color:blue>CatalogDetails   	  [[[../DDICDILibrary/DataTypes/StructuredDataTypes/CatalogDetails.html#diagram{ <U+2015> CatalogDetails:\nA set of information useful for attribution, data discovery, and access.}]]]
  codingInstruction : CommandCode
  corrections : <color:blue>InternationalString   	  [[[../DDICDILibrary/DataTypes/StructuredDataTypes/InternationalString.html#diagram{ <U+2015> InternationalString:\nPackaging structure for multiple language versions of the same string content. Where an element of this type is repeatable, the expectation is that each repetition contains different content, each of which can be expressed in multiple languages. The language designation goes on the individual String ...}]]]
  identifier : <color:blue>Identifier   	  [[[../DDICDILibrary/DataTypes/StructuredDataTypes/Identifier.html#diagram{ <U+2015> Identifier:\nIdentifier for objects requiring short- or long-lasting referencing and management.}]]]
  name : <color:blue>ObjectName   	  [[[../DDICDILibrary/DataTypes/StructuredDataTypes/ObjectName.html#diagram{ <U+2015> ObjectName:\nA standard means of expressing a name for a class object. A linguistic signifier. Human understandable name (word, phrase, or mnemonic) that reflects the ISO/IEC 11179-5 naming principles.}]]]
  purpose : <color:blue>InternationalString   	  [[[../DDICDILibrary/DataTypes/StructuredDataTypes/InternationalString.html#diagram{ <U+2015> InternationalString:\nPackaging structure for multiple language versions of the same string content. Where an element of this type is repeatable, the expectation is that each repetition contains different content, each of which can be expressed in multiple languages. The language designation goes on the individual String ...}]]]
  releaseDate : <color:blue>CombinedDate   	  [[[../DDICDILibrary/DataTypes/StructuredDataTypes/CombinedDate.html#diagram{ <U+2015> CombinedDate:\nProvides the structure of a single Date expressed in an ISO date structure along with equivalent expression in any number of non-ISO formats. While it supports the use of the ISO time interval structure this should only be used when the exact date is unclear (i.e. occurring at some point in time bet ...}]]]
}
  class DDICDIModels::DDICDILibrary::Classes::Representations::ClassificationIndexEntry as "<size:10><color:grey>Representations::\n<color:blue>ClassificationIndexEntry" [[../DDICDILibrary/Classes/Representations/ClassificationIndexEntry.html#super-class-hierarchy-generalization{ <U+2015> ClassificationIndexEntry:\nWord or a short phrase corresponding to a classification item in a statistical classification, together with the code of the corresponding classification item.}]] {
  catalogDetails : <color:blue>CatalogDetails   	  [[[../DDICDILibrary/DataTypes/StructuredDataTypes/CatalogDetails.html#diagram{ <U+2015> CatalogDetails:\nA set of information useful for attribution, data discovery, and access.}]]]
  codingInstruction : CommandCode
  entry : <color:blue>InternationalString   	  [[[../DDICDILibrary/DataTypes/StructuredDataTypes/InternationalString.html#diagram{ <U+2015> InternationalString:\nPackaging structure for multiple language versions of the same string content. Where an element of this type is repeatable, the expectation is that each repetition contains different content, each of which can be expressed in multiple languages. The language designation goes on the individual String ...}]]]
  identifier : <color:blue>Identifier   	  [[[../DDICDILibrary/DataTypes/StructuredDataTypes/Identifier.html#diagram{ <U+2015> Identifier:\nIdentifier for objects requiring short- or long-lasting referencing and management.}]]]
  validDates : <color:blue>DateRange   	  [[[../DDICDILibrary/DataTypes/StructuredDataTypes/DateRange.html#diagram{ <U+2015> DateRange:\nExpresses a date/time range using a start date and end date (both with the structure of Date and supporting the use of ISO and non-ISO date structures). Use in all locations where a range of dates is required, i.e. validFor, embargoPeriod, collectionPeriod, etc.}]]]
}

' Use of data type
together {
  DDICDIModels::DDICDILibrary::Classes::Process::ConditionalControlLogic::condition - - - - DDICDIModels::DDICDILibrary::DataTypes::StructuredDataTypes::CommandCode #grey;line.dotted;
  DDICDIModels::DDICDILibrary::Classes::Process::Step::script - - - - DDICDIModels::DDICDILibrary::DataTypes::StructuredDataTypes::CommandCode #grey;line.dotted;
  DDICDIModels::DDICDILibrary::Classes::Representations::ClassificationIndex::codingInstruction - - - - DDICDIModels::DDICDILibrary::DataTypes::StructuredDataTypes::CommandCode #grey;line.dotted;
  DDICDIModels::DDICDILibrary::Classes::Representations::ClassificationIndexEntry::codingInstruction - - - - DDICDIModels::DDICDILibrary::DataTypes::StructuredDataTypes::CommandCode #grey;line.dotted;
}


' Abstractions
together {
}
@enduml

@startuml
left to right direction

hide circle
hide empty members
scale 0.9

skinparam {
  ArrowThickness 1.5
  MinClassWidth 150
}

skinparam legend {
  BackgroundColor white
  FontSize 10
}

skinparam note {
  BackgroundColor white
}

skinparam class {
  ArrowColor #404040
  BorderColor #404040
}

skinparam package {
  FontColor lightgrey
  BorderColor lightgrey
}

title <size:20>UML Diagram: DataType CommandCode in Context\n
footer \n\nDDI Cross Domain Integration (DDI-CDI)   1.0 - StructuredDataTypes::CommandCode

legend top right
**Hints**
<color:grey>- Move the mouse cursor over a name to see more information.
<color:grey>- Click on a name to go to the corresponding page.
<color:grey>- The use of the data type is represented here by a dotted line (not formal UML).
endlegend

class DDICDIModels::DDICDILibrary::DataTypes::StructuredDataTypes::CommandCode as "<size:10> \n<color:black>CommandCode" <<dataType>>   #FFD700 {
  command : <color:blue>Command   	  [[[../DDICDILibrary/DataTypes/StructuredDataTypes/Command.html#diagram{ <U+2015> Command:\nProvides the following information on the command: The content of the command and the programming language used.}]]]
  commandFile : <color:blue>CommandFile   	  [[[../DDICDILibrary/DataTypes/StructuredDataTypes/CommandFile.html#diagram{ <U+2015> CommandFile:\nIdentifies and provides a link to an external copy of the command, for example, a SAS Command Code script. Designates the programming language of the command file, a description of the location of the file , and a URN or URL for the command file.}]]]
  description : <color:blue>InternationalString   	  [[[../DDICDILibrary/DataTypes/StructuredDataTypes/InternationalString.html#diagram{ <U+2015> InternationalString:\nPackaging structure for multiple language versions of the same string content. Where an element of this type is repeatable, the expectation is that each repetition contains different content, each of which can be expressed in multiple languages. The language designation goes on the individual String ...}]]]
}


  class DDICDIModels::DDICDILibrary::Classes::Process::ConditionalControlLogic as "<size:10><color:grey>Process::\n<color:blue>ConditionalControlLogic" [[../DDICDILibrary/Classes/Process/ConditionalControlLogic.html#super-class-hierarchy-generalization{ <U+2015> ConditionalControlLogic:\nA set of decision points which determine the flow between the steps used to perform an activity.}]] {
  condition : CommandCode
  construct : <color:blue>ControlConstruct   	  [[[../DDICDILibrary/DataTypes/Enumerations/ControlConstruct.html#diagram{ <U+2015> ControlConstruct:\nType of control construct used by the conditional control logic related to an activity.}]]]
}
  class DDICDIModels::DDICDILibrary::Classes::Process::Step as "<size:10><color:grey>Process::\n<color:blue>Step" [[../DDICDILibrary/Classes/Process/Step.html#super-class-hierarchy-generalization{ <U+2015> Step:\nStep is a reusable, parameterized activity associated to information flows. One or more steps perform an sctivity.}]] {
  script : CommandCode
  scriptingLanguage : <color:blue>ControlledVocabularyEntry   	  [[[../DDICDILibrary/DataTypes/StructuredDataTypes/ControlledVocabularyEntry.html#diagram{ <U+2015> ControlledVocabularyEntry:\nAllows for unstructured content which may be an entry from an externally maintained controlled vocabulary.If the content is from a controlled vocabulary provide the code value of the entry, as well as a reference to the controlled vocabulary from which the value is taken. Provide as many of the iden ...}]]]
}
  class DDICDIModels::DDICDILibrary::Classes::Representations::ClassificationIndex as "<size:10><color:grey>Representations::\n<color:blue>ClassificationIndex" [[../DDICDILibrary/Classes/Representations/ClassificationIndex.html#super-class-hierarchy-generalization{ <U+2015> ClassificationIndex:\nOrdered list of classification index entries.}]] {
  allowsDuplicates : Boolean
  availableLanguage : <color:blue>XsdLanguage   	  [[[../DDICDILibrary/DataTypes/XMLSchemaDataTypes/XsdLanguage.html#diagram{ <U+2015> XsdLanguage:\nDerived data type "language" of the XML Schema data types. Definition from XML Schema Part 2: Datatypes Second Edition: "language" represents natural language identifiers as defined by by [RFC 3066]. The value space of "language" is the set of all strings that are valid language identifiers as defin ...}]]]
  catalogDetails : <color:blue>CatalogDetails   	  [[[../DDICDILibrary/DataTypes/StructuredDataTypes/CatalogDetails.html#diagram{ <U+2015> CatalogDetails:\nA set of information useful for attribution, data discovery, and access.}]]]
  codingInstruction : CommandCode
  corrections : <color:blue>InternationalString   	  [[[../DDICDILibrary/DataTypes/StructuredDataTypes/InternationalString.html#diagram{ <U+2015> InternationalString:\nPackaging structure for multiple language versions of the same string content. Where an element of this type is repeatable, the expectation is that each repetition contains different content, each of which can be expressed in multiple languages. The language designation goes on the individual String ...}]]]
  identifier : <color:blue>Identifier   	  [[[../DDICDILibrary/DataTypes/StructuredDataTypes/Identifier.html#diagram{ <U+2015> Identifier:\nIdentifier for objects requiring short- or long-lasting referencing and management.}]]]
  name : <color:blue>ObjectName   	  [[[../DDICDILibrary/DataTypes/StructuredDataTypes/ObjectName.html#diagram{ <U+2015> ObjectName:\nA standard means of expressing a name for a class object. A linguistic signifier. Human understandable name (word, phrase, or mnemonic) that reflects the ISO/IEC 11179-5 naming principles.}]]]
  purpose : <color:blue>InternationalString   	  [[[../DDICDILibrary/DataTypes/StructuredDataTypes/InternationalString.html#diagram{ <U+2015> InternationalString:\nPackaging structure for multiple language versions of the same string content. Where an element of this type is repeatable, the expectation is that each repetition contains different content, each of which can be expressed in multiple languages. The language designation goes on the individual String ...}]]]
  releaseDate : <color:blue>CombinedDate   	  [[[../DDICDILibrary/DataTypes/StructuredDataTypes/CombinedDate.html#diagram{ <U+2015> CombinedDate:\nProvides the structure of a single Date expressed in an ISO date structure along with equivalent expression in any number of non-ISO formats. While it supports the use of the ISO time interval structure this should only be used when the exact date is unclear (i.e. occurring at some point in time bet ...}]]]
}
  class DDICDIModels::DDICDILibrary::Classes::Representations::ClassificationIndexEntry as "<size:10><color:grey>Representations::\n<color:blue>ClassificationIndexEntry" [[../DDICDILibrary/Classes/Representations/ClassificationIndexEntry.html#super-class-hierarchy-generalization{ <U+2015> ClassificationIndexEntry:\nWord or a short phrase corresponding to a classification item in a statistical classification, together with the code of the corresponding classification item.}]] {
  catalogDetails : <color:blue>CatalogDetails   	  [[[../DDICDILibrary/DataTypes/StructuredDataTypes/CatalogDetails.html#diagram{ <U+2015> CatalogDetails:\nA set of information useful for attribution, data discovery, and access.}]]]
  codingInstruction : CommandCode
  entry : <color:blue>InternationalString   	  [[[../DDICDILibrary/DataTypes/StructuredDataTypes/InternationalString.html#diagram{ <U+2015> InternationalString:\nPackaging structure for multiple language versions of the same string content. Where an element of this type is repeatable, the expectation is that each repetition contains different content, each of which can be expressed in multiple languages. The language designation goes on the individual String ...}]]]
  identifier : <color:blue>Identifier   	  [[[../DDICDILibrary/DataTypes/StructuredDataTypes/Identifier.html#diagram{ <U+2015> Identifier:\nIdentifier for objects requiring short- or long-lasting referencing and management.}]]]
  validDates : <color:blue>DateRange   	  [[[../DDICDILibrary/DataTypes/StructuredDataTypes/DateRange.html#diagram{ <U+2015> DateRange:\nExpresses a date/time range using a start date and end date (both with the structure of Date and supporting the use of ISO and non-ISO date structures). Use in all locations where a range of dates is required, i.e. validFor, embargoPeriod, collectionPeriod, etc.}]]]
}

together {
  DDICDIModels::DDICDILibrary::Classes::Process::ConditionalControlLogic::condition - - - - DDICDIModels::DDICDILibrary::DataTypes::StructuredDataTypes::CommandCode #grey;line.dotted;
  DDICDIModels::DDICDILibrary::Classes::Process::Step::script - - - - DDICDIModels::DDICDILibrary::DataTypes::StructuredDataTypes::CommandCode #grey;line.dotted;
  DDICDIModels::DDICDILibrary::Classes::Representations::ClassificationIndex::codingInstruction - - - - DDICDIModels::DDICDILibrary::DataTypes::StructuredDataTypes::CommandCode #grey;line.dotted;
  DDICDIModels::DDICDILibrary::Classes::Representations::ClassificationIndexEntry::codingInstruction - - - - DDICDIModels::DDICDILibrary::DataTypes::StructuredDataTypes::CommandCode #grey;line.dotted;
}


together {
}
@enduml

PlantUML version 1.2022.6(Tue Jun 21 19:34:49 CEST 2022)
(GPL source distribution)
Java Runtime: OpenJDK Runtime Environment
JVM: OpenJDK 64-Bit Server VM
Default Encoding: Cp1252
Language: en
Country: US
--></g></svg>