<?xml version="1.0" encoding="UTF-8" standalone="no"?><svg xmlns="http://www.w3.org/2000/svg" xmlns:xlink="http://www.w3.org/1999/xlink" contentStyleType="text/css" height="621px" preserveAspectRatio="none" style="width:670px;height:621px;background:#FFFFFF;" version="1.1" viewBox="0 0 670 621" width="670.5px" zoomAndPan="magnify"><defs/><g><rect height="47.4891" style="stroke:#00000000;stroke-width:0.9;fill:none;" width="486" x="86.175" y="4.5"/><text fill="#000000" font-family="sans-serif" font-size="18" font-weight="bold" lengthAdjust="spacing" textLength="477" x="90.675" y="27.6855">UML Diagram: Class ClassificationIndexEntry in Context</text><text fill="#000000" font-family="sans-serif" font-size="12.6" font-weight="bold" lengthAdjust="spacing" textLength="3.6" x="327.375" y="44.7205"> </text><rect fill="#FFFFFF" height="44.7609" rx="6.75" ry="6.75" style="stroke:#000000;stroke-width:0.9;" width="276.3" x="7.2" y="64.5891"/><text fill="#000000" font-family="sans-serif" font-size="9" font-weight="bold" lengthAdjust="spacing" textLength="22.5" x="12.6" y="79.3318">Hints</text><text fill="#808080" font-family="sans-serif" font-size="9" lengthAdjust="spacing" textLength="265.5" x="12.6" y="90.6521">- Move the mouse cursor over a name to see more information.</text><text fill="#808080" font-family="sans-serif" font-size="9" lengthAdjust="spacing" textLength="216" x="12.6" y="101.9725">- Click on a name to go to the corresponding page.</text><!--MD5=[304b317dcd4f43a93a4387a723ae4610]
class DDICDIModels::DDICDILibrary::Classes::Representations::ClassificationIndexEntryPosition--><a href="../DDICDILibrary/Classes/Representations/ClassificationIndexEntryPosition.html#super-class-hierarchy-generalization" target="_top" title=" ― ClassificationIndexEntryPosition:&#10;Member indicator for use with member type classification index entry." xlink:actuate="onRequest" xlink:href="../DDICDILibrary/Classes/Representations/ClassificationIndexEntryPosition.html#super-class-hierarchy-generalization" xlink:show="new" xlink:title=" ― ClassificationIndexEntryPosition:&#10;Member indicator for use with member type classification index entry." xlink:type="simple"><g id="elem_DDICDIModels::DDICDILibrary::Classes::Representations::ClassificationIndexEntryPosition"><rect codeLine="62" fill="#F1F1F1" height="36.1688" id="DDICDIModels::DDICDILibrary::Classes::Representations::ClassificationIndexEntryPosition" rx="2.25" ry="2.25" style="stroke:#404040;stroke-width:0.45;" width="184.5" x="6.3" y="318.15"/><text fill="#000000" font-family="sans-serif" font-size="9" lengthAdjust="spacing" textLength="72.9" x="62.1" y="331.9928">Representations::</text><text fill="#0000FF" font-family="sans-serif" font-size="12.6" lengthAdjust="spacing" textLength="179.1" x="9" y="347.0502">ClassificationIndexEntryPosition</text></g></a><!--MD5=[fb888e6dc6054b81ee1c71b5b7db0a6f]
class DDICDIModels::DDICDILibrary::Classes::Representations::ClassificationIndex--><a href="../DDICDILibrary/Classes/Representations/ClassificationIndex.html#super-class-hierarchy-generalization" target="_top" title=" ― ClassificationIndex:&#10;Ordered list of classification index entries." xlink:actuate="onRequest" xlink:href="../DDICDILibrary/Classes/Representations/ClassificationIndex.html#super-class-hierarchy-generalization" xlink:show="new" xlink:title=" ― ClassificationIndex:&#10;Ordered list of classification index entries." xlink:type="simple"><g id="elem_DDICDIModels::DDICDILibrary::Classes::Representations::ClassificationIndex"><rect codeLine="63" fill="#F1F1F1" height="36.1688" id="DDICDIModels::DDICDILibrary::Classes::Representations::ClassificationIndex" rx="2.25" ry="2.25" style="stroke:#404040;stroke-width:0.45;" width="135" x="343.35" y="318.15"/><text fill="#000000" font-family="sans-serif" font-size="9" lengthAdjust="spacing" textLength="72.9" x="374.4" y="331.9928">Representations::</text><text fill="#0000FF" font-family="sans-serif" font-size="12.6" lengthAdjust="spacing" textLength="104.4" x="358.65" y="347.0502">ClassificationIndex</text></g></a><!--MD5=[943bb4fa32115731ae6537dcdfa5957c]
class DDICDIModels::DesignPatterns::CollectionsPattern::IndividualMember--><a href="../DesignPatterns/CollectionsPattern/IndividualMember.html#super-class-hierarchy-generalization" target="_top" title=" ― IndividualMember:&#10;Distinct element that is not itself a collection (atomic)." xlink:actuate="onRequest" xlink:href="../DesignPatterns/CollectionsPattern/IndividualMember.html#super-class-hierarchy-generalization" xlink:show="new" xlink:title=" ― IndividualMember:&#10;Distinct element that is not itself a collection (atomic)." xlink:type="simple"><g id="elem_DDICDIModels::DesignPatterns::CollectionsPattern::IndividualMember"><rect codeLine="68" fill="#F1F1F1" height="36.1688" id="DDICDIModels::DesignPatterns::CollectionsPattern::IndividualMember" rx="2.25" ry="2.25" style="stroke:#404040;stroke-width:0.45;" width="135" x="530.55" y="539.55"/><text fill="#000000" font-family="sans-serif" font-size="9" font-style="italic" lengthAdjust="spacing" textLength="83.7" x="556.2" y="553.3928">CollectionsPattern::</text><text fill="#0000FF" font-family="sans-serif" font-size="12.6" font-style="italic" lengthAdjust="spacing" textLength="99.9" x="548.1" y="568.4502">IndividualMember</text></g></a><!--MD5=[9505406ba13c6e33054b9b5309253ac6]
class DDICDIModels::DDICDILibrary::Classes::Representations::ClassificationIndexEntry--><g id="elem_DDICDIModels::DDICDILibrary::Classes::Representations::ClassificationIndexEntry"><rect codeLine="46" fill="#FFD700" height="122.6109" id="DDICDIModels::DDICDILibrary::Classes::Representations::ClassificationIndexEntry" rx="2.25" ry="2.25" style="stroke:#404040;stroke-width:0.45;" width="206.1" x="307.8" y="123.75"/><text fill="#000000" font-family="sans-serif" font-size="9" lengthAdjust="spacing" textLength="72.9" x="374.4" y="137.5928">Representations::</text><text fill="#000000" font-family="sans-serif" font-size="12.6" lengthAdjust="spacing" textLength="134.1" x="343.8" y="152.6502">ClassificationIndexEntry</text><line style="stroke:#404040;stroke-width:0.45;" x1="308.7" x2="513" y1="159.9188" y2="159.9188"/><a href="../DDICDILibrary/DataTypes/StructuredDataTypes/CatalogDetails.html#diagram" target="_top" title=" ― CatalogDetails:&#10;A set of information useful for attribution, data discovery, and access." xlink:actuate="onRequest" xlink:href="../DDICDILibrary/DataTypes/StructuredDataTypes/CatalogDetails.html#diagram" xlink:show="new" xlink:title=" ― CatalogDetails:&#10;A set of information useful for attribution, data discovery, and access." xlink:type="simple"><text fill="#000000" font-family="sans-serif" font-size="12.6" lengthAdjust="spacing" textLength="87.3" x="313.2" y="176.5986">catalogDetails :</text><text fill="#0000FF" font-family="sans-serif" font-size="12.6" lengthAdjust="spacing" textLength="82.8" x="404.1" y="176.5986">CatalogDetails</text></a><a href="../DDICDILibrary/DataTypes/StructuredDataTypes/CommandCode.html#diagram" target="_top" title=" ― CommandCode:&#10;Contains information on the command used for processing data. Contains a description of the command which should clarify for the user the purpose and process of the command, an in-line provision of the command itself, and a reference to an external version of the command such as a coding script." xlink:actuate="onRequest" xlink:href="../DDICDILibrary/DataTypes/StructuredDataTypes/CommandCode.html#diagram" xlink:show="new" xlink:title=" ― CommandCode:&#10;Contains information on the command used for processing data. Contains a description of the command which should clarify for the user the purpose and process of the command, an in-line provision of the command itself, and a reference to an external version of the command such as a coding script." xlink:type="simple"><text fill="#000000" font-family="sans-serif" font-size="12.6" lengthAdjust="spacing" textLength="103.5" x="313.2" y="192.4471">codingInstruction :</text><text fill="#0000FF" font-family="sans-serif" font-size="12.6" lengthAdjust="spacing" textLength="88.2" x="420.3" y="192.4471">CommandCode</text></a><a href="../DDICDILibrary/DataTypes/StructuredDataTypes/InternationalString.html#diagram" target="_top" title=" ― InternationalString:&#10;Packaging structure for multiple language versions of the same string content. Where an element of this type is repeatable, the expectation is that each repetition contains different content, each of which can be expressed in multiple languages. The language designation goes on the individual String ..." xlink:actuate="onRequest" xlink:href="../DDICDILibrary/DataTypes/StructuredDataTypes/InternationalString.html#diagram" xlink:show="new" xlink:title=" ― InternationalString:&#10;Packaging structure for multiple language versions of the same string content. Where an element of this type is repeatable, the expectation is that each repetition contains different content, each of which can be expressed in multiple languages. The language designation goes on the individual String ..." xlink:type="simple"><text fill="#000000" font-family="sans-serif" font-size="12.6" lengthAdjust="spacing" textLength="36" x="313.2" y="208.2955">entry :</text><text fill="#0000FF" font-family="sans-serif" font-size="12.6" lengthAdjust="spacing" textLength="103.5" x="352.8" y="208.2955">InternationalString</text></a><a href="../DDICDILibrary/DataTypes/StructuredDataTypes/Identifier.html#diagram" target="_top" title=" ― Identifier:&#10;Identifier for objects requiring short- or long-lasting referencing and management." xlink:actuate="onRequest" xlink:href="../DDICDILibrary/DataTypes/StructuredDataTypes/Identifier.html#diagram" xlink:show="new" xlink:title=" ― Identifier:&#10;Identifier for objects requiring short- or long-lasting referencing and management." xlink:type="simple"><text fill="#000000" font-family="sans-serif" font-size="12.6" lengthAdjust="spacing" textLength="55.8" x="313.2" y="224.1439">identifier :</text><text fill="#0000FF" font-family="sans-serif" font-size="12.6" lengthAdjust="spacing" textLength="48.6" x="372.6" y="224.1439">Identifier</text></a><a href="../DDICDILibrary/DataTypes/StructuredDataTypes/DateRange.html#diagram" target="_top" title=" ― DateRange:&#10;Expresses a date/time range using a start date and end date (both with the structure of Date and supporting the use of ISO and non-ISO date structures). Use in all locations where a range of dates is required, i.e. validFor, embargoPeriod, collectionPeriod, etc." xlink:actuate="onRequest" xlink:href="../DDICDILibrary/DataTypes/StructuredDataTypes/DateRange.html#diagram" xlink:show="new" xlink:title=" ― DateRange:&#10;Expresses a date/time range using a start date and end date (both with the structure of Date and supporting the use of ISO and non-ISO date structures). Use in all locations where a range of dates is required, i.e. validFor, embargoPeriod, collectionPeriod, etc." xlink:type="simple"><text fill="#000000" font-family="sans-serif" font-size="12.6" lengthAdjust="spacing" textLength="66.6" x="313.2" y="239.9924">validDates :</text><text fill="#0000FF" font-family="sans-serif" font-size="12.6" lengthAdjust="spacing" textLength="64.8" x="383.4" y="239.9924">DateRange</text></a></g><!--MD5=[f7b572b9db776ae3c9a8d1869b106f92]
reverse link DDICDIModels::DDICDILibrary::Classes::Representations::ClassificationIndexEntry to DDICDIModels::DDICDILibrary::Classes::Representations::ClassificationIndex--><g id="link_DDICDIModels::DDICDILibrary::Classes::Representations::ClassificationIndexEntry_DDICDIModels::DDICDILibrary::Classes::Representations::ClassificationIndex"><a href="" target="_top" title=" ― has:&#10;" xlink:actuate="onRequest" xlink:href="" xlink:show="new" xlink:title=" ― has:&#10;" xlink:type="simple"><path codeLine="76" d="M410.85,250.767 C410.85,275.382 410.85,301.446 410.85,318.006 " fill="none" id="DDICDIModels::DDICDILibrary::Classes::Representations::ClassificationIndexEntry-backto-DDICDIModels::DDICDILibrary::Classes::Representations::ClassificationIndex" style="stroke:#808080;stroke-width:1.35;"/><polygon fill="#808080" points="410.85,246.186,407.25,254.286,410.85,250.686,414.45,254.286,410.85,246.186" style="stroke:#808080;stroke-width:1.35;"/><text fill="#000000" font-family="sans-serif" font-size="11.7" lengthAdjust="spacing" textLength="18.9" x="411.75" y="286.1956">has</text></a></g><!--MD5=[06c96e7483b1c19ef5c735cb655994d9]
reverse link DDICDIModels::DDICDILibrary::Classes::Representations::ClassificationIndexEntry to DDICDIModels::DDICDILibrary::Classes::Representations::ClassificationIndexEntryPosition--><g id="link_DDICDIModels::DDICDILibrary::Classes::Representations::ClassificationIndexEntry_DDICDIModels::DDICDILibrary::Classes::Representations::ClassificationIndexEntryPosition"><a href="" target="_top" title=" ― indexes:&#10;Restricts member target class to classification index entry." xlink:actuate="onRequest" xlink:href="" xlink:show="new" xlink:title=" ― indexes:&#10;Restricts member target class to classification index entry." xlink:type="simple"><path codeLine="77" d="M303.507,237.204 C244.692,265.338 175.608,298.386 134.541,318.033 " fill="none" id="DDICDIModels::DDICDILibrary::Classes::Representations::ClassificationIndexEntry-backto-DDICDIModels::DDICDILibrary::Classes::Representations::ClassificationIndexEntryPosition" style="stroke:#808080;stroke-width:1.35;"/><polygon fill="#808080" points="307.719,235.179,298.8584,235.4231,303.6587,237.1192,301.9627,241.9195,307.719,235.179" style="stroke:#808080;stroke-width:1.35;"/><text fill="#000000" font-family="sans-serif" font-size="11.7" lengthAdjust="spacing" textLength="40.5" x="228.15" y="286.1956">indexes</text></a></g><!--MD5=[fb4f5d66ab88694cb30d63829510d669]
link DDICDIModels::DDICDILibrary::Classes::Representations::ClassificationIndexEntry to DDICDIModels::DesignPatterns::CollectionsPattern::IndividualMember--><g id="link_DDICDIModels::DDICDILibrary::Classes::Representations::ClassificationIndexEntry_DDICDIModels::DesignPatterns::CollectionsPattern::IndividualMember"><path codeLine="81" d="M514.026,225.747 C557.424,249.858 598.05,285.66 598.05,335.25 C598.05,335.25 598.05,335.25 598.05,482.4 C598.05,500.004 598.05,519.957 598.05,534.744 " fill="none" id="DDICDIModels::DDICDILibrary::Classes::Representations::ClassificationIndexEntry-to-DDICDIModels::DesignPatterns::CollectionsPattern::IndividualMember" style="stroke:#404040;stroke-width:1.35;stroke-dasharray:7.0,7.0;"/><polygon fill="#404040" points="598.05,539.541,601.65,531.441,598.05,535.041,594.45,531.441,598.05,539.541" style="stroke:#404040;stroke-width:1.35;"/><text fill="#000000" font-family="sans-serif" font-size="11.7" lengthAdjust="spacing" textLength="45" x="598.95" y="423.8956">«Refine»</text></g><rect height="33.9609" style="stroke:#00000000;stroke-width:0.9;fill:none;" width="369.9" x="144.225" y="580.2188"/><text fill="#888888" font-family="sans-serif" font-size="9" lengthAdjust="spacing" textLength="2.7" x="327.825" y="589.5615"> </text><text fill="#888888" font-family="sans-serif" font-size="9" lengthAdjust="spacing" textLength="2.7" x="327.825" y="600.8818"> </text><text fill="#888888" font-family="sans-serif" font-size="9" lengthAdjust="spacing" textLength="369.9" x="144.225" y="612.2021">DDI Cross Domain Integration (DDI-CDI)   1.0 - Representations::ClassificationIndexEntry</text><!--MD5=[8968a6169ef0c50ce293a61e1cf90021]
@startuml
!pragma ratio 0.5625
' HD display aspect ratio 16:9
' hyperlinkColor and pathHoverColor do not seem to work with class diagrams
' working approach: colors per item
' default font size for class names is 14

hide circle
hide empty members
scale 0.9

skinparam {
  ArrowThickness 1.5
  MinClassWidth 150
}

skinparam legend {
  BackgroundColor white
  FontSize 10
}

skinparam note {
  BackgroundColor white
}

skinparam class {
  ArrowColor #404040
  BorderColor #404040
}

skinparam package {
  FontColor lightgrey
  BorderColor lightgrey
}

title <size:20>UML Diagram: Class ClassificationIndexEntry in Context\n
footer \n\nDDI Cross Domain Integration (DDI-CDI)   1.0 - Representations::ClassificationIndexEntry

legend top left
**Hints**
<color:grey>- Move the mouse cursor over a name to see more information.
<color:grey>- Click on a name to go to the corresponding page.
endlegend

' Core class of diagram
class DDICDIModels::DDICDILibrary::Classes::Representations::ClassificationIndexEntry as "<size:10>Representations::\n<color:black>ClassificationIndexEntry" #FFD700 {
  catalogDetails : <color:blue>CatalogDetails   	  [[[../DDICDILibrary/DataTypes/StructuredDataTypes/CatalogDetails.html#diagram{ <U+2015> CatalogDetails:\nA set of information useful for attribution, data discovery, and access.}]]]
  codingInstruction : <color:blue>CommandCode   	  [[[../DDICDILibrary/DataTypes/StructuredDataTypes/CommandCode.html#diagram{ <U+2015> CommandCode:\nContains information on the command used for processing data. Contains a description of the command which should clarify for the user the purpose and process of the command, an in-line provision of the command itself, and a reference to an external version of the command such as a coding script.}]]]
  entry : <color:blue>InternationalString   	  [[[../DDICDILibrary/DataTypes/StructuredDataTypes/InternationalString.html#diagram{ <U+2015> InternationalString:\nPackaging structure for multiple language versions of the same string content. Where an element of this type is repeatable, the expectation is that each repetition contains different content, each of which can be expressed in multiple languages. The language designation goes on the individual String ...}]]]
  identifier : <color:blue>Identifier   	  [[[../DDICDILibrary/DataTypes/StructuredDataTypes/Identifier.html#diagram{ <U+2015> Identifier:\nIdentifier for objects requiring short- or long-lasting referencing and management.}]]]
  validDates : <color:blue>DateRange   	  [[[../DDICDILibrary/DataTypes/StructuredDataTypes/DateRange.html#diagram{ <U+2015> DateRange:\nExpresses a date/time range using a start date and end date (both with the structure of Date and supporting the use of ISO and non-ISO date structures). Use in all locations where a range of dates is required, i.e. validFor, embargoPeriod, collectionPeriod, etc.}]]]
}

' Class definitions for associated classes without superclass (might have also an association)
' This would be too many constraints for Graphviz. 
together {
  class DDICDIModels::DDICDILibrary::Classes::Representations::ClassificationIndexEntryPosition as "<size:10>Representations::\n<color:blue>ClassificationIndexEntryPosition" [[../DDICDILibrary/Classes/Representations/ClassificationIndexEntryPosition.html#super-class-hierarchy-generalization{ <U+2015> ClassificationIndexEntryPosition:\nMember indicator for use with member type classification index entry.}]]
  class DDICDIModels::DDICDILibrary::Classes::Representations::ClassificationIndex as "<size:10>Representations::\n<color:blue>ClassificationIndex" [[../DDICDILibrary/Classes/Representations/ClassificationIndex.html#super-class-hierarchy-generalization{ <U+2015> ClassificationIndex:\nOrdered list of classification index entries.}]]
}

' Class definitions for suppliers of abstractions
together {
  abstract class DDICDIModels::DesignPatterns::CollectionsPattern::IndividualMember as "<size:10>CollectionsPattern::\n<color:blue>IndividualMember" [[../DesignPatterns/CollectionsPattern/IndividualMember.html#super-class-hierarchy-generalization{ <U+2015> IndividualMember:\nDistinct element that is not itself a collection (atomic).}]]
}

' Rest of class definitions, without associated classes of core class and abstraction supplier classes



' Associations
DDICDIModels::DDICDILibrary::Classes::Representations::ClassificationIndexEntry <-[#grey]- DDICDIModels::DDICDILibrary::Classes::Representations::ClassificationIndex [[{ <U+2015> has:\n}]] : has
DDICDIModels::DDICDILibrary::Classes::Representations::ClassificationIndexEntry <-[#grey]- DDICDIModels::DDICDILibrary::Classes::Representations::ClassificationIndexEntryPosition [[{ <U+2015> indexes:\nRestricts member target class to classification index entry.}]] : indexes


' Abstractions
  DDICDIModels::DDICDILibrary::Classes::Representations::ClassificationIndexEntry .....> DDICDIModels::DesignPatterns::CollectionsPattern::IndividualMember : <U+00AB>Refine<U+00BB>
   
@enduml

@startuml
!pragma ratio 0.5625

hide circle
hide empty members
scale 0.9

skinparam {
  ArrowThickness 1.5
  MinClassWidth 150
}

skinparam legend {
  BackgroundColor white
  FontSize 10
}

skinparam note {
  BackgroundColor white
}

skinparam class {
  ArrowColor #404040
  BorderColor #404040
}

skinparam package {
  FontColor lightgrey
  BorderColor lightgrey
}

title <size:20>UML Diagram: Class ClassificationIndexEntry in Context\n
footer \n\nDDI Cross Domain Integration (DDI-CDI)   1.0 - Representations::ClassificationIndexEntry

legend top left
**Hints**
<color:grey>- Move the mouse cursor over a name to see more information.
<color:grey>- Click on a name to go to the corresponding page.
endlegend

class DDICDIModels::DDICDILibrary::Classes::Representations::ClassificationIndexEntry as "<size:10>Representations::\n<color:black>ClassificationIndexEntry" #FFD700 {
  catalogDetails : <color:blue>CatalogDetails   	  [[[../DDICDILibrary/DataTypes/StructuredDataTypes/CatalogDetails.html#diagram{ <U+2015> CatalogDetails:\nA set of information useful for attribution, data discovery, and access.}]]]
  codingInstruction : <color:blue>CommandCode   	  [[[../DDICDILibrary/DataTypes/StructuredDataTypes/CommandCode.html#diagram{ <U+2015> CommandCode:\nContains information on the command used for processing data. Contains a description of the command which should clarify for the user the purpose and process of the command, an in-line provision of the command itself, and a reference to an external version of the command such as a coding script.}]]]
  entry : <color:blue>InternationalString   	  [[[../DDICDILibrary/DataTypes/StructuredDataTypes/InternationalString.html#diagram{ <U+2015> InternationalString:\nPackaging structure for multiple language versions of the same string content. Where an element of this type is repeatable, the expectation is that each repetition contains different content, each of which can be expressed in multiple languages. The language designation goes on the individual String ...}]]]
  identifier : <color:blue>Identifier   	  [[[../DDICDILibrary/DataTypes/StructuredDataTypes/Identifier.html#diagram{ <U+2015> Identifier:\nIdentifier for objects requiring short- or long-lasting referencing and management.}]]]
  validDates : <color:blue>DateRange   	  [[[../DDICDILibrary/DataTypes/StructuredDataTypes/DateRange.html#diagram{ <U+2015> DateRange:\nExpresses a date/time range using a start date and end date (both with the structure of Date and supporting the use of ISO and non-ISO date structures). Use in all locations where a range of dates is required, i.e. validFor, embargoPeriod, collectionPeriod, etc.}]]]
}

together {
  class DDICDIModels::DDICDILibrary::Classes::Representations::ClassificationIndexEntryPosition as "<size:10>Representations::\n<color:blue>ClassificationIndexEntryPosition" [[../DDICDILibrary/Classes/Representations/ClassificationIndexEntryPosition.html#super-class-hierarchy-generalization{ <U+2015> ClassificationIndexEntryPosition:\nMember indicator for use with member type classification index entry.}]]
  class DDICDIModels::DDICDILibrary::Classes::Representations::ClassificationIndex as "<size:10>Representations::\n<color:blue>ClassificationIndex" [[../DDICDILibrary/Classes/Representations/ClassificationIndex.html#super-class-hierarchy-generalization{ <U+2015> ClassificationIndex:\nOrdered list of classification index entries.}]]
}

together {
  abstract class DDICDIModels::DesignPatterns::CollectionsPattern::IndividualMember as "<size:10>CollectionsPattern::\n<color:blue>IndividualMember" [[../DesignPatterns/CollectionsPattern/IndividualMember.html#super-class-hierarchy-generalization{ <U+2015> IndividualMember:\nDistinct element that is not itself a collection (atomic).}]]
}




DDICDIModels::DDICDILibrary::Classes::Representations::ClassificationIndexEntry <-[#grey]- DDICDIModels::DDICDILibrary::Classes::Representations::ClassificationIndex [[{ <U+2015> has:\n}]] : has
DDICDIModels::DDICDILibrary::Classes::Representations::ClassificationIndexEntry <-[#grey]- DDICDIModels::DDICDILibrary::Classes::Representations::ClassificationIndexEntryPosition [[{ <U+2015> indexes:\nRestricts member target class to classification index entry.}]] : indexes


  DDICDIModels::DDICDILibrary::Classes::Representations::ClassificationIndexEntry .....> DDICDIModels::DesignPatterns::CollectionsPattern::IndividualMember : <U+00AB>Refine<U+00BB>
   
@enduml

PlantUML version 1.2022.6(Tue Jun 21 19:34:49 CEST 2022)
(GPL source distribution)
Java Runtime: OpenJDK Runtime Environment
JVM: OpenJDK 64-Bit Server VM
Default Encoding: Cp1252
Language: en
Country: US
--></g></svg>