<?xml version="1.0" encoding="UTF-8" standalone="no"?><svg xmlns="http://www.w3.org/2000/svg" xmlns:xlink="http://www.w3.org/1999/xlink" contentStyleType="text/css" height="546.3px" preserveAspectRatio="none" style="width:661px;height:546px;background:#FFFFFF;" version="1.1" viewBox="0 0 661 546" width="661.5px" zoomAndPan="magnify"><defs/><g><rect height="47.4891" style="stroke:#00000000;stroke-width:0.9;fill:none;" width="318.6" x="165.15" y="4.5"/><text fill="#000000" font-family="sans-serif" font-size="18" font-weight="bold" lengthAdjust="spacing" textLength="309.6" x="169.65" y="27.6855">UML Diagram: Class Step in Context</text><text fill="#000000" font-family="sans-serif" font-size="12.6" font-weight="bold" lengthAdjust="spacing" textLength="3.6" x="322.65" y="44.7205"> </text><rect fill="#FFFFFF" height="56.0813" rx="6.75" ry="6.75" style="stroke:#000000;stroke-width:0.9;" width="276.3" x="7.2" y="64.5891"/><text fill="#000000" font-family="sans-serif" font-size="9" font-weight="bold" lengthAdjust="spacing" textLength="22.5" x="12.6" y="79.3318">Hints</text><text fill="#808080" font-family="sans-serif" font-size="9" lengthAdjust="spacing" textLength="265.5" x="12.6" y="90.6521">- Move the mouse cursor over a name to see more information.</text><text fill="#808080" font-family="sans-serif" font-size="9" lengthAdjust="spacing" textLength="216" x="12.6" y="101.9725">- Click on a name to go to the corresponding page.</text><text fill="#808080" font-family="sans-serif" font-size="9" lengthAdjust="spacing" textLength="164.7" x="12.6" y="113.2928">- The arrows of the inheritance tree are</text><text fill="#D2691E" font-family="sans-serif" font-size="9" lengthAdjust="spacing" textLength="32.4" x="180" y="113.2928">colored</text><text fill="#808080" font-family="sans-serif" font-size="9" lengthAdjust="spacing" textLength="2.7" x="212.4" y="113.2928">.</text><!--MD5=[a08a5e20e95ed5b574a4539b60f4d8ee]
class DDICDIModels::DDICDILibrary::Classes::Process::Parameter--><a href="../DDICDILibrary/Classes/Process/Parameter.html#super-class-hierarchy-generalization" target="_top" title=" ― Parameter:&#10;An input or output to control logic and the step/sub-step it invokes. Parameters may take the form of any information object, including data sets and structured metadata as well as configuration information for the step/sub-step." xlink:actuate="onRequest" xlink:href="../DDICDILibrary/Classes/Process/Parameter.html#super-class-hierarchy-generalization" xlink:show="new" xlink:title=" ― Parameter:&#10;An input or output to control logic and the step/sub-step it invokes. Parameters may take the form of any information object, including data sets and structured metadata as well as configuration information for the step/sub-step." xlink:type="simple"><g id="elem_DDICDIModels::DDICDILibrary::Classes::Process::Parameter"><rect codeLine="57" fill="#F1F1F1" height="36.1688" id="DDICDIModels::DDICDILibrary::Classes::Process::Parameter" rx="2.25" ry="2.25" style="stroke:#404040;stroke-width:0.45;" width="135" x="79.2" y="464.6863"/><text fill="#000000" font-family="sans-serif" font-size="9" lengthAdjust="spacing" textLength="37.8" x="127.8" y="478.5291">Process::</text><text fill="#0000FF" font-family="sans-serif" font-size="12.6" lengthAdjust="spacing" textLength="59.4" x="117" y="493.5865">Parameter</text></g></a><!--MD5=[fa26dd5b28bd31e0227766c25574e362]
entity ##6--><!--MD5=[2c37921695407d096dd2c82a03bab8f7]
class DDICDIModels::DDICDILibrary::Classes::Process::Step--><g id="elem_DDICDIModels::DDICDILibrary::Classes::Process::Step"><rect codeLine="47" fill="#FFD700" height="75.0656" id="DDICDIModels::DDICDILibrary::Classes::Process::Step" rx="2.25" ry="2.25" style="stroke:#404040;stroke-width:0.45;" width="279" x="6.3" y="317.5363"/><text fill="#000000" font-family="sans-serif" font-size="9" lengthAdjust="spacing" textLength="37.8" x="126.9" y="331.3791">Process::</text><text fill="#000000" font-family="sans-serif" font-size="12.6" lengthAdjust="spacing" textLength="26.1" x="132.75" y="346.4365">Step</text><line style="stroke:#404040;stroke-width:0.45;" x1="7.2" x2="284.4" y1="353.7051" y2="353.7051"/><a href="../DDICDILibrary/DataTypes/StructuredDataTypes/CommandCode.html#diagram" target="_top" title=" ― CommandCode:&#10;Contains information on the command used for processing data. Contains a description of the command which should clarify for the user the purpose and process of the command, an in-line provision of the command itself, and a reference to an external version of the command such as a coding script." xlink:actuate="onRequest" xlink:href="../DDICDILibrary/DataTypes/StructuredDataTypes/CommandCode.html#diagram" xlink:show="new" xlink:title=" ― CommandCode:&#10;Contains information on the command used for processing data. Contains a description of the command which should clarify for the user the purpose and process of the command, an in-line provision of the command itself, and a reference to an external version of the command such as a coding script." xlink:type="simple"><text fill="#000000" font-family="sans-serif" font-size="12.6" lengthAdjust="spacing" textLength="37.8" x="11.7" y="370.3849">script :</text><text fill="#0000FF" font-family="sans-serif" font-size="12.6" lengthAdjust="spacing" textLength="88.2" x="53.1" y="370.3849">CommandCode</text></a><a href="../DDICDILibrary/DataTypes/StructuredDataTypes/ControlledVocabularyEntry.html#diagram" target="_top" title=" ― ControlledVocabularyEntry:&#10;Allows for unstructured content which may be an entry from an externally maintained controlled vocabulary.If the content is from a controlled vocabulary provide the code value of the entry, as well as a reference to the controlled vocabulary from which the value is taken. Provide as many of the iden ..." xlink:actuate="onRequest" xlink:href="../DDICDILibrary/DataTypes/StructuredDataTypes/ControlledVocabularyEntry.html#diagram" xlink:show="new" xlink:title=" ― ControlledVocabularyEntry:&#10;Allows for unstructured content which may be an entry from an externally maintained controlled vocabulary.If the content is from a controlled vocabulary provide the code value of the entry, as well as a reference to the controlled vocabulary from which the value is taken. Provide as many of the iden ..." xlink:type="simple"><text fill="#000000" font-family="sans-serif" font-size="12.6" lengthAdjust="spacing" textLength="112.5" x="11.7" y="386.2334">scriptingLanguage :</text><text fill="#0000FF" font-family="sans-serif" font-size="12.6" lengthAdjust="spacing" textLength="152.1" x="127.8" y="386.2334">ControlledVocabularyEntry</text></a></g><!--MD5=[250dc3f1cdf1ef2cc74ebd3b8cfec0b1]
class DDICDIModels::DDICDILibrary::Classes::Process::Activity--><a href="../DDICDILibrary/Classes/Process/Activity.html#super-class-hierarchy-generalization" target="_top" title=" ― Activity:&#10;An activity is a task described at a conceptual level. It is not parameterized and as such is less reusable. For more logical/physical, fine-grained, reusable description there is a sub-type called step." xlink:actuate="onRequest" xlink:href="../DDICDILibrary/Classes/Process/Activity.html#super-class-hierarchy-generalization" xlink:show="new" xlink:title=" ― Activity:&#10;An activity is a task described at a conceptual level. It is not parameterized and as such is less reusable. For more logical/physical, fine-grained, reusable description there is a sub-type called step." xlink:type="simple"><g id="elem_DDICDIModels::DDICDILibrary::Classes::Process::Activity"><rect codeLine="100" fill="#FAFAD2" height="59.2172" id="DDICDIModels::DDICDILibrary::Classes::Process::Activity" rx="2.25" ry="2.25" style="stroke:#404040;stroke-width:0.45;" width="135" x="78.3" y="188.3863"/><text fill="#000000" font-family="sans-serif" font-size="9" lengthAdjust="spacing" textLength="37.8" x="126.9" y="202.2291">Process::</text><text fill="#0000FF" font-family="sans-serif" font-size="12.6" lengthAdjust="spacing" textLength="39.6" x="126" y="217.2865">Activity</text><line style="stroke:#404040;stroke-width:0.45;" x1="79.2" x2="212.4" y1="224.5551" y2="224.5551"/><a href="../DDICDILibrary/DataTypes/StructuredDataTypes/Identifier.html#diagram" target="_top" title=" ― Identifier:&#10;Identifier for objects requiring short- or long-lasting referencing and management." xlink:actuate="onRequest" xlink:href="../DDICDILibrary/DataTypes/StructuredDataTypes/Identifier.html#diagram" xlink:show="new" xlink:title=" ― Identifier:&#10;Identifier for objects requiring short- or long-lasting referencing and management." xlink:type="simple"><text fill="#000000" font-family="sans-serif" font-size="12.6" lengthAdjust="spacing" textLength="55.8" x="83.7" y="241.2349">identifier :</text><text fill="#0000FF" font-family="sans-serif" font-size="12.6" lengthAdjust="spacing" textLength="48.6" x="143.1" y="241.2349">Identifier</text></a></g></a><!--MD5=[86778c92e97b374d9d16badd6f2c91e1]
class DDICDIModels::DDICDILibrary::Classes::Process::ControlLogic--><a href="../DDICDILibrary/Classes/Process/ControlLogic.html#super-class-hierarchy-generalization" target="_top" title=" ― ControlLogic:&#10;Control logic is a program in which the order of statements is explicit. Control logic is either deterministic (imperative) or non-deterministic (declarative). Deterministic control logic consists of control constructs. Declarative control logic is constraint- and/or rule-based. Control logic may co ..." xlink:actuate="onRequest" xlink:href="../DDICDILibrary/Classes/Process/ControlLogic.html#super-class-hierarchy-generalization" xlink:show="new" xlink:title=" ― ControlLogic:&#10;Control logic is a program in which the order of statements is explicit. Control logic is either deterministic (imperative) or non-deterministic (declarative). Deterministic control logic consists of control constructs. Declarative control logic is constraint- and/or rule-based. Control logic may co ..." xlink:type="simple"><g id="elem_DDICDIModels::DDICDILibrary::Classes::Process::ControlLogic"><rect codeLine="66" fill="#F1F1F1" height="36.1688" id="DDICDIModels::DDICDILibrary::Classes::Process::ControlLogic" rx="2.25" ry="2.25" style="stroke:#404040;stroke-width:0.45;" width="135" x="521.1" y="200.0863"/><text fill="#000000" font-family="sans-serif" font-size="9" lengthAdjust="spacing" textLength="37.8" x="569.7" y="213.9291">Process::</text><text fill="#0000FF" font-family="sans-serif" font-size="12.6" lengthAdjust="spacing" textLength="72" x="552.6" y="228.9865">ControlLogic</text></g></a><!--MD5=[3078b484125a0460bfac2d32d1854149]
class DDICDIModels::DDICDILibrary::Classes::Process::ProcessingAgent--><a href="../DDICDILibrary/Classes/Process/ProcessingAgent.html#super-class-hierarchy-generalization" target="_top" title=" ― ProcessingAgent:&#10;A processing agent orchestrates the production of information objects in a production environment. There are processing agents which perform data capture, data editing/processing, and data analysis (etc.), each in the appropriate production environments. The processing agent performs an activity bas ..." xlink:actuate="onRequest" xlink:href="../DDICDILibrary/Classes/Process/ProcessingAgent.html#super-class-hierarchy-generalization" xlink:show="new" xlink:title=" ― ProcessingAgent:&#10;A processing agent orchestrates the production of information objects in a production environment. There are processing agents which perform data capture, data editing/processing, and data analysis (etc.), each in the appropriate production environments. The processing agent performs an activity bas ..." xlink:type="simple"><g id="elem_DDICDIModels::DDICDILibrary::Classes::Process::ProcessingAgent"><rect codeLine="67" fill="#F1F1F1" height="36.1688" id="DDICDIModels::DDICDILibrary::Classes::Process::ProcessingAgent" rx="2.25" ry="2.25" style="stroke:#404040;stroke-width:0.45;" width="135" x="333" y="200.0863"/><text fill="#000000" font-family="sans-serif" font-size="9" lengthAdjust="spacing" textLength="37.8" x="381.6" y="213.9291">Process::</text><text fill="#0000FF" font-family="sans-serif" font-size="12.6" lengthAdjust="spacing" textLength="96.3" x="352.35" y="228.9865">ProcessingAgent</text></g></a><!--MD5=[89673f29900b54573742f73e1b08cef3]
reverse link DDICDIModels::DDICDILibrary::Classes::Process::Step to DDICDIModels::DDICDILibrary::Classes::Process::Activity--><g id="link_DDICDIModels::DDICDILibrary::Classes::Process::Step_DDICDIModels::DDICDILibrary::Classes::Process::Activity"><a href="" target="_top" title=" ― has:&#10;Activities may be broken out into Steps. Steps are also a subtype of Activity." xlink:actuate="onRequest" xlink:href="" xlink:show="new" xlink:title=" ― has:&#10;Activities may be broken out into Steps. Steps are also a subtype of Activity." xlink:type="simple"><path codeLine="72" d="M145.8,312.6673 C145.8,291.7333 145.8,266.8213 145.8,247.9483 " fill="none" id="DDICDIModels::DDICDILibrary::Classes::Process::Step-backto-DDICDIModels::DDICDILibrary::Classes::Process::Activity" style="stroke:#808080;stroke-width:1.35;"/><polygon fill="#808080" points="145.8,317.3473,149.4,309.2473,145.8,312.8473,142.2,309.2473,145.8,317.3473" style="stroke:#808080;stroke-width:1.35;"/><text fill="#000000" font-family="sans-serif" font-size="11.7" lengthAdjust="spacing" textLength="18.9" x="146.7" y="287.8319">has</text></a></g><!--MD5=[f9480a126e0e5e65d8aed96ec1f02cc2]
reverse link DDICDIModels::DDICDILibrary::Classes::Process::Activity to DDICDIModels::DDICDILibrary::Classes::Process::Step--><g id="link_DDICDIModels::DDICDILibrary::Classes::Process::Activity_DDICDIModels::DDICDILibrary::Classes::Process::Step"><path codeLine="105" d="M139.293,265.9753 C139.023,268.9543 138.78,271.9063 138.6,274.7863 C137.7,288.7003 138.636,303.9643 140.094,317.3473 " fill="none" id="DDICDIModels::DDICDILibrary::Classes::Process::Activity-backto-DDICDIModels::DDICDILibrary::Classes::Process::Step" style="stroke:#D2691E;stroke-width:1.35;"/><polygon fill="none" points="133.056,265.0573,141.354,247.8763,145.575,266.4793,133.056,265.0573" style="stroke:#D2691E;stroke-width:1.35;"/></g><!--MD5=[e7b0437cb5babbf805a9d1269b9f2ff9]
link DDICDIModels::DDICDILibrary::Classes::Process::Step to DDICDIModels::DDICDILibrary::Classes::Process::Step--><g id="link_DDICDIModels::DDICDILibrary::Classes::Process::Step_DDICDIModels::DDICDILibrary::Classes::Process::Step"><a href="" target="_top" title=" ― hasSubStep:&#10;A step can be broken out into steps ad infinitum." xlink:actuate="onRequest" xlink:href="" xlink:show="new" xlink:title=" ― hasSubStep:&#10;A step can be broken out into steps ad infinitum." xlink:type="simple"><path codeLine="73" d="M296.0466,344.4264 C296.0466,344.4264 316.8,350.2603 316.8,354.8863 C316.8,359.5123 309.276,362.9413 297.135,365.1913 " fill="none" id="DDICDIModels::DDICDILibrary::Classes::Process::Step-DDICDIModels::DDICDILibrary::Classes::Process::Step" style="stroke:#808080;stroke-width:1.35;"/><polygon fill="#808080" points="285.354,366.8653,293.8798,369.2902,289.8093,366.2324,292.8671,362.1618,285.354,366.8653" style="stroke:#808080;stroke-width:1.35;"/><line style="stroke:#808080;stroke-width:1.35;" x1="289.8093" x2="296.937" y1="366.2324" y2="365.2228"/><polygon fill="none" points="285.354,342.9073,290.194,347.231,296.0466,344.4264,291.2067,340.1026,285.354,342.9073" style="stroke:#808080;stroke-width:1.35;"/><text fill="#000000" font-family="sans-serif" font-size="11.7" lengthAdjust="spacing" textLength="63.9" x="322.2" y="359.8319">hasSubStep</text></a></g><!--MD5=[e98f4e0f9f294ddc5b5a2460ad56ec68]
link DDICDIModels::DDICDILibrary::Classes::Process::Step to DDICDIModels::DDICDILibrary::Classes::Process::Parameter--><g id="link_DDICDIModels::DDICDILibrary::Classes::Process::Step_DDICDIModels::DDICDILibrary::Classes::Process::Parameter"><a href="" target="_top" title=" ― produces:&#10;The Step creates Parameter as an output." xlink:actuate="onRequest" xlink:href="" xlink:show="new" xlink:title=" ― produces:&#10;The Step creates Parameter as an output." xlink:type="simple"><path codeLine="74" d="M113.49,392.6053 C105.552,405.9793 100.71,421.3783 106.2,435.8863 C109.683,445.1113 115.965,453.6793 122.562,460.8613 " fill="none" id="DDICDIModels::DDICDILibrary::Classes::Process::Step-to-DDICDIModels::DDICDILibrary::Classes::Process::Parameter" style="stroke:#808080;stroke-width:1.35;"/><polygon fill="#808080" points="125.811,464.2633,122.8309,455.9153,122.7072,461.005,117.6176,460.8814,125.811,464.2633" style="stroke:#808080;stroke-width:1.35;"/><text fill="#000000" font-family="sans-serif" font-size="11.7" lengthAdjust="spacing" textLength="47.7" x="107.1" y="432.7319">produces</text></a></g><!--MD5=[e98f4e0f9f294ddc5b5a2460ad56ec68]
link DDICDIModels::DDICDILibrary::Classes::Process::Step to DDICDIModels::DDICDILibrary::Classes::Process::Parameter--><g id="link_DDICDIModels::DDICDILibrary::Classes::Process::Step_DDICDIModels::DDICDILibrary::Classes::Process::Parameter"><a href="" target="_top" title=" ― receives:&#10;The Step uses Parameter as an input." xlink:actuate="onRequest" xlink:href="" xlink:show="new" xlink:title=" ― receives:&#10;The Step uses Parameter as an input." xlink:type="simple"><path codeLine="75" d="M156.663,392.3983 C159.462,406.0153 161.217,421.6303 159.3,435.8863 C158.22,443.8873 156.123,452.4733 153.954,460.0243 " fill="none" id="DDICDIModels::DDICDILibrary::Classes::Process::Step-to-DDICDIModels::DDICDILibrary::Classes::Process::Parameter-1" style="stroke:#808080;stroke-width:1.35;"/><polygon fill="#808080" points="152.595,464.5783,158.356,457.8418,153.8786,460.2653,151.4551,455.7879,152.595,464.5783" style="stroke:#808080;stroke-width:1.35;"/><text fill="#000000" font-family="sans-serif" font-size="11.7" lengthAdjust="spacing" textLength="42.3" x="160.2" y="432.7319">receives</text></a></g><!--MD5=[9a126a6f390eb5c19cf783c6ca465c3e]
link DDICDIModels::DDICDILibrary::Classes::Process::Activity to DDICDIModels::DDICDILibrary::Classes::Process::ControlLogic--><g id="link_DDICDIModels::DDICDILibrary::Classes::Process::Activity_DDICDIModels::DDICDILibrary::Classes::Process::ControlLogic"><a href="" target="_top" title=" ― hasInternal:&#10;An activity is embedded in the control construct which launches it." xlink:actuate="onRequest" xlink:href="" xlink:show="new" xlink:title=" ― hasInternal:&#10;An activity is embedded in the control construct which launches it." xlink:type="simple"><path codeLine="88" d="M213.147,188.2963 C279.171,163.0603 382.473,134.1703 470.7,155.9863 C502.965,163.9693 536.157,182.5543 559.062,197.3233 " fill="none" id="DDICDIModels::DDICDILibrary::Classes::Process::Activity-to-DDICDIModels::DDICDILibrary::Classes::Process::ControlLogic" style="stroke:#808080;stroke-width:1.35;"/><polygon fill="#808080" points="562.932,199.8433,558.1124,192.4041,559.1622,197.3859,554.1805,198.4358,562.932,199.8433" style="stroke:#808080;stroke-width:1.35;"/><text fill="#000000" font-family="sans-serif" font-size="11.7" lengthAdjust="spacing" textLength="68.4" x="401.4" y="158.2319"> hasInternal</text></a></g><!--MD5=[55bc16dffe94287eb73a35015f44e6b9]
reverse link DDICDIModels::DDICDILibrary::Classes::Process::Activity to DDICDIModels::DDICDILibrary::Classes::Process::ControlLogic--><g id="link_DDICDIModels::DDICDILibrary::Classes::Process::Activity_DDICDIModels::DDICDILibrary::Classes::Process::ControlLogic"><a href="" target="_top" title=" ― invokes:&#10;Control logic invokes an activity deterministically (either conditionally or unconditionally) or non-derministically (based on temporal constraints or rule-based scheduling)." xlink:actuate="onRequest" xlink:href="" xlink:show="new" xlink:title=" ― invokes:&#10;Control logic invokes an activity deterministically (either conditionally or unconditionally) or non-derministically (based on temporal constraints or rule-based scheduling)." xlink:type="simple"><path codeLine="93" d="M217.449,186.6673 C283.599,161.8363 384.372,134.6383 470.7,155.9863 C504.837,164.4283 540,184.7413 562.932,199.8433 " fill="none" id="DDICDIModels::DDICDILibrary::Classes::Process::Activity-backto-DDICDIModels::DDICDILibrary::Classes::Process::ControlLogic" style="stroke:#808080;stroke-width:1.35;"/><polygon fill="#808080" points="213.147,188.2963,221.9967,188.7994,217.3562,186.705,219.4506,182.0646,213.147,188.2963" style="stroke:#808080;stroke-width:1.35;"/><text fill="#000000" font-family="sans-serif" font-size="11.7" lengthAdjust="spacing" textLength="50.4" x="410.4" y="158.2319"> invokes</text></a></g><!--MD5=[6c0345c21ac554deff8b3b5873300ab8]
reverse link DDICDIModels::DDICDILibrary::Classes::Process::Activity to DDICDIModels::DDICDILibrary::Classes::Process::ProcessingAgent--><g id="link_DDICDIModels::DDICDILibrary::Classes::Process::Activity_DDICDIModels::DDICDILibrary::Classes::Process::ProcessingAgent"><a href="" target="_top" title=" ― performs:&#10;A processing agent performs an activity at the direction of control logic." xlink:actuate="onRequest" xlink:href="" xlink:show="new" xlink:title=" ― performs:&#10;A processing agent performs an activity at the direction of control logic." xlink:type="simple"><path codeLine="98" d="M218.178,218.0863 C254.115,218.0863 297.288,218.0863 332.595,218.0863 " fill="none" id="DDICDIModels::DDICDILibrary::Classes::Process::Activity-backto-DDICDIModels::DDICDILibrary::Classes::Process::ProcessingAgent" style="stroke:#808080;stroke-width:1.35;"/><polygon fill="#808080" points="213.381,218.0863,221.481,221.6863,217.881,218.0863,221.481,214.4863,213.381,218.0863" style="stroke:#808080;stroke-width:1.35;"/><text fill="#000000" font-family="sans-serif" font-size="11.7" lengthAdjust="spacing" textLength="56.7" x="244.8" y="212.2319"> performs</text></a></g><rect height="33.9609" style="stroke:#00000000;stroke-width:0.9;fill:none;" width="252.9" x="198" y="505.3551"/><text fill="#888888" font-family="sans-serif" font-size="9" lengthAdjust="spacing" textLength="2.7" x="323.1" y="514.6978"> </text><text fill="#888888" font-family="sans-serif" font-size="9" lengthAdjust="spacing" textLength="2.7" x="323.1" y="526.0181"> </text><text fill="#888888" font-family="sans-serif" font-size="9" lengthAdjust="spacing" textLength="252.9" x="198" y="537.3385">DDI Cross Domain Integration (DDI-CDI)   1.0 - Process::Step</text><!--MD5=[36c9d391fcba274e761491ccb6d2fc52]
@startuml
!pragma ratio 0.5625
' HD display aspect ratio 16:9
' hyperlinkColor and pathHoverColor do not seem to work with class diagrams
' working approach: colors per item
' default font size for class names is 14

hide circle
hide empty members
scale 0.9

skinparam {
  ArrowThickness 1.5
  MinClassWidth 150
}

skinparam legend {
  BackgroundColor white
  FontSize 10
}

skinparam note {
  BackgroundColor white
}

skinparam class {
  ArrowColor #404040
  BorderColor #404040
}

skinparam package {
  FontColor lightgrey
  BorderColor lightgrey
}

title <size:20>UML Diagram: Class Step in Context\n
footer \n\nDDI Cross Domain Integration (DDI-CDI)   1.0 - Process::Step

legend top left
**Hints**
<color:grey>- Move the mouse cursor over a name to see more information.
<color:grey>- Click on a name to go to the corresponding page.
<color:grey>- The arrows of the inheritance tree are <color:#D2691E>colored<color:grey>.
endlegend

' Core class of diagram
class DDICDIModels::DDICDILibrary::Classes::Process::Step as "<size:10>Process::\n<color:black>Step" #FFD700 {
  script : <color:blue>CommandCode   	  [[[../DDICDILibrary/DataTypes/StructuredDataTypes/CommandCode.html#diagram{ <U+2015> CommandCode:\nContains information on the command used for processing data. Contains a description of the command which should clarify for the user the purpose and process of the command, an in-line provision of the command itself, and a reference to an external version of the command such as a coding script.}]]]
  scriptingLanguage : <color:blue>ControlledVocabularyEntry   	  [[[../DDICDILibrary/DataTypes/StructuredDataTypes/ControlledVocabularyEntry.html#diagram{ <U+2015> ControlledVocabularyEntry:\nAllows for unstructured content which may be an entry from an externally maintained controlled vocabulary.If the content is from a controlled vocabulary provide the code value of the entry, as well as a reference to the controlled vocabulary from which the value is taken. Provide as many of the iden ...}]]]
}

' Class definitions for associated classes without superclass (might have also an association)
' This would be too many constraints for Graphviz. 
together {
  class DDICDIModels::DDICDILibrary::Classes::Process::Parameter as "<size:10>Process::\n<color:blue>Parameter" [[../DDICDILibrary/Classes/Process/Parameter.html#super-class-hierarchy-generalization{ <U+2015> Parameter:\nAn input or output to control logic and the step/sub-step it invokes. Parameters may take the form of any information object, including data sets and structured metadata as well as configuration information for the step/sub-step.}]]
}

' Class definitions for suppliers of abstractions
together {
}

' Rest of class definitions, without associated classes of core class and abstraction supplier classes
class DDICDIModels::DDICDILibrary::Classes::Process::Activity as "<size:10>Process::\n<color:blue>Activity" [[../DDICDILibrary/Classes/Process/Activity.html#super-class-hierarchy-generalization{ <U+2015> Activity:\nAn activity is a task described at a conceptual level. It is not parameterized and as such is less reusable. For more logical/physical, fine-grained, reusable description there is a sub-type called step.}]]
class DDICDIModels::DDICDILibrary::Classes::Process::ControlLogic as "<size:10>Process::\n<color:blue>ControlLogic" [[../DDICDILibrary/Classes/Process/ControlLogic.html#super-class-hierarchy-generalization{ <U+2015> ControlLogic:\nControl logic is a program in which the order of statements is explicit. Control logic is either deterministic (imperative) or non-deterministic (declarative). Deterministic control logic consists of control constructs. Declarative control logic is constraint- and/or rule-based. Control logic may co ...}]]
class DDICDIModels::DDICDILibrary::Classes::Process::ProcessingAgent as "<size:10>Process::\n<color:blue>ProcessingAgent" [[../DDICDILibrary/Classes/Process/ProcessingAgent.html#super-class-hierarchy-generalization{ <U+2015> ProcessingAgent:\nA processing agent orchestrates the production of information objects in a production environment. There are processing agents which perform data capture, data editing/processing, and data analysis (etc.), each in the appropriate production environments. The processing agent performs an activity bas ...}]]



' Associations
DDICDIModels::DDICDILibrary::Classes::Process::Step <-[#grey]- DDICDIModels::DDICDILibrary::Classes::Process::Activity [[{ <U+2015> has:\nActivities may be broken out into Steps. Steps are also a subtype of Activity.}]] : has
DDICDIModels::DDICDILibrary::Classes::Process::Step o-[#grey]-> DDICDIModels::DDICDILibrary::Classes::Process::Step [[{ <U+2015> hasSubStep:\nA step can be broken out into steps ad infinitum.}]] : hasSubStep
DDICDIModels::DDICDILibrary::Classes::Process::Step -[#grey]-> DDICDIModels::DDICDILibrary::Classes::Process::Parameter [[{ <U+2015> produces:\nThe Step creates Parameter as an output.}]] : produces
DDICDIModels::DDICDILibrary::Classes::Process::Step -[#grey]-> DDICDIModels::DDICDILibrary::Classes::Process::Parameter [[{ <U+2015> receives:\nThe Step uses Parameter as an input.}]] : receives

' Super classes
' Associations of Super classes
' firstAncestor:	org.eclipse.uml2.uml.internal.impl.ClassImpl@43af351a (name: Activity, visibility: <unset>) (isLeaf: false, isAbstract: false, isFinalSpecialization: false) (isActive: false)
' secondAncestor:	org.eclipse.uml2.uml.internal.impl.ClassImpl@43af351a (name: Activity, visibility: <unset>) (isLeaf: false, isAbstract: false, isFinalSpecialization: false) (isActive: false)



' aClass:			Step
' aSuperClass:		Activity
' e_ownedEndClass:	Activity
' e_otherEndClass:	ControlLogic
DDICDIModels::DDICDILibrary::Classes::Process::Activity -[#grey]> DDICDIModels::DDICDILibrary::Classes::Process::ControlLogic [[{ <U+2015> hasInternal:\nAn activity is embedded in the control construct which launches it.}]] : <U+2003>hasInternal
' aClass:			Step
' aSuperClass:		Activity
' e_ownedEndClass:	ControlLogic
' e_otherEndClass:	Activity
DDICDIModels::DDICDILibrary::Classes::Process::Activity <-[#grey] DDICDIModels::DDICDILibrary::Classes::Process::ControlLogic [[{ <U+2015> invokes:\nControl logic invokes an activity deterministically (either conditionally or unconditionally) or non-derministically (based on temporal constraints or rule-based scheduling).}]] : <U+2003>invokes
' aClass:			Step
' aSuperClass:		Activity
' e_ownedEndClass:	ProcessingAgent
' e_otherEndClass:	Activity
DDICDIModels::DDICDILibrary::Classes::Process::Activity <-[#grey] DDICDIModels::DDICDILibrary::Classes::Process::ProcessingAgent [[{ <U+2015> performs:\nA processing agent performs an activity at the direction of control logic.}]] : <U+2003>performs

class DDICDIModels::DDICDILibrary::Classes::Process::Activity as "<size:10> \n<color:blue>Activity" [[../DDICDILibrary/Classes/Process/Activity.html#super-class-hierarchy-generalization{ <U+2015> Activity:\nAn activity is a task described at a conceptual level. It is not parameterized and as such is less reusable. For more logical/physical, fine-grained, reusable description there is a sub-type called step.}]] #FAFAD2 {
  identifier : <color:blue>Identifier   	  [[[../DDICDILibrary/DataTypes/StructuredDataTypes/Identifier.html#diagram{ <U+2015> Identifier:\nIdentifier for objects requiring short- or long-lasting referencing and management.}]]]
}

DDICDIModels::DDICDILibrary::Classes::Process::Activity <|-[#D2691E]- DDICDIModels::DDICDILibrary::Classes::Process::Step


' Abstractions
@enduml

@startuml
!pragma ratio 0.5625

hide circle
hide empty members
scale 0.9

skinparam {
  ArrowThickness 1.5
  MinClassWidth 150
}

skinparam legend {
  BackgroundColor white
  FontSize 10
}

skinparam note {
  BackgroundColor white
}

skinparam class {
  ArrowColor #404040
  BorderColor #404040
}

skinparam package {
  FontColor lightgrey
  BorderColor lightgrey
}

title <size:20>UML Diagram: Class Step in Context\n
footer \n\nDDI Cross Domain Integration (DDI-CDI)   1.0 - Process::Step

legend top left
**Hints**
<color:grey>- Move the mouse cursor over a name to see more information.
<color:grey>- Click on a name to go to the corresponding page.
<color:grey>- The arrows of the inheritance tree are <color:#D2691E>colored<color:grey>.
endlegend

class DDICDIModels::DDICDILibrary::Classes::Process::Step as "<size:10>Process::\n<color:black>Step" #FFD700 {
  script : <color:blue>CommandCode   	  [[[../DDICDILibrary/DataTypes/StructuredDataTypes/CommandCode.html#diagram{ <U+2015> CommandCode:\nContains information on the command used for processing data. Contains a description of the command which should clarify for the user the purpose and process of the command, an in-line provision of the command itself, and a reference to an external version of the command such as a coding script.}]]]
  scriptingLanguage : <color:blue>ControlledVocabularyEntry   	  [[[../DDICDILibrary/DataTypes/StructuredDataTypes/ControlledVocabularyEntry.html#diagram{ <U+2015> ControlledVocabularyEntry:\nAllows for unstructured content which may be an entry from an externally maintained controlled vocabulary.If the content is from a controlled vocabulary provide the code value of the entry, as well as a reference to the controlled vocabulary from which the value is taken. Provide as many of the iden ...}]]]
}

together {
  class DDICDIModels::DDICDILibrary::Classes::Process::Parameter as "<size:10>Process::\n<color:blue>Parameter" [[../DDICDILibrary/Classes/Process/Parameter.html#super-class-hierarchy-generalization{ <U+2015> Parameter:\nAn input or output to control logic and the step/sub-step it invokes. Parameters may take the form of any information object, including data sets and structured metadata as well as configuration information for the step/sub-step.}]]
}

together {
}

class DDICDIModels::DDICDILibrary::Classes::Process::Activity as "<size:10>Process::\n<color:blue>Activity" [[../DDICDILibrary/Classes/Process/Activity.html#super-class-hierarchy-generalization{ <U+2015> Activity:\nAn activity is a task described at a conceptual level. It is not parameterized and as such is less reusable. For more logical/physical, fine-grained, reusable description there is a sub-type called step.}]]
class DDICDIModels::DDICDILibrary::Classes::Process::ControlLogic as "<size:10>Process::\n<color:blue>ControlLogic" [[../DDICDILibrary/Classes/Process/ControlLogic.html#super-class-hierarchy-generalization{ <U+2015> ControlLogic:\nControl logic is a program in which the order of statements is explicit. Control logic is either deterministic (imperative) or non-deterministic (declarative). Deterministic control logic consists of control constructs. Declarative control logic is constraint- and/or rule-based. Control logic may co ...}]]
class DDICDIModels::DDICDILibrary::Classes::Process::ProcessingAgent as "<size:10>Process::\n<color:blue>ProcessingAgent" [[../DDICDILibrary/Classes/Process/ProcessingAgent.html#super-class-hierarchy-generalization{ <U+2015> ProcessingAgent:\nA processing agent orchestrates the production of information objects in a production environment. There are processing agents which perform data capture, data editing/processing, and data analysis (etc.), each in the appropriate production environments. The processing agent performs an activity bas ...}]]



DDICDIModels::DDICDILibrary::Classes::Process::Step <-[#grey]- DDICDIModels::DDICDILibrary::Classes::Process::Activity [[{ <U+2015> has:\nActivities may be broken out into Steps. Steps are also a subtype of Activity.}]] : has
DDICDIModels::DDICDILibrary::Classes::Process::Step o-[#grey]-> DDICDIModels::DDICDILibrary::Classes::Process::Step [[{ <U+2015> hasSubStep:\nA step can be broken out into steps ad infinitum.}]] : hasSubStep
DDICDIModels::DDICDILibrary::Classes::Process::Step -[#grey]-> DDICDIModels::DDICDILibrary::Classes::Process::Parameter [[{ <U+2015> produces:\nThe Step creates Parameter as an output.}]] : produces
DDICDIModels::DDICDILibrary::Classes::Process::Step -[#grey]-> DDICDIModels::DDICDILibrary::Classes::Process::Parameter [[{ <U+2015> receives:\nThe Step uses Parameter as an input.}]] : receives




DDICDIModels::DDICDILibrary::Classes::Process::Activity -[#grey]> DDICDIModels::DDICDILibrary::Classes::Process::ControlLogic [[{ <U+2015> hasInternal:\nAn activity is embedded in the control construct which launches it.}]] : <U+2003>hasInternal
DDICDIModels::DDICDILibrary::Classes::Process::Activity <-[#grey] DDICDIModels::DDICDILibrary::Classes::Process::ControlLogic [[{ <U+2015> invokes:\nControl logic invokes an activity deterministically (either conditionally or unconditionally) or non-derministically (based on temporal constraints or rule-based scheduling).}]] : <U+2003>invokes
DDICDIModels::DDICDILibrary::Classes::Process::Activity <-[#grey] DDICDIModels::DDICDILibrary::Classes::Process::ProcessingAgent [[{ <U+2015> performs:\nA processing agent performs an activity at the direction of control logic.}]] : <U+2003>performs

class DDICDIModels::DDICDILibrary::Classes::Process::Activity as "<size:10> \n<color:blue>Activity" [[../DDICDILibrary/Classes/Process/Activity.html#super-class-hierarchy-generalization{ <U+2015> Activity:\nAn activity is a task described at a conceptual level. It is not parameterized and as such is less reusable. For more logical/physical, fine-grained, reusable description there is a sub-type called step.}]] #FAFAD2 {
  identifier : <color:blue>Identifier   	  [[[../DDICDILibrary/DataTypes/StructuredDataTypes/Identifier.html#diagram{ <U+2015> Identifier:\nIdentifier for objects requiring short- or long-lasting referencing and management.}]]]
}

DDICDIModels::DDICDILibrary::Classes::Process::Activity <|-[#D2691E]- DDICDIModels::DDICDILibrary::Classes::Process::Step


@enduml

PlantUML version 1.2022.6(Tue Jun 21 19:34:49 CEST 2022)
(GPL source distribution)
Java Runtime: OpenJDK Runtime Environment
JVM: OpenJDK 64-Bit Server VM
Default Encoding: Cp1252
Language: en
Country: US
--></g></svg>