<?xml version="1.0" encoding="UTF-8" standalone="no"?><svg xmlns="http://www.w3.org/2000/svg" xmlns:xlink="http://www.w3.org/1999/xlink" contentStyleType="text/css" height="504px" preserveAspectRatio="none" style="width:559px;height:504px;background:#FFFFFF;" version="1.1" viewBox="0 0 559 504" width="559.8px" zoomAndPan="magnify"><defs/><g><rect height="47.4891" style="stroke:#00000000;stroke-width:0.9;fill:none;" width="416.7" x="65.25" y="4.5"/><text fill="#000000" font-family="sans-serif" font-size="18" font-weight="bold" lengthAdjust="spacing" textLength="407.7" x="69.75" y="27.6855">UML Diagram: DataType AgentInRole in Context</text><text fill="#000000" font-family="sans-serif" font-size="12.6" font-weight="bold" lengthAdjust="spacing" textLength="3.6" x="271.8" y="44.7205"> </text><rect fill="#FFFFFF" height="56.0813" rx="6.75" ry="6.75" style="stroke:#000000;stroke-width:0.9;" width="348.3" x="191.7" y="64.5891"/><text fill="#000000" font-family="sans-serif" font-size="9" font-weight="bold" lengthAdjust="spacing" textLength="22.5" x="197.1" y="79.3318">Hints</text><text fill="#808080" font-family="sans-serif" font-size="9" lengthAdjust="spacing" textLength="265.5" x="197.1" y="90.6521">- Move the mouse cursor over a name to see more information.</text><text fill="#808080" font-family="sans-serif" font-size="9" lengthAdjust="spacing" textLength="216" x="197.1" y="101.9725">- Click on a name to go to the corresponding page.</text><text fill="#808080" font-family="sans-serif" font-size="9" lengthAdjust="spacing" textLength="337.5" x="197.1" y="113.2928">- The use of the data type is represented here by a dotted line (not formal UML).</text><!--MD5=[cf2b466143bd797820c9416be252779d]
entity ##7--><!--MD5=[a598e0069ddc6f15d8d67ebcdc90e466]
entity ##9--><!--MD5=[7375758fd05338b4e0e94a2e5b985c1d]
class DDICDIModels::DDICDILibrary::DataTypes::StructuredDataTypes::AgentInRole--><g id="elem_DDICDIModels::DDICDILibrary::DataTypes::StructuredDataTypes::AgentInRole"><rect codeLine="47" fill="#FFD700" height="88.65" id="DDICDIModels::DDICDILibrary::DataTypes::StructuredDataTypes::AgentInRole" rx="2.25" ry="2.25" style="stroke:#404040;stroke-width:0.45;" width="191.7" x="6.3" y="135.0703"/><text fill="#000000" font-family="sans-serif" font-size="10.8" font-style="italic" lengthAdjust="spacing" textLength="58.5" x="72.9" y="150.7816">«dataType»</text><text fill="#000000" font-family="sans-serif" font-size="9" lengthAdjust="spacing" textLength="2.7" x="100.8" y="162.4975"> </text><text fill="#000000" font-family="sans-serif" font-size="12.6" lengthAdjust="spacing" textLength="69.3" x="67.5" y="177.5549">AgentInRole</text><line style="stroke:#404040;stroke-width:0.45;" x1="7.2" x2="197.1" y1="184.8234" y2="184.8234"/><a href="../DDICDILibrary/DataTypes/StructuredDataTypes/BibliographicName.html#diagram" target="_top" title=" ― BibliographicName:&#10;Personal names should be listed surname or family name first, followed by forename or given name. When in doubt, give the name as it appears, and do not invert. In the case of organizations where there is clearly a hierarchy present, list the parts of the hierarchy from largest to smallest, separate ..." xlink:actuate="onRequest" xlink:href="../DDICDILibrary/DataTypes/StructuredDataTypes/BibliographicName.html#diagram" xlink:show="new" xlink:title=" ― BibliographicName:&#10;Personal names should be listed surname or family name first, followed by forename or given name. When in doubt, give the name as it appears, and do not invert. In the case of organizations where there is clearly a hierarchy present, list the parts of the hierarchy from largest to smallest, separate ..." xlink:type="simple"><text fill="#000000" font-family="sans-serif" font-size="12.6" lengthAdjust="spacing" textLength="72" x="11.7" y="201.5033">agentName :</text><text fill="#0000FF" font-family="sans-serif" font-size="12.6" lengthAdjust="spacing" textLength="105.3" x="87.3" y="201.5033">BibliographicName</text></a><a href="../DDICDILibrary/DataTypes/StructuredDataTypes/Reference.html#diagram" target="_top" title=" ― Reference:&#10;Provides a way of pointing to resources outside of the information described in the set of DDI-CDI metadata." xlink:actuate="onRequest" xlink:href="../DDICDILibrary/DataTypes/StructuredDataTypes/Reference.html#diagram" xlink:show="new" xlink:title=" ― Reference:&#10;Provides a way of pointing to resources outside of the information described in the set of DDI-CDI metadata." xlink:type="simple"><text fill="#000000" font-family="sans-serif" font-size="12.6" lengthAdjust="spacing" textLength="62.1" x="11.7" y="217.3518">reference :</text><text fill="#0000FF" font-family="sans-serif" font-size="12.6" lengthAdjust="spacing" textLength="59.4" x="77.4" y="217.3518">Reference</text></a></g><!--MD5=[99136fb6073ed1cee59bf5a7f593eaf7]
class DDICDIModels::DDICDILibrary::DataTypes::StructuredDataTypes::CatalogDetails--><a href="../DDICDILibrary/DataTypes/StructuredDataTypes/CatalogDetails.html#super-class-hierarchy-generalization" target="_top" title=" ― CatalogDetails:&#10;A set of information useful for attribution, data discovery, and access." xlink:actuate="onRequest" xlink:href="../DDICDILibrary/DataTypes/StructuredDataTypes/CatalogDetails.html#super-class-hierarchy-generalization" xlink:show="new" xlink:title=" ― CatalogDetails:&#10;A set of information useful for attribution, data discovery, and access." xlink:type="simple"><g id="elem_DDICDIModels::DDICDILibrary::DataTypes::StructuredDataTypes::CatalogDetails"><rect codeLine="56" fill="#F1F1F1" height="120.3469" id="DDICDIModels::DDICDILibrary::DataTypes::StructuredDataTypes::CatalogDetails" rx="2.25" ry="2.25" style="stroke:#404040;stroke-width:0.45;" width="152.1" x="26.1" y="256.1203"/><text fill="#000000" font-family="sans-serif" font-size="10.8" font-style="italic" lengthAdjust="spacing" textLength="58.5" x="72.9" y="271.8316">«dataType»</text><text fill="#000000" font-family="sans-serif" font-size="9" lengthAdjust="spacing" textLength="2.7" x="100.8" y="283.5475"> </text><text fill="#0000FF" font-family="sans-serif" font-size="12.6" lengthAdjust="spacing" textLength="82.8" x="60.75" y="298.6049">CatalogDetails</text><line style="stroke:#404040;stroke-width:0.45;" x1="27" x2="177.3" y1="305.8734" y2="305.8734"/><text fill="#000000" font-family="sans-serif" font-size="12.6" lengthAdjust="spacing" textLength="141.3" x="31.5" y="322.5533">contributor : AgentInRole</text><text fill="#000000" font-family="sans-serif" font-size="12.6" lengthAdjust="spacing" textLength="120.6" x="31.5" y="338.4018">creator : AgentInRole</text><text fill="#000000" font-family="sans-serif" font-size="12.6" lengthAdjust="spacing" textLength="132.3" x="31.5" y="354.2502">publisher : AgentInRole</text><a href="../DDICDILibrary/DataTypes/StructuredDataTypes/InternationalString.html#diagram" target="_top" title=" ― InternationalString:&#10;Packaging structure for multiple language versions of the same string content. Where an element of this type is repeatable, the expectation is that each repetition contains different content, each of which can be expressed in multiple languages. The language designation goes on the individual String ..." xlink:actuate="onRequest" xlink:href="../DDICDILibrary/DataTypes/StructuredDataTypes/InternationalString.html#diagram" xlink:show="new" xlink:title=" ― InternationalString:&#10;Packaging structure for multiple language versions of the same string content. Where an element of this type is repeatable, the expectation is that each repetition contains different content, each of which can be expressed in multiple languages. The language designation goes on the individual String ..." xlink:type="simple"><text fill="#000000" font-family="sans-serif" font-size="12.6" lengthAdjust="spacing" textLength="27" x="31.5" y="370.0986">title :</text><text fill="#0000FF" font-family="sans-serif" font-size="12.6" lengthAdjust="spacing" textLength="103.5" x="62.1" y="370.0986">InternationalString</text></a></g></a><!--MD5=[268ef54b9d5e87ca3496414e3c03556c]
class DDICDIModels::DDICDILibrary::DataTypes::StructuredDataTypes::FundingInformation--><a href="../DDICDILibrary/DataTypes/StructuredDataTypes/FundingInformation.html#super-class-hierarchy-generalization" target="_top" title=" ― FundingInformation:&#10;Information regarding the source of funds used to develop or support the resource being described." xlink:actuate="onRequest" xlink:href="../DDICDILibrary/DataTypes/StructuredDataTypes/FundingInformation.html#super-class-hierarchy-generalization" xlink:show="new" xlink:title=" ― FundingInformation:&#10;Information regarding the source of funds used to develop or support the resource being described." xlink:type="simple"><g id="elem_DDICDIModels::DDICDILibrary::DataTypes::StructuredDataTypes::FundingInformation"><rect codeLine="63" fill="#F1F1F1" height="49.7531" id="DDICDIModels::DDICDILibrary::DataTypes::StructuredDataTypes::FundingInformation" rx="2.25" ry="2.25" style="stroke:#404040;stroke-width:0.45;" width="135" x="34.65" y="408.6703"/><text fill="#000000" font-family="sans-serif" font-size="10.8" font-style="italic" lengthAdjust="spacing" textLength="58.5" x="72.9" y="424.3816">«dataType»</text><text fill="#000000" font-family="sans-serif" font-size="9" lengthAdjust="spacing" textLength="2.7" x="100.8" y="436.0975"> </text><text fill="#0000FF" font-family="sans-serif" font-size="12.6" lengthAdjust="spacing" textLength="109.8" x="47.25" y="451.1549">FundingInformation</text></g></a><!--MD5=[d2a98c67dc710a836184c58b979536b7]
class DDICDIModels::DDICDILibrary::DataTypes::StructuredDataTypes::Identifier--><a href="../DDICDILibrary/DataTypes/StructuredDataTypes/Identifier.html#super-class-hierarchy-generalization" target="_top" title=" ― Identifier:&#10;Identifier for objects requiring short- or long-lasting referencing and management." xlink:actuate="onRequest" xlink:href="../DDICDILibrary/DataTypes/StructuredDataTypes/Identifier.html#super-class-hierarchy-generalization" xlink:show="new" xlink:title=" ― Identifier:&#10;Identifier for objects requiring short- or long-lasting referencing and management." xlink:type="simple"><g id="elem_DDICDIModels::DDICDILibrary::DataTypes::StructuredDataTypes::Identifier"><rect codeLine="65" fill="#F1F1F1" height="72.8016" id="DDICDIModels::DDICDILibrary::DataTypes::StructuredDataTypes::Identifier" rx="2.25" ry="2.25" style="stroke:#404040;stroke-width:0.45;" width="301.5" x="252" y="143.1703"/><text fill="#000000" font-family="sans-serif" font-size="10.8" font-style="italic" lengthAdjust="spacing" textLength="58.5" x="373.5" y="158.8816">«dataType»</text><text fill="#000000" font-family="sans-serif" font-size="9" lengthAdjust="spacing" textLength="2.7" x="401.4" y="170.5975"> </text><text fill="#0000FF" font-family="sans-serif" font-size="12.6" lengthAdjust="spacing" textLength="48.6" x="378.45" y="185.6549">Identifier</text><line style="stroke:#404040;stroke-width:0.45;" x1="252.9" x2="552.6" y1="192.9234" y2="192.9234"/><a href="../DDICDILibrary/DataTypes/StructuredDataTypes/InternationalRegistrationDataIdentifier.html#diagram" target="_top" title=" ― InternationalRegistrationDataIdentifier:&#10;Persistent, globally unique object identifier aligned with ISO/IEC 11179-6:2015, Information technology - Metadata registries (MDR) - Part 6: Registration, Annex A, Identifiers based on ISO/IEC 6523, http://standards.iso.org/ittf/PubliclyAvailableStandards/c060342_ISO_IEC_11179-6_2015.zip. The uniqu ..." xlink:actuate="onRequest" xlink:href="../DDICDILibrary/DataTypes/StructuredDataTypes/InternationalRegistrationDataIdentifier.html#diagram" xlink:show="new" xlink:title=" ― InternationalRegistrationDataIdentifier:&#10;Persistent, globally unique object identifier aligned with ISO/IEC 11179-6:2015, Information technology - Metadata registries (MDR) - Part 6: Registration, Annex A, Identifiers based on ISO/IEC 6523, http://standards.iso.org/ittf/PubliclyAvailableStandards/c060342_ISO_IEC_11179-6_2015.zip. The uniqu ..." xlink:type="simple"><text fill="#000000" font-family="sans-serif" font-size="12.6" lengthAdjust="spacing" textLength="72.9" x="257.4" y="209.6033">ddiIdentifier :</text><text fill="#0000FF" font-family="sans-serif" font-size="12.6" lengthAdjust="spacing" textLength="214.2" x="333.9" y="209.6033">InternationalRegistrationDataIdentifier</text></a></g></a><!--MD5=[8f0cce7e7c9c8f9f2d874520d367afb0]
class DDICDIModels::DDICDILibrary::DataTypes::StructuredDataTypes::LicenseInformation--><a href="../DDICDILibrary/DataTypes/StructuredDataTypes/LicenseInformation.html#super-class-hierarchy-generalization" target="_top" title=" ― LicenseInformation:&#10;Information about any relevant license." xlink:actuate="onRequest" xlink:href="../DDICDILibrary/DataTypes/StructuredDataTypes/LicenseInformation.html#super-class-hierarchy-generalization" xlink:show="new" xlink:title=" ― LicenseInformation:&#10;Information about any relevant license." xlink:type="simple"><g id="elem_DDICDIModels::DDICDILibrary::DataTypes::StructuredDataTypes::LicenseInformation"><rect codeLine="69" fill="#F1F1F1" height="49.7531" id="DDICDIModels::DDICDILibrary::DataTypes::StructuredDataTypes::LicenseInformation" rx="2.25" ry="2.25" style="stroke:#404040;stroke-width:0.45;" width="135" x="335.25" y="247.5703"/><text fill="#000000" font-family="sans-serif" font-size="10.8" font-style="italic" lengthAdjust="spacing" textLength="58.5" x="373.5" y="263.2816">«dataType»</text><text fill="#000000" font-family="sans-serif" font-size="9" lengthAdjust="spacing" textLength="2.7" x="401.4" y="274.9975"> </text><text fill="#0000FF" font-family="sans-serif" font-size="12.6" lengthAdjust="spacing" textLength="107.1" x="349.2" y="290.0549">LicenseInformation</text></g></a><rect height="33.9609" style="stroke:#00000000;stroke-width:0.9;fill:none;" width="342.9" x="102.15" y="462.9234"/><text fill="#888888" font-family="sans-serif" font-size="9" lengthAdjust="spacing" textLength="2.7" x="272.25" y="472.2662"> </text><text fill="#888888" font-family="sans-serif" font-size="9" lengthAdjust="spacing" textLength="2.7" x="272.25" y="483.5865"> </text><text fill="#888888" font-family="sans-serif" font-size="9" lengthAdjust="spacing" textLength="342.9" x="102.15" y="494.9068">DDI Cross Domain Integration (DDI-CDI)   1.0 - StructuredDataTypes::AgentInRole</text><!--MD5=[3afcbf41e305d8fe83a75374ebaf2687]
@startuml
left to right direction
' HD display aspect ratio 16:9
' hyperlinkColor and pathHoverColor do not seem to work with class diagrams
' working approach: colors per item
' default font size for class names is 14

hide circle
hide empty members
scale 0.9

skinparam {
  ArrowThickness 1.5
  MinClassWidth 150
}

skinparam legend {
  BackgroundColor white
  FontSize 10
}

skinparam note {
  BackgroundColor white
}

skinparam class {
  ArrowColor #404040
  BorderColor #404040
}

skinparam package {
  FontColor lightgrey
  BorderColor lightgrey
}

title <size:20>UML Diagram: DataType AgentInRole in Context\n
footer \n\nDDI Cross Domain Integration (DDI-CDI)   1.0 - StructuredDataTypes::AgentInRole

legend top right
**Hints**
<color:grey>- Move the mouse cursor over a name to see more information.
<color:grey>- Click on a name to go to the corresponding page.
<color:grey>- The use of the data type is represented here by a dotted line (not formal UML).
endlegend

' Core data type of diagram
class DDICDIModels::DDICDILibrary::DataTypes::StructuredDataTypes::AgentInRole as "<size:10> \n<color:black>AgentInRole" <<dataType>>   #FFD700 {
  agentName : <color:blue>BibliographicName   	  [[[../DDICDILibrary/DataTypes/StructuredDataTypes/BibliographicName.html#diagram{ <U+2015> BibliographicName:\nPersonal names should be listed surname or family name first, followed by forename or given name. When in doubt, give the name as it appears, and do not invert. In the case of organizations where there is clearly a hierarchy present, list the parts of the hierarchy from largest to smallest, separate ...}]]]
  reference : <color:blue>Reference   	  [[[../DDICDILibrary/DataTypes/StructuredDataTypes/Reference.html#diagram{ <U+2015> Reference:\nProvides a way of pointing to resources outside of the information described in the set of DDI-CDI metadata.}]]]
}

' Data type definitions in own package
class DDICDIModels::DDICDILibrary::DataTypes::StructuredDataTypes::CatalogDetails as "<size:10> \n<color:blue>CatalogDetails" <<dataType>> [[../DDICDILibrary/DataTypes/StructuredDataTypes/CatalogDetails.html#super-class-hierarchy-generalization{ <U+2015> CatalogDetails:\nA set of information useful for attribution, data discovery, and access.}]] {
  contributor : AgentInRole
  creator : AgentInRole
  publisher : AgentInRole
  title : <color:blue>InternationalString   	  [[[../DDICDILibrary/DataTypes/StructuredDataTypes/InternationalString.html#diagram{ <U+2015> InternationalString:\nPackaging structure for multiple language versions of the same string content. Where an element of this type is repeatable, the expectation is that each repetition contains different content, each of which can be expressed in multiple languages. The language designation goes on the individual String ...}]]]
}
class DDICDIModels::DDICDILibrary::DataTypes::StructuredDataTypes::FundingInformation as "<size:10> \n<color:blue>FundingInformation" <<dataType>> [[../DDICDILibrary/DataTypes/StructuredDataTypes/FundingInformation.html#super-class-hierarchy-generalization{ <U+2015> FundingInformation:\nInformation regarding the source of funds used to develop or support the resource being described.}]] {
}
class DDICDIModels::DDICDILibrary::DataTypes::StructuredDataTypes::Identifier as "<size:10> \n<color:blue>Identifier" <<dataType>> [[../DDICDILibrary/DataTypes/StructuredDataTypes/Identifier.html#super-class-hierarchy-generalization{ <U+2015> Identifier:\nIdentifier for objects requiring short- or long-lasting referencing and management.}]] {
  ddiIdentifier : <color:blue>InternationalRegistrationDataIdentifier   	  [[[../DDICDILibrary/DataTypes/StructuredDataTypes/InternationalRegistrationDataIdentifier.html#diagram{ <U+2015> InternationalRegistrationDataIdentifier:\nPersistent, globally unique object identifier aligned with ISO/IEC 11179-6:2015, Information technology - Metadata registries (MDR) - Part 6: Registration, Annex A, Identifiers based on ISO/IEC 6523, http://standards.iso.org/ittf/PubliclyAvailableStandards/c060342_ISO_IEC_11179-6_2015.zip. The uniqu ...}]]]
}
class DDICDIModels::DDICDILibrary::DataTypes::StructuredDataTypes::LicenseInformation as "<size:10> \n<color:blue>LicenseInformation" <<dataType>> [[../DDICDILibrary/DataTypes/StructuredDataTypes/LicenseInformation.html#super-class-hierarchy-generalization{ <U+2015> LicenseInformation:\nInformation about any relevant license.}]] {
}

' Data type definitions in other packages

' Use of data type
together {
}


' Abstractions
together {
}
@enduml

@startuml
left to right direction

hide circle
hide empty members
scale 0.9

skinparam {
  ArrowThickness 1.5
  MinClassWidth 150
}

skinparam legend {
  BackgroundColor white
  FontSize 10
}

skinparam note {
  BackgroundColor white
}

skinparam class {
  ArrowColor #404040
  BorderColor #404040
}

skinparam package {
  FontColor lightgrey
  BorderColor lightgrey
}

title <size:20>UML Diagram: DataType AgentInRole in Context\n
footer \n\nDDI Cross Domain Integration (DDI-CDI)   1.0 - StructuredDataTypes::AgentInRole

legend top right
**Hints**
<color:grey>- Move the mouse cursor over a name to see more information.
<color:grey>- Click on a name to go to the corresponding page.
<color:grey>- The use of the data type is represented here by a dotted line (not formal UML).
endlegend

class DDICDIModels::DDICDILibrary::DataTypes::StructuredDataTypes::AgentInRole as "<size:10> \n<color:black>AgentInRole" <<dataType>>   #FFD700 {
  agentName : <color:blue>BibliographicName   	  [[[../DDICDILibrary/DataTypes/StructuredDataTypes/BibliographicName.html#diagram{ <U+2015> BibliographicName:\nPersonal names should be listed surname or family name first, followed by forename or given name. When in doubt, give the name as it appears, and do not invert. In the case of organizations where there is clearly a hierarchy present, list the parts of the hierarchy from largest to smallest, separate ...}]]]
  reference : <color:blue>Reference   	  [[[../DDICDILibrary/DataTypes/StructuredDataTypes/Reference.html#diagram{ <U+2015> Reference:\nProvides a way of pointing to resources outside of the information described in the set of DDI-CDI metadata.}]]]
}

class DDICDIModels::DDICDILibrary::DataTypes::StructuredDataTypes::CatalogDetails as "<size:10> \n<color:blue>CatalogDetails" <<dataType>> [[../DDICDILibrary/DataTypes/StructuredDataTypes/CatalogDetails.html#super-class-hierarchy-generalization{ <U+2015> CatalogDetails:\nA set of information useful for attribution, data discovery, and access.}]] {
  contributor : AgentInRole
  creator : AgentInRole
  publisher : AgentInRole
  title : <color:blue>InternationalString   	  [[[../DDICDILibrary/DataTypes/StructuredDataTypes/InternationalString.html#diagram{ <U+2015> InternationalString:\nPackaging structure for multiple language versions of the same string content. Where an element of this type is repeatable, the expectation is that each repetition contains different content, each of which can be expressed in multiple languages. The language designation goes on the individual String ...}]]]
}
class DDICDIModels::DDICDILibrary::DataTypes::StructuredDataTypes::FundingInformation as "<size:10> \n<color:blue>FundingInformation" <<dataType>> [[../DDICDILibrary/DataTypes/StructuredDataTypes/FundingInformation.html#super-class-hierarchy-generalization{ <U+2015> FundingInformation:\nInformation regarding the source of funds used to develop or support the resource being described.}]] {
}
class DDICDIModels::DDICDILibrary::DataTypes::StructuredDataTypes::Identifier as "<size:10> \n<color:blue>Identifier" <<dataType>> [[../DDICDILibrary/DataTypes/StructuredDataTypes/Identifier.html#super-class-hierarchy-generalization{ <U+2015> Identifier:\nIdentifier for objects requiring short- or long-lasting referencing and management.}]] {
  ddiIdentifier : <color:blue>InternationalRegistrationDataIdentifier   	  [[[../DDICDILibrary/DataTypes/StructuredDataTypes/InternationalRegistrationDataIdentifier.html#diagram{ <U+2015> InternationalRegistrationDataIdentifier:\nPersistent, globally unique object identifier aligned with ISO/IEC 11179-6:2015, Information technology - Metadata registries (MDR) - Part 6: Registration, Annex A, Identifiers based on ISO/IEC 6523, http://standards.iso.org/ittf/PubliclyAvailableStandards/c060342_ISO_IEC_11179-6_2015.zip. The uniqu ...}]]]
}
class DDICDIModels::DDICDILibrary::DataTypes::StructuredDataTypes::LicenseInformation as "<size:10> \n<color:blue>LicenseInformation" <<dataType>> [[../DDICDILibrary/DataTypes/StructuredDataTypes/LicenseInformation.html#super-class-hierarchy-generalization{ <U+2015> LicenseInformation:\nInformation about any relevant license.}]] {
}


together {
}


together {
}
@enduml

PlantUML version 1.2022.6(Tue Jun 21 19:34:49 CEST 2022)
(GPL source distribution)
Java Runtime: OpenJDK Runtime Environment
JVM: OpenJDK 64-Bit Server VM
Default Encoding: Cp1252
Language: en
Country: US
--></g></svg>