<?xml version="1.0" encoding="UTF-8" standalone="no"?><svg xmlns="http://www.w3.org/2000/svg" xmlns:xlink="http://www.w3.org/1999/xlink" contentStyleType="text/css" height="651.6px" preserveAspectRatio="none" style="width:970px;height:651px;background:#FFFFFF;" version="1.1" viewBox="0 0 970 651" width="970.2px" zoomAndPan="magnify"><defs/><g><rect height="47.4891" style="stroke:#00000000;stroke-width:0.9;fill:none;" width="389.7" x="284.175" y="4.5"/><text fill="#000000" font-family="sans-serif" font-size="18" font-weight="bold" lengthAdjust="spacing" textLength="380.7" x="288.675" y="27.6855">UML Diagram: Class LongDataSet in Context</text><text fill="#000000" font-family="sans-serif" font-size="12.6" font-weight="bold" lengthAdjust="spacing" textLength="3.6" x="477.225" y="44.7205"> </text><rect fill="#FFFFFF" height="56.0813" rx="6.75" ry="6.75" style="stroke:#000000;stroke-width:0.9;" width="276.3" x="7.2" y="64.5891"/><text fill="#000000" font-family="sans-serif" font-size="9" font-weight="bold" lengthAdjust="spacing" textLength="22.5" x="12.6" y="79.3318">Hints</text><text fill="#808080" font-family="sans-serif" font-size="9" lengthAdjust="spacing" textLength="265.5" x="12.6" y="90.6521">- Move the mouse cursor over a name to see more information.</text><text fill="#808080" font-family="sans-serif" font-size="9" lengthAdjust="spacing" textLength="216" x="12.6" y="101.9725">- Click on a name to go to the corresponding page.</text><text fill="#808080" font-family="sans-serif" font-size="9" lengthAdjust="spacing" textLength="164.7" x="12.6" y="113.2928">- The arrows of the inheritance tree are</text><text fill="#D2691E" font-family="sans-serif" font-size="9" lengthAdjust="spacing" textLength="32.4" x="180" y="113.2928">colored</text><text fill="#808080" font-family="sans-serif" font-size="9" lengthAdjust="spacing" textLength="2.7" x="212.4" y="113.2928">.</text><!--MD5=[3cdb87c59fa39d2288f5a772d158d124]
class DDICDIModels::DDICDILibrary::Classes::DataDescription::Long::LongKey--><a href="../DDICDILibrary/Classes/DataDescription/Long/LongKey.html#super-class-hierarchy-generalization" target="_top" title=" ― LongKey:&#10;Collection of data instances that uniquely identify a collection of data points in a long dataset." xlink:actuate="onRequest" xlink:href="../DDICDILibrary/Classes/DataDescription/Long/LongKey.html#super-class-hierarchy-generalization" xlink:show="new" xlink:title=" ― LongKey:&#10;Collection of data instances that uniquely identify a collection of data points in a long dataset." xlink:type="simple"><g id="elem_DDICDIModels::DDICDILibrary::Classes::DataDescription::Long::LongKey"><rect codeLine="53" fill="#F1F1F1" height="36.1688" id="DDICDIModels::DDICDILibrary::Classes::DataDescription::Long::LongKey" rx="2.25" ry="2.25" style="stroke:#404040;stroke-width:0.45;" width="135" x="215.55" y="570.3823"/><text fill="#000000" font-family="sans-serif" font-size="9" lengthAdjust="spacing" textLength="27" x="269.55" y="584.2251">Long::</text><text fill="#0000FF" font-family="sans-serif" font-size="12.6" lengthAdjust="spacing" textLength="50.4" x="257.85" y="599.2825">LongKey</text></g></a><!--MD5=[fa26dd5b28bd31e0227766c25574e362]
entity ##6--><!--MD5=[bf459cb3ffa1fa37d7269275a6c869ad]
class DDICDIModels::DDICDILibrary::Classes::DataDescription::Long::LongDataSet--><g id="elem_DDICDIModels::DDICDILibrary::Classes::DataDescription::Long::LongDataSet"><rect codeLine="47" fill="#FFD700" height="36.1688" id="DDICDIModels::DDICDILibrary::Classes::DataDescription::Long::LongDataSet" rx="2.25" ry="2.25" style="stroke:#404040;stroke-width:0.45;" width="135" x="215.55" y="408.3823"/><text fill="#000000" font-family="sans-serif" font-size="9" lengthAdjust="spacing" textLength="27" x="269.55" y="422.2251">Long::</text><text fill="#000000" font-family="sans-serif" font-size="12.6" lengthAdjust="spacing" textLength="74.7" x="245.7" y="437.2825">LongDataSet</text></g><!--MD5=[e7e7182780bccba8828738500ef82a58]
class DDICDIModels::DDICDILibrary::Classes::DataDescription::DataPoint--><a href="../DDICDILibrary/Classes/DataDescription/DataPoint.html#super-class-hierarchy-generalization" target="_top" title=" ― DataPoint:&#10;Container for an instance value." xlink:actuate="onRequest" xlink:href="../DDICDILibrary/Classes/DataDescription/DataPoint.html#super-class-hierarchy-generalization" xlink:show="new" xlink:title=" ― DataPoint:&#10;Container for an instance value." xlink:type="simple"><g id="elem_DDICDIModels::DDICDILibrary::Classes::DataDescription::DataPoint"><rect codeLine="61" fill="#F1F1F1" height="36.1688" id="DDICDIModels::DDICDILibrary::Classes::DataDescription::DataPoint" rx="2.25" ry="2.25" style="stroke:#404040;stroke-width:0.45;" width="135" x="830.25" y="242.7823"/><text fill="#000000" font-family="sans-serif" font-size="9" lengthAdjust="spacing" textLength="72.9" x="861.3" y="256.6251">DataDescription::</text><text fill="#0000FF" font-family="sans-serif" font-size="12.6" lengthAdjust="spacing" textLength="55.8" x="869.85" y="271.6825">DataPoint</text></g></a><!--MD5=[bbf1ea3cf368e545a614fab04683f093]
class DDICDIModels::DDICDILibrary::Classes::DataDescription::DataSet--><a href="../DDICDILibrary/Classes/DataDescription/DataSet.html#super-class-hierarchy-generalization" target="_top" title=" ― DataSet:&#10;Organized collection of data based on keys." xlink:actuate="onRequest" xlink:href="../DDICDILibrary/Classes/DataDescription/DataSet.html#super-class-hierarchy-generalization" xlink:show="new" xlink:title=" ― DataSet:&#10;Organized collection of data based on keys." xlink:type="simple"><g id="elem_DDICDIModels::DDICDILibrary::Classes::DataDescription::DataSet"><rect codeLine="95" fill="#FAFAD2" height="75.0656" id="DDICDIModels::DDICDILibrary::Classes::DataDescription::DataSet" rx="2.25" ry="2.25" style="stroke:#404040;stroke-width:0.45;" width="184.5" x="190.8" y="223.4323"/><text fill="#000000" font-family="sans-serif" font-size="9" lengthAdjust="spacing" textLength="72.9" x="246.6" y="237.2751">DataDescription::</text><text fill="#0000FF" font-family="sans-serif" font-size="12.6" lengthAdjust="spacing" textLength="45.9" x="260.1" y="252.3325">DataSet</text><line style="stroke:#404040;stroke-width:0.45;" x1="191.7" x2="374.4" y1="259.6011" y2="259.6011"/><a href="../DDICDILibrary/DataTypes/StructuredDataTypes/CatalogDetails.html#diagram" target="_top" title=" ― CatalogDetails:&#10;A set of information useful for attribution, data discovery, and access." xlink:actuate="onRequest" xlink:href="../DDICDILibrary/DataTypes/StructuredDataTypes/CatalogDetails.html#diagram" xlink:show="new" xlink:title=" ― CatalogDetails:&#10;A set of information useful for attribution, data discovery, and access." xlink:type="simple"><text fill="#000000" font-family="sans-serif" font-size="12.6" lengthAdjust="spacing" textLength="87.3" x="196.2" y="276.2809">catalogDetails :</text><text fill="#0000FF" font-family="sans-serif" font-size="12.6" lengthAdjust="spacing" textLength="82.8" x="287.1" y="276.2809">CatalogDetails</text></a><a href="../DDICDILibrary/DataTypes/StructuredDataTypes/Identifier.html#diagram" target="_top" title=" ― Identifier:&#10;Identifier for objects requiring short- or long-lasting referencing and management." xlink:actuate="onRequest" xlink:href="../DDICDILibrary/DataTypes/StructuredDataTypes/Identifier.html#diagram" xlink:show="new" xlink:title=" ― Identifier:&#10;Identifier for objects requiring short- or long-lasting referencing and management." xlink:type="simple"><text fill="#000000" font-family="sans-serif" font-size="12.6" lengthAdjust="spacing" textLength="55.8" x="196.2" y="292.1294">identifier :</text><text fill="#0000FF" font-family="sans-serif" font-size="12.6" lengthAdjust="spacing" textLength="48.6" x="255.6" y="292.1294">Identifier</text></a></g></a><!--MD5=[6ad7b2ef38a4f700249d0e2b32d82517]
class DDICDIModels::DDICDILibrary::Classes::DataDescription::DataStructure--><a href="../DDICDILibrary/Classes/DataDescription/DataStructure.html#super-class-hierarchy-generalization" target="_top" title=" ― DataStructure:&#10;Data organization based on reusable data structure components." xlink:actuate="onRequest" xlink:href="../DDICDILibrary/Classes/DataDescription/DataStructure.html#super-class-hierarchy-generalization" xlink:show="new" xlink:title=" ― DataStructure:&#10;Data organization based on reusable data structure components." xlink:type="simple"><g id="elem_DDICDIModels::DDICDILibrary::Classes::DataDescription::DataStructure"><rect codeLine="63" fill="#F1F1F1" height="36.1688" id="DDICDIModels::DDICDILibrary::Classes::DataDescription::DataStructure" rx="2.25" ry="2.25" style="stroke:#404040;stroke-width:0.45;" width="135" x="497.25" y="242.7823"/><text fill="#000000" font-family="sans-serif" font-size="9" lengthAdjust="spacing" textLength="72.9" x="528.3" y="256.6251">DataDescription::</text><text fill="#0000FF" font-family="sans-serif" font-size="12.6" lengthAdjust="spacing" textLength="79.2" x="525.15" y="271.6825">DataStructure</text></g></a><!--MD5=[cdbfe94568ded8ff36c20a0adb40e0eb]
class DDICDIModels::DesignPatterns::DataDescriptionPattern::Key--><a href="../DesignPatterns/DataDescriptionPattern/Key.html#super-class-hierarchy-generalization" target="_top" title=" ― Key:&#10;Collection of data instances that uniquely identify a collection of data points in a dataset." xlink:actuate="onRequest" xlink:href="../DesignPatterns/DataDescriptionPattern/Key.html#super-class-hierarchy-generalization" xlink:show="new" xlink:title=" ― Key:&#10;Collection of data instances that uniquely identify a collection of data points in a dataset." xlink:type="simple"><g id="elem_DDICDIModels::DesignPatterns::DataDescriptionPattern::Key"><rect codeLine="64" fill="#F1F1F1" height="36.1688" id="DDICDIModels::DesignPatterns::DataDescriptionPattern::Key" rx="2.25" ry="2.25" style="stroke:#404040;stroke-width:0.45;" width="135" x="663.75" y="242.7823"/><text fill="#000000" font-family="sans-serif" font-size="9" font-style="italic" lengthAdjust="spacing" textLength="103.5" x="679.5" y="256.6251">DataDescriptionPattern::</text><text fill="#0000FF" font-family="sans-serif" font-size="12.6" font-style="italic" lengthAdjust="spacing" textLength="21.6" x="720.45" y="271.6825">Key</text></g></a><g id="elem_GMN13"><path d="M5.4,241.4323 L5.4,279.8651 A0,0 0 0 0 5.4,279.8651 L159.3,279.8651 A0,0 0 0 0 159.3,279.8651 L159.3,264.3823 L190.683,260.7823 L159.3,257.1823 L159.3,250.4323 L150.3,241.4323 L5.4,241.4323 A0,0 0 0 0 5.4,241.4323 " fill="#FFFFFF" style="stroke:#181818;stroke-width:0.45;"/><path d="M150.3,241.4323 L150.3,250.4323 L159.3,250.4323 L150.3,241.4323 " fill="#FFFFFF" style="stroke:#181818;stroke-width:0.45;"/><text fill="#000000" font-family="sans-serif" font-size="11.7" lengthAdjust="spacing" textLength="135" x="10.8" y="258.0779">Class has 4 associations.</text><text fill="#000000" font-family="sans-serif" font-size="11.7" lengthAdjust="spacing" textLength="120.6" x="10.8" y="272.7943">Only 3 are shown here.</text></g><!--MD5=[0950864fc37947e7452980f82b14ef66]
link DDICDIModels::DDICDILibrary::Classes::DataDescription::Long::LongDataSet to DDICDIModels::DDICDILibrary::Classes::DataDescription::Long::LongKey--><g id="link_DDICDIModels::DDICDILibrary::Classes::DataDescription::Long::LongDataSet_DDICDIModels::DDICDILibrary::Classes::DataDescription::Long::LongKey"><a href="" target="_top" title=" ― has:&#10;" xlink:actuate="onRequest" xlink:href="" xlink:show="new" xlink:title=" ― has:&#10;" xlink:type="simple"><path codeLine="69" d="M283.05,455.2273 C283.05,455.2273 283.05,529.6033 283.05,558.4933 " fill="none" id="DDICDIModels::DDICDILibrary::Classes::DataDescription::Long::LongDataSet-DDICDIModels::DDICDILibrary::Classes::DataDescription::Long::LongKey" style="stroke:#808080;stroke-width:1.35;"/><polygon fill="#808080" points="283.05,570.2203,286.65,562.1203,283.05,565.7203,279.45,562.1203,283.05,570.2203" style="stroke:#808080;stroke-width:1.35;"/><line style="stroke:#808080;stroke-width:1.35;" x1="283.05" x2="283.05" y1="565.7203" y2="558.5203"/><polygon fill="#808080" points="283.05,444.4273,279.45,449.8273,283.05,455.2273,286.65,449.8273,283.05,444.4273" style="stroke:#808080;stroke-width:1.35;"/><text fill="#000000" font-family="sans-serif" font-size="11.7" lengthAdjust="spacing" textLength="18.9" x="283.95" y="510.5279">has</text></a></g><!--MD5=[ad5724f5236fc7e5ac18b34e41836b13]
link DDICDIModels::DDICDILibrary::Classes::DataDescription::DataSet to DDICDIModels::DDICDILibrary::Classes::DataDescription::DataPoint--><g id="link_DDICDIModels::DDICDILibrary::Classes::DataDescription::DataSet_DDICDIModels::DDICDILibrary::Classes::DataDescription::DataPoint"><a href="" target="_top" title=" ― has:&#10;" xlink:actuate="onRequest" xlink:href="" xlink:show="new" xlink:title=" ― has:&#10;" xlink:type="simple"><path codeLine="83" d="M364.1661,218.8053 C364.1661,218.8053 584.136,134.1703 700.65,161.7823 C760.887,176.0653 823.653,211.7953 861.732,236.1853 " fill="none" id="DDICDIModels::DDICDILibrary::Classes::DataDescription::DataSet-DDICDIModels::DDICDILibrary::Classes::DataDescription::DataPoint" style="stroke:#808080;stroke-width:1.35;"/><polygon fill="#808080" points="871.56,242.5843,866.7309,235.1513,867.7871,240.1317,862.8067,241.1879,871.56,242.5843" style="stroke:#808080;stroke-width:1.35;"/><line style="stroke:#808080;stroke-width:1.35;" x1="867.7871" x2="861.75" y1="240.1317" y2="236.1988"/><polygon fill="#808080" points="354.357,223.3243,360.7679,224.3345,364.1661,218.8053,357.7552,217.7951,354.357,223.3243" style="stroke:#808080;stroke-width:1.35;"/><text fill="#000000" font-family="sans-serif" font-size="11.7" lengthAdjust="spacing" textLength="30.6" x="669.15" y="156.8279"> has</text></a></g><!--MD5=[29feb66fee0438bedeef579823786061]
link DDICDIModels::DDICDILibrary::Classes::DataDescription::DataSet to DDICDIModels::DesignPatterns::DataDescriptionPattern::Key--><g id="link_DDICDIModels::DDICDILibrary::Classes::DataDescription::DataSet_DDICDIModels::DesignPatterns::DataDescriptionPattern::Key"><a href="" target="_top" title=" ― has:&#10;" xlink:actuate="onRequest" xlink:href="" xlink:show="new" xlink:title=" ― has:&#10;" xlink:type="simple"><path codeLine="88" d="M338.9691,217.3008 C338.9691,217.3008 465.597,145.2583 535.05,161.7823 C594.927,176.0383 657.261,211.6423 695.169,236.0323 " fill="none" id="DDICDIModels::DDICDILibrary::Classes::DataDescription::DataSet-DDICDIModels::DesignPatterns::DataDescriptionPattern::Key" style="stroke:#808080;stroke-width:1.35;"/><polygon fill="#808080" points="705.195,242.5843,700.3885,235.1366,701.4296,240.1202,696.446,241.1613,705.195,242.5843" style="stroke:#808080;stroke-width:1.35;"/><line style="stroke:#808080;stroke-width:1.35;" x1="701.4296" x2="695.403" y1="240.1202" y2="236.1808"/><polygon fill="#808080" points="330.066,223.4143,336.5554,223.3253,338.9691,217.3008,332.4797,217.3899,330.066,223.4143" style="stroke:#808080;stroke-width:1.35;"/><text fill="#000000" font-family="sans-serif" font-size="11.7" lengthAdjust="spacing" textLength="30.6" x="503.55" y="156.8279"> has</text></a></g><!--MD5=[65a1dca3eb1335f225eebcc43eb1e5d0]
link DDICDIModels::DDICDILibrary::Classes::DataDescription::DataSet to DDICDIModels::DDICDILibrary::Classes::DataDescription::DataStructure--><g id="link_DDICDIModels::DDICDILibrary::Classes::DataDescription::DataSet_DDICDIModels::DDICDILibrary::Classes::DataDescription::DataStructure"><a href="" target="_top" title=" ― isStructuredBy:&#10;" xlink:actuate="onRequest" xlink:href="" xlink:show="new" xlink:title=" ― isStructuredBy:&#10;" xlink:type="simple"><path codeLine="93" d="M375.678,260.7823 C413.586,260.7823 456.795,260.7823 492.327,260.7823 " fill="none" id="DDICDIModels::DDICDILibrary::Classes::DataDescription::DataSet-to-DDICDIModels::DDICDILibrary::Classes::DataDescription::DataStructure" style="stroke:#808080;stroke-width:1.35;"/><polygon fill="#808080" points="497.061,260.7823,488.961,257.1823,492.561,260.7823,488.961,264.3823,497.061,260.7823" style="stroke:#808080;stroke-width:1.35;"/><text fill="#000000" font-family="sans-serif" font-size="11.7" lengthAdjust="spacing" textLength="89.1" x="391.725" y="254.9279"> isStructuredBy</text></a></g><!--MD5=[acb10a1b763a3c3fb43186d93dea9ec0]
reverse link DDICDIModels::DDICDILibrary::Classes::DataDescription::DataSet to DDICDIModels::DDICDILibrary::Classes::DataDescription::Long::LongDataSet--><g id="link_DDICDIModels::DDICDILibrary::Classes::DataDescription::DataSet_DDICDIModels::DDICDILibrary::Classes::DataDescription::Long::LongDataSet"><path codeLine="102" d="M283.05,316.8613 C283.05,348.8113 283.05,386.8543 283.05,408.3823 " fill="none" id="DDICDIModels::DDICDILibrary::Classes::DataDescription::DataSet-backto-DDICDIModels::DDICDILibrary::Classes::DataDescription::Long::LongDataSet" style="stroke:#D2691E;stroke-width:1.35;"/><polygon fill="none" points="276.75,316.4473,283.05,298.4473,289.35,316.4473,276.75,316.4473" style="stroke:#D2691E;stroke-width:1.35;"/></g><rect height="33.9609" style="stroke:#00000000;stroke-width:0.9;fill:none;" width="278.1" x="339.975" y="611.0511"/><text fill="#888888" font-family="sans-serif" font-size="9" lengthAdjust="spacing" textLength="2.7" x="477.675" y="620.3938"> </text><text fill="#888888" font-family="sans-serif" font-size="9" lengthAdjust="spacing" textLength="2.7" x="477.675" y="631.7141"> </text><text fill="#888888" font-family="sans-serif" font-size="9" lengthAdjust="spacing" textLength="278.1" x="339.975" y="643.0345">DDI Cross Domain Integration (DDI-CDI)   1.0 - Long::LongDataSet</text><!--MD5=[5cdb5bfdbc7c1ee870130c12b20eff53]
@startuml
!pragma ratio 0.5625
' HD display aspect ratio 16:9
' hyperlinkColor and pathHoverColor do not seem to work with class diagrams
' working approach: colors per item
' default font size for class names is 14

hide circle
hide empty members
scale 0.9

skinparam {
  ArrowThickness 1.5
  MinClassWidth 150
}

skinparam legend {
  BackgroundColor white
  FontSize 10
}

skinparam note {
  BackgroundColor white
}

skinparam class {
  ArrowColor #404040
  BorderColor #404040
}

skinparam package {
  FontColor lightgrey
  BorderColor lightgrey
}

title <size:20>UML Diagram: Class LongDataSet in Context\n
footer \n\nDDI Cross Domain Integration (DDI-CDI)   1.0 - Long::LongDataSet

legend top left
**Hints**
<color:grey>- Move the mouse cursor over a name to see more information.
<color:grey>- Click on a name to go to the corresponding page.
<color:grey>- The arrows of the inheritance tree are <color:#D2691E>colored<color:grey>.
endlegend

' Core class of diagram
class DDICDIModels::DDICDILibrary::Classes::DataDescription::Long::LongDataSet as "<size:10>Long::\n<color:black>LongDataSet" #FFD700 {
}

' Class definitions for associated classes without superclass (might have also an association)
' This would be too many constraints for Graphviz. 
together {
  class DDICDIModels::DDICDILibrary::Classes::DataDescription::Long::LongKey as "<size:10>Long::\n<color:blue>LongKey" [[../DDICDILibrary/Classes/DataDescription/Long/LongKey.html#super-class-hierarchy-generalization{ <U+2015> LongKey:\nCollection of data instances that uniquely identify a collection of data points in a long dataset.}]]
}

' Class definitions for suppliers of abstractions
together {
}

' Rest of class definitions, without associated classes of core class and abstraction supplier classes
class DDICDIModels::DDICDILibrary::Classes::DataDescription::DataPoint as "<size:10>DataDescription::\n<color:blue>DataPoint" [[../DDICDILibrary/Classes/DataDescription/DataPoint.html#super-class-hierarchy-generalization{ <U+2015> DataPoint:\nContainer for an instance value.}]]
class DDICDIModels::DDICDILibrary::Classes::DataDescription::DataSet as "<size:10>DataDescription::\n<color:blue>DataSet" [[../DDICDILibrary/Classes/DataDescription/DataSet.html#super-class-hierarchy-generalization{ <U+2015> DataSet:\nOrganized collection of data based on keys.}]]
class DDICDIModels::DDICDILibrary::Classes::DataDescription::DataStructure as "<size:10>DataDescription::\n<color:blue>DataStructure" [[../DDICDILibrary/Classes/DataDescription/DataStructure.html#super-class-hierarchy-generalization{ <U+2015> DataStructure:\nData organization based on reusable data structure components.}]]
abstract class DDICDIModels::DesignPatterns::DataDescriptionPattern::Key as "<size:10>DataDescriptionPattern::\n<color:blue>Key" [[../DesignPatterns/DataDescriptionPattern/Key.html#super-class-hierarchy-generalization{ <U+2015> Key:\nCollection of data instances that uniquely identify a collection of data points in a dataset.}]]



' Associations
DDICDIModels::DDICDILibrary::Classes::DataDescription::Long::LongDataSet *-[#grey]-> DDICDIModels::DDICDILibrary::Classes::DataDescription::Long::LongKey [[{ <U+2015> has:\n}]] : has

' Super classes
' Associations of Super classes
note left of DDICDIModels::DDICDILibrary::Classes::DataDescription::DataSet : Class has 4 associations.\nOnly 3 are shown here.
' firstAncestor:	org.eclipse.uml2.uml.internal.impl.ClassImpl@4038cd3a (name: DataSet, visibility: <unset>) (isLeaf: false, isAbstract: false, isFinalSpecialization: false) (isActive: false)
' secondAncestor:	org.eclipse.uml2.uml.internal.impl.ClassImpl@4038cd3a (name: DataSet, visibility: <unset>) (isLeaf: false, isAbstract: false, isFinalSpecialization: false) (isActive: false)



' aClass:			LongDataSet
' aSuperClass:		DataSet
' e_ownedEndClass:	DataSet
' e_otherEndClass:	DataPoint
DDICDIModels::DDICDILibrary::Classes::DataDescription::DataSet *-[#grey]> DDICDIModels::DDICDILibrary::Classes::DataDescription::DataPoint [[{ <U+2015> has:\n}]] : <U+2003>has
' aClass:			LongDataSet
' aSuperClass:		DataSet
' e_ownedEndClass:	DataSet
' e_otherEndClass:	Key
DDICDIModels::DDICDILibrary::Classes::DataDescription::DataSet *-[#grey]> DDICDIModels::DesignPatterns::DataDescriptionPattern::Key [[{ <U+2015> has:\n}]] : <U+2003>has
' aClass:			LongDataSet
' aSuperClass:		DataSet
' e_ownedEndClass:	DataSet
' e_otherEndClass:	DataStructure
DDICDIModels::DDICDILibrary::Classes::DataDescription::DataSet -[#grey]> DDICDIModels::DDICDILibrary::Classes::DataDescription::DataStructure [[{ <U+2015> isStructuredBy:\n}]] : <U+2003>isStructuredBy

class DDICDIModels::DDICDILibrary::Classes::DataDescription::DataSet as "<size:10> \n<color:blue>DataSet" [[../DDICDILibrary/Classes/DataDescription/DataSet.html#super-class-hierarchy-generalization{ <U+2015> DataSet:\nOrganized collection of data based on keys.}]] #FAFAD2 {
  catalogDetails : <color:blue>CatalogDetails   	  [[[../DDICDILibrary/DataTypes/StructuredDataTypes/CatalogDetails.html#diagram{ <U+2015> CatalogDetails:\nA set of information useful for attribution, data discovery, and access.}]]]
  identifier : <color:blue>Identifier   	  [[[../DDICDILibrary/DataTypes/StructuredDataTypes/Identifier.html#diagram{ <U+2015> Identifier:\nIdentifier for objects requiring short- or long-lasting referencing and management.}]]]
}

DDICDIModels::DDICDILibrary::Classes::DataDescription::DataSet <|-[#D2691E]- DDICDIModels::DDICDILibrary::Classes::DataDescription::Long::LongDataSet


' Abstractions
@enduml

@startuml
!pragma ratio 0.5625

hide circle
hide empty members
scale 0.9

skinparam {
  ArrowThickness 1.5
  MinClassWidth 150
}

skinparam legend {
  BackgroundColor white
  FontSize 10
}

skinparam note {
  BackgroundColor white
}

skinparam class {
  ArrowColor #404040
  BorderColor #404040
}

skinparam package {
  FontColor lightgrey
  BorderColor lightgrey
}

title <size:20>UML Diagram: Class LongDataSet in Context\n
footer \n\nDDI Cross Domain Integration (DDI-CDI)   1.0 - Long::LongDataSet

legend top left
**Hints**
<color:grey>- Move the mouse cursor over a name to see more information.
<color:grey>- Click on a name to go to the corresponding page.
<color:grey>- The arrows of the inheritance tree are <color:#D2691E>colored<color:grey>.
endlegend

class DDICDIModels::DDICDILibrary::Classes::DataDescription::Long::LongDataSet as "<size:10>Long::\n<color:black>LongDataSet" #FFD700 {
}

together {
  class DDICDIModels::DDICDILibrary::Classes::DataDescription::Long::LongKey as "<size:10>Long::\n<color:blue>LongKey" [[../DDICDILibrary/Classes/DataDescription/Long/LongKey.html#super-class-hierarchy-generalization{ <U+2015> LongKey:\nCollection of data instances that uniquely identify a collection of data points in a long dataset.}]]
}

together {
}

class DDICDIModels::DDICDILibrary::Classes::DataDescription::DataPoint as "<size:10>DataDescription::\n<color:blue>DataPoint" [[../DDICDILibrary/Classes/DataDescription/DataPoint.html#super-class-hierarchy-generalization{ <U+2015> DataPoint:\nContainer for an instance value.}]]
class DDICDIModels::DDICDILibrary::Classes::DataDescription::DataSet as "<size:10>DataDescription::\n<color:blue>DataSet" [[../DDICDILibrary/Classes/DataDescription/DataSet.html#super-class-hierarchy-generalization{ <U+2015> DataSet:\nOrganized collection of data based on keys.}]]
class DDICDIModels::DDICDILibrary::Classes::DataDescription::DataStructure as "<size:10>DataDescription::\n<color:blue>DataStructure" [[../DDICDILibrary/Classes/DataDescription/DataStructure.html#super-class-hierarchy-generalization{ <U+2015> DataStructure:\nData organization based on reusable data structure components.}]]
abstract class DDICDIModels::DesignPatterns::DataDescriptionPattern::Key as "<size:10>DataDescriptionPattern::\n<color:blue>Key" [[../DesignPatterns/DataDescriptionPattern/Key.html#super-class-hierarchy-generalization{ <U+2015> Key:\nCollection of data instances that uniquely identify a collection of data points in a dataset.}]]



DDICDIModels::DDICDILibrary::Classes::DataDescription::Long::LongDataSet *-[#grey]-> DDICDIModels::DDICDILibrary::Classes::DataDescription::Long::LongKey [[{ <U+2015> has:\n}]] : has

note left of DDICDIModels::DDICDILibrary::Classes::DataDescription::DataSet : Class has 4 associations.\nOnly 3 are shown here.



DDICDIModels::DDICDILibrary::Classes::DataDescription::DataSet *-[#grey]> DDICDIModels::DDICDILibrary::Classes::DataDescription::DataPoint [[{ <U+2015> has:\n}]] : <U+2003>has
DDICDIModels::DDICDILibrary::Classes::DataDescription::DataSet *-[#grey]> DDICDIModels::DesignPatterns::DataDescriptionPattern::Key [[{ <U+2015> has:\n}]] : <U+2003>has
DDICDIModels::DDICDILibrary::Classes::DataDescription::DataSet -[#grey]> DDICDIModels::DDICDILibrary::Classes::DataDescription::DataStructure [[{ <U+2015> isStructuredBy:\n}]] : <U+2003>isStructuredBy

class DDICDIModels::DDICDILibrary::Classes::DataDescription::DataSet as "<size:10> \n<color:blue>DataSet" [[../DDICDILibrary/Classes/DataDescription/DataSet.html#super-class-hierarchy-generalization{ <U+2015> DataSet:\nOrganized collection of data based on keys.}]] #FAFAD2 {
  catalogDetails : <color:blue>CatalogDetails   	  [[[../DDICDILibrary/DataTypes/StructuredDataTypes/CatalogDetails.html#diagram{ <U+2015> CatalogDetails:\nA set of information useful for attribution, data discovery, and access.}]]]
  identifier : <color:blue>Identifier   	  [[[../DDICDILibrary/DataTypes/StructuredDataTypes/Identifier.html#diagram{ <U+2015> Identifier:\nIdentifier for objects requiring short- or long-lasting referencing and management.}]]]
}

DDICDIModels::DDICDILibrary::Classes::DataDescription::DataSet <|-[#D2691E]- DDICDIModels::DDICDILibrary::Classes::DataDescription::Long::LongDataSet


@enduml

PlantUML version 1.2022.6(Tue Jun 21 19:34:49 CEST 2022)
(GPL source distribution)
Java Runtime: OpenJDK Runtime Environment
JVM: OpenJDK 64-Bit Server VM
Default Encoding: Cp1252
Language: en
Country: US
--></g></svg>